<?xml version='1.0' standalone='yes'?>
<kml xmlns='http://earth.google.com/kml/2.2'>
    <Document>
        <name></name>
        <Placemark>
            <styleUrl>#line-1267FF-5</styleUrl>
            <name>Giro 2017 stage 6</name>
            <ExtendedData></ExtendedData>
            <LineString>
                <tessellate>1</tessellate>
                <coordinates>15.65781,38.1355,0.0 15.65782,38.13553,0.0 15.65784,38.13564,0.0 15.65783,38.13716,0.0 15.65786,38.13751,0.0 15.65786,38.13807,0.0 15.65785,38.13812,0.0 15.65784,38.13872,0.0 15.65786,38.13903,0.0 15.65798,38.13965,0.0 15.65803,38.14001,0.0 15.65822,38.141,0.0 15.65834,38.14137,0.0 15.65862,38.14204,0.0 15.6587,38.14227,0.0 15.65889,38.14272,0.0 15.65897,38.14287,0.0 15.65909,38.14322,0.0 15.6591,38.14331,0.0 15.65912,38.14422,0.0 15.65915,38.14435,0.0 15.65955,38.14553,0.0 15.65957,38.1457,0.0 15.65956,38.14586,0.0 15.65959,38.14593,0.0 15.6597,38.14625,0.0 15.66015,38.14724,0.0 15.6602,38.1474,0.0 15.66025,38.14773,0.0 15.66027,38.14798,0.0 15.66035,38.14839,0.0 15.66056,38.1491,0.0 15.66104,38.15096,0.0 15.66107,38.15115,0.0 15.66117,38.15157,0.0 15.66123,38.15191,0.0 15.66124,38.15216,0.0 15.66105,38.15238,0.0 15.66067,38.15275,0.0 15.65941,38.1539,0.0 15.65931,38.15401,0.0 15.65781,38.15535,0.0 15.65762,38.15558,0.0 15.65755,38.15568,0.0 15.65745,38.15587,0.0 15.65593,38.15936,0.0 15.65573,38.15986,0.0 15.65555,38.16057,0.0 15.65533,38.16132,0.0 15.65483,38.16287,0.0 15.65432,38.16398,0.0 15.65407,38.16457,0.0 15.65351,38.16606,0.0 15.65346,38.16624,0.0 15.65339,38.16641,0.0 15.65313,38.16718,0.0 15.653,38.16764,0.0 15.65286,38.16802,0.0 15.65266,38.1685,0.0 15.65264,38.16851,0.0 15.65261,38.16854,0.0 15.65259,38.16855,0.0 15.65253,38.1686,0.0 15.65246,38.16867,0.0 15.65216,38.16904,0.0 15.65195,38.16933,0.0 15.65166,38.16987,0.0 15.65163,38.17007,0.0 15.65163,38.17018,0.0 15.65165,38.17027,0.0 15.65172,38.17044,0.0 15.65178,38.17046,0.0 15.6518,38.17047,0.0 15.65182,38.17049,0.0 15.65184,38.1705,0.0 15.65186,38.17052,0.0 15.65188,38.17053,0.0 15.6519,38.17055,0.0 15.65192,38.17058,0.0 15.65196,38.17066,0.0 15.65196,38.1707,0.0 15.65197,38.17074,0.0 15.65195,38.17081,0.0 15.65193,38.17085,0.0 15.65185,38.17094,0.0 15.65181,38.17097,0.0 15.65172,38.17101,0.0 15.65167,38.17102,0.0 15.65162,38.17102,0.0 15.65157,38.17103,0.0 15.65151,38.17102,0.0 15.65129,38.17115,0.0 15.65124,38.17117,0.0 15.65122,38.17119,0.0 15.6512,38.1712,0.0 15.65113,38.17127,0.0 15.65102,38.1714,0.0 15.65104,38.17162,0.0 15.65111,38.17195,0.0 15.65118,38.17221,0.0 15.6512,38.17237,0.0 15.6512,38.17241,0.0 15.65118,38.1725,0.0 15.65116,38.17256,0.0 15.65113,38.17262,0.0 15.65103,38.17278,0.0 15.65078,38.17313,0.0 15.6507,38.17322,0.0 15.65014,38.17395,0.0 15.6501,38.17402,0.0 15.65001,38.17414,0.0 15.64993,38.17429,0.0 15.64977,38.17488,0.0 15.64974,38.17514,0.0 15.64973,38.17538,0.0 15.64972,38.17544,0.0 15.64965,38.17571,0.0 15.64963,38.17583,0.0 15.64959,38.17597,0.0 15.64955,38.1762,0.0 15.64949,38.17641,0.0 15.64946,38.17649,0.0 15.64942,38.17657,0.0 15.6493,38.17673,0.0 15.64916,38.17699,0.0 15.649,38.17737,0.0 15.64888,38.17761,0.0 15.64875,38.17797,0.0 15.6487,38.17816,0.0 15.64842,38.17895,0.0 15.6483,38.17921,0.0 15.64807,38.17981,0.0 15.64803,38.17994,0.0 15.64752,38.18097,0.0 15.64694,38.18205,0.0 15.64681,38.18225,0.0 15.64661,38.1825,0.0 15.64597,38.18308,0.0 15.64567,38.18339,0.0 15.6456,38.1835,0.0 15.64557,38.18353,0.0 15.64528,38.18407,0.0 15.64473,38.18521,0.0 15.64459,38.18546,0.0 15.6438,38.18704,0.0 15.64362,38.18744,0.0 15.64251,38.18961,0.0 15.64246,38.18975,0.0 15.64204,38.19065,0.0 15.64196,38.19078,0.0 15.64188,38.19088,0.0 15.6418,38.19095,0.0 15.64081,38.19162,0.0 15.64075,38.19165,0.0 15.64068,38.19167,0.0 15.64063,38.19169,0.0 15.64038,38.19172,0.0 15.63872,38.19175,0.0 15.63852,38.19178,0.0 15.63832,38.19185,0.0 15.63747,38.19222,0.0 15.63739,38.19227,0.0 15.63719,38.19243,0.0 15.63693,38.19267,0.0 15.63645,38.19319,0.0 15.63633,38.19336,0.0 15.63629,38.19343,0.0 15.63589,38.19434,0.0 15.63582,38.19457,0.0 15.63578,38.19507,0.0 15.63577,38.19582,0.0 15.63578,38.19589,0.0 15.63586,38.19614,0.0 15.63588,38.19618,0.0 15.63589,38.19623,0.0 15.63589,38.19626,0.0 15.6359,38.19631,0.0 15.63589,38.1964,0.0 15.63589,38.19648,0.0 15.63574,38.19733,0.0 15.6357,38.19957,0.0 15.63568,38.19985,0.0 15.63566,38.19993,0.0 15.63565,38.20001,0.0 15.63563,38.20009,0.0 15.63563,38.20014,0.0 15.63562,38.20019,0.0 15.63563,38.20099,0.0 15.63557,38.20185,0.0 15.63557,38.20204,0.0 15.63563,38.20271,0.0 15.63573,38.2033,0.0 15.63578,38.20373,0.0 15.63579,38.20512,0.0 15.63583,38.2059,0.0 15.63588,38.20649,0.0 15.63593,38.20671,0.0 15.63599,38.20712,0.0 15.63598,38.2074,0.0 15.63596,38.20745,0.0 15.63594,38.20753,0.0 15.63578,38.20783,0.0 15.63575,38.20794,0.0 15.63575,38.208,0.0 15.63587,38.20886,0.0 15.63587,38.2089,0.0 15.63597,38.20926,0.0 15.6364,38.21047,0.0 15.63659,38.21088,0.0 15.63699,38.21199,0.0 15.63718,38.21231,0.0 15.63728,38.21243,0.0 15.6374,38.2126,0.0 15.63745,38.21269,0.0 15.63754,38.21289,0.0 15.63809,38.21469,0.0 15.63823,38.21522,0.0 15.63831,38.21639,0.0 15.63823,38.21751,0.0 15.638,38.21912,0.0 15.63795,38.21964,0.0 15.63821,38.22192,0.0 15.6383,38.22245,0.0 15.63837,38.22267,0.0 15.63849,38.22384,0.0 15.63848,38.22405,0.0 15.63844,38.22422,0.0 15.63821,38.22477,0.0 15.63818,38.22487,0.0 15.63818,38.22497,0.0 15.63821,38.22522,0.0 15.63833,38.2255,0.0 15.63848,38.22573,0.0 15.63882,38.22609,0.0 15.63907,38.22638,0.0 15.63929,38.2266,0.0 15.64097,38.2284,0.0 15.64126,38.22874,0.0 15.64164,38.22914,0.0 15.64189,38.22946,0.0 15.64204,38.22973,0.0 15.64206,38.22979,0.0 15.64214,38.23029,0.0 15.64227,38.23041,0.0 15.64237,38.23053,0.0 15.64322,38.23142,0.0 15.64332,38.2315,0.0 15.64501,38.23243,0.0 15.64511,38.23247,0.0 15.64523,38.2325,0.0 15.64599,38.23262,0.0 15.64604,38.23261,0.0 15.64609,38.23261,0.0 15.64622,38.23259,0.0 15.64657,38.23257,0.0 15.64708,38.23257,0.0 15.64803,38.23254,0.0 15.64827,38.23256,0.0 15.649,38.23266,0.0 15.64939,38.23277,0.0 15.65009,38.23304,0.0 15.65029,38.2331,0.0 15.65039,38.23314,0.0 15.65051,38.23317,0.0 15.65062,38.23318,0.0 15.65078,38.23318,0.0 15.65145,38.23301,0.0 15.65169,38.23296,0.0 15.6519,38.23294,0.0 15.65245,38.23296,0.0 15.65292,38.233,0.0 15.65298,38.233,0.0 15.65346,38.23288,0.0 15.654,38.23268,0.0 15.6542,38.23262,0.0 15.65442,38.23262,0.0 15.6547,38.23266,0.0 15.65592,38.23263,0.0 15.65679,38.23269,0.0 15.65758,38.23272,0.0 15.65802,38.23278,0.0 15.65848,38.2329,0.0 15.65849,38.2329,0.0 15.65895,38.23305,0.0 15.65991,38.23342,0.0 15.65997,38.23345,0.0 15.66041,38.23361,0.0 15.66116,38.23394,0.0 15.6616,38.23416,0.0 15.66187,38.23432,0.0 15.66214,38.2345,0.0 15.66303,38.23504,0.0 15.6633,38.23542,0.0 15.66352,38.23577,0.0 15.66358,38.23585,0.0 15.66358,38.23586,0.0 15.66364,38.23596,0.0 15.66389,38.23628,0.0 15.66398,38.23637,0.0 15.66414,38.2365,0.0 15.66429,38.23659,0.0 15.66453,38.23668,0.0 15.66455,38.23668,0.0 15.66556,38.23699,0.0 15.66664,38.23728,0.0 15.66673,38.23729,0.0 15.66686,38.23729,0.0 15.66692,38.23728,0.0 15.66698,38.23728,0.0 15.66704,38.23726,0.0 15.66724,38.23726,0.0 15.66751,38.23732,0.0 15.66832,38.2376,0.0 15.66843,38.23762,0.0 15.66896,38.23775,0.0 15.6695,38.23785,0.0 15.67003,38.23798,0.0 15.67032,38.23811,0.0 15.6705,38.23821,0.0 15.67074,38.23831,0.0 15.67192,38.23868,0.0 15.67219,38.23879,0.0 15.67267,38.23896,0.0 15.67282,38.23908,0.0 15.67294,38.23923,0.0 15.67302,38.23939,0.0 15.67308,38.23948,0.0 15.67392,38.24025,0.0 15.67426,38.24052,0.0 15.67428,38.24053,0.0 15.67442,38.24064,0.0 15.67466,38.24086,0.0 15.67507,38.2414,0.0 15.6755,38.24185,0.0 15.67553,38.24189,0.0 15.67557,38.24196,0.0 15.67559,38.24202,0.0 15.67559,38.2421,0.0 15.67558,38.24217,0.0 15.67554,38.24225,0.0 15.67542,38.24241,0.0 15.67539,38.24246,0.0 15.67537,38.24252,0.0 15.67536,38.24258,0.0 15.67538,38.2427,0.0 15.67542,38.24309,0.0 15.67548,38.24335,0.0 15.67554,38.24355,0.0 15.6756,38.24364,0.0 15.67565,38.2437,0.0 15.67606,38.2441,0.0 15.67619,38.2442,0.0 15.67635,38.24436,0.0 15.6764,38.2444,0.0 15.67645,38.24443,0.0 15.67661,38.24449,0.0 15.67711,38.24459,0.0 15.67738,38.24466,0.0 15.67754,38.24469,0.0 15.67784,38.24472,0.0 15.67792,38.24474,0.0 15.67799,38.24478,0.0 15.67806,38.24484,0.0 15.6782,38.24503,0.0 15.6785,38.24534,0.0 15.67862,38.24552,0.0 15.67867,38.24561,0.0 15.67869,38.2457,0.0 15.6787,38.24579,0.0 15.6787,38.24606,0.0 15.67871,38.2461,0.0 15.67881,38.24624,0.0 15.67891,38.24633,0.0 15.67899,38.24642,0.0 15.67934,38.24677,0.0 15.67943,38.24684,0.0 15.67956,38.24692,0.0 15.67975,38.247,0.0 15.68016,38.24711,0.0 15.68077,38.24725,0.0 15.68162,38.24739,0.0 15.68194,38.24739,0.0 15.68212,38.24741,0.0 15.68259,38.24757,0.0 15.68271,38.2476,0.0 15.68304,38.24766,0.0 15.68332,38.24769,0.0 15.68389,38.24778,0.0 15.68412,38.24778,0.0 15.68437,38.24774,0.0 15.68454,38.2477,0.0 15.68494,38.24758,0.0 15.68554,38.24736,0.0 15.68577,38.24725,0.0 15.68585,38.2472,0.0 15.68588,38.24719,0.0 15.6861,38.24715,0.0 15.68629,38.24717,0.0 15.68674,38.24725,0.0 15.687,38.24731,0.0 15.6871,38.24735,0.0 15.68724,38.24745,0.0 15.68737,38.24753,0.0 15.68754,38.24766,0.0 15.68791,38.24787,0.0 15.68872,38.24819,0.0 15.68903,38.24835,0.0 15.68913,38.24843,0.0 15.68927,38.24858,0.0 15.68953,38.24894,0.0 15.68988,38.24932,0.0 15.69018,38.24968,0.0 15.69025,38.24975,0.0 15.6903,38.24981,0.0 15.69038,38.24987,0.0 15.69046,38.24992,0.0 15.69078,38.25005,0.0 15.69115,38.25018,0.0 15.69189,38.25038,0.0 15.69238,38.25049,0.0 15.69269,38.25054,0.0 15.69284,38.25055,0.0 15.693,38.25055,0.0 15.69307,38.25054,0.0 15.69315,38.25052,0.0 15.69339,38.25035,0.0 15.69346,38.25031,0.0 15.69349,38.2503,0.0 15.69359,38.2503,0.0 15.69362,38.25031,0.0 15.69377,38.25041,0.0 15.69386,38.25049,0.0 15.69424,38.25068,0.0 15.69457,38.25077,0.0 15.69465,38.25077,0.0 15.69473,38.25078,0.0 15.69482,38.25078,0.0 15.69532,38.25072,0.0 15.69547,38.25071,0.0 15.69569,38.25071,0.0 15.69628,38.25068,0.0 15.6967,38.25062,0.0 15.69708,38.25062,0.0 15.69733,38.25065,0.0 15.69785,38.25086,0.0 15.69828,38.251,0.0 15.69841,38.25102,0.0 15.69917,38.25107,0.0 15.69946,38.25111,0.0 15.69965,38.25116,0.0 15.69977,38.25121,0.0 15.70036,38.25156,0.0 15.7005,38.25161,0.0 15.70095,38.25171,0.0 15.70103,38.25176,0.0 15.7011,38.25184,0.0 15.70116,38.25204,0.0 15.70123,38.25211,0.0 15.70128,38.25214,0.0 15.70165,38.25232,0.0 15.70181,38.25243,0.0 15.70196,38.25256,0.0 15.70207,38.2526,0.0 15.70212,38.25261,0.0 15.70227,38.25261,0.0 15.70235,38.25259,0.0 15.70243,38.25256,0.0 15.70255,38.2525,0.0 15.70275,38.25238,0.0 15.70351,38.2521,0.0 15.70358,38.25206,0.0 15.70364,38.25201,0.0 15.70375,38.25185,0.0 15.70387,38.25164,0.0 15.70395,38.25154,0.0 15.70406,38.25148,0.0 15.7044,38.25134,0.0 15.70472,38.25123,0.0 15.70525,38.25118,0.0 15.70574,38.25118,0.0 15.70596,38.25114,0.0 15.70609,38.2511,0.0 15.70634,38.25098,0.0 15.70677,38.25074,0.0 15.7069,38.25071,0.0 15.70703,38.25069,0.0 15.70815,38.25058,0.0 15.70853,38.25059,0.0 15.70896,38.25065,0.0 15.70917,38.25071,0.0 15.70948,38.25084,0.0 15.71031,38.25123,0.0 15.71052,38.25136,0.0 15.71149,38.25187,0.0 15.71241,38.25231,0.0 15.71244,38.25233,0.0 15.71286,38.25249,0.0 15.71428,38.25317,0.0 15.71435,38.25322,0.0 15.71447,38.25334,0.0 15.71456,38.25348,0.0 15.71509,38.2544,0.0 15.71512,38.25448,0.0 15.71513,38.25455,0.0 15.71513,38.25461,0.0 15.71508,38.25487,0.0 15.71495,38.25517,0.0 15.71482,38.25534,0.0 15.71475,38.25539,0.0 15.71473,38.25541,0.0 15.71471,38.25546,0.0 15.71472,38.25548,0.0 15.71472,38.25551,0.0 15.71474,38.25553,0.0 15.7148,38.25553,0.0 15.71487,38.25546,0.0 15.71492,38.2554,0.0 15.71497,38.2553,0.0 15.71509,38.25516,0.0 15.71521,38.25504,0.0 15.7153,38.25501,0.0 15.71546,38.25497,0.0 15.71563,38.2549,0.0 15.71586,38.25469,0.0 15.71591,38.25463,0.0 15.71601,38.25453,0.0 15.71611,38.25446,0.0 15.71647,38.25426,0.0 15.71722,38.25395,0.0 15.71741,38.25385,0.0 15.71761,38.25378,0.0 15.71797,38.25373,0.0 15.71866,38.25368,0.0 15.71911,38.25369,0.0 15.71973,38.25352,0.0 15.71981,38.25351,0.0 15.71989,38.25349,0.0 15.72,38.25349,0.0 15.72036,38.25354,0.0 15.72067,38.25362,0.0 15.72088,38.25366,0.0 15.72112,38.25368,0.0 15.7218,38.25364,0.0 15.72245,38.25357,0.0 15.72359,38.25341,0.0 15.72502,38.25315,0.0 15.72615,38.25291,0.0 15.7264,38.25283,0.0 15.72658,38.25276,0.0 15.72664,38.25273,0.0 15.7268,38.25267,0.0 15.72698,38.25263,0.0 15.72723,38.25262,0.0 15.72756,38.25259,0.0 15.72878,38.25235,0.0 15.7293,38.2523,0.0 15.72986,38.25228,0.0 15.73088,38.2523,0.0 15.73649,38.25276,0.0 15.73659,38.25279,0.0 15.73668,38.25284,0.0 15.73686,38.25299,0.0 15.73691,38.25304,0.0 15.737,38.25308,0.0 15.73725,38.25317,0.0 15.73741,38.25321,0.0 15.7394,38.25416,0.0 15.74008,38.25445,0.0 15.74025,38.25451,0.0 15.74045,38.25455,0.0 15.7407,38.25457,0.0 15.74095,38.25461,0.0 15.74207,38.25491,0.0 15.74258,38.25497,0.0 15.74336,38.25518,0.0 15.74359,38.25521,0.0 15.74411,38.25533,0.0 15.74417,38.25533,0.0 15.74421,38.25534,0.0 15.74434,38.25534,0.0 15.74451,38.25537,0.0 15.74475,38.25543,0.0 15.74502,38.25554,0.0 15.74536,38.25573,0.0 15.74586,38.2559,0.0 15.74641,38.25602,0.0 15.74651,38.25605,0.0 15.74663,38.2561,0.0 15.74686,38.25622,0.0 15.74718,38.25635,0.0 15.74728,38.2564,0.0 15.74741,38.25648,0.0 15.74763,38.25664,0.0 15.74784,38.25677,0.0 15.74812,38.25687,0.0 15.74827,38.2569,0.0 15.74875,38.2569,0.0 15.74905,38.25694,0.0 15.74911,38.25694,0.0 15.74925,38.25692,0.0 15.74955,38.25685,0.0 15.74969,38.25683,0.0 15.74978,38.25681,0.0 15.74989,38.2568,0.0 15.75012,38.2568,0.0 15.75107,38.25671,0.0 15.75142,38.25671,0.0 15.75167,38.25675,0.0 15.7527,38.25704,0.0 15.75301,38.25715,0.0 15.7544,38.25771,0.0 15.75771,38.25916,0.0 15.75919,38.25987,0.0 15.76022,38.26032,0.0 15.76043,38.2604,0.0 15.76072,38.26046,0.0 15.76101,38.26048,0.0 15.76112,38.2605,0.0 15.76116,38.26052,0.0 15.76121,38.26056,0.0 15.76139,38.26081,0.0 15.76166,38.26114,0.0 15.76173,38.26119,0.0 15.76257,38.26165,0.0 15.76266,38.26171,0.0 15.76316,38.26216,0.0 15.76346,38.26235,0.0 15.76415,38.26264,0.0 15.76424,38.26269,0.0 15.76438,38.26279,0.0 15.76478,38.26312,0.0 15.7649,38.26324,0.0 15.76497,38.2633,0.0 15.76502,38.26333,0.0 15.76507,38.26337,0.0 15.76524,38.26344,0.0 15.7654,38.26353,0.0 15.76585,38.2639,0.0 15.76616,38.2641,0.0 15.76661,38.26449,0.0 15.76721,38.26495,0.0 15.76804,38.26555,0.0 15.7683,38.26571,0.0 15.76847,38.26579,0.0 15.76994,38.26623,0.0 15.77056,38.26647,0.0 15.77104,38.26661,0.0 15.77119,38.26667,0.0 15.7713,38.26673,0.0 15.77144,38.26688,0.0 15.77154,38.26697,0.0 15.77185,38.26721,0.0 15.77194,38.26727,0.0 15.77225,38.26744,0.0 15.77259,38.2676,0.0 15.77334,38.26799,0.0 15.77348,38.26802,0.0 15.77368,38.26805,0.0 15.7739,38.26805,0.0 15.77406,38.26803,0.0 15.77425,38.26803,0.0 15.77464,38.26805,0.0 15.77497,38.2681,0.0 15.77512,38.26814,0.0 15.77526,38.26819,0.0 15.77548,38.26831,0.0 15.77581,38.26856,0.0 15.77598,38.26872,0.0 15.77676,38.26934,0.0 15.77719,38.26962,0.0 15.7778,38.26992,0.0 15.77855,38.27017,0.0 15.77875,38.27025,0.0 15.77916,38.27046,0.0 15.78004,38.27096,0.0 15.78043,38.27123,0.0 15.78055,38.2713,0.0 15.78093,38.27148,0.0 15.78114,38.27155,0.0 15.7813,38.27159,0.0 15.78147,38.27162,0.0 15.78154,38.27164,0.0 15.78161,38.27169,0.0 15.78163,38.27171,0.0 15.78165,38.27176,0.0 15.78167,38.27183,0.0 15.78168,38.27189,0.0 15.7817,38.27196,0.0 15.78174,38.27206,0.0 15.7818,38.27216,0.0 15.78184,38.2722,0.0 15.78187,38.27224,0.0 15.78217,38.27245,0.0 15.7822,38.27249,0.0 15.78223,38.27256,0.0 15.78231,38.27263,0.0 15.78259,38.27277,0.0 15.78274,38.27286,0.0 15.78282,38.2729,0.0 15.78295,38.27301,0.0 15.78301,38.27308,0.0 15.78306,38.27311,0.0 15.78311,38.27315,0.0 15.78327,38.27325,0.0 15.78341,38.27332,0.0 15.78358,38.27339,0.0 15.78363,38.27343,0.0 15.78368,38.27346,0.0 15.78388,38.27364,0.0 15.78414,38.2739,0.0 15.78449,38.2742,0.0 15.78467,38.27433,0.0 15.78479,38.27443,0.0 15.78497,38.27455,0.0 15.78519,38.27467,0.0 15.78531,38.27475,0.0 15.7854,38.27482,0.0 15.78571,38.27512,0.0 15.78609,38.27543,0.0 15.78651,38.27585,0.0 15.78667,38.27595,0.0 15.78731,38.27627,0.0 15.78746,38.27633,0.0 15.78807,38.27663,0.0 15.78834,38.27685,0.0 15.78894,38.27738,0.0 15.79024,38.27844,0.0 15.79043,38.27861,0.0 15.79055,38.2787,0.0 15.7908,38.27886,0.0 15.79102,38.27895,0.0 15.79119,38.279,0.0 15.79147,38.27905,0.0 15.79172,38.27907,0.0 15.79274,38.27911,0.0 15.79312,38.27915,0.0 15.79448,38.27959,0.0 15.79469,38.27963,0.0 15.79485,38.27965,0.0 15.79556,38.2797,0.0 15.79609,38.27977,0.0 15.7963,38.27982,0.0 15.79779,38.28032,0.0 15.79829,38.28045,0.0 15.79897,38.28072,0.0 15.79955,38.28098,0.0 15.80004,38.28118,0.0 15.80159,38.28173,0.0 15.80171,38.28192,0.0 15.80173,38.28198,0.0 15.80178,38.28204,0.0 15.80189,38.28215,0.0 15.80211,38.28232,0.0 15.80223,38.28239,0.0 15.80231,38.28245,0.0 15.80306,38.28313,0.0 15.80333,38.2834,0.0 15.80363,38.28366,0.0 15.80387,38.28392,0.0 15.80399,38.28409,0.0 15.80406,38.2843,0.0 15.80422,38.28494,0.0 15.80422,38.28503,0.0 15.8042,38.28518,0.0 15.80417,38.28531,0.0 15.80417,38.28535,0.0 15.8042,38.28545,0.0 15.80426,38.28554,0.0 15.80438,38.28567,0.0 15.80444,38.28572,0.0 15.80451,38.28575,0.0 15.80461,38.28578,0.0 15.8049,38.28578,0.0 15.80503,38.28576,0.0 15.80519,38.28575,0.0 15.80543,38.28577,0.0 15.80572,38.28583,0.0 15.8058,38.28586,0.0 15.8059,38.28591,0.0 15.80634,38.28618,0.0 15.80679,38.28639,0.0 15.80684,38.28643,0.0 15.80698,38.28657,0.0 15.80702,38.28662,0.0 15.80707,38.2867,0.0 15.80714,38.28685,0.0 15.80717,38.28706,0.0 15.80743,38.28742,0.0 15.80748,38.28752,0.0 15.8076,38.28797,0.0 15.80762,38.28809,0.0 15.80763,38.28842,0.0 15.80761,38.2888,0.0 15.80762,38.28894,0.0 15.80764,38.28899,0.0 15.80766,38.28901,0.0 15.80768,38.28904,0.0 15.80786,38.28915,0.0 15.80792,38.28923,0.0 15.80783,38.28925,0.0 15.80779,38.28924,0.0 15.80775,38.28924,0.0 15.80755,38.28916,0.0 15.80743,38.28913,0.0 15.80734,38.28913,0.0 15.80729,38.28914,0.0 15.80726,38.28914,0.0 15.80723,38.28915,0.0 15.80711,38.28923,0.0 15.80708,38.28926,0.0 15.80699,38.28937,0.0 15.80695,38.28944,0.0 15.80694,38.28947,0.0 15.80694,38.28956,0.0 15.80698,38.28963,0.0 15.807,38.28965,0.0 15.80706,38.28969,0.0 15.80714,38.28972,0.0 15.80729,38.28972,0.0 15.80741,38.28966,0.0 15.80747,38.28952,0.0 15.80753,38.28927,0.0 15.80755,38.28921,0.0 15.80793,38.28874,0.0 15.80839,38.28826,0.0 15.8084,38.28822,0.0 15.80841,38.2882,0.0 15.80841,38.28818,0.0 15.80839,38.28814,0.0 15.80826,38.28803,0.0 15.80811,38.28793,0.0 15.80802,38.28788,0.0 15.80798,38.28784,0.0 15.80798,38.2878,0.0 15.80801,38.28777,0.0 15.80803,38.28776,0.0 15.80806,38.28776,0.0 15.8081,38.28775,0.0 15.80835,38.28793,0.0 15.80845,38.28799,0.0 15.80849,38.28802,0.0 15.80854,38.28804,0.0 15.80858,38.28804,0.0 15.80861,38.28805,0.0 15.80872,38.28805,0.0 15.80877,38.28804,0.0 15.809,38.28797,0.0 15.8091,38.28795,0.0 15.80923,38.28795,0.0 15.80993,38.28828,0.0 15.81026,38.28847,0.0 15.81027,38.28848,0.0 15.81032,38.28848,0.0 15.81034,38.28849,0.0 15.81037,38.28849,0.0 15.81038,38.28848,0.0 15.81041,38.28848,0.0 15.81043,38.28847,0.0 15.81045,38.28845,0.0 15.81047,38.28844,0.0 15.81048,38.28842,0.0 15.81048,38.28836,0.0 15.81026,38.28801,0.0 15.81008,38.28779,0.0 15.80921,38.28691,0.0 15.80894,38.28676,0.0 15.8085,38.28647,0.0 15.80849,38.28646,0.0 15.80847,38.28645,0.0 15.80844,38.28642,0.0 15.80844,38.28637,0.0 15.80846,38.28635,0.0 15.80847,38.28635,0.0 15.80849,38.28634,0.0 15.80854,38.28634,0.0 15.80861,38.28636,0.0 15.80923,38.28659,0.0 15.81043,38.28698,0.0 15.81089,38.28718,0.0 15.81115,38.28735,0.0 15.81137,38.28753,0.0 15.81182,38.28785,0.0 15.81195,38.28793,0.0 15.81198,38.28793,0.0 15.812,38.28792,0.0 15.81203,38.28789,0.0 15.81203,38.28788,0.0 15.81202,38.28786,0.0 15.81202,38.28784,0.0 15.81181,38.28757,0.0 15.811,38.28662,0.0 15.81096,38.28658,0.0 15.81091,38.28654,0.0 15.81045,38.28628,0.0 15.81034,38.28618,0.0 15.8103,38.28612,0.0 15.81025,38.28602,0.0 15.81024,38.28596,0.0 15.81025,38.28589,0.0 15.81052,38.28538,0.0 15.81054,38.28533,0.0 15.81057,38.2853,0.0 15.81059,38.2853,0.0 15.81061,38.28529,0.0 15.81065,38.28529,0.0 15.81067,38.2853,0.0 15.81069,38.2853,0.0 15.81072,38.28531,0.0 15.81076,38.28533,0.0 15.81077,38.28535,0.0 15.81078,38.28536,0.0 15.81079,38.28538,0.0 15.81079,38.28542,0.0 15.81078,38.28543,0.0 15.81062,38.28576,0.0 15.81061,38.2858,0.0 15.81061,38.28582,0.0 15.8106,38.28585,0.0 15.8106,38.28587,0.0 15.81061,38.28591,0.0 15.81061,38.28594,0.0 15.81067,38.286,0.0 15.81074,38.28604,0.0 15.81085,38.28607,0.0 15.81126,38.28614,0.0 15.81138,38.28618,0.0 15.81141,38.2862,0.0 15.81147,38.28623,0.0 15.81197,38.28656,0.0 15.81275,38.28712,0.0 15.81286,38.28718,0.0 15.81299,38.28722,0.0 15.81314,38.28724,0.0 15.81328,38.28724,0.0 15.81362,38.28721,0.0 15.81384,38.28723,0.0 15.81426,38.28729,0.0 15.81435,38.28729,0.0 15.81443,38.28728,0.0 15.81451,38.28725,0.0 15.81471,38.28713,0.0 15.8149,38.2871,0.0 15.81495,38.2871,0.0 15.81504,38.28711,0.0 15.81512,38.28713,0.0 15.81525,38.28718,0.0 15.81538,38.28727,0.0 15.8155,38.28738,0.0 15.81554,38.28743,0.0 15.81561,38.2875,0.0 15.81565,38.28753,0.0 15.81568,38.28754,0.0 15.81573,38.28757,0.0 15.81584,38.28759,0.0 15.81678,38.28769,0.0 15.81688,38.28769,0.0 15.81698,38.2877,0.0 15.81731,38.28768,0.0 15.81751,38.28764,0.0 15.81756,38.28762,0.0 15.81762,38.28758,0.0 15.81773,38.28752,0.0 15.81776,38.28751,0.0 15.81787,38.28749,0.0 15.81796,38.28751,0.0 15.81814,38.28758,0.0 15.81817,38.2876,0.0 15.81819,38.28764,0.0 15.81819,38.28766,0.0 15.8182,38.28767,0.0 15.81819,38.28769,0.0 15.81819,38.2877,0.0 15.81817,38.28779,0.0 15.81799,38.28808,0.0 15.81788,38.28821,0.0 15.81777,38.2883,0.0 15.81758,38.28839,0.0 15.81753,38.28842,0.0 15.81749,38.28846,0.0 15.81749,38.28848,0.0 15.81748,38.2885,0.0 15.81749,38.28852,0.0 15.81749,38.28854,0.0 15.81754,38.28861,0.0 15.81761,38.28869,0.0 15.81769,38.28876,0.0 15.81779,38.28887,0.0 15.81817,38.28922,0.0 15.8182,38.28926,0.0 15.81822,38.28932,0.0 15.81822,38.28936,0.0 15.81821,38.28938,0.0 15.81819,38.28939,0.0 15.81815,38.28943,0.0 15.81794,38.28949,0.0 15.81764,38.28961,0.0 15.81749,38.28973,0.0 15.81731,38.28984,0.0 15.81718,38.28988,0.0 15.81657,38.28995,0.0 15.81653,38.28996,0.0 15.8165,38.28998,0.0 15.81644,38.29005,0.0 15.81639,38.29013,0.0 15.81636,38.29026,0.0 15.81636,38.2903,0.0 15.81641,38.2906,0.0 15.81641,38.29068,0.0 15.81639,38.29075,0.0 15.81637,38.29078,0.0 15.81635,38.2908,0.0 15.81633,38.29083,0.0 15.8163,38.29089,0.0 15.81627,38.29101,0.0 15.81627,38.29108,0.0 15.81628,38.29111,0.0 15.81628,38.29114,0.0 15.81631,38.2912,0.0 15.81634,38.29124,0.0 15.81666,38.29157,0.0 15.81673,38.29166,0.0 15.81684,38.29185,0.0 15.81691,38.29199,0.0 15.81699,38.29223,0.0 15.81709,38.29246,0.0 15.81724,38.29271,0.0 15.81751,38.2933,0.0 15.81757,38.2934,0.0 15.81763,38.29348,0.0 15.81768,38.29353,0.0 15.82016,38.29528,0.0 15.82099,38.29584,0.0 15.82143,38.29609,0.0 15.82161,38.29617,0.0 15.82187,38.29626,0.0 15.82238,38.29641,0.0 15.82312,38.29667,0.0 15.82329,38.29675,0.0 15.82351,38.29687,0.0 15.82365,38.29696,0.0 15.82379,38.29707,0.0 15.82417,38.29747,0.0 15.82529,38.2988,0.0 15.82534,38.29885,0.0 15.82545,38.29894,0.0 15.82549,38.29896,0.0 15.82555,38.29898,0.0 15.82581,38.29904,0.0 15.82618,38.2991,0.0 15.82669,38.2991,0.0 15.82687,38.29913,0.0 15.82701,38.29919,0.0 15.82711,38.29925,0.0 15.82717,38.2993,0.0 15.82719,38.29931,0.0 15.82726,38.29939,0.0 15.82732,38.29943,0.0 15.82736,38.29944,0.0 15.82744,38.29944,0.0 15.82748,38.29943,0.0 15.8275,38.29942,0.0 15.82755,38.29941,0.0 15.82764,38.29935,0.0 15.82786,38.29915,0.0 15.82798,38.29906,0.0 15.82864,38.29865,0.0 15.82899,38.29831,0.0 15.82907,38.29827,0.0 15.82933,38.29801,0.0 15.82938,38.29798,0.0 15.82943,38.29794,0.0 15.82954,38.29787,0.0 15.83014,38.2977,0.0 15.83043,38.29764,0.0 15.83097,38.2976,0.0 15.83153,38.29751,0.0 15.83156,38.29751,0.0 15.83163,38.29753,0.0 15.83169,38.29759,0.0 15.83173,38.29764,0.0 15.83176,38.2977,0.0 15.83177,38.29774,0.0 15.83177,38.29777,0.0 15.83175,38.29783,0.0 15.83166,38.29792,0.0 15.83156,38.29807,0.0 15.83147,38.29824,0.0 15.83135,38.29854,0.0 15.83132,38.29858,0.0 15.83123,38.29864,0.0 15.8311,38.29869,0.0 15.83097,38.29873,0.0 15.83078,38.29877,0.0 15.83068,38.29881,0.0 15.83062,38.29885,0.0 15.83055,38.29892,0.0 15.83052,38.29899,0.0 15.83052,38.29905,0.0 15.83054,38.29912,0.0 15.83057,38.29919,0.0 15.8306,38.29923,0.0 15.83063,38.29925,0.0 15.83068,38.29927,0.0 15.8309,38.29933,0.0 15.831,38.29935,0.0 15.83145,38.29928,0.0 15.8316,38.29928,0.0 15.83179,38.29932,0.0 15.83201,38.2994,0.0 15.83211,38.29946,0.0 15.83223,38.29955,0.0 15.83228,38.29961,0.0 15.83234,38.29973,0.0 15.83237,38.2999,0.0 15.83239,38.29996,0.0 15.83242,38.30001,0.0 15.83249,38.30009,0.0 15.83258,38.30014,0.0 15.83267,38.30018,0.0 15.83352,38.30042,0.0 15.83376,38.30052,0.0 15.83412,38.3006,0.0 15.83432,38.30062,0.0 15.83437,38.30064,0.0 15.83441,38.30068,0.0 15.83445,38.30073,0.0 15.83445,38.30077,0.0 15.83444,38.30079,0.0 15.83422,38.30099,0.0 15.83246,38.30274,0.0 15.83202,38.30315,0.0 15.83108,38.30411,0.0 15.83019,38.30511,0.0 15.82921,38.30605,0.0 15.82906,38.30621,0.0 15.82835,38.30737,0.0 15.82829,38.30749,0.0 15.82828,38.30754,0.0 15.82826,38.30759,0.0 15.82824,38.30766,0.0 15.82824,38.30771,0.0 15.82823,38.30776,0.0 15.82823,38.3078,0.0 15.82824,38.30783,0.0 15.82824,38.30786,0.0 15.82826,38.30792,0.0 15.82828,38.30794,0.0 15.82829,38.30796,0.0 15.82835,38.30802,0.0 15.82841,38.30804,0.0 15.82844,38.30806,0.0 15.82867,38.30811,0.0 15.82927,38.30821,0.0 15.8294,38.30822,0.0 15.8297,38.30829,0.0 15.8299,38.30837,0.0 15.83035,38.3086,0.0 15.83087,38.3089,0.0 15.83221,38.30978,0.0 15.83257,38.31009,0.0 15.83271,38.31024,0.0 15.83284,38.31045,0.0 15.83306,38.31086,0.0 15.83312,38.31092,0.0 15.83317,38.31096,0.0 15.83319,38.31097,0.0 15.8332,38.31098,0.0 15.83336,38.31102,0.0 15.83347,38.31102,0.0 15.83351,38.31101,0.0 15.83354,38.31101,0.0 15.8338,38.31095,0.0 15.834,38.31089,0.0 15.83445,38.31081,0.0 15.83458,38.31081,0.0 15.83468,38.31082,0.0 15.83493,38.31088,0.0 15.8352,38.31092,0.0 15.83534,38.31092,0.0 15.83543,38.31091,0.0 15.83609,38.31072,0.0 15.83675,38.31062,0.0 15.83722,38.31058,0.0 15.84069,38.31015,0.0 15.84087,38.31011,0.0 15.84096,38.31008,0.0 15.84097,38.31007,0.0 15.84097,38.31006,0.0 15.84098,38.31005,0.0 15.84099,38.31005,0.0 15.84101,38.31003,0.0 15.84102,38.31003,0.0 15.84103,38.31002,0.0 15.84104,38.31002,0.0 15.84106,38.31001,0.0 15.84107,38.31001,0.0 15.84108,38.31,0.0 15.84117,38.31,0.0 15.84119,38.31001,0.0 15.84121,38.31001,0.0 15.84122,38.31002,0.0 15.84123,38.31002,0.0 15.84125,38.31003,0.0 15.84126,38.31003,0.0 15.84128,38.31005,0.0 15.84145,38.31005,0.0 15.84298,38.30986,0.0 15.8436,38.30981,0.0 15.84423,38.30984,0.0 15.84436,38.30986,0.0 15.84447,38.30989,0.0 15.84456,38.30993,0.0 15.84489,38.31011,0.0 15.84506,38.31023,0.0 15.84546,38.31057,0.0 15.84561,38.31067,0.0 15.84567,38.31073,0.0 15.84572,38.31073,0.0 15.84573,38.31074,0.0 15.84575,38.31074,0.0 15.84576,38.31075,0.0 15.84578,38.31075,0.0 15.8458,38.31077,0.0 15.84581,38.31077,0.0 15.84581,38.31078,0.0 15.84582,38.31078,0.0 15.84582,38.31079,0.0 15.84583,38.3108,0.0 15.84583,38.31082,0.0 15.84584,38.31083,0.0 15.84584,38.31087,0.0 15.84583,38.31089,0.0 15.84583,38.31091,0.0 15.84582,38.31092,0.0 15.84582,38.31093,0.0 15.84581,38.31094,0.0 15.8458,38.31094,0.0 15.8458,38.31095,0.0 15.84579,38.31095,0.0 15.84577,38.31097,0.0 15.84576,38.31097,0.0 15.84575,38.31098,0.0 15.84574,38.31103,0.0 15.84574,38.31107,0.0 15.84563,38.31141,0.0 15.84546,38.31231,0.0 15.845,38.31436,0.0 15.84498,38.31442,0.0 15.84463,38.31606,0.0 15.84454,38.31641,0.0 15.84431,38.3175,0.0 15.84426,38.31769,0.0 15.84424,38.31772,0.0 15.8442,38.31781,0.0 15.84408,38.31796,0.0 15.84401,38.31803,0.0 15.84379,38.31818,0.0 15.84376,38.31819,0.0 15.84373,38.31821,0.0 15.84364,38.31825,0.0 15.84346,38.3183,0.0 15.84309,38.31835,0.0 15.84288,38.31836,0.0 15.84254,38.3184,0.0 15.84247,38.31842,0.0 15.84237,38.31846,0.0 15.8422,38.31856,0.0 15.84206,38.31866,0.0 15.84196,38.31872,0.0 15.8419,38.31878,0.0 15.84177,38.31889,0.0 15.84171,38.31893,0.0 15.84165,38.31899,0.0 15.84157,38.31909,0.0 15.84141,38.31933,0.0 15.8413,38.31955,0.0 15.84122,38.31975,0.0 15.8412,38.31982,0.0 15.84119,38.31989,0.0 15.84121,38.32003,0.0 15.84121,38.32032,0.0 15.84127,38.32128,0.0 15.84128,38.32131,0.0 15.84128,38.32167,0.0 15.84125,38.32184,0.0 15.84111,38.32224,0.0 15.84014,38.32461,0.0 15.83998,38.32504,0.0 15.8399,38.32521,0.0 15.83982,38.32543,0.0 15.83977,38.32563,0.0 15.83977,38.32589,0.0 15.8398,38.32605,0.0 15.83982,38.3261,0.0 15.83984,38.32618,0.0 15.84063,38.32858,0.0 15.84067,38.32867,0.0 15.8407,38.32872,0.0 15.84072,38.32874,0.0 15.84074,38.32877,0.0 15.84076,38.32879,0.0 15.84078,38.32882,0.0 15.84083,38.32885,0.0 15.84091,38.32891,0.0 15.84099,38.32895,0.0 15.84102,38.32897,0.0 15.84106,38.32898,0.0 15.8411,38.329,0.0 15.84116,38.32901,0.0 15.84121,38.32903,0.0 15.8413,38.32905,0.0 15.84134,38.32905,0.0 15.84139,38.32906,0.0 15.84142,38.32906,0.0 15.84147,38.32905,0.0 15.84156,38.32905,0.0 15.8416,38.32904,0.0 15.84164,38.32904,0.0 15.84235,38.32887,0.0 15.84312,38.32871,0.0 15.84323,38.32871,0.0 15.8433,38.32872,0.0 15.84336,38.32872,0.0 15.84348,38.32874,0.0 15.84368,38.3288,0.0 15.84409,38.32898,0.0 15.84421,38.32905,0.0 15.84438,38.32919,0.0 15.84455,38.32936,0.0 15.84494,38.32979,0.0 15.84654,38.33145,0.0 15.84658,38.3315,0.0 15.8466,38.33155,0.0 15.84666,38.33163,0.0 15.84668,38.33168,0.0 15.84673,38.33176,0.0 15.84675,38.33184,0.0 15.84726,38.33318,0.0 15.84736,38.33333,0.0 15.84745,38.33342,0.0 15.84758,38.33352,0.0 15.84776,38.33364,0.0 15.84852,38.33408,0.0 15.84866,38.33415,0.0 15.84984,38.33485,0.0 15.85001,38.33497,0.0 15.85028,38.33531,0.0 15.85034,38.33542,0.0 15.85061,38.33577,0.0 15.85072,38.33588,0.0 15.85084,38.33598,0.0 15.85145,38.33657,0.0 15.85154,38.33667,0.0 15.8522,38.33766,0.0 15.85238,38.33798,0.0 15.85276,38.3386,0.0 15.85283,38.33866,0.0 15.85299,38.33875,0.0 15.8533,38.33888,0.0 15.85339,38.33893,0.0 15.85348,38.339,0.0 15.85354,38.33908,0.0 15.85357,38.33911,0.0 15.85373,38.33941,0.0 15.85377,38.33947,0.0 15.85393,38.33966,0.0 15.85418,38.33989,0.0 15.85429,38.34002,0.0 15.85439,38.34011,0.0 15.85449,38.34022,0.0 15.85455,38.34031,0.0 15.85471,38.34092,0.0 15.85482,38.3411,0.0 15.85543,38.34181,0.0 15.85588,38.34222,0.0 15.85606,38.34233,0.0 15.85614,38.34237,0.0 15.85676,38.34262,0.0 15.85686,38.34268,0.0 15.85798,38.34361,0.0 15.85869,38.34415,0.0 15.85923,38.34462,0.0 15.85936,38.34479,0.0 15.85942,38.34492,0.0 15.85954,38.34546,0.0 15.85955,38.34556,0.0 15.8595,38.34585,0.0 15.85932,38.34662,0.0 15.85911,38.34767,0.0 15.8589,38.34855,0.0 15.85888,38.3486,0.0 15.85882,38.34871,0.0 15.85868,38.34886,0.0 15.85858,38.34895,0.0 15.85846,38.34903,0.0 15.85828,38.34917,0.0 15.85814,38.34925,0.0 15.85788,38.34935,0.0 15.85738,38.34951,0.0 15.85719,38.34955,0.0 15.85702,38.34955,0.0 15.85687,38.34953,0.0 15.85662,38.34943,0.0 15.85648,38.34936,0.0 15.85638,38.34932,0.0 15.85628,38.3493,0.0 15.85615,38.3493,0.0 15.85612,38.34931,0.0 15.85609,38.34933,0.0 15.85606,38.34934,0.0 15.85598,38.34942,0.0 15.85596,38.34945,0.0 15.85596,38.34948,0.0 15.85595,38.34953,0.0 15.85597,38.34958,0.0 15.85604,38.34965,0.0 15.85609,38.34967,0.0 15.85622,38.34969,0.0 15.85637,38.3497,0.0 15.85645,38.34972,0.0 15.85713,38.3498,0.0 15.8578,38.34981,0.0 15.85815,38.34984,0.0 15.85829,38.34987,0.0 15.85874,38.35006,0.0 15.85916,38.35029,0.0 15.85966,38.3505,0.0 15.85984,38.35059,0.0 15.86217,38.35159,0.0 15.86238,38.35169,0.0 15.86258,38.35181,0.0 15.86261,38.35185,0.0 15.86264,38.35188,0.0 15.86266,38.35192,0.0 15.86268,38.35198,0.0 15.86268,38.3521,0.0 15.86266,38.35212,0.0 15.86265,38.35215,0.0 15.86262,38.35218,0.0 15.86259,38.35222,0.0 15.86245,38.35232,0.0 15.86117,38.35313,0.0 15.86108,38.3532,0.0 15.86045,38.35361,0.0 15.86013,38.3538,0.0 15.85952,38.3542,0.0 15.85939,38.3543,0.0 15.85921,38.35441,0.0 15.85918,38.35444,0.0 15.8591,38.35449,0.0 15.8589,38.35471,0.0 15.85883,38.35482,0.0 15.85879,38.3549,0.0 15.85869,38.3552,0.0 15.85858,38.35565,0.0 15.85849,38.3561,0.0 15.85811,38.35763,0.0 15.85805,38.35801,0.0 15.85801,38.35856,0.0 15.85801,38.3588,0.0 15.85804,38.3592,0.0 15.85805,38.35923,0.0 15.85805,38.35927,0.0 15.85806,38.35929,0.0 15.85806,38.35934,0.0 15.85807,38.35941,0.0 15.85808,38.35943,0.0 15.85813,38.35986,0.0 15.85847,38.36201,0.0 15.85849,38.36222,0.0 15.85848,38.36245,0.0 15.85842,38.36266,0.0 15.85832,38.36323,0.0 15.85815,38.3639,0.0 15.85815,38.36393,0.0 15.85812,38.36407,0.0 15.85808,38.36444,0.0 15.85808,38.36468,0.0 15.85814,38.36496,0.0 15.85817,38.36505,0.0 15.85818,38.36511,0.0 15.85824,38.36522,0.0 15.85854,38.36559,0.0 15.85879,38.36586,0.0 15.85896,38.36607,0.0 15.86044,38.36776,0.0 15.86052,38.36787,0.0 15.86107,38.36847,0.0 15.8613,38.36883,0.0 15.8622,38.36997,0.0 15.86401,38.37269,0.0 15.86412,38.37284,0.0 15.86503,38.37421,0.0 15.86506,38.37427,0.0 15.86573,38.37523,0.0 15.86574,38.37525,0.0 15.86603,38.37562,0.0 15.86616,38.37574,0.0 15.86677,38.37619,0.0 15.86821,38.37715,0.0 15.86939,38.37785,0.0 15.86986,38.37816,0.0 15.87027,38.37847,0.0 15.87047,38.37866,0.0 15.87057,38.37874,0.0 15.87065,38.37883,0.0 15.87127,38.37966,0.0 15.87146,38.37986,0.0 15.87162,38.37998,0.0 15.8717,38.38003,0.0 15.87179,38.38007,0.0 15.87184,38.3801,0.0 15.87201,38.38017,0.0 15.873,38.38046,0.0 15.87363,38.38059,0.0 15.87497,38.38082,0.0 15.87501,38.38082,0.0 15.87531,38.38087,0.0 15.87546,38.38092,0.0 15.87555,38.38096,0.0 15.87564,38.38101,0.0 15.87567,38.38102,0.0 15.87585,38.38122,0.0 15.87627,38.38173,0.0 15.8765,38.38198,0.0 15.87673,38.38216,0.0 15.87693,38.38228,0.0 15.87693,38.38229,0.0 15.87725,38.38247,0.0 15.88035,38.38465,0.0 15.88049,38.38476,0.0 15.88088,38.38503,0.0 15.88137,38.38542,0.0 15.88146,38.38551,0.0 15.88157,38.38565,0.0 15.8817,38.38584,0.0 15.88183,38.38607,0.0 15.88196,38.38638,0.0 15.882,38.38651,0.0 15.88205,38.38691,0.0 15.88208,38.38727,0.0 15.8821,38.38737,0.0 15.88213,38.38746,0.0 15.88223,38.38767,0.0 15.88238,38.38792,0.0 15.88241,38.38804,0.0 15.88241,38.38807,0.0 15.88238,38.38819,0.0 15.8823,38.38833,0.0 15.88226,38.38838,0.0 15.88222,38.38842,0.0 15.88187,38.38886,0.0 15.88179,38.38901,0.0 15.88176,38.3891,0.0 15.88174,38.38919,0.0 15.88173,38.38927,0.0 15.88175,38.38941,0.0 15.8818,38.38956,0.0 15.88239,38.39087,0.0 15.88245,38.39098,0.0 15.88251,38.39107,0.0 15.88256,38.39113,0.0 15.88277,38.39132,0.0 15.88308,38.39157,0.0 15.88341,38.39186,0.0 15.88359,38.39204,0.0 15.88363,38.39211,0.0 15.88367,38.39221,0.0 15.88435,38.39624,0.0 15.88439,38.39634,0.0 15.88451,38.39659,0.0 15.88606,38.39948,0.0 15.88611,38.39955,0.0 15.88654,38.40004,0.0 15.88666,38.40021,0.0 15.8868,38.40047,0.0 15.88694,38.4007,0.0 15.88706,38.40084,0.0 15.88944,38.40303,0.0 15.88992,38.40354,0.0 15.8902,38.40391,0.0 15.89027,38.40403,0.0 15.89029,38.40408,0.0 15.89031,38.40418,0.0 15.89031,38.40431,0.0 15.89029,38.40462,0.0 15.8903,38.40466,0.0 15.89058,38.40535,0.0 15.891,38.40627,0.0 15.8911,38.40652,0.0 15.89113,38.40665,0.0 15.89114,38.40672,0.0 15.89114,38.40679,0.0 15.89112,38.40695,0.0 15.89106,38.40708,0.0 15.89084,38.40734,0.0 15.88971,38.40856,0.0 15.88951,38.40884,0.0 15.8895,38.40888,0.0 15.88948,38.40892,0.0 15.88946,38.40905,0.0 15.88947,38.40938,0.0 15.88955,38.41031,0.0 15.88956,38.41036,0.0 15.88957,38.41046,0.0 15.8896,38.41063,0.0 15.88964,38.41079,0.0 15.88965,38.4108,0.0 15.88968,38.41089,0.0 15.88992,38.41138,0.0 15.89003,38.41164,0.0 15.89004,38.41175,0.0 15.89006,38.41178,0.0 15.89008,38.41184,0.0 15.89027,38.41224,0.0 15.8903,38.41232,0.0 15.89078,38.41334,0.0 15.89099,38.41362,0.0 15.89215,38.41477,0.0 15.89274,38.41532,0.0 15.89344,38.4159,0.0 15.89384,38.41627,0.0 15.89399,38.41644,0.0 15.89438,38.41694,0.0 15.89457,38.41725,0.0 15.89511,38.41852,0.0 15.8955,38.4195,0.0 15.89567,38.41979,0.0 15.89576,38.41992,0.0 15.89588,38.42007,0.0 15.89607,38.42027,0.0 15.89637,38.42048,0.0 15.89726,38.42096,0.0 15.90069,38.42265,0.0 15.90069,38.42264,0.0 15.9007,38.42264,0.0 15.9007,38.42263,0.0 15.90072,38.42263,0.0 15.90072,38.42262,0.0 15.90074,38.42262,0.0 15.90074,38.42261,0.0 15.90084,38.42261,0.0 15.90084,38.42262,0.0 15.90086,38.42262,0.0 15.90087,38.42263,0.0 15.90088,38.42263,0.0 15.90088,38.42264,0.0 15.90089,38.42264,0.0 15.90089,38.42265,0.0 15.9009,38.42265,0.0 15.9009,38.42266,0.0 15.90091,38.42266,0.0 15.90091,38.42268,0.0 15.90092,38.42268,0.0 15.90092,38.42274,0.0 15.90091,38.42274,0.0 15.90091,38.42276,0.0 15.90383,38.42476,0.0 15.90396,38.42486,0.0 15.90411,38.42503,0.0 15.90417,38.42512,0.0 15.90476,38.42628,0.0 15.90511,38.4271,0.0 15.90521,38.42756,0.0 15.90523,38.42762,0.0 15.90523,38.42766,0.0 15.90522,38.42772,0.0 15.90522,38.42777,0.0 15.90521,38.42782,0.0 15.90517,38.42794,0.0 15.90515,38.42803,0.0 15.90513,38.42809,0.0 15.90509,38.42834,0.0 15.9051,38.42842,0.0 15.90512,38.42847,0.0 15.90516,38.42853,0.0 15.90712,38.4307,0.0 15.90749,38.43104,0.0 15.90766,38.43123,0.0 15.90788,38.43145,0.0 15.90798,38.43153,0.0 15.90911,38.43218,0.0 15.90958,38.4325,0.0 15.90972,38.43262,0.0 15.90983,38.4327,0.0 15.91004,38.4328,0.0 15.91035,38.43289,0.0 15.912,38.4332,0.0 15.9122,38.43325,0.0 15.91247,38.43334,0.0 15.9127,38.43344,0.0 15.91281,38.43351,0.0 15.91288,38.43357,0.0 15.91297,38.43367,0.0 15.91307,38.4338,0.0 15.91349,38.43446,0.0 15.91459,38.43637,0.0 15.91503,38.43709,0.0 15.91582,38.43847,0.0 15.9162,38.43908,0.0 15.92022,38.44597,0.0 15.92057,38.44652,0.0 15.92063,38.4466,0.0 15.92074,38.44672,0.0 15.92247,38.44839,0.0 15.93047,38.45549,0.0 15.9311,38.45602,0.0 15.93289,38.45761,0.0 15.93297,38.45767,0.0 15.93473,38.45925,0.0 15.93482,38.45934,0.0 15.9349,38.4594,0.0 15.93627,38.46061,0.0 15.9366,38.46087,0.0 15.93888,38.46283,0.0 15.93941,38.46332,0.0 15.93959,38.46351,0.0 15.94056,38.46434,0.0 15.94073,38.46451,0.0 15.94121,38.46493,0.0 15.94128,38.465,0.0 15.94135,38.46505,0.0 15.94137,38.46506,0.0 15.94149,38.46519,0.0 15.94218,38.46578,0.0 15.94234,38.46593,0.0 15.94403,38.46739,0.0 15.94428,38.46759,0.0 15.94428,38.4676,0.0 15.94515,38.46834,0.0 15.9455,38.46866,0.0 15.94603,38.4691,0.0 15.94799,38.47085,0.0 15.94823,38.47103,0.0 15.94844,38.47117,0.0 15.9493,38.47155,0.0 15.94963,38.47173,0.0 15.94978,38.47184,0.0 15.95145,38.47327,0.0 15.95178,38.47357,0.0 15.95188,38.47363,0.0 15.95203,38.47374,0.0 15.95242,38.47407,0.0 15.95257,38.47418,0.0 15.95268,38.47425,0.0 15.95351,38.47469,0.0 15.9536,38.47475,0.0 15.95607,38.4761,0.0 15.9567,38.47642,0.0 15.95697,38.47653,0.0 15.95731,38.47665,0.0 15.95745,38.47669,0.0 15.95757,38.47671,0.0 15.95807,38.47685,0.0 15.95818,38.47687,0.0 15.95915,38.47713,0.0 15.95962,38.47728,0.0 15.96258,38.47804,0.0 15.96263,38.47807,0.0 15.96305,38.4782,0.0 15.96473,38.47887,0.0 15.96489,38.47895,0.0 15.96501,38.479,0.0 15.96555,38.47928,0.0 15.96574,38.47939,0.0 15.96616,38.47959,0.0 15.96691,38.47989,0.0 15.96728,38.47998,0.0 15.96761,38.48004,0.0 15.96786,38.48007,0.0 15.9686,38.48012,0.0 15.96909,38.48018,0.0 15.96921,38.48023,0.0 15.96926,38.48026,0.0 15.96935,38.48035,0.0 15.96955,38.48062,0.0 15.96963,38.48071,0.0 15.96984,38.48091,0.0 15.96992,38.48101,0.0 15.96996,38.48105,0.0 15.97047,38.48179,0.0 15.97056,38.4819,0.0 15.97058,38.48194,0.0 15.97088,38.48237,0.0 15.97094,38.48244,0.0 15.97113,38.48274,0.0 15.97116,38.48277,0.0 15.97144,38.48317,0.0 15.97155,38.48329,0.0 15.97172,38.48351,0.0 15.97181,38.48365,0.0 15.97267,38.48486,0.0 15.97286,38.48532,0.0 15.97286,38.48531,0.0 15.97292,38.48531,0.0 15.97293,38.48532,0.0 15.97295,38.48532,0.0 15.97295,38.48533,0.0 15.97296,38.48533,0.0 15.97296,38.48534,0.0 15.97297,38.48534,0.0 15.97297,38.48535,0.0 15.97298,38.48535,0.0 15.97298,38.48537,0.0 15.97299,38.48538,0.0 15.97299,38.48539,0.0 15.97298,38.48539,0.0 15.97298,38.48541,0.0 15.97297,38.48542,0.0 15.97297,38.48543,0.0 15.97296,38.48543,0.0 15.97295,38.48544,0.0 15.97294,38.48544,0.0 15.97294,38.48545,0.0 15.97285,38.48545,0.0 15.97285,38.48544,0.0 15.97283,38.48544,0.0 15.97279,38.48558,0.0 15.97247,38.48626,0.0 15.97242,38.48635,0.0 15.97234,38.48653,0.0 15.97227,38.48666,0.0 15.97226,38.48669,0.0 15.97168,38.48784,0.0 15.97138,38.48837,0.0 15.97121,38.48863,0.0 15.97101,38.48897,0.0 15.97092,38.48918,0.0 15.97089,38.48933,0.0 15.97088,38.48945,0.0 15.97088,38.4896,0.0 15.97091,38.48976,0.0 15.97094,38.48987,0.0 15.97101,38.49006,0.0 15.97105,38.4902,0.0 15.97108,38.49034,0.0 15.97114,38.49055,0.0 15.9712,38.49091,0.0 15.97121,38.49102,0.0 15.97124,38.49119,0.0 15.97125,38.49131,0.0 15.97126,38.49136,0.0 15.97132,38.49149,0.0 15.97134,38.49152,0.0 15.9714,38.49158,0.0 15.97145,38.49162,0.0 15.9716,38.49169,0.0 15.97202,38.49184,0.0 15.97213,38.49187,0.0 15.97314,38.49222,0.0 15.97316,38.49222,0.0 15.97328,38.49226,0.0 15.97357,38.49233,0.0 15.97368,38.49234,0.0 15.97387,38.49232,0.0 15.977,38.4916,0.0 15.97713,38.49158,0.0 15.97716,38.49157,0.0 15.97742,38.49158,0.0 15.97763,38.49161,0.0 15.97772,38.49164,0.0 15.97778,38.49167,0.0 15.97818,38.49194,0.0 15.97894,38.49256,0.0 15.97932,38.49292,0.0 15.98117,38.4945,0.0 15.9817,38.49493,0.0 15.98276,38.49587,0.0 15.98284,38.49593,0.0 15.98299,38.49607,0.0 15.9832,38.49624,0.0 15.98328,38.49632,0.0 15.9837,38.49666,0.0 15.98449,38.49735,0.0 15.98473,38.49753,0.0 15.9864,38.499,0.0 15.98641,38.499,0.0 15.98646,38.49905,0.0 15.98686,38.49938,0.0 15.98712,38.49957,0.0 15.98721,38.49962,0.0 15.98734,38.49967,0.0 15.98809,38.49991,0.0 15.98817,38.49995,0.0 15.9882,38.49997,0.0 15.98826,38.50003,0.0 15.98827,38.50005,0.0 15.98827,38.50011,0.0 15.98826,38.50014,0.0 15.98826,38.50018,0.0 15.98825,38.50022,0.0 15.98749,38.50189,0.0 15.98747,38.50198,0.0 15.98747,38.50203,0.0 15.98748,38.50207,0.0 15.9875,38.50209,0.0 15.98752,38.50212,0.0 15.98755,38.50214,0.0 15.98758,38.50217,0.0 15.98763,38.5022,0.0 15.98766,38.50221,0.0 15.98772,38.50224,0.0 15.98972,38.50282,0.0 15.99008,38.50294,0.0 15.99075,38.50322,0.0 15.991,38.50335,0.0 15.99194,38.50391,0.0 15.99231,38.50418,0.0 15.99798,38.50908,0.0 16.0004,38.51138,0.0 16.00106,38.51204,0.0 16.00437,38.51565,0.0 16.00456,38.51582,0.0 16.00475,38.51597,0.0 16.00518,38.51625,0.0 16.0054,38.51641,0.0 16.01415,38.52177,0.0 16.01435,38.52192,0.0 16.01436,38.52194,0.0 16.01438,38.52195,0.0 16.01439,38.52196,0.0 16.0144,38.52198,0.0 16.01441,38.52199,0.0 16.01442,38.52201,0.0 16.01442,38.52203,0.0 16.01444,38.52205,0.0 16.01444,38.52206,0.0 16.01446,38.52215,0.0 16.01448,38.52221,0.0 16.01448,38.52228,0.0 16.01447,38.52238,0.0 16.01432,38.52318,0.0 16.01432,38.52321,0.0 16.01431,38.52327,0.0 16.01431,38.52336,0.0 16.01432,38.52344,0.0 16.01432,38.52349,0.0 16.01433,38.52354,0.0 16.01434,38.52364,0.0 16.01443,38.52391,0.0 16.01448,38.52403,0.0 16.01459,38.52425,0.0 16.0149,38.52464,0.0 16.01492,38.52465,0.0 16.01512,38.52487,0.0 16.01521,38.52494,0.0 16.01522,38.52496,0.0 16.0153,38.52501,0.0 16.01539,38.52505,0.0 16.0156,38.52517,0.0 16.01562,38.5252,0.0 16.0157,38.52528,0.0 16.01573,38.52533,0.0 16.01575,38.52538,0.0 16.01577,38.52541,0.0 16.01607,38.52622,0.0 16.01611,38.52631,0.0 16.01616,38.5264,0.0 16.01624,38.52652,0.0 16.01649,38.52682,0.0 16.01651,38.52685,0.0 16.01655,38.52693,0.0 16.01657,38.527,0.0 16.01657,38.52708,0.0 16.01654,38.52737,0.0 16.01654,38.52742,0.0 16.01656,38.52752,0.0 16.01662,38.52771,0.0 16.01676,38.52802,0.0 16.01705,38.52859,0.0 16.01707,38.52865,0.0 16.01712,38.52873,0.0 16.01722,38.52894,0.0 16.01735,38.52915,0.0 16.01957,38.53222,0.0 16.01975,38.53243,0.0 16.01997,38.53265,0.0 16.02023,38.53283,0.0 16.02038,38.53291,0.0 16.02043,38.53292,0.0 16.02047,38.53294,0.0 16.02072,38.53302,0.0 16.02109,38.5331,0.0 16.02162,38.53319,0.0 16.02303,38.53349,0.0 16.02333,38.53359,0.0 16.0241,38.53388,0.0 16.02457,38.53411,0.0 16.02529,38.53452,0.0 16.02602,38.53499,0.0 16.02648,38.53532,0.0 16.02685,38.53561,0.0 16.02702,38.53579,0.0 16.0275,38.53657,0.0 16.02754,38.53662,0.0 16.02758,38.53666,0.0 16.02769,38.53675,0.0 16.02805,38.53695,0.0 16.02821,38.53708,0.0 16.02851,38.53741,0.0 16.02858,38.5375,0.0 16.0286,38.53754,0.0 16.02876,38.53769,0.0 16.02927,38.53806,0.0 16.03462,38.54141,0.0 16.03496,38.54164,0.0 16.03811,38.5436,0.0 16.03832,38.54377,0.0 16.0384,38.54388,0.0 16.03843,38.54394,0.0 16.03845,38.54404,0.0 16.03844,38.54424,0.0 16.03837,38.5448,0.0 16.03839,38.54519,0.0 16.03843,38.54544,0.0 16.03847,38.5459,0.0 16.03846,38.546,0.0 16.03843,38.54614,0.0 16.03802,38.54697,0.0 16.03798,38.54707,0.0 16.03789,38.54741,0.0 16.03751,38.54943,0.0 16.0374,38.54986,0.0 16.03733,38.55007,0.0 16.03588,38.5539,0.0 16.03568,38.55451,0.0 16.03567,38.55465,0.0 16.03567,38.55477,0.0 16.03568,38.55486,0.0 16.0358,38.5552,0.0 16.03589,38.5554,0.0 16.03593,38.55551,0.0 16.03629,38.55631,0.0 16.03779,38.55988,0.0 16.0379,38.5602,0.0 16.03886,38.56358,0.0 16.03898,38.56409,0.0 16.03901,38.56418,0.0 16.03921,38.56497,0.0 16.03925,38.56509,0.0 16.03927,38.56522,0.0 16.03927,38.56547,0.0 16.03923,38.56568,0.0 16.03911,38.56609,0.0 16.039,38.56657,0.0 16.03898,38.56671,0.0 16.03885,38.57046,0.0 16.03885,38.57082,0.0 16.03888,38.57098,0.0 16.03891,38.57108,0.0 16.03896,38.57119,0.0 16.0391,38.57138,0.0 16.03928,38.57157,0.0 16.03943,38.57169,0.0 16.0397,38.57186,0.0 16.04026,38.57216,0.0 16.04063,38.57234,0.0 16.04094,38.57253,0.0 16.04106,38.57262,0.0 16.04117,38.57273,0.0 16.04134,38.57293,0.0 16.04141,38.57305,0.0 16.04149,38.57313,0.0 16.0417,38.57355,0.0 16.04171,38.57356,0.0 16.04182,38.57385,0.0 16.04185,38.5739,0.0 16.04205,38.57432,0.0 16.04209,38.57442,0.0 16.0421,38.57448,0.0 16.04216,38.57455,0.0 16.04226,38.57465,0.0 16.04231,38.57469,0.0 16.0431,38.57516,0.0 16.04318,38.57522,0.0 16.04324,38.57528,0.0 16.04345,38.57554,0.0 16.04395,38.57643,0.0 16.04405,38.57659,0.0 16.04417,38.57671,0.0 16.04432,38.57684,0.0 16.0451,38.57736,0.0 16.04532,38.57749,0.0 16.04565,38.57764,0.0 16.04578,38.57769,0.0 16.04633,38.57781,0.0 16.04808,38.57808,0.0 16.04813,38.5781,0.0 16.04824,38.57813,0.0 16.04854,38.57824,0.0 16.04999,38.57918,0.0 16.05018,38.57932,0.0 16.05058,38.57967,0.0 16.05366,38.58269,0.0 16.05391,38.58301,0.0 16.05399,38.58313,0.0 16.05405,38.58324,0.0 16.05413,38.58336,0.0 16.05419,38.58347,0.0 16.05434,38.58379,0.0 16.05458,38.58455,0.0 16.05458,38.58458,0.0 16.05501,38.5861,0.0 16.05506,38.58636,0.0 16.05506,38.58647,0.0 16.05504,38.58658,0.0 16.05499,38.58672,0.0 16.05494,38.58681,0.0 16.05481,38.58697,0.0 16.05473,38.58704,0.0 16.05455,38.58716,0.0 16.05437,38.58725,0.0 16.05417,38.58733,0.0 16.05404,38.5874,0.0 16.05392,38.58748,0.0 16.05386,38.58753,0.0 16.0538,38.5876,0.0 16.05375,38.58768,0.0 16.05371,38.58776,0.0 16.05364,38.58805,0.0 16.05362,38.5883,0.0 16.05356,38.58877,0.0 16.05347,38.58998,0.0 16.05325,38.59218,0.0 16.05326,38.59224,0.0 16.05326,38.59228,0.0 16.05328,38.59237,0.0 16.05329,38.59239,0.0 16.05332,38.59248,0.0 16.05339,38.59262,0.0 16.05348,38.59273,0.0 16.0536,38.59285,0.0 16.0537,38.5929,0.0 16.05373,38.59292,0.0 16.05404,38.593,0.0 16.05412,38.59301,0.0 16.05516,38.59302,0.0 16.05596,38.59306,0.0 16.05613,38.59308,0.0 16.0562,38.59308,0.0 16.05632,38.59311,0.0 16.05637,38.59313,0.0 16.0564,38.59316,0.0 16.05643,38.59318,0.0 16.05646,38.59322,0.0 16.05649,38.59325,0.0 16.05651,38.59329,0.0 16.05652,38.59332,0.0 16.05653,38.59369,0.0 16.0565,38.59432,0.0 16.05648,38.59438,0.0 16.05644,38.59444,0.0 16.05641,38.59446,0.0 16.05634,38.59453,0.0 16.05618,38.59462,0.0 16.05614,38.59465,0.0 16.05608,38.59468,0.0 16.05598,38.59475,0.0 16.05594,38.59479,0.0 16.05584,38.59496,0.0 16.05569,38.59525,0.0 16.05543,38.59581,0.0 16.05535,38.59601,0.0 16.05535,38.59619,0.0 16.05539,38.59633,0.0 16.05551,38.59664,0.0 16.0556,38.59691,0.0 16.0559,38.59809,0.0 16.05598,38.59835,0.0 16.05603,38.59848,0.0 16.05614,38.59871,0.0 16.05637,38.59905,0.0 16.05673,38.59951,0.0 16.05682,38.59957,0.0 16.05762,38.60063,0.0 16.05783,38.60093,0.0 16.05804,38.60119,0.0 16.05818,38.60134,0.0 16.0586,38.60175,0.0 16.05862,38.6018,0.0 16.05967,38.60274,0.0 16.06296,38.60534,0.0 16.06367,38.60583,0.0 16.06671,38.60771,0.0 16.06689,38.60781,0.0 16.06903,38.60915,0.0 16.06902,38.61069,0.0 16.06904,38.61079,0.0 16.06911,38.61099,0.0 16.06932,38.61141,0.0 16.06939,38.61151,0.0 16.07057,38.6138,0.0 16.0706,38.61384,0.0 16.07149,38.61551,0.0 16.07156,38.61566,0.0 16.0728,38.61802,0.0 16.07295,38.61838,0.0 16.07302,38.61864,0.0 16.07302,38.61867,0.0 16.07306,38.61888,0.0 16.07306,38.61911,0.0 16.07304,38.61922,0.0 16.07294,38.61952,0.0 16.07281,38.61978,0.0 16.07267,38.61996,0.0 16.07246,38.62018,0.0 16.06985,38.62264,0.0 16.06964,38.62287,0.0 16.06943,38.62319,0.0 16.06792,38.62603,0.0 16.06775,38.6264,0.0 16.06763,38.62662,0.0 16.06751,38.62681,0.0 16.06742,38.62699,0.0 16.0674,38.62705,0.0 16.06739,38.62711,0.0 16.06739,38.62715,0.0 16.06743,38.62734,0.0 16.06746,38.62739,0.0 16.06752,38.62752,0.0 16.06763,38.62768,0.0 16.06768,38.62773,0.0 16.06786,38.62788,0.0 16.06795,38.62797,0.0 16.06795,38.62798,0.0 16.06796,38.62799,0.0 16.06796,38.62802,0.0 16.06795,38.62803,0.0 16.06795,38.62804,0.0 16.06794,38.62805,0.0 16.06794,38.62806,0.0 16.06792,38.62807,0.0 16.06782,38.62807,0.0 16.0678,38.62806,0.0 16.06776,38.62805,0.0 16.0677,38.62802,0.0 16.06713,38.62779,0.0 16.0668,38.62768,0.0 16.06678,38.62767,0.0 16.06669,38.62767,0.0 16.06666,38.62768,0.0 16.06665,38.62769,0.0 16.06664,38.62769,0.0 16.06664,38.6277,0.0 16.06663,38.62771,0.0 16.06663,38.62777,0.0 16.06665,38.62778,0.0 16.06666,38.6278,0.0 16.06668,38.62781,0.0 16.06688,38.62797,0.0 16.06696,38.62805,0.0 16.06803,38.62929,0.0 16.06804,38.62931,0.0 16.06804,38.62933,0.0 16.06805,38.62935,0.0 16.06805,38.62937,0.0 16.06804,38.62938,0.0 16.06804,38.62939,0.0 16.06801,38.62942,0.0 16.06793,38.62942,0.0 16.06742,38.62914,0.0 16.0669,38.62889,0.0 16.06676,38.62884,0.0 16.06655,38.62879,0.0 16.06643,38.62878,0.0 16.06629,38.62878,0.0 16.06624,38.62879,0.0 16.0662,38.62881,0.0 16.06613,38.62886,0.0 16.06604,38.62895,0.0 16.06577,38.62936,0.0 16.06535,38.63006,0.0 16.06528,38.63022,0.0 16.06526,38.63029,0.0 16.06524,38.63033,0.0 16.06514,38.63113,0.0 16.06514,38.63117,0.0 16.06511,38.63133,0.0 16.06506,38.63151,0.0 16.06496,38.63175,0.0 16.06475,38.63215,0.0 16.0645,38.63255,0.0 16.06445,38.63265,0.0 16.06331,38.6345,0.0 16.06323,38.63461,0.0 16.0632,38.63463,0.0 16.06316,38.63468,0.0 16.0631,38.63474,0.0 16.06288,38.63489,0.0 16.06273,38.63497,0.0 16.0625,38.63507,0.0 16.06229,38.6352,0.0 16.06169,38.63564,0.0 16.0613,38.63587,0.0 16.06001,38.63656,0.0 16.0596,38.63676,0.0 16.05947,38.63681,0.0 16.05932,38.63685,0.0 16.05916,38.63688,0.0 16.05756,38.63705,0.0 16.05695,38.63716,0.0 16.05674,38.63721,0.0 16.05655,38.63728,0.0 16.05596,38.63759,0.0 16.05584,38.63767,0.0 16.05581,38.63768,0.0 16.05578,38.63771,0.0 16.05568,38.63779,0.0 16.0553,38.63822,0.0 16.05519,38.63829,0.0 16.05511,38.63832,0.0 16.05489,38.63836,0.0 16.05478,38.6384,0.0 16.05467,38.63846,0.0 16.05453,38.63862,0.0 16.05443,38.63875,0.0 16.05436,38.63882,0.0 16.05423,38.63892,0.0 16.05399,38.63908,0.0 16.0538,38.63917,0.0 16.05371,38.6392,0.0 16.05362,38.63921,0.0 16.05351,38.6392,0.0 16.0533,38.63913,0.0 16.0532,38.63907,0.0 16.05308,38.63901,0.0 16.05286,38.63887,0.0 16.0527,38.63873,0.0 16.05247,38.63849,0.0 16.05237,38.6384,0.0 16.05229,38.63835,0.0 16.05219,38.6383,0.0 16.05212,38.6383,0.0 16.05204,38.63832,0.0 16.05182,38.63842,0.0 16.05178,38.63846,0.0 16.05177,38.63848,0.0 16.05175,38.63856,0.0 16.05177,38.6392,0.0 16.05176,38.63937,0.0 16.05172,38.63954,0.0 16.05169,38.63959,0.0 16.05165,38.63964,0.0 16.05152,38.63973,0.0 16.05114,38.63989,0.0 16.05113,38.63989,0.0 16.05096,38.63997,0.0 16.05092,38.64,0.0 16.05089,38.64003,0.0 16.05086,38.64007,0.0 16.05084,38.64011,0.0 16.05084,38.64014,0.0 16.05083,38.64017,0.0 16.05083,38.6402,0.0 16.05085,38.64029,0.0 16.05087,38.64033,0.0 16.05089,38.64041,0.0 16.05099,38.64061,0.0 16.05103,38.64066,0.0 16.05129,38.6409,0.0 16.05142,38.641,0.0 16.0515,38.64109,0.0 16.05155,38.64116,0.0 16.0516,38.64128,0.0 16.05166,38.64152,0.0 16.05173,38.64171,0.0 16.05179,38.64183,0.0 16.05185,38.64191,0.0 16.05193,38.64199,0.0 16.05254,38.64241,0.0 16.05256,38.64242,0.0 16.05272,38.64255,0.0 16.05284,38.64267,0.0 16.05289,38.64273,0.0 16.05295,38.64283,0.0 16.05299,38.64285,0.0 16.05299,38.64286,0.0 16.053,38.64286,0.0 16.0534,38.64377,0.0 16.05353,38.64413,0.0 16.05374,38.64463,0.0 16.05388,38.64492,0.0 16.05437,38.64607,0.0 16.05483,38.64708,0.0 16.0554,38.64843,0.0 16.05551,38.64873,0.0 16.05551,38.64875,0.0 16.0555,38.64877,0.0 16.05552,38.64882,0.0 16.05555,38.64916,0.0 16.05555,38.64924,0.0 16.05553,38.64942,0.0 16.05552,38.64979,0.0 16.05544,38.65102,0.0 16.05542,38.65117,0.0 16.05541,38.65132,0.0 16.05541,38.65181,0.0 16.05542,38.65193,0.0 16.05545,38.65207,0.0 16.05547,38.65212,0.0 16.05551,38.65219,0.0 16.05552,38.6522,0.0 16.05556,38.65227,0.0 16.05559,38.65231,0.0 16.05634,38.65293,0.0 16.05641,38.65301,0.0 16.05646,38.65308,0.0 16.05652,38.65313,0.0 16.05679,38.65344,0.0 16.05863,38.65574,0.0 16.05879,38.65599,0.0 16.05889,38.6562,0.0 16.05899,38.65645,0.0 16.059,38.65649,0.0 16.05912,38.65673,0.0 16.05919,38.65683,0.0 16.0592,38.65685,0.0 16.05929,38.65697,0.0 16.05944,38.65712,0.0 16.0611,38.6582,0.0 16.06121,38.65829,0.0 16.06151,38.65846,0.0 16.06155,38.65847,0.0 16.06196,38.65863,0.0 16.06425,38.65944,0.0 16.06429,38.65946,0.0 16.06698,38.6604,0.0 16.06705,38.66038,0.0 16.06719,38.66044,0.0 16.06847,38.66091,0.0 16.06953,38.66127,0.0 16.06976,38.66136,0.0 16.07131,38.66189,0.0 16.0717,38.662,0.0 16.07171,38.66201,0.0 16.07177,38.66205,0.0 16.07207,38.66214,0.0 16.07216,38.66216,0.0 16.07486,38.66299,0.0 16.07517,38.66312,0.0 16.07547,38.66332,0.0 16.07579,38.66362,0.0 16.07633,38.66417,0.0 16.0764,38.66421,0.0 16.07641,38.66421,0.0 16.07769,38.66554,0.0 16.0777,38.66554,0.0 16.07771,38.66559,0.0 16.0787,38.66663,0.0 16.08049,38.66844,0.0 16.08076,38.66868,0.0 16.08111,38.66895,0.0 16.08418,38.67102,0.0 16.08429,38.67102,0.0 16.08431,38.67101,0.0 16.08456,38.67095,0.0 16.08493,38.67084,0.0 16.08499,38.67084,0.0 16.08504,38.67086,0.0 16.08508,38.67082,0.0 16.08531,38.67063,0.0 16.08539,38.67059,0.0 16.0854,38.67058,0.0 16.08547,38.67055,0.0 16.08553,38.67054,0.0 16.08563,38.67054,0.0 16.08573,38.67056,0.0 16.08595,38.67062,0.0 16.08611,38.67077,0.0 16.08788,38.67222,0.0 16.08824,38.67243,0.0 16.0887,38.67264,0.0 16.08941,38.67293,0.0 16.08964,38.67299,0.0 16.0923,38.67357,0.0 16.0929,38.67372,0.0 16.09308,38.67371,0.0 16.09331,38.67368,0.0 16.09338,38.67364,0.0 16.09345,38.67361,0.0 16.09352,38.67359,0.0 16.09372,38.6736,0.0 16.09466,38.67342,0.0 16.09552,38.67321,0.0 16.09581,38.67318,0.0 16.09613,38.6732,0.0 16.09626,38.67324,0.0 16.09638,38.67329,0.0 16.09664,38.67346,0.0 16.09674,38.67354,0.0 16.09688,38.67369,0.0 16.0972,38.67412,0.0 16.09764,38.67478,0.0 16.09766,38.67482,0.0 16.0977,38.67487,0.0 16.09776,38.67497,0.0 16.09945,38.67746,0.0 16.09948,38.67752,0.0 16.09951,38.67761,0.0 16.09963,38.6776,0.0 16.09969,38.67761,0.0 16.09976,38.67764,0.0 16.09983,38.67768,0.0 16.10012,38.67791,0.0 16.10037,38.67828,0.0 16.10043,38.67844,0.0 16.10051,38.6787,0.0 16.10055,38.67877,0.0 16.10074,38.67898,0.0 16.10229,38.68051,0.0 16.10242,38.68061,0.0 16.10253,38.68065,0.0 16.10276,38.68069,0.0 16.1028,38.68069,0.0 16.10295,38.68066,0.0 16.10303,38.68062,0.0 16.10282,38.68052,0.0 16.10271,38.68048,0.0 16.10252,38.68034,0.0 16.10217,38.68,0.0 16.10208,38.67987,0.0 16.10202,38.67973,0.0 16.10193,38.67942,0.0 16.10189,38.67922,0.0 16.10189,38.67911,0.0 16.1019,38.67907,0.0 16.10198,38.6789,0.0 16.10222,38.67903,0.0 16.10238,38.67915,0.0 16.10359,38.68026,0.0 16.10395,38.68054,0.0 16.10419,38.68069,0.0 16.10492,38.68109,0.0 16.10508,38.6812,0.0 16.10535,38.68142,0.0 16.10551,38.68158,0.0 16.10564,38.68174,0.0 16.10591,38.68213,0.0 16.10603,38.68235,0.0 16.10629,38.68273,0.0 16.10805,38.6855,0.0 16.10827,38.68577,0.0 16.10836,38.68585,0.0 16.10856,38.68599,0.0 16.10882,38.68611,0.0 16.10908,38.68619,0.0 16.10938,38.68625,0.0 16.10962,38.68627,0.0 16.10972,38.68627,0.0 16.10998,38.68625,0.0 16.11011,38.68623,0.0 16.11028,38.68619,0.0 16.11048,38.68612,0.0 16.11066,38.68604,0.0 16.1109,38.68589,0.0 16.11101,38.68581,0.0 16.11111,38.68572,0.0 16.11119,38.68563,0.0 16.11221,38.68409,0.0 16.11226,38.68397,0.0 16.11241,38.68376,0.0 16.11272,38.68353,0.0 16.11281,38.68348,0.0 16.1129,38.68342,0.0 16.11303,38.68336,0.0 16.11324,38.68329,0.0 16.11341,38.68326,0.0 16.1138,38.68323,0.0 16.11415,38.68324,0.0 16.11447,38.68331,0.0 16.11477,38.68342,0.0 16.11531,38.68365,0.0 16.11548,38.68374,0.0 16.12607,38.68801,0.0 16.1265,38.68821,0.0 16.12656,38.68822,0.0 16.12658,38.68823,0.0 16.1266,38.68823,0.0 16.12662,38.68825,0.0 16.12682,38.68839,0.0 16.12709,38.68861,0.0 16.12712,38.68864,0.0 16.12734,38.68893,0.0 16.12755,38.68924,0.0 16.12778,38.68964,0.0 16.12794,38.68995,0.0 16.12801,38.69005,0.0 16.12805,38.69008,0.0 16.12809,38.6901,0.0 16.12835,38.69019,0.0 16.12844,38.69019,0.0 16.1285,38.6902,0.0 16.1286,38.69024,0.0 16.12872,38.69033,0.0 16.12878,38.69045,0.0 16.12878,38.69052,0.0 16.12875,38.69063,0.0 16.12872,38.69066,0.0 16.1287,38.69069,0.0 16.12863,38.69075,0.0 16.12856,38.69077,0.0 16.12852,38.69084,0.0 16.1284,38.69095,0.0 16.12835,38.69101,0.0 16.12831,38.69107,0.0 16.12827,38.69123,0.0 16.12826,38.69165,0.0 16.12823,38.69171,0.0 16.12847,38.69421,0.0 16.12856,38.69463,0.0 16.12862,38.69481,0.0 16.12881,38.69523,0.0 16.12901,38.69557,0.0 16.1292,38.69582,0.0 16.12955,38.6962,0.0 16.13001,38.69658,0.0 16.13456,38.70006,0.0 16.13457,38.70006,0.0 16.13915,38.7036,0.0 16.13989,38.70413,0.0 16.14012,38.70426,0.0 16.14077,38.70451,0.0 16.14134,38.70466,0.0 16.14403,38.70519,0.0 16.14409,38.70521,0.0 16.14968,38.70628,0.0 16.15001,38.70631,0.0 16.15027,38.70631,0.0 16.15051,38.70629,0.0 16.15075,38.70625,0.0 16.15081,38.70622,0.0 16.15128,38.70611,0.0 16.15129,38.7061,0.0 16.15178,38.70587,0.0 16.15179,38.70586,0.0 16.15181,38.70585,0.0 16.15182,38.70584,0.0 16.15188,38.70581,0.0 16.1519,38.70581,0.0 16.15192,38.7058,0.0 16.15195,38.7058,0.0 16.15215,38.70564,0.0 16.15272,38.70506,0.0 16.15287,38.70489,0.0 16.15307,38.7047,0.0 16.15314,38.70462,0.0 16.15319,38.70454,0.0 16.15325,38.70436,0.0 16.15327,38.70426,0.0 16.15328,38.70414,0.0 16.1533,38.70295,0.0 16.15327,38.70284,0.0 16.15325,38.70279,0.0 16.15304,38.70248,0.0 16.15291,38.70225,0.0 16.15286,38.70218,0.0 16.15281,38.70209,0.0 16.15261,38.70179,0.0 16.15256,38.70169,0.0 16.15216,38.70105,0.0 16.1521,38.70098,0.0 16.15165,38.70067,0.0 16.15171,38.70063,0.0 16.15178,38.70057,0.0 16.15187,38.70054,0.0 16.15192,38.70053,0.0 16.15206,38.70054,0.0 16.15219,38.70054,0.0 16.15224,38.70055,0.0 16.15232,38.70055,0.0 16.15279,38.7006,0.0 16.15303,38.70065,0.0 16.15317,38.7007,0.0 16.15333,38.70077,0.0 16.15343,38.70083,0.0 16.15363,38.70098,0.0 16.15375,38.7011,0.0 16.15389,38.70126,0.0 16.15403,38.70145,0.0 16.15433,38.70176,0.0 16.15456,38.7019,0.0 16.15488,38.70204,0.0 16.15512,38.70212,0.0 16.15532,38.7022,0.0 16.15562,38.70229,0.0 16.1557,38.7023,0.0 16.15578,38.7023,0.0 16.15598,38.70226,0.0 16.15603,38.70223,0.0 16.15608,38.70219,0.0 16.15612,38.70215,0.0 16.15615,38.70211,0.0 16.15619,38.70204,0.0 16.1562,38.70195,0.0 16.1562,38.7019,0.0 16.15619,38.70185,0.0 16.15617,38.70181,0.0 16.15613,38.70175,0.0 16.15608,38.70169,0.0 16.15596,38.70164,0.0 16.15594,38.70164,0.0 16.1559,38.70162,0.0 16.15579,38.7016,0.0 16.15573,38.70161,0.0 16.15568,38.70161,0.0 16.15558,38.70163,0.0 16.15549,38.70167,0.0 16.15533,38.70182,0.0 16.15528,38.70185,0.0 16.15518,38.70203,0.0 16.15511,38.70213,0.0 16.15511,38.70214,0.0 16.15456,38.70295,0.0 16.15433,38.70338,0.0 16.15408,38.70402,0.0 16.15401,38.70426,0.0 16.1539,38.70477,0.0 16.15386,38.70514,0.0 16.15381,38.70652,0.0 16.15383,38.70897,0.0 16.15378,38.71134,0.0 16.15379,38.71193,0.0 16.15392,38.71315,0.0 16.15412,38.71426,0.0 16.15457,38.71619,0.0 16.155,38.71788,0.0 16.15507,38.71809,0.0 16.15517,38.71833,0.0 16.15529,38.71858,0.0 16.1556,38.71902,0.0 16.15586,38.7193,0.0 16.15609,38.71951,0.0 16.15886,38.72169,0.0 16.15934,38.72213,0.0 16.15988,38.72268,0.0 16.16164,38.72464,0.0 16.16364,38.72676,0.0 16.16413,38.72731,0.0 16.1657,38.72896,0.0 16.1663,38.72962,0.0 16.16767,38.73103,0.0 16.16825,38.73157,0.0 16.16884,38.73204,0.0 16.16941,38.73243,0.0 16.17028,38.73294,0.0 16.17115,38.73335,0.0 16.17153,38.7335,0.0 16.17232,38.73376,0.0 16.17302,38.73394,0.0 16.17629,38.73469,0.0 16.17687,38.73485,0.0 16.17765,38.73512,0.0 16.17793,38.73523,0.0 16.17849,38.73548,0.0 16.17914,38.73582,0.0 16.1795,38.73603,0.0 16.18014,38.73645,0.0 16.18082,38.73698,0.0 16.18123,38.73736,0.0 16.18193,38.73808,0.0 16.18205,38.73819,0.0 16.18246,38.73851,0.0 16.18267,38.73863,0.0 16.1834,38.73897,0.0 16.18452,38.73944,0.0 16.18502,38.73971,0.0 16.18522,38.73984,0.0 16.18541,38.73998,0.0 16.18559,38.74013,0.0 16.18598,38.74051,0.0 16.18613,38.74069,0.0 16.18704,38.74192,0.0 16.18772,38.7429,0.0 16.18845,38.7441,0.0 16.1886,38.74439,0.0 16.18907,38.74544,0.0 16.18991,38.74771,0.0 16.18999,38.7479,0.0 16.19006,38.74804,0.0 16.19017,38.74823,0.0 16.19048,38.74866,0.0 16.19075,38.74894,0.0 16.19222,38.75021,0.0 16.19256,38.75061,0.0 16.19261,38.75068,0.0 16.19325,38.75176,0.0 16.19351,38.75215,0.0 16.19377,38.75245,0.0 16.19395,38.75262,0.0 16.19428,38.75287,0.0 16.19471,38.75314,0.0 16.19504,38.75329,0.0 16.19741,38.75424,0.0 16.19781,38.75442,0.0 16.1981,38.75458,0.0 16.19844,38.75482,0.0 16.19881,38.75513,0.0 16.19897,38.75528,0.0 16.19906,38.75539,0.0 16.1992,38.75554,0.0 16.19981,38.75642,0.0 16.20048,38.75729,0.0 16.20117,38.75813,0.0 16.20159,38.75875,0.0 16.20182,38.75916,0.0 16.20215,38.75981,0.0 16.20234,38.76032,0.0 16.2026,38.76112,0.0 16.20289,38.76189,0.0 16.20303,38.76217,0.0 16.20318,38.7624,0.0 16.20341,38.76269,0.0 16.20392,38.76321,0.0 16.2043,38.76364,0.0 16.20443,38.76384,0.0 16.20519,38.76519,0.0 16.20524,38.76526,0.0 16.20538,38.7655,0.0 16.20591,38.76625,0.0 16.20695,38.76753,0.0 16.20732,38.76795,0.0 16.20752,38.76815,0.0 16.20786,38.76844,0.0 16.20919,38.76943,0.0 16.20921,38.76944,0.0 16.20936,38.76956,0.0 16.2095,38.76965,0.0 16.21152,38.77072,0.0 16.21165,38.77078,0.0 16.21228,38.77112,0.0 16.21289,38.77149,0.0 16.21319,38.77173,0.0 16.21321,38.77174,0.0 16.21356,38.77207,0.0 16.21382,38.77222,0.0 16.21403,38.77231,0.0 16.21431,38.77237,0.0 16.2144,38.77238,0.0 16.2145,38.77238,0.0 16.2147,38.77236,0.0 16.21505,38.77229,0.0 16.21523,38.77218,0.0 16.21586,38.77174,0.0 16.21605,38.77156,0.0 16.21643,38.77142,0.0 16.21647,38.77146,0.0 16.2165,38.7715,0.0 16.21657,38.77164,0.0 16.21659,38.77182,0.0 16.21659,38.77191,0.0 16.21657,38.77205,0.0 16.21653,38.77216,0.0 16.21646,38.77231,0.0 16.21645,38.77235,0.0 16.21643,38.77239,0.0 16.21633,38.77248,0.0 16.21587,38.77266,0.0 16.21583,38.77269,0.0 16.21436,38.77325,0.0 16.2111,38.77456,0.0 16.21083,38.77471,0.0 16.21076,38.77476,0.0 16.21071,38.77482,0.0 16.21065,38.77488,0.0 16.21057,38.77498,0.0 16.21045,38.77518,0.0 16.21041,38.7753,0.0 16.2104,38.77536,0.0 16.2104,38.77542,0.0 16.21039,38.77549,0.0 16.21039,38.77566,0.0 16.21449,38.78771,0.0 16.21452,38.78778,0.0 16.21529,38.79004,0.0 16.21533,38.79013,0.0 16.21571,38.79124,0.0 16.21588,38.79164,0.0 16.21603,38.79191,0.0 16.21609,38.79198,0.0 16.21615,38.79207,0.0 16.2163,38.79223,0.0 16.21738,38.79323,0.0 16.21826,38.794,0.0 16.21835,38.79409,0.0 16.21851,38.79423,0.0 16.21858,38.79431,0.0 16.21863,38.79438,0.0 16.21864,38.79439,0.0 16.21874,38.79455,0.0 16.21883,38.79473,0.0 16.21892,38.79494,0.0 16.21918,38.79565,0.0 16.2192,38.79569,0.0 16.21924,38.79582,0.0 16.22036,38.79883,0.0 16.22063,38.7995,0.0 16.22145,38.80173,0.0 16.22145,38.80174,0.0 16.22147,38.80178,0.0 16.22206,38.80345,0.0 16.22208,38.80349,0.0 16.22285,38.80567,0.0 16.22286,38.80569,0.0 16.22288,38.80576,0.0 16.2229,38.8058,0.0 16.2241,38.80914,0.0 16.22424,38.80959,0.0 16.22439,38.81021,0.0 16.2244,38.81022,0.0 16.22535,38.81399,0.0 16.22547,38.81453,0.0 16.22557,38.81487,0.0 16.22638,38.81808,0.0 16.22653,38.81859,0.0 16.22714,38.82037,0.0 16.22741,38.82139,0.0 16.2284,38.82586,0.0 16.2284,38.8259,0.0 16.2285,38.82631,0.0 16.22856,38.82649,0.0 16.22869,38.82678,0.0 16.22885,38.82703,0.0 16.2433,38.84698,0.0 16.24336,38.84705,0.0 16.24356,38.84736,0.0 16.24376,38.84772,0.0 16.24382,38.8479,0.0 16.24466,38.85241,0.0 16.24466,38.85243,0.0 16.24478,38.85304,0.0 16.24478,38.85312,0.0 16.24476,38.85321,0.0 16.24476,38.85322,0.0 16.24461,38.85386,0.0 16.2446,38.85394,0.0 16.24459,38.85398,0.0 16.24461,38.85432,0.0 16.24479,38.8553,0.0 16.2448,38.85539,0.0 16.24561,38.85964,0.0 16.24563,38.85979,0.0 16.24584,38.86084,0.0 16.24588,38.8611,0.0 16.24598,38.86147,0.0 16.24605,38.86164,0.0 16.24642,38.86232,0.0 16.24654,38.8626,0.0 16.2466,38.86277,0.0 16.24879,38.87445,0.0 16.24911,38.87631,0.0 16.24984,38.88017,0.0 16.24997,38.88064,0.0 16.25002,38.88078,0.0 16.25019,38.88114,0.0 16.25034,38.8814,0.0 16.25049,38.88161,0.0 16.25061,38.88176,0.0 16.25103,38.88219,0.0 16.25139,38.8825,0.0 16.25159,38.88264,0.0 16.25197,38.88287,0.0 16.25209,38.88292,0.0 16.26521,38.88969,0.0 16.26533,38.88977,0.0 16.26542,38.88982,0.0 16.26582,38.89009,0.0 16.26628,38.89044,0.0 16.26662,38.89074,0.0 16.26696,38.89108,0.0 16.26721,38.89136,0.0 16.26749,38.89172,0.0 16.26882,38.89374,0.0 16.26932,38.89454,0.0 16.26938,38.89462,0.0 16.26959,38.89497,0.0 16.27021,38.89593,0.0 16.27022,38.89594,0.0 16.27193,38.89859,0.0 16.2723,38.89934,0.0 16.27233,38.89939,0.0 16.2725,38.89986,0.0 16.27256,38.90012,0.0 16.27259,38.90021,0.0 16.2726,38.90029,0.0 16.27265,38.90047,0.0 16.27271,38.9008,0.0 16.27279,38.90157,0.0 16.2728,38.90249,0.0 16.27281,38.90259,0.0 16.27282,38.90358,0.0 16.27283,38.90367,0.0 16.27283,38.90493,0.0 16.27279,38.90536,0.0 16.27277,38.90544,0.0 16.27276,38.90551,0.0 16.27268,38.90582,0.0 16.27257,38.90612,0.0 16.27243,38.90643,0.0 16.27227,38.90671,0.0 16.27197,38.90714,0.0 16.27184,38.9073,0.0 16.27177,38.90737,0.0 16.27173,38.90742,0.0 16.27126,38.90786,0.0 16.27116,38.90793,0.0 16.27108,38.908,0.0 16.27095,38.90808,0.0 16.2708,38.90819,0.0 16.27066,38.90828,0.0 16.27003,38.90862,0.0 16.2694,38.90886,0.0 16.26911,38.90895,0.0 16.26623,38.90967,0.0 16.26603,38.90971,0.0 16.26579,38.90978,0.0 16.26281,38.91051,0.0 16.26224,38.91061,0.0 16.25535,38.91159,0.0 16.2549,38.91168,0.0 16.25475,38.91172,0.0 16.25463,38.91174,0.0 16.25417,38.91186,0.0 16.24671,38.91424,0.0 16.24664,38.91427,0.0 16.24645,38.91432,0.0 16.24497,38.91479,0.0 16.24449,38.91501,0.0 16.24401,38.91529,0.0 16.24385,38.9154,0.0 16.24354,38.91565,0.0 16.24336,38.91582,0.0 16.24317,38.91603,0.0 16.24301,38.91623,0.0 16.24285,38.91646,0.0 16.24275,38.91663,0.0 16.24259,38.91697,0.0 16.24247,38.91732,0.0 16.24241,38.91762,0.0 16.24238,38.91788,0.0 16.24238,38.91825,0.0 16.2425,38.92009,0.0 16.24248,38.92037,0.0 16.24245,38.92056,0.0 16.24235,38.921,0.0 16.24217,38.92144,0.0 16.24201,38.92172,0.0 16.24185,38.92195,0.0 16.24179,38.92205,0.0 16.24178,38.92206,0.0 16.24173,38.92215,0.0 16.24037,38.92422,0.0 16.24008,38.92461,0.0 16.24007,38.92461,0.0 16.24002,38.92468,0.0 16.23999,38.9247,0.0 16.23997,38.92473,0.0 16.23993,38.92477,0.0 16.23991,38.92478,0.0 16.23967,38.92502,0.0 16.23925,38.92534,0.0 16.23893,38.92553,0.0 16.23857,38.9257,0.0 16.23466,38.9272,0.0 16.23425,38.92732,0.0 16.23414,38.92734,0.0 16.2217,38.92834,0.0 16.22159,38.92837,0.0 16.22092,38.92843,0.0 16.22072,38.92847,0.0 16.21971,38.92855,0.0 16.21957,38.92857,0.0 16.2182,38.92863,0.0 16.21807,38.92867,0.0 16.21794,38.92872,0.0 16.21734,38.92909,0.0 16.2163,38.92984,0.0 16.21627,38.92987,0.0 16.2162,38.92991,0.0 16.21567,38.93034,0.0 16.21562,38.93037,0.0 16.21545,38.9305,0.0 16.21519,38.93067,0.0 16.21396,38.93159,0.0 16.21289,38.93251,0.0 16.2098,38.93529,0.0 16.20974,38.93536,0.0 16.20768,38.93722,0.0 16.20739,38.93746,0.0 16.20679,38.93788,0.0 16.20634,38.93814,0.0 16.20563,38.9384,0.0 16.20538,38.93847,0.0 16.20531,38.9385,0.0 16.20299,38.93923,0.0 16.20292,38.93926,0.0 16.2012,38.93982,0.0 16.20114,38.93983,0.0 16.19964,38.94032,0.0 16.19962,38.94032,0.0 16.19789,38.94088,0.0 16.19774,38.94092,0.0 16.19772,38.94093,0.0 16.19271,38.942,0.0 16.19244,38.94207,0.0 16.19214,38.94218,0.0 16.18952,38.94346,0.0 16.18922,38.94362,0.0 16.18896,38.94379,0.0 16.18587,38.94613,0.0 16.18549,38.94638,0.0 16.18442,38.94702,0.0 16.18334,38.94763,0.0 16.18191,38.94838,0.0 16.18183,38.94844,0.0 16.18088,38.94897,0.0 16.18075,38.94903,0.0 16.18049,38.9491,0.0 16.17997,38.94917,0.0 16.17756,38.94958,0.0 16.1772,38.94961,0.0 16.17516,38.94963,0.0 16.16205,38.94915,0.0 16.16178,38.94917,0.0 16.1615,38.94922,0.0 16.16035,38.94954,0.0 16.16029,38.94955,0.0 16.16025,38.94957,0.0 16.16001,38.94963,0.0 16.15917,38.94988,0.0 16.15903,38.94994,0.0 16.15892,38.95,0.0 16.1587,38.95014,0.0 16.158,38.95064,0.0 16.15776,38.95083,0.0 16.15696,38.95158,0.0 16.15654,38.952,0.0 16.15563,38.95308,0.0 16.15504,38.95384,0.0 16.155,38.95388,0.0 16.15489,38.95404,0.0 16.15483,38.95416,0.0 16.15474,38.95439,0.0 16.15436,38.95562,0.0 16.15212,38.96419,0.0 16.15201,38.96449,0.0 16.15185,38.96483,0.0 16.15131,38.96579,0.0 16.15058,38.96702,0.0 16.15054,38.96707,0.0 16.15047,38.96721,0.0 16.14939,38.96908,0.0 16.14934,38.96915,0.0 16.14902,38.96972,0.0 16.14901,38.96973,0.0 16.14833,38.97094,0.0 16.14822,38.97111,0.0 16.14676,38.97368,0.0 16.14674,38.9737,0.0 16.14669,38.97378,0.0 16.14663,38.97383,0.0 16.14652,38.97394,0.0 16.14638,38.97404,0.0 16.14467,38.97511,0.0 16.14456,38.9752,0.0 16.14456,38.97521,0.0 16.14437,38.97536,0.0 16.14422,38.97552,0.0 16.14395,38.97584,0.0 16.14368,38.9762,0.0 16.1436,38.97633,0.0 16.14194,38.98074,0.0 16.14192,38.98082,0.0 16.14123,38.98268,0.0 16.14107,38.98307,0.0 16.14092,38.98335,0.0 16.14062,38.98382,0.0 16.14053,38.98398,0.0 16.13911,38.98615,0.0 16.13878,38.98679,0.0 16.13685,38.99109,0.0 16.13666,38.99146,0.0 16.13642,38.99181,0.0 16.13615,38.99215,0.0 16.13609,38.9922,0.0 16.1358,38.99255,0.0 16.13575,38.9926,0.0 16.13535,38.99308,0.0 16.13513,38.99338,0.0 16.13482,38.99389,0.0 16.13475,38.99399,0.0 16.13446,38.99448,0.0 16.13434,38.99466,0.0 16.13431,38.99472,0.0 16.13295,38.99695,0.0 16.13274,38.99727,0.0 16.13071,39.00061,0.0 16.13038,39.0011,0.0 16.13026,39.00125,0.0 16.13022,39.00131,0.0 16.13022,39.00132,0.0 16.12971,39.00193,0.0 16.12937,39.0023,0.0 16.12928,39.00238,0.0 16.12911,39.00257,0.0 16.12423,39.00738,0.0 16.12411,39.00751,0.0 16.11926,39.01229,0.0 16.11656,39.01515,0.0 16.11652,39.0152,0.0 16.11208,39.01995,0.0 16.11202,39.02,0.0 16.1058,39.02664,0.0 16.1057,39.02676,0.0 16.10421,39.02834,0.0 16.10392,39.02869,0.0 16.10361,39.0291,0.0 16.10349,39.02928,0.0 16.10343,39.02939,0.0 16.10325,39.02967,0.0 16.10297,39.03026,0.0 16.10274,39.03085,0.0 16.10157,39.03417,0.0 16.10156,39.03419,0.0 16.09531,39.05185,0.0 16.0952,39.05213,0.0 16.09478,39.05338,0.0 16.0909,39.06429,0.0 16.09087,39.06443,0.0 16.09085,39.06466,0.0 16.09085,39.06476,0.0 16.09087,39.06493,0.0 16.0909,39.06506,0.0 16.09107,39.06545,0.0 16.09149,39.06601,0.0 16.09164,39.06617,0.0 16.09178,39.06637,0.0 16.09229,39.06703,0.0 16.09241,39.06722,0.0 16.09243,39.06728,0.0 16.09246,39.06734,0.0 16.09249,39.06742,0.0 16.0925,39.06749,0.0 16.0925,39.06757,0.0 16.09249,39.06764,0.0 16.09216,39.06865,0.0 16.0921,39.06888,0.0 16.09207,39.06905,0.0 16.09206,39.06916,0.0 16.09204,39.06927,0.0 16.09185,39.07087,0.0 16.0918,39.07112,0.0 16.09158,39.07258,0.0 16.0915,39.07285,0.0 16.09092,39.07413,0.0 16.09073,39.07451,0.0 16.09053,39.07497,0.0 16.0905,39.07502,0.0 16.08908,39.07804,0.0 16.08906,39.0781,0.0 16.08813,39.08009,0.0 16.08811,39.08015,0.0 16.08799,39.08043,0.0 16.08784,39.08085,0.0 16.08571,39.08851,0.0 16.08545,39.08953,0.0 16.08536,39.08996,0.0 16.08531,39.09028,0.0 16.0853,39.09041,0.0 16.0853,39.09069,0.0 16.08537,39.09138,0.0 16.08537,39.09205,0.0 16.08536,39.09224,0.0 16.08528,39.09273,0.0 16.08473,39.09513,0.0 16.08445,39.09591,0.0 16.08404,39.09684,0.0 16.08161,39.10199,0.0 16.08087,39.10343,0.0 16.08041,39.10452,0.0 16.0798,39.10587,0.0 16.07943,39.10659,0.0 16.07913,39.10736,0.0 16.079,39.10776,0.0 16.07892,39.10812,0.0 16.07883,39.10866,0.0 16.07882,39.10867,0.0 16.07844,39.11104,0.0 16.07833,39.11161,0.0 16.07824,39.11198,0.0 16.07817,39.11218,0.0 16.07784,39.11297,0.0 16.0765,39.11577,0.0 16.0765,39.11578,0.0 16.07394,39.12123,0.0 16.0739,39.12133,0.0 16.07386,39.12141,0.0 16.07383,39.12149,0.0 16.07361,39.12194,0.0 16.0736,39.12198,0.0 16.07342,39.12236,0.0 16.07119,39.12823,0.0 16.07104,39.12867,0.0 16.0709,39.12914,0.0 16.07087,39.12936,0.0 16.07087,39.12982,0.0 16.07112,39.13129,0.0 16.07117,39.13145,0.0 16.07142,39.13287,0.0 16.07143,39.13301,0.0 16.07143,39.13317,0.0 16.07142,39.1333,0.0 16.07138,39.13359,0.0 16.0713,39.13384,0.0 16.07123,39.134,0.0 16.07106,39.13429,0.0 16.07028,39.13543,0.0 16.07002,39.13578,0.0 16.06935,39.13679,0.0 16.06919,39.13708,0.0 16.069,39.13751,0.0 16.06841,39.13917,0.0 16.06841,39.13919,0.0 16.06837,39.13928,0.0 16.06783,39.14083,0.0 16.0677,39.14126,0.0 16.06755,39.14161,0.0 16.06729,39.1423,0.0 16.06645,39.14475,0.0 16.0662,39.14563,0.0 16.06612,39.14599,0.0 16.06599,39.1467,0.0 16.06582,39.14899,0.0 16.06582,39.14927,0.0 16.06581,39.14942,0.0 16.06576,39.15231,0.0 16.06573,39.15286,0.0 16.06508,39.15796,0.0 16.06508,39.15803,0.0 16.065,39.15862,0.0 16.06495,39.1592,0.0 16.06495,39.15984,0.0 16.06527,39.16245,0.0 16.06526,39.16305,0.0 16.06508,39.1656,0.0 16.06508,39.16572,0.0 16.06492,39.16778,0.0 16.06486,39.16828,0.0 16.06485,39.16843,0.0 16.0648,39.16872,0.0 16.06478,39.16905,0.0 16.06477,39.17009,0.0 16.0648,39.17038,0.0 16.06521,39.17248,0.0 16.06526,39.17269,0.0 16.06536,39.17324,0.0 16.06543,39.17379,0.0 16.06553,39.17424,0.0 16.06555,39.17471,0.0 16.06553,39.17541,0.0 16.06499,39.1823,0.0 16.06492,39.1835,0.0 16.06488,39.18393,0.0 16.06487,39.18397,0.0 16.06481,39.18494,0.0 16.06349,39.1938,0.0 16.06329,39.19676,0.0 16.06329,39.19687,0.0 16.06327,39.19713,0.0 16.0632,39.1975,0.0 16.0622,39.2017,0.0 16.06218,39.20183,0.0 16.06217,39.2021,0.0 16.06218,39.20247,0.0 16.06217,39.20257,0.0 16.06217,39.20545,0.0 16.06223,39.20622,0.0 16.06275,39.20893,0.0 16.06278,39.20915,0.0 16.06279,39.20929,0.0 16.06279,39.20986,0.0 16.0628,39.20989,0.0 16.06281,39.2099,0.0 16.06266,39.21301,0.0 16.06263,39.21307,0.0 16.06244,39.21676,0.0 16.06242,39.21687,0.0 16.06239,39.21697,0.0 16.06237,39.21708,0.0 16.0622,39.21766,0.0 16.06095,39.22143,0.0 16.06081,39.22193,0.0 16.06071,39.22241,0.0 16.06069,39.22256,0.0 16.06067,39.22289,0.0 16.06065,39.223,0.0 16.06054,39.22463,0.0 16.06054,39.22473,0.0 16.06028,39.2291,0.0 16.06027,39.22917,0.0 16.06022,39.23011,0.0 16.06021,39.23018,0.0 16.06004,39.23299,0.0 16.05997,39.23358,0.0 16.05985,39.23426,0.0 16.05975,39.23497,0.0 16.0597,39.23572,0.0 16.05966,39.23789,0.0 16.05972,39.23845,0.0 16.05978,39.23873,0.0 16.05983,39.2389,0.0 16.05992,39.23915,0.0 16.06009,39.2395,0.0 16.06015,39.23956,0.0 16.06029,39.23978,0.0 16.06062,39.24022,0.0 16.06148,39.24123,0.0 16.06151,39.2413,0.0 16.06239,39.24231,0.0 16.06244,39.24239,0.0 16.06248,39.24244,0.0 16.06254,39.24254,0.0 16.06265,39.24277,0.0 16.06276,39.2431,0.0 16.06279,39.24327,0.0 16.06281,39.24346,0.0 16.06282,39.24373,0.0 16.06284,39.24379,0.0 16.06285,39.24493,0.0 16.06287,39.24538,0.0 16.06286,39.24579,0.0 16.06283,39.24599,0.0 16.06279,39.24616,0.0 16.06264,39.24661,0.0 16.06259,39.24667,0.0 16.06257,39.24675,0.0 16.0625,39.24692,0.0 16.06159,39.24861,0.0 16.06049,39.25049,0.0 16.06042,39.25065,0.0 16.0604,39.25068,0.0 16.06016,39.2513,0.0 16.06011,39.25151,0.0 16.06003,39.25202,0.0 16.06,39.25247,0.0 16.05973,39.26078,0.0 16.05974,39.26089,0.0 16.05978,39.26384,0.0 16.05977,39.26434,0.0 16.05982,39.26677,0.0 16.05981,39.26711,0.0 16.05978,39.26746,0.0 16.05972,39.26785,0.0 16.05958,39.2684,0.0 16.05882,39.27101,0.0 16.05874,39.27141,0.0 16.05853,39.27268,0.0 16.05839,39.2734,0.0 16.05802,39.27574,0.0 16.05726,39.28011,0.0 16.05723,39.28049,0.0 16.05723,39.28067,0.0 16.05753,39.28489,0.0 16.05758,39.28621,0.0 16.05773,39.28762,0.0 16.0578,39.28909,0.0 16.0578,39.28929,0.0 16.05779,39.28943,0.0 16.05775,39.28972,0.0 16.05771,39.28987,0.0 16.05762,39.29014,0.0 16.05679,39.29218,0.0 16.05665,39.29259,0.0 16.05641,39.2938,0.0 16.05632,39.29434,0.0 16.05577,39.2971,0.0 16.05569,39.29735,0.0 16.0555,39.29778,0.0 16.05443,39.29974,0.0 16.05408,39.30051,0.0 16.05395,39.30085,0.0 16.05392,39.30091,0.0 16.05333,39.30235,0.0 16.05333,39.30242,0.0 16.05311,39.30296,0.0 16.05298,39.30333,0.0 16.05298,39.30334,0.0 16.05296,39.30337,0.0 16.05292,39.30352,0.0 16.05286,39.30368,0.0 16.05281,39.30416,0.0 16.05281,39.30429,0.0 16.05278,39.30436,0.0 16.05279,39.3044,0.0 16.05279,39.30459,0.0 16.05281,39.30475,0.0 16.05293,39.30533,0.0 16.05312,39.30595,0.0 16.05331,39.30677,0.0 16.05334,39.30718,0.0 16.0533,39.30746,0.0 16.05322,39.30778,0.0 16.05294,39.30874,0.0 16.05279,39.30938,0.0 16.05278,39.30954,0.0 16.05279,39.31005,0.0 16.05295,39.31229,0.0 16.053,39.31276,0.0 16.05302,39.3131,0.0 16.05306,39.31348,0.0 16.05306,39.3136,0.0 16.05326,39.31572,0.0 16.05326,39.3158,0.0 16.05335,39.31705,0.0 16.05334,39.31732,0.0 16.05331,39.31759,0.0 16.05321,39.3179,0.0 16.05241,39.3197,0.0 16.05223,39.32007,0.0 16.05204,39.32056,0.0 16.05153,39.32221,0.0 16.0514,39.32245,0.0 16.05133,39.32255,0.0 16.05133,39.32256,0.0 16.05129,39.32261,0.0 16.05104,39.32298,0.0 16.05061,39.32355,0.0 16.0502,39.32404,0.0 16.04989,39.32435,0.0 16.04893,39.32519,0.0 16.04853,39.32561,0.0 16.04852,39.32561,0.0 16.0483,39.32591,0.0 16.04818,39.32619,0.0 16.04807,39.3265,0.0 16.04773,39.32773,0.0 16.0477,39.32787,0.0 16.04768,39.32793,0.0 16.04768,39.32795,0.0 16.04722,39.32976,0.0 16.04708,39.33041,0.0 16.04704,39.33055,0.0 16.04702,39.33068,0.0 16.04587,39.33542,0.0 16.04552,39.33663,0.0 16.04551,39.33669,0.0 16.04516,39.33803,0.0 16.04447,39.34091,0.0 16.04441,39.34126,0.0 16.04438,39.34175,0.0 16.04443,39.34229,0.0 16.04469,39.34397,0.0 16.0447,39.34436,0.0 16.04469,39.34456,0.0 16.04466,39.34476,0.0 16.04465,39.34489,0.0 16.04457,39.34538,0.0 16.04427,39.34764,0.0 16.04427,39.3479,0.0 16.04433,39.3483,0.0 16.04479,39.34976,0.0 16.0448,39.34977,0.0 16.04505,39.35056,0.0 16.0455,39.35176,0.0 16.04562,39.35219,0.0 16.04571,39.35274,0.0 16.04597,39.35408,0.0 16.046,39.35438,0.0 16.04607,39.35479,0.0 16.04607,39.35484,0.0 16.04601,39.35519,0.0 16.04593,39.35543,0.0 16.04529,39.35679,0.0 16.0452,39.35683,0.0 16.04513,39.35679,0.0 16.04503,39.35682,0.0 16.04473,39.35699,0.0 16.04467,39.35704,0.0 16.04459,39.35712,0.0 16.04453,39.35731,0.0 16.04451,39.35744,0.0 16.04451,39.35755,0.0 16.04452,39.35766,0.0 16.04454,39.35776,0.0 16.04455,39.35786,0.0 16.04455,39.35796,0.0 16.04452,39.35809,0.0 16.04445,39.35831,0.0 16.04439,39.35842,0.0 16.04429,39.35854,0.0 16.04422,39.3586,0.0 16.04378,39.3589,0.0 16.04369,39.35897,0.0 16.04363,39.35903,0.0 16.04361,39.35909,0.0 16.04362,39.35914,0.0 16.04364,39.35919,0.0 16.04379,39.35934,0.0 16.04385,39.35939,0.0 16.04378,39.35955,0.0 16.04377,39.35962,0.0 16.04373,39.35971,0.0 16.0437,39.3599,0.0 16.04371,39.36,0.0 16.0437,39.36001,0.0 16.0437,39.36003,0.0 16.04349,39.36124,0.0 16.0434,39.36224,0.0 16.04327,39.3628,0.0 16.04323,39.36288,0.0 16.0432,39.36292,0.0 16.04306,39.36303,0.0 16.04264,39.36328,0.0 16.04255,39.3633,0.0 16.0425,39.3633,0.0 16.04204,39.36315,0.0 16.04185,39.36311,0.0 16.04165,39.36311,0.0 16.04163,39.36312,0.0 16.04157,39.36314,0.0 16.04153,39.36316,0.0 16.04161,39.36326,0.0 16.04165,39.36335,0.0 16.04184,39.36422,0.0 16.042,39.36513,0.0 16.04211,39.36562,0.0 16.04221,39.36583,0.0 16.04238,39.36603,0.0 16.04251,39.36616,0.0 16.04262,39.36631,0.0 16.04279,39.36672,0.0 16.04286,39.36686,0.0 16.04298,39.36716,0.0 16.04312,39.36741,0.0 16.0433,39.36787,0.0 16.0433,39.36798,0.0 16.04326,39.36812,0.0 16.0432,39.36823,0.0 16.04306,39.36843,0.0 16.04297,39.36854,0.0 16.04292,39.36859,0.0 16.0428,39.36865,0.0 16.04272,39.36867,0.0 16.04265,39.36868,0.0 16.04245,39.36866,0.0 16.04233,39.36861,0.0 16.04229,39.3686,0.0 16.04224,39.36858,0.0 16.04212,39.36855,0.0 16.0421,39.36855,0.0 16.04207,39.36856,0.0 16.04202,39.36859,0.0 16.04196,39.36866,0.0 16.04188,39.36884,0.0 16.04178,39.36916,0.0 16.04161,39.36953,0.0 16.04126,39.36985,0.0 16.04114,39.36998,0.0 16.0411,39.3701,0.0 16.04112,39.37027,0.0 16.04123,39.37057,0.0 16.0414,39.37114,0.0 16.0414,39.37124,0.0 16.04134,39.37138,0.0 16.04099,39.3718,0.0 16.04091,39.37208,0.0 16.04088,39.37213,0.0 16.0408,39.3722,0.0 16.04047,39.3724,0.0 16.04028,39.37293,0.0 16.04025,39.37304,0.0 16.04022,39.37311,0.0 16.03999,39.37387,0.0 16.03988,39.37418,0.0 16.03979,39.37439,0.0 16.03976,39.37444,0.0 16.03973,39.37446,0.0 16.03968,39.37451,0.0 16.03965,39.37453,0.0 16.03948,39.37459,0.0 16.03928,39.37462,0.0 16.03884,39.37477,0.0 16.03863,39.37488,0.0 16.03849,39.37499,0.0 16.03785,39.37593,0.0 16.03779,39.37604,0.0 16.03771,39.37634,0.0 16.03771,39.37646,0.0 16.03774,39.37658,0.0 16.03779,39.37664,0.0 16.0378,39.37667,0.0 16.03786,39.37675,0.0 16.0379,39.37684,0.0 16.03793,39.37698,0.0 16.03793,39.37711,0.0 16.03792,39.37718,0.0 16.03791,39.37721,0.0 16.03791,39.37725,0.0 16.03779,39.37776,0.0 16.03779,39.37784,0.0 16.03782,39.37791,0.0 16.03838,39.37854,0.0 16.03849,39.37873,0.0 16.0385,39.37879,0.0 16.0385,39.37885,0.0 16.03847,39.37897,0.0 16.03842,39.37909,0.0 16.03839,39.37921,0.0 16.03823,39.37957,0.0 16.03822,39.37963,0.0 16.03816,39.37982,0.0 16.03817,39.37996,0.0 16.03878,39.38152,0.0 16.03886,39.38195,0.0 16.03892,39.38272,0.0 16.03888,39.38294,0.0 16.03883,39.38311,0.0 16.03857,39.38382,0.0 16.03856,39.38387,0.0 16.03857,39.38393,0.0 16.03861,39.384,0.0 16.03867,39.38404,0.0 16.03882,39.38411,0.0 16.03889,39.38417,0.0 16.03891,39.38423,0.0 16.03892,39.38425,0.0 16.03892,39.38428,0.0 16.03891,39.38431,0.0 16.03891,39.38433,0.0 16.03887,39.38444,0.0 16.03884,39.3845,0.0 16.03834,39.38517,0.0 16.03828,39.38537,0.0 16.03819,39.38614,0.0 16.03808,39.38644,0.0 16.03798,39.38661,0.0 16.03788,39.38673,0.0 16.03767,39.38695,0.0 16.03689,39.38752,0.0 16.03659,39.3878,0.0 16.03647,39.38789,0.0 16.03621,39.38806,0.0 16.03601,39.38816,0.0 16.03473,39.38854,0.0 16.03451,39.38863,0.0 16.03435,39.38875,0.0 16.03421,39.38887,0.0 16.03415,39.38898,0.0 16.03413,39.38911,0.0 16.03414,39.3892,0.0 16.03416,39.38996,0.0 16.03409,39.39,0.0 16.03369,39.39008,0.0 16.03368,39.39008,0.0 16.03291,39.39025,0.0 16.03236,39.39035,0.0 16.03225,39.39039,0.0 16.03219,39.39042,0.0 16.03211,39.39052,0.0 16.03183,39.39076,0.0 16.03106,39.39112,0.0 16.03075,39.39129,0.0 16.03047,39.3915,0.0 16.0301,39.39186,0.0 16.02968,39.39212,0.0 16.02918,39.39247,0.0 16.02878,39.3928,0.0 16.02867,39.39288,0.0 16.02856,39.39299,0.0 16.02833,39.3933,0.0 16.02771,39.39448,0.0 16.02766,39.3948,0.0 16.02766,39.39484,0.0 16.02764,39.39494,0.0 16.02765,39.39525,0.0 16.02755,39.39661,0.0 16.02754,39.39698,0.0 16.02755,39.39715,0.0 16.02762,39.39759,0.0 16.02763,39.39774,0.0 16.0278,39.39839,0.0 16.0278,39.39883,0.0 16.02786,39.39908,0.0 16.02775,39.39918,0.0 16.02773,39.39919,0.0 16.02772,39.3992,0.0 16.0277,39.39924,0.0 16.0277,39.39942,0.0 16.02772,39.3995,0.0 16.02772,39.39957,0.0 16.02769,39.39967,0.0 16.02773,39.39992,0.0 16.02789,39.40052,0.0 16.02782,39.40055,0.0 16.02778,39.40055,0.0 16.02775,39.40056,0.0 16.0269,39.40071,0.0 16.02634,39.40079,0.0 16.02632,39.4008,0.0 16.02616,39.40083,0.0 16.02609,39.40085,0.0 16.02565,39.4009,0.0 16.0255,39.40095,0.0 16.02528,39.40097,0.0 16.02476,39.40097,0.0 16.02467,39.40098,0.0 16.02448,39.40102,0.0 16.02427,39.40109,0.0 16.02405,39.40113,0.0 16.02387,39.40118,0.0 16.02369,39.40125,0.0 16.0232,39.40154,0.0 16.02317,39.40155,0.0 16.02303,39.40163,0.0 16.02296,39.40165,0.0 16.02287,39.40166,0.0 16.0226,39.40167,0.0 16.02257,39.40166,0.0 16.0225,39.40166,0.0 16.02245,39.40165,0.0 16.0224,39.40163,0.0 16.02238,39.40163,0.0 16.0225,39.40188,0.0 16.02249,39.40191,0.0 16.02249,39.40194,0.0 16.02246,39.40198,0.0 16.02241,39.40203,0.0 16.02223,39.40214,0.0 16.02217,39.4022,0.0 16.02215,39.40225,0.0 16.02213,39.40232,0.0 16.02216,39.40255,0.0 16.02219,39.40266,0.0 16.02224,39.40276,0.0 16.02229,39.40297,0.0 16.0223,39.40309,0.0 16.02227,39.40327,0.0 16.02219,39.4035,0.0 16.02212,39.4036,0.0 16.02198,39.40376,0.0 16.02191,39.40382,0.0 16.02181,39.40384,0.0 16.02175,39.40386,0.0 16.02106,39.40395,0.0 16.02074,39.40408,0.0 16.02044,39.40422,0.0 16.02032,39.40424,0.0 16.0202,39.40425,0.0 16.01975,39.40425,0.0 16.0192,39.40417,0.0 16.01902,39.40416,0.0 16.01862,39.40416,0.0 16.01849,39.40415,0.0 16.01832,39.40415,0.0 16.01824,39.40416,0.0 16.01789,39.40424,0.0 16.01779,39.40424,0.0 16.01762,39.40422,0.0 16.0175,39.40419,0.0 16.01748,39.40419,0.0 16.01746,39.40418,0.0 16.01745,39.40417,0.0 16.01744,39.40417,0.0 16.01736,39.40409,0.0 16.0173,39.40404,0.0 16.01729,39.40402,0.0 16.01722,39.40399,0.0 16.01718,39.40396,0.0 16.01705,39.40392,0.0 16.01702,39.40393,0.0 16.017,39.40393,0.0 16.01688,39.40396,0.0 16.01672,39.40394,0.0 16.01666,39.40394,0.0 16.01631,39.40386,0.0 16.01627,39.40387,0.0 16.01623,39.40387,0.0 16.01602,39.40394,0.0 16.01577,39.40398,0.0 16.01571,39.40398,0.0 16.0157,39.40397,0.0 16.01569,39.40397,0.0 16.01569,39.40393,0.0 16.0157,39.40392,0.0 16.01572,39.40392,0.0 16.01574,39.4039,0.0 16.01598,39.40382,0.0 16.01602,39.40378,0.0 16.01602,39.40374,0.0 16.01601,39.40371,0.0 16.01598,39.40373,0.0 16.01596,39.40375,0.0 16.01594,39.40375,0.0 16.0159,39.40377,0.0 16.01584,39.40379,0.0 16.01558,39.40383,0.0 16.01543,39.40388,0.0 16.01533,39.40398,0.0 16.01515,39.40425,0.0 16.01475,39.40494,0.0 16.01468,39.40493,0.0 16.01464,39.40493,0.0 16.01458,39.40495,0.0 16.0145,39.40499,0.0 16.01505,39.40946,0.0 16.01503,39.4098,0.0 16.01496,39.41026,0.0 16.01493,39.41054,0.0 16.01454,39.41259,0.0 16.01452,39.41266,0.0 16.01445,39.41303,0.0 16.01435,39.4134,0.0 16.0143,39.41353,0.0 16.01421,39.4137,0.0 16.01385,39.41422,0.0 16.01383,39.41426,0.0 16.01378,39.41432,0.0 16.0129,39.41555,0.0 16.01249,39.41607,0.0 16.01167,39.41691,0.0 16.01197,39.41688,0.0 16.01208,39.41688,0.0 16.01211,39.41689,0.0 16.01218,39.4169,0.0 16.01234,39.41695,0.0 16.01349,39.41743,0.0 16.01357,39.41745,0.0 16.01393,39.41751,0.0 16.01395,39.41751,0.0 16.01398,39.41752,0.0 16.01402,39.41756,0.0 16.01404,39.4176,0.0 16.01406,39.41798,0.0 16.01407,39.41802,0.0 16.01409,39.41805,0.0 16.0141,39.41808,0.0 16.01412,39.4181,0.0 16.01414,39.41813,0.0 16.01422,39.41821,0.0 16.01435,39.41831,0.0 16.01443,39.41835,0.0 16.01467,39.41838,0.0 16.01472,39.41838,0.0 16.01476,39.41839,0.0 16.01478,39.41839,0.0 16.0148,39.4184,0.0 16.01481,39.41841,0.0 16.01482,39.41843,0.0 16.01482,39.41846,0.0 16.0148,39.41854,0.0 16.01473,39.41906,0.0 16.01473,39.4191,0.0 16.01476,39.41923,0.0 16.01492,39.41969,0.0 16.01496,39.41985,0.0 16.01496,39.42007,0.0 16.01495,39.42013,0.0 16.01491,39.42028,0.0 16.01483,39.4205,0.0 16.01474,39.42083,0.0 16.01462,39.4212,0.0 16.01456,39.42133,0.0 16.01445,39.42146,0.0 16.01417,39.42172,0.0 16.01408,39.42183,0.0 16.01405,39.42186,0.0 16.0139,39.42198,0.0 16.0138,39.42208,0.0 16.0138,39.42216,0.0 16.01381,39.42218,0.0 16.0139,39.42228,0.0 16.01393,39.42234,0.0 16.01398,39.42242,0.0 16.014,39.42243,0.0 16.01402,39.42245,0.0 16.01413,39.42252,0.0 16.01414,39.42253,0.0 16.01416,39.42254,0.0 16.01416,39.42255,0.0 16.01418,39.42259,0.0 16.01419,39.42264,0.0 16.01419,39.42269,0.0 16.0142,39.42272,0.0 16.0142,39.42274,0.0 16.01423,39.42279,0.0 16.01434,39.42292,0.0 16.01442,39.42303,0.0 16.01443,39.42307,0.0 16.01443,39.42309,0.0 16.01441,39.42313,0.0 16.01429,39.42324,0.0 16.0142,39.42335,0.0 16.01396,39.42382,0.0 16.01388,39.42393,0.0 16.01379,39.42402,0.0 16.01371,39.42408,0.0 16.01345,39.42422,0.0 16.01349,39.42426,0.0 16.01353,39.42433,0.0 16.01355,39.42435,0.0 16.01359,39.42437,0.0 16.01409,39.42453,0.0 16.01418,39.42457,0.0 16.0142,39.42459,0.0 16.01424,39.42462,0.0 16.01448,39.42487,0.0 16.01455,39.42492,0.0 16.01457,39.42494,0.0 16.01463,39.42496,0.0 16.01463,39.42497,0.0 16.01451,39.42546,0.0 16.01445,39.42582,0.0 16.01445,39.42602,0.0 16.01448,39.42611,0.0 16.01455,39.42623,0.0 16.01464,39.42628,0.0 16.01513,39.42648,0.0 16.01544,39.42667,0.0 16.01608,39.42711,0.0 16.01618,39.4272,0.0 16.01625,39.42729,0.0 16.01636,39.42741,0.0 16.01648,39.42759,0.0 16.01651,39.42766,0.0 16.01652,39.42771,0.0 16.01652,39.42776,0.0 16.01651,39.42786,0.0 16.01648,39.42798,0.0 16.01643,39.42809,0.0 16.01638,39.42818,0.0 16.01635,39.42821,0.0 16.01633,39.42824,0.0 16.0163,39.42826,0.0 16.01622,39.42829,0.0 16.01558,39.42831,0.0 16.01552,39.42828,0.0 16.01551,39.42826,0.0 16.01538,39.42809,0.0 16.01534,39.42805,0.0 16.01527,39.42801,0.0 16.01509,39.42794,0.0 16.01499,39.42792,0.0 16.01494,39.42793,0.0 16.01486,39.42796,0.0 16.01482,39.428,0.0 16.0148,39.42804,0.0 16.01475,39.42811,0.0 16.01472,39.42819,0.0 16.01472,39.42836,0.0 16.01474,39.42843,0.0 16.01488,39.42867,0.0 16.01507,39.42906,0.0 16.01518,39.42935,0.0 16.01521,39.42941,0.0 16.01522,39.42945,0.0 16.01524,39.4296,0.0 16.01521,39.42968,0.0 16.01509,39.4299,0.0 16.01489,39.43016,0.0 16.01464,39.43034,0.0 16.01457,39.43038,0.0 16.01445,39.43049,0.0 16.0141,39.43097,0.0 16.01403,39.4311,0.0 16.01397,39.43125,0.0 16.01395,39.43132,0.0 16.01394,39.43138,0.0 16.01394,39.43149,0.0 16.01397,39.43162,0.0 16.01407,39.43187,0.0 16.01411,39.43203,0.0 16.01412,39.43216,0.0 16.01412,39.43229,0.0 16.01411,39.43232,0.0 16.01409,39.43235,0.0 16.01407,39.4324,0.0 16.01404,39.43243,0.0 16.01402,39.43246,0.0 16.01395,39.4325,0.0 16.01392,39.43251,0.0 16.01391,39.43252,0.0 16.01383,39.43252,0.0 16.01371,39.43251,0.0 16.01363,39.43249,0.0 16.01346,39.43248,0.0 16.0134,39.43249,0.0 16.01304,39.4326,0.0 16.01264,39.43277,0.0 16.01194,39.43312,0.0 16.01181,39.43321,0.0 16.01165,39.43337,0.0 16.01142,39.43365,0.0 16.01042,39.43458,0.0 16.01012,39.43488,0.0 16.01004,39.43498,0.0 16.00986,39.43534,0.0 16.00984,39.4354,0.0 16.00968,39.43563,0.0 16.00945,39.43585,0.0 16.00943,39.43588,0.0 16.0094,39.43591,0.0 16.00937,39.43596,0.0 16.00935,39.43601,0.0 16.00934,39.43608,0.0 16.00932,39.43616,0.0 16.00932,39.4362,0.0 16.00931,39.43624,0.0 16.00931,39.43633,0.0 16.00932,39.43638,0.0 16.00934,39.43641,0.0 16.0094,39.43647,0.0 16.00947,39.4365,0.0 16.00959,39.43652,0.0 16.01067,39.43662,0.0 16.01104,39.43661,0.0 16.01144,39.43656,0.0 16.01153,39.43656,0.0 16.01156,39.43658,0.0 16.01158,39.43661,0.0 16.0116,39.43667,0.0 16.0116,39.43672,0.0 16.01091,39.43794,0.0 16.01086,39.43805,0.0 16.01084,39.43811,0.0 16.01084,39.43818,0.0 16.01087,39.43826,0.0 16.01092,39.43833,0.0 16.01098,39.43838,0.0 16.01189,39.439,0.0 16.0121,39.43916,0.0 16.01223,39.43928,0.0 16.01226,39.43932,0.0 16.01228,39.43937,0.0 16.01228,39.4394,0.0 16.01229,39.43942,0.0 16.01229,39.43951,0.0 16.01228,39.43954,0.0 16.01226,39.43957,0.0 16.01222,39.43965,0.0 16.01207,39.43988,0.0 16.01205,39.43992,0.0 16.01197,39.43997,0.0 16.01188,39.43997,0.0 16.01133,39.43971,0.0 16.01122,39.43967,0.0 16.01068,39.43952,0.0 16.01051,39.43951,0.0 16.01038,39.43949,0.0 16.01015,39.43949,0.0 16.01011,39.43948,0.0 16.01008,39.43948,0.0 16.00995,39.43943,0.0 16.00993,39.43941,0.0 16.00992,39.43939,0.0 16.00987,39.43933,0.0 16.00986,39.43931,0.0 16.00983,39.43928,0.0 16.00982,39.43926,0.0 16.0098,39.43925,0.0 16.00978,39.43923,0.0 16.00975,39.43923,0.0 16.00972,39.43922,0.0 16.00959,39.43921,0.0 16.00957,39.4392,0.0 16.00954,39.4392,0.0 16.00921,39.43907,0.0 16.00919,39.43907,0.0 16.00917,39.43906,0.0 16.0091,39.43906,0.0 16.00904,39.43908,0.0 16.00882,39.43931,0.0 16.00879,39.43933,0.0 16.00869,39.43936,0.0 16.00864,39.43936,0.0 16.00856,39.43934,0.0 16.00842,39.43926,0.0 16.00753,39.43864,0.0 16.00747,39.43863,0.0 16.00744,39.43863,0.0 16.0074,39.43862,0.0 16.0073,39.43864,0.0 16.00686,39.43883,0.0 16.0068,39.43888,0.0 16.00672,39.43893,0.0 16.0066,39.43902,0.0 16.00652,39.4391,0.0 16.00642,39.43924,0.0 16.00633,39.43941,0.0 16.00627,39.43956,0.0 16.00626,39.43966,0.0 16.00624,39.43976,0.0 16.00624,39.43985,0.0 16.00627,39.44014,0.0 16.00627,39.4404,0.0 16.00626,39.44049,0.0 16.00623,39.44059,0.0 16.00614,39.44081,0.0 16.0059,39.44128,0.0 16.0058,39.44151,0.0 16.00578,39.44153,0.0 16.00566,39.44169,0.0 16.00561,39.44177,0.0 16.00557,39.44185,0.0 16.00557,39.4419,0.0 16.00556,39.44192,0.0 16.00557,39.44209,0.0 16.00558,39.44212,0.0 16.00558,39.44216,0.0 16.00557,39.44218,0.0 16.00556,39.44219,0.0 16.00554,39.4422,0.0 16.00547,39.4422,0.0 16.00543,39.44218,0.0 16.0054,39.44209,0.0 16.00539,39.44204,0.0 16.0054,39.44185,0.0 16.00542,39.44173,0.0 16.00576,39.44079,0.0 16.00577,39.44075,0.0 16.00577,39.44069,0.0 16.00578,39.44062,0.0 16.00577,39.44059,0.0 16.00577,39.44055,0.0 16.00576,39.4405,0.0 16.00573,39.44042,0.0 16.00565,39.44026,0.0 16.00561,39.4402,0.0 16.00553,39.44013,0.0 16.00546,39.44009,0.0 16.0054,39.44007,0.0 16.00529,39.44005,0.0 16.00521,39.44005,0.0 16.0051,39.44004,0.0 16.005,39.44001,0.0 16.00498,39.44,0.0 16.00494,39.43997,0.0 16.0049,39.43992,0.0 16.00488,39.43988,0.0 16.00486,39.43977,0.0 16.00484,39.4397,0.0 16.00478,39.4396,0.0 16.00476,39.43958,0.0 16.00474,39.43955,0.0 16.00471,39.43953,0.0 16.00454,39.43945,0.0 16.00413,39.43933,0.0 16.00384,39.43921,0.0 16.0038,39.43921,0.0 16.00377,39.43922,0.0 16.00375,39.43924,0.0 16.00374,39.43926,0.0 16.00374,39.43928,0.0 16.00373,39.4393,0.0 16.00375,39.43933,0.0 16.0038,39.43937,0.0 16.00383,39.43941,0.0 16.00396,39.43953,0.0 16.00445,39.44003,0.0 16.00473,39.44035,0.0 16.00474,39.44037,0.0 16.00474,39.44039,0.0 16.00475,39.44042,0.0 16.00475,39.44044,0.0 16.00473,39.44048,0.0 16.00471,39.4405,0.0 16.00466,39.44053,0.0 16.00452,39.44057,0.0 16.00431,39.44061,0.0 16.00429,39.44061,0.0 16.00425,39.44062,0.0 16.00419,39.44062,0.0 16.00398,39.44054,0.0 16.00388,39.44054,0.0 16.00377,39.44057,0.0 16.00366,39.44061,0.0 16.00365,39.44061,0.0 16.00358,39.44063,0.0 16.00341,39.44066,0.0 16.00334,39.44071,0.0 16.00331,39.44074,0.0 16.00326,39.44083,0.0 16.00321,39.44096,0.0 16.00316,39.44102,0.0 16.00311,39.44106,0.0 16.00304,39.4411,0.0 16.00254,39.44127,0.0 16.00246,39.44129,0.0 16.00241,39.44131,0.0 16.00233,39.44137,0.0 16.00229,39.44143,0.0 16.00227,39.44145,0.0 16.00225,39.4415,0.0 16.00219,39.44178,0.0 16.00218,39.44179,0.0 16.00218,39.44183,0.0 16.00217,39.44186,0.0 16.00214,39.44191,0.0 16.00159,39.44261,0.0 16.00113,39.44331,0.0 16.00077,39.44376,0.0 16.00075,39.44382,0.0 16.00072,39.44387,0.0 16.00058,39.44416,0.0 16.00035,39.44456,0.0 16.00022,39.44475,0.0 16.00008,39.44499,0.0 16.00002,39.44514,0.0 15.99998,39.4453,0.0 15.99998,39.44538,0.0 16.00002,39.44548,0.0 16.00032,39.44582,0.0 16.00041,39.44594,0.0 16.00055,39.44622,0.0 16.00057,39.4463,0.0 16.00057,39.44631,0.0 16.00055,39.44639,0.0 16.00053,39.44642,0.0 16.00047,39.44647,0.0 16.00041,39.44651,0.0 16.00026,39.44658,0.0 15.99976,39.44673,0.0 15.99937,39.44681,0.0 15.99873,39.4469,0.0 15.99865,39.44692,0.0 15.99861,39.44694,0.0 15.99854,39.44699,0.0 15.99845,39.44708,0.0 15.99844,39.44708,0.0 15.99838,39.44713,0.0 15.99773,39.44749,0.0 15.99737,39.44772,0.0 15.99648,39.44835,0.0 15.99637,39.44839,0.0 15.99628,39.44841,0.0 15.99621,39.44841,0.0 15.99616,39.44842,0.0 15.9961,39.44842,0.0 15.99581,39.44837,0.0 15.99575,39.44837,0.0 15.9957,39.44838,0.0 15.99556,39.44843,0.0 15.99501,39.44868,0.0 15.9946,39.44895,0.0 15.99447,39.44902,0.0 15.99439,39.44905,0.0 15.99433,39.44906,0.0 15.99431,39.44906,0.0 15.99427,39.44907,0.0 15.99378,39.44907,0.0 15.99357,39.44908,0.0 15.99345,39.4491,0.0 15.99306,39.4492,0.0 15.99281,39.44924,0.0 15.9927,39.44925,0.0 15.99258,39.44925,0.0 15.99141,39.44916,0.0 15.99125,39.44913,0.0 15.99105,39.44907,0.0 15.99063,39.44943,0.0 15.99023,39.44982,0.0 15.99016,39.4499,0.0 15.99011,39.44999,0.0 15.98965,39.45096,0.0 15.98928,39.45167,0.0 15.98853,39.4534,0.0 15.98843,39.45366,0.0 15.9882,39.45411,0.0 15.9881,39.45428,0.0 15.98786,39.45464,0.0 15.98753,39.45509,0.0 15.9857,39.45722,0.0 15.98568,39.45725,0.0 15.98073,39.46307,0.0 15.98072,39.46311,0.0 15.98022,39.46393,0.0 15.98006,39.46423,0.0 15.97963,39.46493,0.0 15.97941,39.46519,0.0 15.97929,39.46528,0.0 15.97921,39.46536,0.0 15.97893,39.46557,0.0 15.97876,39.46568,0.0 15.97873,39.46571,0.0 15.9786,39.46578,0.0 15.97602,39.46736,0.0 15.97476,39.468,0.0 15.97471,39.46802,0.0 15.97421,39.46831,0.0 15.97394,39.4685,0.0 15.97337,39.46882,0.0 15.97316,39.46905,0.0 15.97308,39.46918,0.0 15.97303,39.46935,0.0 15.97303,39.46943,0.0 15.97302,39.46944,0.0 15.97302,39.46946,0.0 15.97314,39.46976,0.0 15.97332,39.47005,0.0 15.97345,39.47017,0.0 15.97349,39.47019,0.0 15.97357,39.47029,0.0 15.97367,39.47032,0.0 15.97368,39.47033,0.0 15.97382,39.47037,0.0 15.97408,39.47037,0.0 15.97415,39.47035,0.0 15.97435,39.47035,0.0 15.97462,39.47033,0.0 15.97479,39.47033,0.0 15.9749,39.47036,0.0 15.97494,39.47038,0.0 15.97497,39.47039,0.0 15.97534,39.47059,0.0 15.97559,39.47074,0.0 15.97573,39.47085,0.0 15.97598,39.47107,0.0 15.97608,39.47114,0.0 15.97623,39.47123,0.0 15.97629,39.47125,0.0 15.97639,39.47127,0.0 15.97642,39.47127,0.0 15.97643,39.47128,0.0 15.97646,39.47128,0.0 15.97648,39.47127,0.0 15.97651,39.47127,0.0 15.97657,39.47125,0.0 15.97688,39.47106,0.0 15.97756,39.47158,0.0 15.97788,39.4718,0.0 15.97809,39.47189,0.0 15.97911,39.47222,0.0 15.97965,39.47236,0.0 15.98012,39.47246,0.0 15.98187,39.47266,0.0 15.98201,39.47266,0.0 15.98215,39.47267,0.0 15.98396,39.47269,0.0 15.98413,39.47271,0.0 15.98454,39.47279,0.0 15.98486,39.47288,0.0 15.98714,39.47333,0.0 15.98733,39.47338,0.0 15.98757,39.47349,0.0 15.98815,39.47384,0.0 15.98821,39.47387,0.0 15.98827,39.47391,0.0 15.98834,39.47394,0.0 15.98877,39.4742,0.0 15.98892,39.47428,0.0 15.98894,39.4743,0.0 15.99055,39.47521,0.0 15.99064,39.47527,0.0 15.99102,39.47548,0.0 15.99158,39.47576,0.0 15.99182,39.47538,0.0</coordinates>
            </LineString>
        </Placemark>
        <Placemark>
            <styleUrl>#icon-503-DB4436</styleUrl>
            <name>Start</name>
            <ExtendedData>
            </ExtendedData>
            <description><![CDATA[]]></description>
            <Point>
                <coordinates>15.65781,38.1355,0.0</coordinates>
            </Point>
        </Placemark>
        <Placemark>
            <styleUrl>#icon-503-DB4436</styleUrl>
            <name>Finish</name>
            <ExtendedData>
            </ExtendedData>
            <description><![CDATA[]]></description>
            <Point>
                <coordinates>15.99182,39.47538,0.0</coordinates>
            </Point>
        </Placemark>
        <Style id='line-1267FF-5'>
            <LineStyle>
                <color>ffFF6712</color>
                <width>5</width>
            </LineStyle>
        </Style>
    </Document>
</kml>