<?xml version='1.0' standalone='yes'?>
<kml xmlns='http://earth.google.com/kml/2.2'>
    <Document>
        <name></name>
        <Placemark>
            <styleUrl>#line-1267FF-5</styleUrl>
            <name>Giro 2017 stage 14</name>
            <ExtendedData></ExtendedData>
            <LineString>
                <tessellate>1</tessellate>
                <coordinates>8.85377,44.84632,0.0 8.85318,44.84648,0.0 8.85574,44.86336,0.0 8.85577,44.86365,0.0 8.85852,44.8819,0.0 8.85861,44.88234,0.0 8.85867,44.88245,0.0 8.85875,44.88294,0.0 8.85885,44.88338,0.0 8.85885,44.88345,0.0 8.85883,44.88351,0.0 8.8588,44.88356,0.0 8.85878,44.88358,0.0 8.85877,44.8836,0.0 8.8587,44.88365,0.0 8.85867,44.88368,0.0 8.85848,44.8838,0.0 8.85816,44.8841,0.0 8.85813,44.88412,0.0 8.85811,44.88414,0.0 8.85801,44.88421,0.0 8.85761,44.88466,0.0 8.85732,44.88502,0.0 8.85727,44.88512,0.0 8.85724,44.88521,0.0 8.85724,44.88531,0.0 8.85722,44.88535,0.0 8.8572,44.88546,0.0 8.85723,44.88549,0.0 8.85723,44.88551,0.0 8.85724,44.88552,0.0 8.85724,44.88557,0.0 8.85722,44.88559,0.0 8.85722,44.88561,0.0 8.85721,44.88562,0.0 8.85721,44.88563,0.0 8.8572,44.88563,0.0 8.85717,44.88566,0.0 8.85716,44.88566,0.0 8.85715,44.88567,0.0 8.85714,44.88567,0.0 8.85713,44.88568,0.0 8.85712,44.88568,0.0 8.85711,44.88569,0.0 8.85708,44.88569,0.0 8.85707,44.8857,0.0 8.85696,44.8857,0.0 8.85696,44.88569,0.0 8.85694,44.88569,0.0 8.85693,44.88568,0.0 8.85684,44.8857,0.0 8.85674,44.88575,0.0 8.8567,44.88578,0.0 8.8566,44.88583,0.0 8.8562,44.88644,0.0 8.85601,44.88692,0.0 8.8559,44.88731,0.0 8.85587,44.88752,0.0 8.85583,44.88831,0.0 8.85568,44.89548,0.0 8.85565,44.89566,0.0 8.85554,44.89594,0.0 8.85553,44.896,0.0 8.85551,44.89605,0.0 8.85539,44.8962,0.0 8.85539,44.89621,0.0 8.8554,44.89621,0.0 8.8554,44.89622,0.0 8.85541,44.89623,0.0 8.85541,44.89629,0.0 8.8554,44.89629,0.0 8.8554,44.89631,0.0 8.85539,44.89631,0.0 8.85539,44.89632,0.0 8.85538,44.89632,0.0 8.85538,44.89633,0.0 8.85534,44.89637,0.0 8.85533,44.89637,0.0 8.85531,44.89638,0.0 8.8553,44.89639,0.0 8.85518,44.89639,0.0 8.85517,44.89638,0.0 8.85515,44.89638,0.0 8.85514,44.89637,0.0 8.85513,44.89637,0.0 8.85512,44.89636,0.0 8.85511,44.89636,0.0 8.85511,44.89635,0.0 8.8551,44.89635,0.0 8.8551,44.89634,0.0 8.85509,44.89634,0.0 8.85509,44.89633,0.0 8.85508,44.89632,0.0 8.85508,44.89631,0.0 8.85507,44.8963,0.0 8.85497,44.89629,0.0 8.85464,44.89616,0.0 8.85451,44.89607,0.0 8.85443,44.89604,0.0 8.8544,44.89602,0.0 8.8543,44.89598,0.0 8.85428,44.89596,0.0 8.85419,44.89591,0.0 8.85319,44.89519,0.0 8.85298,44.89506,0.0 8.85271,44.89495,0.0 8.85265,44.89494,0.0 8.8526,44.89492,0.0 8.85255,44.89491,0.0 8.85252,44.89491,0.0 8.85247,44.89489,0.0 8.8524,44.89488,0.0 8.8523,44.89488,0.0 8.85222,44.89487,0.0 8.85206,44.89487,0.0 8.85195,44.89486,0.0 8.8518,44.89486,0.0 8.85173,44.89488,0.0 8.85137,44.8949,0.0 8.85121,44.89493,0.0 8.85121,44.89494,0.0 8.85117,44.89498,0.0 8.85116,44.89498,0.0 8.85114,44.895,0.0 8.85111,44.895,0.0 8.85111,44.89501,0.0 8.851,44.89501,0.0 8.85099,44.895,0.0 8.85097,44.895,0.0 8.85096,44.89499,0.0 8.85095,44.89499,0.0 8.85094,44.89498,0.0 8.85093,44.89498,0.0 8.85093,44.89497,0.0 8.85092,44.89497,0.0 8.8509,44.89495,0.0 8.85084,44.89493,0.0 8.8507,44.8949,0.0 8.85039,44.89487,0.0 8.85001,44.89486,0.0 8.84988,44.89483,0.0 8.84348,44.89472,0.0 8.84337,44.89471,0.0 8.84323,44.89474,0.0 8.84309,44.89474,0.0 8.84287,44.89484,0.0 8.84285,44.89486,0.0 8.84282,44.89488,0.0 8.84281,44.8949,0.0 8.84279,44.89491,0.0 8.84269,44.89511,0.0 8.84265,44.89514,0.0 8.84255,44.89532,0.0 8.84254,44.89535,0.0 8.84252,44.89537,0.0 8.84251,44.89539,0.0 8.84249,44.8954,0.0 8.84248,44.89542,0.0 8.84246,44.89544,0.0 8.84237,44.89549,0.0 8.84232,44.89551,0.0 8.84224,44.89553,0.0 8.84209,44.89555,0.0 8.84118,44.89557,0.0 8.84114,44.89556,0.0 8.84111,44.89556,0.0 8.84109,44.89555,0.0 8.84106,44.89555,0.0 8.84038,44.89532,0.0 8.8401,44.89531,0.0 8.84007,44.89532,0.0 8.84005,44.89532,0.0 8.83998,44.89534,0.0 8.83994,44.89536,0.0 8.83992,44.89538,0.0 8.8399,44.89539,0.0 8.83976,44.89554,0.0 8.83988,44.89655,0.0 8.83992,44.89721,0.0 8.8399,44.89755,0.0 8.83988,44.89766,0.0 8.83984,44.89811,0.0 8.83973,44.89863,0.0 8.83896,44.90078,0.0 8.83891,44.90103,0.0 8.83857,44.90209,0.0 8.83841,44.90245,0.0 8.83832,44.90272,0.0 8.83824,44.90304,0.0 8.83816,44.90318,0.0 8.83751,44.905,0.0 8.83747,44.90533,0.0 8.83746,44.90575,0.0 8.83742,44.90614,0.0 8.83738,44.90637,0.0 8.8373,44.90661,0.0 8.83711,44.90702,0.0 8.83643,44.90823,0.0 8.83555,44.91004,0.0 8.83437,44.91325,0.0 8.83432,44.91346,0.0 8.8342,44.91438,0.0 8.83421,44.91446,0.0 8.8342,44.91453,0.0 8.83416,44.91469,0.0 8.83412,44.91492,0.0 8.83392,44.91564,0.0 8.83363,44.91611,0.0 8.83355,44.91629,0.0 8.83352,44.91634,0.0 8.83351,44.91637,0.0 8.83263,44.91808,0.0 8.83228,44.91868,0.0 8.83201,44.91934,0.0 8.83159,44.92055,0.0 8.82866,44.92825,0.0 8.82862,44.92838,0.0 8.82311,44.9429,0.0 8.82234,44.9451,0.0 8.81842,44.95536,0.0 8.8184,44.95543,0.0 8.8119,44.97225,0.0 8.81181,44.97252,0.0 8.81182,44.97261,0.0 8.81182,44.97275,0.0 8.81184,44.97291,0.0 8.81187,44.97302,0.0 8.812,44.97333,0.0 8.81206,44.97339,0.0 8.8121,44.97346,0.0 8.81212,44.97356,0.0 8.81212,44.97363,0.0 8.81211,44.97369,0.0 8.81209,44.97374,0.0 8.81205,44.97381,0.0 8.81198,44.97423,0.0 8.81199,44.9743,0.0 8.81199,44.97436,0.0 8.812,44.97442,0.0 8.81208,44.97465,0.0 8.81208,44.97471,0.0 8.8151,44.97904,0.0 8.81529,44.97929,0.0 8.82087,44.98603,0.0 8.82114,44.98622,0.0 8.82118,44.98621,0.0 8.82133,44.98621,0.0 8.82143,44.98624,0.0 8.82152,44.9863,0.0 8.82156,44.98634,0.0 8.82157,44.98637,0.0 8.82159,44.9864,0.0 8.82159,44.98642,0.0 8.8216,44.98644,0.0 8.8216,44.98651,0.0 8.82158,44.98655,0.0 8.82156,44.98657,0.0 8.82155,44.98659,0.0 8.82154,44.9866,0.0 8.82153,44.9866,0.0 8.82152,44.98661,0.0 8.8215,44.98662,0.0 8.82149,44.98663,0.0 8.82148,44.98663,0.0 8.82147,44.98664,0.0 8.82146,44.98664,0.0 8.82148,44.98695,0.0 8.82467,44.99295,0.0 8.82475,44.99307,0.0 8.82494,44.9933,0.0 8.82687,44.99541,0.0 8.82722,44.99571,0.0 8.82756,44.99595,0.0 8.82857,44.99658,0.0 8.82889,44.99682,0.0 8.82909,44.99701,0.0 8.82939,44.99734,0.0 8.82954,44.99753,0.0 8.83696,45.00922,0.0 8.83728,45.00981,0.0 8.83738,45.01003,0.0 8.83757,45.01052,0.0 8.83767,45.01083,0.0 8.83966,45.01829,0.0 8.83974,45.01881,0.0 8.83973,45.01939,0.0 8.83968,45.0197,0.0 8.83961,45.01996,0.0 8.83963,45.01996,0.0 8.83966,45.01997,0.0 8.83968,45.01997,0.0 8.83974,45.02,0.0 8.83979,45.02005,0.0 8.83981,45.02009,0.0 8.83982,45.0201,0.0 8.83982,45.02012,0.0 8.83983,45.02013,0.0 8.83983,45.02015,0.0 8.83982,45.02017,0.0 8.83982,45.0202,0.0 8.83981,45.02022,0.0 8.83976,45.02028,0.0 8.83968,45.02032,0.0 8.83966,45.02032,0.0 8.83964,45.02033,0.0 8.83962,45.02033,0.0 8.83959,45.02034,0.0 8.8395,45.02034,0.0 8.83924,45.02084,0.0 8.83915,45.02098,0.0 8.83884,45.0214,0.0 8.83862,45.02166,0.0 8.83509,45.02535,0.0 8.83505,45.02543,0.0 8.83487,45.02565,0.0 8.83464,45.02597,0.0 8.83444,45.02636,0.0 8.83444,45.02638,0.0 8.83408,45.02734,0.0 8.83397,45.02755,0.0 8.83379,45.02783,0.0 8.83378,45.02783,0.0 8.83371,45.02789,0.0 8.83344,45.02823,0.0 8.83307,45.02859,0.0 8.82776,45.03321,0.0 8.82724,45.03362,0.0 8.82676,45.03396,0.0 8.82582,45.03453,0.0 8.82469,45.03505,0.0 8.81468,45.03899,0.0 8.81435,45.03916,0.0 8.81373,45.03953,0.0 8.81322,45.03991,0.0 8.81285,45.04026,0.0 8.81257,45.04059,0.0 8.81236,45.04089,0.0 8.8121,45.04133,0.0 8.81191,45.04176,0.0 8.81173,45.04237,0.0 8.80865,45.0545,0.0 8.80862,45.05468,0.0 8.80864,45.05477,0.0 8.80873,45.05489,0.0 8.80881,45.05495,0.0 8.80893,45.0551,0.0 8.80897,45.05518,0.0 8.80906,45.05518,0.0 8.80917,45.05522,0.0 8.80919,45.05524,0.0 8.80921,45.05525,0.0 8.80927,45.05531,0.0 8.80929,45.05535,0.0 8.80929,45.05544,0.0 8.80926,45.0555,0.0 8.80918,45.05558,0.0 8.80903,45.05563,0.0 8.809,45.05563,0.0 8.80897,45.05564,0.0 8.80894,45.05564,0.0 8.80891,45.05563,0.0 8.80888,45.05563,0.0 8.80884,45.05562,0.0 8.80874,45.05558,0.0 8.80867,45.05565,0.0 8.80852,45.05584,0.0 8.80848,45.05593,0.0 8.80845,45.05604,0.0 8.80841,45.05639,0.0 8.80832,45.05687,0.0 8.80816,45.05732,0.0 8.80722,45.05962,0.0 8.80675,45.06116,0.0 8.80665,45.0616,0.0 8.80656,45.06192,0.0 8.80598,45.06192,0.0 8.80558,45.06197,0.0 8.8052,45.06206,0.0 8.80496,45.06216,0.0 8.80353,45.063,0.0 8.80287,45.06333,0.0 8.79527,45.06656,0.0 8.79483,45.06672,0.0 8.79103,45.06764,0.0 8.78327,45.0692,0.0 8.78268,45.06938,0.0 8.78093,45.07001,0.0 8.78092,45.07001,0.0 8.7778,45.07108,0.0 8.77711,45.07128,0.0 8.77569,45.07163,0.0 8.76719,45.07391,0.0 8.7668,45.07403,0.0 8.76644,45.07417,0.0 8.76588,45.07448,0.0 8.76547,45.07483,0.0 8.7652,45.07513,0.0 8.76514,45.07522,0.0 8.76496,45.07556,0.0 8.76483,45.07597,0.0 8.76478,45.0765,0.0 8.76463,45.08264,0.0 8.7646,45.08285,0.0 8.76456,45.08298,0.0 8.76448,45.08317,0.0 8.76428,45.08341,0.0 8.76393,45.08374,0.0 8.76253,45.08484,0.0 8.76213,45.0851,0.0 8.76192,45.0852,0.0 8.76179,45.08525,0.0 8.76064,45.08556,0.0 8.7562,45.08663,0.0 8.75578,45.08676,0.0 8.75566,45.08681,0.0 8.75556,45.08687,0.0 8.75539,45.08703,0.0 8.75505,45.08757,0.0 8.7547,45.08818,0.0 8.75315,45.0907,0.0 8.75261,45.09165,0.0 8.75251,45.09185,0.0 8.75252,45.09185,0.0 8.75252,45.09186,0.0 8.75253,45.09187,0.0 8.75256,45.09194,0.0 8.75256,45.09201,0.0 8.75254,45.09206,0.0 8.75254,45.09207,0.0 8.75253,45.09208,0.0 8.75253,45.09209,0.0 8.75251,45.0921,0.0 8.75247,45.09214,0.0 8.75244,45.09215,0.0 8.75242,45.09217,0.0 8.75239,45.09218,0.0 8.75236,45.09218,0.0 8.75158,45.09236,0.0 8.75061,45.0927,0.0 8.74918,45.09315,0.0 8.74879,45.09324,0.0 8.74817,45.09334,0.0 8.74715,45.09355,0.0 8.74691,45.09365,0.0 8.74631,45.09398,0.0 8.74615,45.09411,0.0 8.74606,45.09417,0.0 8.74424,45.09579,0.0 8.74409,45.0959,0.0 8.74399,45.09603,0.0 8.7434,45.09712,0.0 8.74322,45.0975,0.0 8.74305,45.09774,0.0 8.74278,45.09806,0.0 8.74117,45.09977,0.0 8.74106,45.09986,0.0 8.74098,45.0999,0.0 8.73857,45.10035,0.0 8.73813,45.10036,0.0 8.73739,45.1003,0.0 8.73701,45.1003,0.0 8.73702,45.10031,0.0 8.73702,45.10034,0.0 8.73701,45.10034,0.0 8.73701,45.10036,0.0 8.737,45.10036,0.0 8.73699,45.10037,0.0 8.73698,45.10037,0.0 8.73698,45.10038,0.0 8.73696,45.10038,0.0 8.73696,45.10039,0.0 8.73687,45.10039,0.0 8.73687,45.10038,0.0 8.73685,45.10038,0.0 8.73685,45.10037,0.0 8.73684,45.10037,0.0 8.73682,45.10035,0.0 8.73682,45.10033,0.0 8.73681,45.10033,0.0 8.73681,45.10032,0.0 8.73682,45.10031,0.0 8.73682,45.10029,0.0 8.73683,45.10029,0.0 8.73683,45.10028,0.0 8.73684,45.10028,0.0 8.73684,45.10027,0.0 8.73677,45.10025,0.0 8.73675,45.10024,0.0 8.73525,45.10009,0.0 8.73409,45.10002,0.0 8.7307,45.09969,0.0 8.73009,45.09965,0.0 8.73003,45.09966,0.0 8.72984,45.09967,0.0 8.72984,45.09968,0.0 8.72983,45.09968,0.0 8.72983,45.0997,0.0 8.72982,45.0997,0.0 8.72982,45.09971,0.0 8.72981,45.09971,0.0 8.7298,45.09972,0.0 8.72979,45.09972,0.0 8.72978,45.09973,0.0 8.72968,45.09973,0.0 8.72967,45.09972,0.0 8.72966,45.09972,0.0 8.72965,45.09971,0.0 8.72964,45.09971,0.0 8.72964,45.0997,0.0 8.72963,45.0997,0.0 8.72956,45.09975,0.0 8.72831,45.10038,0.0 8.72792,45.10055,0.0 8.72614,45.10118,0.0 8.72547,45.10137,0.0 8.72106,45.10232,0.0 8.72082,45.10239,0.0 8.72067,45.10241,0.0 8.72052,45.10247,0.0 8.72037,45.10256,0.0 8.72029,45.10263,0.0 8.72014,45.10289,0.0 8.72007,45.10306,0.0 8.72002,45.10313,0.0 8.71996,45.10319,0.0 8.71991,45.10321,0.0 8.7194,45.10313,0.0 8.71892,45.10308,0.0 8.71852,45.10306,0.0 8.71783,45.10306,0.0 8.71745,45.1031,0.0 8.71661,45.10327,0.0 8.7165,45.10327,0.0 8.68342,45.11024,0.0 8.68217,45.11059,0.0 8.68157,45.1108,0.0 8.68052,45.11121,0.0 8.68051,45.11121,0.0 8.68041,45.11124,0.0 8.68036,45.11129,0.0 8.68029,45.11131,0.0 8.68017,45.11136,0.0 8.67992,45.1115,0.0 8.67947,45.11183,0.0 8.67919,45.11231,0.0 8.67805,45.11482,0.0 8.67793,45.11504,0.0 8.67768,45.11542,0.0 8.67754,45.11559,0.0 8.67736,45.11577,0.0 8.67708,45.11601,0.0 8.67698,45.11608,0.0 8.67691,45.11614,0.0 8.67668,45.11628,0.0 8.67607,45.11659,0.0 8.67555,45.11677,0.0 8.67524,45.11685,0.0 8.66542,45.11897,0.0 8.66504,45.11914,0.0 8.66504,45.11916,0.0 8.66503,45.11917,0.0 8.66502,45.11919,0.0 8.66501,45.1192,0.0 8.665,45.11922,0.0 8.66499,45.11923,0.0 8.66498,45.11925,0.0 8.66497,45.11926,0.0 8.66494,45.11927,0.0 8.66492,45.11929,0.0 8.66482,45.11933,0.0 8.66479,45.11933,0.0 8.66476,45.11934,0.0 8.6647,45.11934,0.0 8.66467,45.11933,0.0 8.66464,45.11933,0.0 8.66461,45.11932,0.0 8.66458,45.11932,0.0 8.66455,45.11931,0.0 8.66453,45.11929,0.0 8.66451,45.11929,0.0 8.66451,45.11928,0.0 8.66449,45.11928,0.0 8.66449,45.11927,0.0 8.66448,45.11927,0.0 8.66447,45.11926,0.0 8.66436,45.11933,0.0 8.6643,45.11935,0.0 8.6641,45.11938,0.0 8.6519,45.12479,0.0 8.65014,45.12546,0.0 8.63256,45.13119,0.0 8.63218,45.13137,0.0 8.63218,45.13141,0.0 8.63219,45.13142,0.0 8.63218,45.13143,0.0 8.63218,45.13145,0.0 8.63217,45.13146,0.0 8.63217,45.13147,0.0 8.63215,45.13147,0.0 8.63215,45.13148,0.0 8.63214,45.13148,0.0 8.63214,45.13149,0.0 8.63211,45.13149,0.0 8.6321,45.1315,0.0 8.63209,45.1315,0.0 8.63208,45.13151,0.0 8.63207,45.13151,0.0 8.63206,45.13152,0.0 8.63197,45.13152,0.0 8.63196,45.13151,0.0 8.63193,45.13151,0.0 8.63193,45.1315,0.0 8.63192,45.1315,0.0 8.63191,45.13149,0.0 8.63189,45.13149,0.0 8.63189,45.13148,0.0 8.63156,45.13152,0.0 8.63073,45.13178,0.0 8.63011,45.13201,0.0 8.62909,45.13245,0.0 8.62833,45.13286,0.0 8.62256,45.13627,0.0 8.62227,45.1365,0.0 8.62206,45.13682,0.0 8.62194,45.13697,0.0 8.62146,45.13966,0.0 8.62135,45.14016,0.0 8.62123,45.14035,0.0 8.62098,45.14067,0.0 8.62081,45.14083,0.0 8.62071,45.14091,0.0 8.6203,45.14116,0.0 8.61987,45.14134,0.0 8.61958,45.14148,0.0 8.61927,45.14167,0.0 8.61909,45.14182,0.0 8.6189,45.14201,0.0 8.61872,45.14224,0.0 8.61857,45.14253,0.0 8.61589,45.14913,0.0 8.61574,45.14955,0.0 8.61533,45.15122,0.0 8.61501,45.15238,0.0 8.61486,45.15272,0.0 8.61422,45.1539,0.0 8.61402,45.15421,0.0 8.61299,45.15566,0.0 8.61282,45.15584,0.0 8.61194,45.15643,0.0 8.61169,45.15655,0.0 8.60851,45.15838,0.0 8.60782,45.15881,0.0 8.60762,45.15896,0.0 8.60727,45.15929,0.0 8.60703,45.15959,0.0 8.60684,45.15997,0.0 8.60677,45.16015,0.0 8.60667,45.16054,0.0 8.60665,45.16075,0.0 8.60671,45.16149,0.0 8.60682,45.16238,0.0 8.60685,45.16289,0.0 8.60685,45.16319,0.0 8.60683,45.16331,0.0 8.60679,45.16343,0.0 8.60648,45.16404,0.0 8.60639,45.16426,0.0 8.60556,45.16692,0.0 8.60557,45.16696,0.0 8.60557,45.16698,0.0 8.60555,45.16708,0.0 8.60555,45.16727,0.0 8.60558,45.16744,0.0 8.60561,45.16755,0.0 8.60568,45.16773,0.0 8.60569,45.1678,0.0 8.60573,45.16792,0.0 8.60574,45.16804,0.0 8.60576,45.16815,0.0 8.60577,45.16836,0.0 8.60572,45.16864,0.0 8.60555,45.16897,0.0 8.60552,45.16914,0.0 8.60549,45.1692,0.0 8.60546,45.16922,0.0 8.60549,45.16931,0.0 8.60686,45.17724,0.0 8.60687,45.17727,0.0 8.60779,45.18239,0.0 8.60779,45.18257,0.0 8.60777,45.18277,0.0 8.60773,45.18297,0.0 8.60769,45.18311,0.0 8.60764,45.18324,0.0 8.60751,45.18349,0.0 8.6074,45.18366,0.0 8.60705,45.18404,0.0 8.60622,45.18476,0.0 8.60425,45.18632,0.0 8.60413,45.18643,0.0 8.60392,45.1868,0.0 8.60392,45.18686,0.0 8.60391,45.18691,0.0 8.60389,45.18695,0.0 8.60388,45.18696,0.0 8.60387,45.18698,0.0 8.60381,45.18701,0.0 8.60379,45.18703,0.0 8.60377,45.18703,0.0 8.60373,45.18705,0.0 8.60371,45.18705,0.0 8.60368,45.18706,0.0 8.60355,45.18706,0.0 8.60312,45.18715,0.0 8.5894,45.19569,0.0 8.58806,45.19646,0.0 8.58113,45.20073,0.0 8.58059,45.2011,0.0 8.57998,45.20161,0.0 8.57944,45.20213,0.0 8.57282,45.20925,0.0 8.57259,45.20945,0.0 8.57238,45.20961,0.0 8.57171,45.21004,0.0 8.57114,45.21029,0.0 8.57067,45.21046,0.0 8.57034,45.21055,0.0 8.55996,45.21222,0.0 8.5596,45.21226,0.0 8.55841,45.21232,0.0 8.55816,45.21232,0.0 8.55663,45.21222,0.0 8.55568,45.21207,0.0 8.55406,45.21162,0.0 8.553,45.21115,0.0 8.54231,45.20566,0.0 8.54202,45.20553,0.0 8.54115,45.20525,0.0 8.54046,45.20512,0.0 8.53982,45.20506,0.0 8.53922,45.20507,0.0 8.53892,45.2051,0.0 8.53828,45.20523,0.0 8.53695,45.20556,0.0 8.50657,45.21555,0.0 8.50606,45.21577,0.0 8.50552,45.21606,0.0 8.50518,45.21629,0.0 8.49591,45.22369,0.0 8.49574,45.2238,0.0 8.49498,45.22418,0.0 8.49484,45.22421,0.0 8.49482,45.22422,0.0 8.49177,45.22514,0.0 8.49082,45.22532,0.0 8.49,45.22541,0.0 8.4769,45.22609,0.0 8.47168,45.22671,0.0 8.47034,45.22683,0.0 8.46377,45.22759,0.0 8.46366,45.22759,0.0 8.46345,45.22766,0.0 8.46336,45.22771,0.0 8.46323,45.22781,0.0 8.46321,45.22782,0.0 8.463,45.22806,0.0 8.46287,45.22826,0.0 8.46288,45.22827,0.0 8.46289,45.22829,0.0 8.4629,45.2283,0.0 8.4629,45.22834,0.0 8.46291,45.22836,0.0 8.4629,45.22838,0.0 8.4629,45.2284,0.0 8.46289,45.22842,0.0 8.46288,45.22843,0.0 8.46287,45.22845,0.0 8.46286,45.22846,0.0 8.4629,45.22867,0.0 8.46292,45.22873,0.0 8.46306,45.22895,0.0 8.46341,45.22974,0.0 8.46356,45.23014,0.0 8.46361,45.23031,0.0 8.46367,45.23071,0.0 8.46367,45.23122,0.0 8.46359,45.23168,0.0 8.46344,45.23208,0.0 8.46332,45.23235,0.0 8.46315,45.23263,0.0 8.46295,45.23291,0.0 8.46266,45.23325,0.0 8.45835,45.23702,0.0 8.45808,45.2373,0.0 8.45777,45.23768,0.0 8.45762,45.23794,0.0 8.45741,45.23845,0.0 8.45738,45.23856,0.0 8.45729,45.23907,0.0 8.4573,45.23952,0.0 8.45733,45.23971,0.0 8.45755,45.24057,0.0 8.45966,45.24793,0.0 8.45966,45.24794,0.0 8.4615,45.25436,0.0 8.46168,45.25481,0.0 8.46188,45.25514,0.0 8.46209,45.25544,0.0 8.46353,45.257,0.0 8.46373,45.2573,0.0 8.46395,45.25777,0.0 8.46399,45.2579,0.0 8.46403,45.25812,0.0 8.46382,45.2682,0.0 8.46345,45.27926,0.0 8.46344,45.2793,0.0 8.46344,45.2794,0.0 8.46339,45.27981,0.0 8.4633,45.28025,0.0 8.46224,45.28187,0.0 8.46143,45.28293,0.0 8.46097,45.28346,0.0 8.45819,45.28639,0.0 8.45732,45.28718,0.0 8.45677,45.2876,0.0 8.45674,45.28763,0.0 8.45461,45.2892,0.0 8.45426,45.28952,0.0 8.45417,45.28962,0.0 8.45418,45.28963,0.0 8.45418,45.28965,0.0 8.45419,45.28966,0.0 8.45419,45.28972,0.0 8.45418,45.28973,0.0 8.45418,45.28974,0.0 8.45417,45.28976,0.0 8.45416,45.28977,0.0 8.45428,45.28998,0.0 8.4543,45.29006,0.0 8.45429,45.29013,0.0 8.45325,45.29221,0.0 8.453,45.29267,0.0 8.45306,45.29292,0.0 8.45309,45.29292,0.0 8.45311,45.29293,0.0 8.45312,45.29293,0.0 8.45313,45.29294,0.0 8.45315,45.29294,0.0 8.45317,45.29296,0.0 8.45318,45.29296,0.0 8.45323,45.29301,0.0 8.45323,45.29302,0.0 8.45324,45.29303,0.0 8.45324,45.29305,0.0 8.45325,45.29306,0.0 8.45325,45.29308,0.0 8.45324,45.29309,0.0 8.45324,45.29311,0.0 8.45323,45.29312,0.0 8.45323,45.29313,0.0 8.45322,45.29314,0.0 8.45322,45.29315,0.0 8.45319,45.29318,0.0 8.45318,45.29318,0.0 8.45317,45.29319,0.0 8.45315,45.2932,0.0 8.45314,45.2932,0.0 8.45313,45.29321,0.0 8.45312,45.29321,0.0 8.4531,45.29322,0.0 8.45306,45.29322,0.0 8.45304,45.29323,0.0 8.453,45.29323,0.0 8.45298,45.29322,0.0 8.45295,45.29322,0.0 8.45294,45.29321,0.0 8.45292,45.29321,0.0 8.45291,45.2932,0.0 8.45267,45.29333,0.0 8.45149,45.29564,0.0 8.44844,45.30048,0.0 8.44792,45.30123,0.0 8.4479,45.30131,0.0 8.44787,45.30136,0.0 8.44778,45.30158,0.0 8.44778,45.30159,0.0 8.44779,45.30159,0.0 8.44779,45.3016,0.0 8.4478,45.3016,0.0 8.4478,45.30163,0.0 8.44781,45.30163,0.0 8.44781,45.30164,0.0 8.4478,45.30165,0.0 8.4478,45.30167,0.0 8.44779,45.30167,0.0 8.44779,45.30168,0.0 8.44777,45.3017,0.0 8.44776,45.3017,0.0 8.44776,45.30171,0.0 8.44774,45.30171,0.0 8.44774,45.30172,0.0 8.44772,45.30172,0.0 8.44771,45.30173,0.0 8.44768,45.30173,0.0 8.44759,45.30182,0.0 8.44748,45.30196,0.0 8.44743,45.30201,0.0 8.44676,45.30299,0.0 8.44637,45.30352,0.0 8.44224,45.30838,0.0 8.44207,45.30855,0.0 8.44088,45.30994,0.0 8.44053,45.31032,0.0 8.44012,45.31068,0.0 8.43528,45.31449,0.0 8.4329,45.31624,0.0 8.43277,45.31632,0.0 8.4317,45.31711,0.0 8.43167,45.31718,0.0 8.43127,45.31749,0.0 8.43127,45.3175,0.0 8.43128,45.31751,0.0 8.43128,45.31753,0.0 8.43127,45.31753,0.0 8.43127,45.31755,0.0 8.43126,45.31756,0.0 8.43126,45.31757,0.0 8.43124,45.31759,0.0 8.43123,45.31759,0.0 8.43123,45.3176,0.0 8.43121,45.3176,0.0 8.43121,45.31761,0.0 8.43118,45.31761,0.0 8.43118,45.31762,0.0 8.43111,45.31762,0.0 8.43091,45.31775,0.0 8.43083,45.31777,0.0 8.42993,45.31839,0.0 8.42975,45.3185,0.0 8.42679,45.32066,0.0 8.42644,45.32096,0.0 8.42641,45.32102,0.0 8.4262,45.32116,0.0 8.4262,45.32121,0.0 8.42619,45.32122,0.0 8.42619,45.32123,0.0 8.42618,45.32123,0.0 8.42618,45.32124,0.0 8.42617,45.32125,0.0 8.42616,45.32125,0.0 8.42616,45.32126,0.0 8.42615,45.32126,0.0 8.42614,45.32127,0.0 8.42612,45.32127,0.0 8.42611,45.32128,0.0 8.42609,45.32128,0.0 8.42608,45.32129,0.0 8.42603,45.32129,0.0 8.42602,45.32128,0.0 8.42598,45.32128,0.0 8.42598,45.32127,0.0 8.42596,45.32127,0.0 8.42594,45.32125,0.0 8.42593,45.32125,0.0 8.42593,45.32124,0.0 8.42592,45.32124,0.0 8.42592,45.32123,0.0 8.42591,45.32123,0.0 8.42591,45.32121,0.0 8.4259,45.32121,0.0 8.4259,45.3212,0.0 8.42555,45.3212,0.0 8.42546,45.32118,0.0 8.42432,45.32123,0.0 8.42304,45.3212,0.0 8.41971,45.32195,0.0 8.4186,45.32253,0.0 8.4183,45.32266,0.0 8.4183,45.32267,0.0 8.41831,45.32267,0.0 8.41831,45.32272,0.0 8.4183,45.32272,0.0 8.4183,45.32273,0.0 8.41829,45.32273,0.0 8.41829,45.32274,0.0 8.41828,45.32274,0.0 8.41828,45.32275,0.0 8.41827,45.32275,0.0 8.41827,45.32276,0.0 8.41825,45.32276,0.0 8.41825,45.32277,0.0 8.41821,45.32277,0.0 8.41812,45.3232,0.0 8.4181,45.32342,0.0 8.4179,45.32341,0.0 8.41746,45.32353,0.0 8.41737,45.32353,0.0 8.41652,45.32346,0.0 8.41532,45.32348,0.0 8.41532,45.32351,0.0 8.41531,45.32352,0.0 8.41531,45.32353,0.0 8.4153,45.32353,0.0 8.4153,45.32354,0.0 8.41528,45.32354,0.0 8.41528,45.32355,0.0 8.41525,45.32355,0.0 8.41514,45.32374,0.0 8.41271,45.32727,0.0 8.41271,45.32733,0.0 8.41273,45.32737,0.0 8.41287,45.32745,0.0 8.41393,45.32783,0.0 8.41457,45.32809,0.0 8.41463,45.32809,0.0 8.41464,45.3281,0.0 8.41465,45.3281,0.0 8.41465,45.32811,0.0 8.41466,45.32811,0.0 8.41466,45.32812,0.0 8.41467,45.32812,0.0 8.41467,45.32818,0.0 8.41466,45.32818,0.0 8.41466,45.32819,0.0 8.41464,45.32819,0.0 8.41464,45.3282,0.0 8.41462,45.3282,0.0 8.41462,45.32821,0.0 8.41456,45.32821,0.0 8.41456,45.3282,0.0 8.41453,45.3282,0.0 8.41453,45.32819,0.0 8.41452,45.32819,0.0 8.41452,45.32818,0.0 8.41447,45.3282,0.0 8.41438,45.3282,0.0 8.41433,45.32819,0.0 8.41348,45.32784,0.0 8.41316,45.32774,0.0 8.41301,45.32773,0.0 8.41285,45.32774,0.0 8.41271,45.32777,0.0 8.41249,45.32786,0.0 8.41238,45.32796,0.0 8.41234,45.32801,0.0 8.41226,45.32816,0.0 8.41225,45.32827,0.0 8.41225,45.32853,0.0 8.41224,45.32857,0.0 8.41224,45.32952,0.0 8.41219,45.32963,0.0 8.41214,45.32971,0.0 8.41208,45.32978,0.0 8.41197,45.32987,0.0 8.41186,45.32993,0.0 8.41156,45.33002,0.0 8.41095,45.33003,0.0 8.41095,45.33005,0.0 8.41093,45.33005,0.0 8.41093,45.33006,0.0 8.41086,45.33006,0.0 8.41086,45.33005,0.0 8.41085,45.33005,0.0 8.41076,45.33012,0.0 8.4102,45.3309,0.0 8.40799,45.33417,0.0 8.40791,45.33427,0.0 8.40771,45.33445,0.0 8.40772,45.33446,0.0 8.40772,45.33447,0.0 8.40773,45.33447,0.0 8.40773,45.33448,0.0 8.40774,45.33449,0.0 8.40774,45.33456,0.0 8.40773,45.33457,0.0 8.40773,45.33458,0.0 8.4077,45.33461,0.0 8.40769,45.33461,0.0 8.40769,45.33462,0.0 8.40768,45.33462,0.0 8.40767,45.33463,0.0 8.40765,45.33463,0.0 8.40765,45.33464,0.0 8.40763,45.33464,0.0 8.40762,45.33465,0.0 8.40758,45.33465,0.0 8.40755,45.3348,0.0 8.40752,45.33486,0.0 8.40413,45.33982,0.0 8.40376,45.34031,0.0 8.40323,45.34089,0.0 8.4031,45.34106,0.0 8.40299,45.34129,0.0 8.40297,45.34142,0.0 8.40298,45.34144,0.0 8.40302,45.34148,0.0 8.40303,45.3415,0.0 8.40306,45.34153,0.0 8.40309,45.34165,0.0 8.40309,45.34169,0.0 8.40307,45.34177,0.0 8.40303,45.34185,0.0 8.40297,45.34191,0.0 8.40294,45.34193,0.0 8.40291,45.34196,0.0 8.40283,45.342,0.0 8.40279,45.34201,0.0 8.40275,45.34203,0.0 8.40268,45.34205,0.0 8.40261,45.34205,0.0 8.40257,45.34206,0.0 8.4025,45.34206,0.0 8.40246,45.34205,0.0 8.40221,45.34214,0.0 8.40198,45.34229,0.0 8.39703,45.34787,0.0 8.39688,45.348,0.0 8.39673,45.3481,0.0 8.39673,45.34811,0.0 8.39674,45.34813,0.0 8.39675,45.34814,0.0 8.39675,45.34816,0.0 8.39676,45.34818,0.0 8.39676,45.3482,0.0 8.39675,45.34821,0.0 8.39675,45.34824,0.0 8.39672,45.34827,0.0 8.39671,45.34829,0.0 8.39669,45.34831,0.0 8.39668,45.34831,0.0 8.39666,45.34832,0.0 8.39665,45.34833,0.0 8.39663,45.34834,0.0 8.39662,45.34834,0.0 8.3966,45.34835,0.0 8.39656,45.34835,0.0 8.39655,45.34836,0.0 8.39649,45.34836,0.0 8.39648,45.34835,0.0 8.39644,45.34835,0.0 8.39642,45.34834,0.0 8.39641,45.34834,0.0 8.39591,45.34905,0.0 8.39259,45.35278,0.0 8.39259,45.35279,0.0 8.3926,45.3528,0.0 8.39261,45.3528,0.0 8.39262,45.35281,0.0 8.39262,45.35282,0.0 8.39263,45.35283,0.0 8.39263,45.35284,0.0 8.39264,45.35284,0.0 8.39264,45.35287,0.0 8.39265,45.35288,0.0 8.39265,45.3529,0.0 8.39264,45.3529,0.0 8.39264,45.35293,0.0 8.39263,45.35294,0.0 8.39263,45.35295,0.0 8.39262,45.35295,0.0 8.39262,45.35296,0.0 8.3926,45.35298,0.0 8.39259,45.35298,0.0 8.39258,45.35299,0.0 8.39257,45.35299,0.0 8.39256,45.353,0.0 8.39255,45.353,0.0 8.39254,45.35301,0.0 8.39253,45.35301,0.0 8.39252,45.35302,0.0 8.3925,45.35302,0.0 8.39248,45.35303,0.0 8.39243,45.35303,0.0 8.39241,45.35302,0.0 8.39238,45.35302,0.0 8.39237,45.35301,0.0 8.39235,45.35301,0.0 8.37511,45.3723,0.0 8.3751,45.37235,0.0 8.37486,45.37264,0.0 8.37458,45.37305,0.0 8.37439,45.37338,0.0 8.37409,45.37411,0.0 8.37405,45.37417,0.0 8.37358,45.37531,0.0 8.37352,45.3754,0.0 8.37346,45.37546,0.0 8.37331,45.37555,0.0 8.37292,45.37572,0.0 8.37123,45.37634,0.0 8.3711,45.37642,0.0 8.36572,45.38038,0.0 8.36474,45.38104,0.0 8.36422,45.38134,0.0 8.36344,45.38173,0.0 8.35516,45.38561,0.0 8.35487,45.3858,0.0 8.35454,45.38608,0.0 8.35437,45.38626,0.0 8.35422,45.38646,0.0 8.35415,45.38657,0.0 8.35407,45.38674,0.0 8.35398,45.387,0.0 8.35395,45.38716,0.0 8.35394,45.38727,0.0 8.35394,45.38744,0.0 8.35397,45.38767,0.0 8.35403,45.3879,0.0 8.35406,45.38797,0.0 8.35408,45.38804,0.0 8.35427,45.38839,0.0 8.35525,45.38977,0.0 8.3553,45.38987,0.0 8.35538,45.39007,0.0 8.35544,45.39031,0.0 8.35547,45.39056,0.0 8.35543,45.39093,0.0 8.35536,45.39117,0.0 8.35518,45.39153,0.0 8.35495,45.39182,0.0 8.35478,45.39199,0.0 8.34961,45.39618,0.0 8.34931,45.3964,0.0 8.34905,45.39656,0.0 8.34869,45.39674,0.0 8.34837,45.39685,0.0 8.34824,45.39688,0.0 8.34797,45.39691,0.0 8.34716,45.39695,0.0 8.34699,45.39697,0.0 8.34677,45.39697,0.0 8.34572,45.39704,0.0 8.34528,45.39712,0.0 8.33385,45.39973,0.0 8.33341,45.39986,0.0 8.33283,45.40007,0.0 8.33252,45.40021,0.0 8.33212,45.40042,0.0 8.33168,45.40068,0.0 8.33145,45.40084,0.0 8.33094,45.40126,0.0 8.33046,45.4018,0.0 8.3304,45.40188,0.0 8.33009,45.40238,0.0 8.32803,45.4063,0.0 8.32783,45.40675,0.0 8.32742,45.40789,0.0 8.32724,45.40826,0.0 8.32703,45.4086,0.0 8.32672,45.40902,0.0 8.32654,45.40923,0.0 8.32616,45.40961,0.0 8.32549,45.41014,0.0 8.32505,45.41043,0.0 8.31908,45.41396,0.0 8.31838,45.41433,0.0 8.3183,45.41436,0.0 8.31808,45.41447,0.0 8.31545,45.41555,0.0 8.31384,45.41628,0.0 8.31308,45.41667,0.0 8.31233,45.41711,0.0 8.29971,45.42518,0.0 8.29917,45.42548,0.0 8.29827,45.42584,0.0 8.29787,45.42604,0.0 8.29767,45.42616,0.0 8.2977,45.42618,0.0 8.29772,45.4262,0.0 8.29774,45.42621,0.0 8.29776,45.42623,0.0 8.29777,45.42625,0.0 8.29779,45.42626,0.0 8.2978,45.42628,0.0 8.2978,45.4263,0.0 8.29781,45.42632,0.0 8.29781,45.42637,0.0 8.29779,45.42641,0.0 8.29778,45.42642,0.0 8.29776,45.42646,0.0 8.29774,45.42648,0.0 8.29772,45.42649,0.0 8.2977,45.42651,0.0 8.2976,45.42655,0.0 8.29757,45.42655,0.0 8.29754,45.42656,0.0 8.29746,45.42656,0.0 8.29743,45.42655,0.0 8.2974,45.42655,0.0 8.2973,45.42651,0.0 8.29728,45.42649,0.0 8.29726,45.42648,0.0 8.29724,45.42646,0.0 8.2972,45.42638,0.0 8.2972,45.42636,0.0 8.29719,45.42634,0.0 8.2972,45.42632,0.0 8.2972,45.4263,0.0 8.29707,45.42627,0.0 8.29689,45.42625,0.0 8.29676,45.42625,0.0 8.29168,45.42725,0.0 8.29105,45.42742,0.0 8.29002,45.42783,0.0 8.28954,45.42809,0.0 8.28919,45.42831,0.0 8.28783,45.4294,0.0 8.28748,45.42963,0.0 8.2872,45.42979,0.0 8.28644,45.43013,0.0 8.2859,45.43032,0.0 8.28543,45.43044,0.0 8.25585,45.43667,0.0 8.23798,45.44082,0.0 8.23731,45.44104,0.0 8.23723,45.44108,0.0 8.23719,45.44109,0.0 8.23686,45.44124,0.0 8.23642,45.44149,0.0 8.23615,45.44167,0.0 8.23586,45.44191,0.0 8.23555,45.44221,0.0 8.23271,45.44571,0.0 8.23258,45.44598,0.0 8.23244,45.44622,0.0 8.23246,45.44624,0.0 8.23246,45.44625,0.0 8.23247,45.44626,0.0 8.23247,45.44627,0.0 8.23248,45.44628,0.0 8.23248,45.44634,0.0 8.23247,45.44635,0.0 8.23247,45.44638,0.0 8.23246,45.44639,0.0 8.23246,45.4464,0.0 8.23243,45.44643,0.0 8.23242,45.44643,0.0 8.23242,45.44644,0.0 8.23241,45.44645,0.0 8.2324,45.44645,0.0 8.23239,45.44646,0.0 8.23233,45.44649,0.0 8.23231,45.44649,0.0 8.23229,45.4465,0.0 8.23222,45.4465,0.0 8.23204,45.44657,0.0 8.23199,45.44662,0.0 8.21528,45.46723,0.0 8.21496,45.46777,0.0 8.21493,45.46805,0.0 8.21496,45.46809,0.0 8.21497,45.46812,0.0 8.21497,45.4682,0.0 8.21496,45.46823,0.0 8.21494,45.46825,0.0 8.21491,45.4683,0.0 8.21485,45.46834,0.0 8.21482,45.46835,0.0 8.21479,45.46837,0.0 8.21468,45.4684,0.0 8.21451,45.4684,0.0 8.21447,45.46838,0.0 8.21427,45.46842,0.0 8.21358,45.46874,0.0 8.21255,45.46929,0.0 8.21197,45.46954,0.0 8.21194,45.46956,0.0 8.20167,45.47383,0.0 8.20064,45.47417,0.0 8.19543,45.47575,0.0 8.1953,45.47578,0.0 8.19068,45.47722,0.0 8.1901,45.47745,0.0 8.1894,45.47777,0.0 8.16579,45.49065,0.0 8.16499,45.4912,0.0 8.16491,45.49129,0.0 8.16476,45.49138,0.0 8.16424,45.49158,0.0 8.16369,45.49172,0.0 8.16315,45.49183,0.0 8.1608,45.49242,0.0 8.16072,45.49242,0.0 8.14211,45.49713,0.0 8.14139,45.49736,0.0 8.14114,45.49746,0.0 8.14087,45.49761,0.0 8.14087,45.49762,0.0 8.14088,45.49765,0.0 8.14087,45.49768,0.0 8.14081,45.49774,0.0 8.14052,45.49784,0.0 8.14049,45.49783,0.0 8.14046,45.49783,0.0 8.14042,45.49781,0.0 8.1404,45.49779,0.0 8.14039,45.49777,0.0 8.12114,45.50593,0.0 8.1205,45.50618,0.0 8.11726,45.50759,0.0 8.11717,45.50762,0.0 8.11684,45.50777,0.0 8.11588,45.50833,0.0 8.11533,45.50871,0.0 8.09866,45.52113,0.0 8.09852,45.52125,0.0 8.09645,45.52281,0.0 8.09643,45.52282,0.0 8.09225,45.52594,0.0 8.09208,45.52612,0.0 8.09073,45.52716,0.0 8.09067,45.52723,0.0 8.09068,45.52725,0.0 8.09069,45.52726,0.0 8.09069,45.52727,0.0 8.0907,45.52728,0.0 8.0907,45.52735,0.0 8.09069,45.52737,0.0 8.09069,45.52738,0.0 8.09062,45.52745,0.0 8.09058,45.52747,0.0 8.09057,45.52747,0.0 8.09055,45.52748,0.0 8.09051,45.52748,0.0 8.0905,45.52749,0.0 8.09042,45.52749,0.0 8.09014,45.52772,0.0 8.08991,45.52796,0.0 8.08984,45.52801,0.0 8.08935,45.52861,0.0 8.08925,45.52875,0.0 8.08761,45.53078,0.0 8.08762,45.53079,0.0 8.08763,45.53079,0.0 8.08765,45.53081,0.0 8.08766,45.53081,0.0 8.08766,45.53082,0.0 8.08767,45.53082,0.0 8.08767,45.53083,0.0 8.08768,45.53084,0.0 8.08768,45.53085,0.0 8.08769,45.53086,0.0 8.08769,45.53092,0.0 8.08768,45.53092,0.0 8.08768,45.53093,0.0 8.08763,45.53098,0.0 8.08761,45.53098,0.0 8.08761,45.53099,0.0 8.08758,45.53099,0.0 8.08757,45.531,0.0 8.08747,45.531,0.0 8.08746,45.53099,0.0 8.08725,45.53122,0.0 8.08517,45.5338,0.0 8.08517,45.53381,0.0 8.08519,45.53381,0.0 8.0852,45.53382,0.0 8.08521,45.53382,0.0 8.08521,45.53383,0.0 8.08522,45.53383,0.0 8.08522,45.53384,0.0 8.08523,45.53385,0.0 8.08523,45.53386,0.0 8.08524,45.53386,0.0 8.08524,45.5339,0.0 8.08523,45.53391,0.0 8.08523,45.53393,0.0 8.08522,45.53393,0.0 8.08522,45.53394,0.0 8.08521,45.53394,0.0 8.0852,45.53395,0.0 8.08519,45.53395,0.0 8.08519,45.53396,0.0 8.08517,45.53396,0.0 8.08517,45.53397,0.0 8.08513,45.53397,0.0 8.08513,45.53398,0.0 8.08509,45.53398,0.0 8.08509,45.53397,0.0 8.08505,45.53397,0.0 8.08504,45.53396,0.0 8.08503,45.53396,0.0 8.08053,45.53956,0.0 8.08052,45.53962,0.0 8.08029,45.53992,0.0 8.0803,45.53993,0.0 8.0803,45.53994,0.0 8.08031,45.53994,0.0 8.08031,45.54,0.0 8.0803,45.54001,0.0 8.0803,45.54002,0.0 8.08029,45.54002,0.0 8.08029,45.54003,0.0 8.08028,45.54003,0.0 8.08028,45.54004,0.0 8.08027,45.54004,0.0 8.08026,45.54005,0.0 8.08025,45.54005,0.0 8.08025,45.54006,0.0 8.08023,45.54006,0.0 8.08022,45.54007,0.0 8.08015,45.54007,0.0 8.0801,45.54016,0.0 8.07985,45.54049,0.0 8.07939,45.54104,0.0 8.0794,45.54105,0.0 8.0794,45.54109,0.0 8.07939,45.5411,0.0 8.07939,45.54111,0.0 8.07938,45.54111,0.0 8.07938,45.54112,0.0 8.07937,45.54112,0.0 8.07937,45.54113,0.0 8.07935,45.54113,0.0 8.07935,45.54114,0.0 8.07932,45.54114,0.0 8.07932,45.54115,0.0 8.0793,45.54115,0.0 8.0784,45.54223,0.0 8.07812,45.54254,0.0 8.07638,45.54463,0.0 8.07632,45.54476,0.0 8.07637,45.54481,0.0 8.07637,45.54482,0.0 8.07638,45.54484,0.0 8.07639,45.54485,0.0 8.07639,45.54491,0.0 8.07638,45.54492,0.0 8.07638,45.54494,0.0 8.07637,45.54495,0.0 8.07636,45.54497,0.0 8.07635,45.54498,0.0 8.07633,45.54499,0.0 8.07631,45.54501,0.0 8.07629,45.54502,0.0 8.07628,45.54502,0.0 8.07626,45.54503,0.0 8.07625,45.54504,0.0 8.07623,45.54504,0.0 8.07621,45.54505,0.0 8.07612,45.54505,0.0 8.07581,45.54535,0.0 8.07288,45.54889,0.0 8.07251,45.54941,0.0 8.07163,45.55045,0.0 8.07156,45.55052,0.0 8.07152,45.55055,0.0 8.07144,45.55066,0.0 8.07141,45.55072,0.0 8.0714,45.55077,0.0 8.07143,45.55082,0.0 8.07143,45.55084,0.0 8.07144,45.55086,0.0 8.07144,45.55092,0.0 8.07143,45.55094,0.0 8.07142,45.55095,0.0 8.07142,45.55097,0.0 8.07138,45.55101,0.0 8.07136,45.55102,0.0 8.07134,45.55104,0.0 8.07133,45.55104,0.0 8.07129,45.55106,0.0 8.07128,45.55106,0.0 8.07126,45.55107,0.0 8.07121,45.55107,0.0 8.07119,45.55108,0.0 8.07115,45.55108,0.0 8.07113,45.55107,0.0 8.0711,45.55107,0.0 8.07092,45.55125,0.0 8.06984,45.55268,0.0 8.06852,45.55426,0.0 8.06853,45.55426,0.0 8.06853,45.55427,0.0 8.06854,45.55428,0.0 8.06854,45.55434,0.0 8.06853,45.55434,0.0 8.06853,45.55435,0.0 8.06851,45.55437,0.0 8.0685,45.55437,0.0 8.0685,45.55438,0.0 8.06848,45.55438,0.0 8.06848,45.55439,0.0 8.06845,45.55439,0.0 8.06832,45.55457,0.0 8.06813,45.55476,0.0 8.06694,45.5561,0.0 8.06669,45.55633,0.0 8.06639,45.55667,0.0 8.06642,45.5567,0.0 8.06642,45.55671,0.0 8.06643,45.55672,0.0 8.06643,45.55679,0.0 8.06641,45.55681,0.0 8.06641,45.55682,0.0 8.06638,45.55685,0.0 8.06637,45.55685,0.0 8.06637,45.55686,0.0 8.06636,45.55686,0.0 8.06635,45.55687,0.0 8.06634,45.55687,0.0 8.06633,45.55688,0.0 8.06629,45.55688,0.0 8.06629,45.55689,0.0 8.06622,45.55689,0.0 8.06608,45.55699,0.0 8.06601,45.55702,0.0 8.06557,45.55766,0.0 8.06481,45.55895,0.0 8.06482,45.55895,0.0 8.06482,45.55896,0.0 8.06484,45.55896,0.0 8.06484,45.55897,0.0 8.06485,45.55897,0.0 8.06485,45.55899,0.0 8.06486,45.55899,0.0 8.06486,45.55901,0.0 8.06485,45.55901,0.0 8.06485,45.55903,0.0 8.06484,45.55903,0.0 8.06484,45.55904,0.0 8.06482,45.55904,0.0 8.06481,45.55905,0.0 8.06475,45.55905,0.0 8.06467,45.55925,0.0 8.06301,45.56156,0.0 8.06302,45.56157,0.0 8.06303,45.56157,0.0 8.06303,45.56158,0.0 8.06304,45.56158,0.0 8.06304,45.56159,0.0 8.06305,45.56159,0.0 8.06305,45.56162,0.0 8.06306,45.56162,0.0 8.06305,45.56163,0.0 8.06305,45.56165,0.0 8.06304,45.56165,0.0 8.06304,45.56166,0.0 8.06303,45.56166,0.0 8.06303,45.56167,0.0 8.06302,45.56167,0.0 8.06302,45.56168,0.0 8.063,45.56168,0.0 8.06299,45.56169,0.0 8.06292,45.56169,0.0 8.06292,45.56168,0.0 8.06291,45.56168,0.0 8.0628,45.56181,0.0 8.06133,45.56329,0.0 8.06133,45.56332,0.0 8.06122,45.56341,0.0 8.06113,45.56351,0.0 8.0611,45.56356,0.0 8.0611,45.56359,0.0 8.06109,45.56359,0.0 8.06109,45.5636,0.0 8.06108,45.56361,0.0 8.06108,45.56362,0.0 8.06107,45.56362,0.0 8.06106,45.56363,0.0 8.06105,45.56363,0.0 8.06105,45.56364,0.0 8.06102,45.56364,0.0 8.06101,45.56365,0.0 8.06096,45.56365,0.0 8.06095,45.56364,0.0 8.06093,45.56364,0.0 8.06092,45.56363,0.0 8.06091,45.56363,0.0 8.06091,45.56362,0.0 8.0609,45.56362,0.0 8.0609,45.56361,0.0 8.06089,45.56361,0.0 8.06089,45.5636,0.0 8.06084,45.56361,0.0 8.06075,45.56361,0.0 8.06069,45.5636,0.0 8.05829,45.56289,0.0 8.05821,45.56288,0.0 8.0582,45.56289,0.0 8.05817,45.56289,0.0 8.05816,45.5629,0.0 8.05812,45.5629,0.0 8.05811,45.56289,0.0 8.05808,45.56289,0.0 8.05808,45.56288,0.0 8.05806,45.56288,0.0 8.05804,45.56286,0.0 8.05803,45.56286,0.0 8.05803,45.56285,0.0 8.05802,45.56285,0.0 8.05802,45.56283,0.0 8.05801,45.56283,0.0 8.05801,45.56282,0.0 8.05634,45.5624,0.0 8.05617,45.56237,0.0 8.05509,45.5621,0.0 8.05488,45.56206,0.0 8.05479,45.56203,0.0 8.05468,45.56203,0.0 8.05468,45.56202,0.0 8.05466,45.56202,0.0 8.05465,45.56201,0.0 8.05464,45.56201,0.0 8.05464,45.562,0.0 8.05463,45.562,0.0 8.05463,45.56199,0.0 8.05462,45.56199,0.0 8.05462,45.56198,0.0 8.05461,45.56198,0.0 8.05461,45.56197,0.0 8.0546,45.56196,0.0 8.0517,45.56124,0.0 8.05169,45.56124,0.0 8.05169,45.56125,0.0 8.05166,45.56125,0.0 8.05166,45.56126,0.0 8.05164,45.56126,0.0 8.05164,45.56168,0.0 8.05155,45.56173,0.0 8.05153,45.56187,0.0 8.05141,45.56234,0.0 8.05125,45.56336,0.0 8.05126,45.56336,0.0 8.05132,45.56338,0.0 8.05136,45.56341,0.0 8.05136,45.56342,0.0 8.05137,45.56343,0.0 8.05138,45.56351,0.0 8.05136,45.56367,0.0 8.05131,45.56374,0.0 8.05124,45.56376,0.0 8.05119,45.56376,0.0 8.05101,45.56484,0.0 8.05088,45.56541,0.0 8.05051,45.56773,0.0 8.05049,45.5678,0.0 8.05043,45.56787,0.0 8.05036,45.568,0.0 8.05021,45.56837,0.0 8.05023,45.56837,0.0 8.05024,45.56838,0.0 8.05026,45.56838,0.0 8.05026,45.56839,0.0 8.05028,45.56839,0.0 8.05028,45.5684,0.0 8.05029,45.5684,0.0 8.05029,45.56842,0.0 8.0503,45.56842,0.0 8.0503,45.56844,0.0 8.05029,45.56844,0.0 8.05029,45.56846,0.0 8.05028,45.56846,0.0 8.05028,45.56847,0.0 8.05027,45.56847,0.0 8.05027,45.56848,0.0 8.05025,45.56848,0.0 8.05025,45.56849,0.0 8.05022,45.56849,0.0 8.0503,45.5704,0.0 8.05049,45.57148,0.0 8.05049,45.57147,0.0 8.05054,45.57147,0.0 8.05055,45.57148,0.0 8.05057,45.57148,0.0 8.05057,45.57149,0.0 8.05059,45.57149,0.0 8.05059,45.5715,0.0 8.0506,45.5715,0.0 8.0506,45.57152,0.0 8.05061,45.57152,0.0 8.05061,45.57155,0.0 8.0506,45.57155,0.0 8.0506,45.57157,0.0 8.05059,45.57157,0.0 8.05059,45.57158,0.0 8.05058,45.57158,0.0 8.05057,45.57159,0.0 8.05055,45.57159,0.0 8.05055,45.5716,0.0 8.05049,45.5716,0.0 8.05058,45.57225,0.0 8.05059,45.57242,0.0 8.05057,45.57261,0.0 8.05055,45.57265,0.0 8.05052,45.57269,0.0 8.05041,45.57277,0.0 8.05029,45.57281,0.0 8.05022,45.57282,0.0 8.05007,45.57282,0.0 8.04998,45.57281,0.0 8.04988,45.57278,0.0 8.04978,45.5727,0.0 8.04887,45.5717,0.0 8.04871,45.57158,0.0 8.0481,45.57125,0.0 8.04797,45.57121,0.0 8.04786,45.57119,0.0 8.04703,45.57117,0.0 8.04684,45.57119,0.0 8.04663,45.57125,0.0 8.04642,45.57144,0.0 8.04615,45.57163,0.0 8.04579,45.57177,0.0 8.04564,45.57181,0.0 8.04541,45.57185,0.0 8.04521,45.57187,0.0 8.04487,45.57188,0.0 8.04472,45.57191,0.0 8.0445,45.57198,0.0 8.04429,45.57211,0.0 8.04416,45.57223,0.0 8.04373,45.57287,0.0 8.04322,45.57354,0.0 8.04314,45.5736,0.0 8.04254,45.57398,0.0 8.04241,45.57409,0.0 8.04237,45.57414,0.0 8.04234,45.5742,0.0 8.04228,45.57439,0.0 8.04222,45.57473,0.0 8.04216,45.57488,0.0 8.04201,45.57507,0.0 8.04197,45.57509,0.0 8.04129,45.57565,0.0 8.04114,45.57575,0.0 8.04093,45.57595,0.0 8.0408,45.57612,0.0 8.04071,45.57622,0.0 8.0407,45.57624,0.0 8.04013,45.57701,0.0 8.03993,45.5772,0.0 8.0392,45.57797,0.0 8.03916,45.57804,0.0 8.03913,45.57812,0.0 8.03913,45.57821,0.0 8.03914,45.57828,0.0 8.03918,45.57839,0.0 8.03925,45.57847,0.0 8.03932,45.57853,0.0 8.03942,45.5786,0.0 8.03953,45.5787,0.0 8.0396,45.57883,0.0 8.03962,45.57893,0.0 8.0396,45.57902,0.0 8.03958,45.57907,0.0 8.03953,45.57916,0.0 8.03941,45.57932,0.0 8.03931,45.57955,0.0 8.03936,45.57968,0.0 8.0394,45.57975,0.0 8.03941,45.57981,0.0 8.03941,45.57985,0.0 8.03942,45.5799,0.0 8.0394,45.58005,0.0 8.03873,45.58069,0.0 8.0385,45.58109,0.0 8.03813,45.58156,0.0 8.03801,45.58178,0.0 8.03774,45.58266,0.0 8.03767,45.58276,0.0 8.03759,45.58284,0.0 8.03755,45.58285,0.0 8.03699,45.5831,0.0 8.0368,45.5832,0.0 8.03672,45.58326,0.0 8.03616,45.58376,0.0 8.0357,45.58424,0.0 8.03344,45.5863,0.0 8.0332,45.58642,0.0 8.03297,45.5865,0.0 8.03279,45.5866,0.0 8.03255,45.58678,0.0 8.03214,45.58718,0.0 8.03183,45.58759,0.0 8.03165,45.58791,0.0 8.0315,45.58809,0.0 8.03121,45.58833,0.0 8.03066,45.5889,0.0 8.03015,45.58934,0.0 8.02994,45.58993,0.0 8.02978,45.5905,0.0 8.02951,45.59091,0.0 8.02925,45.59117,0.0 8.0289,45.59141,0.0 8.02848,45.59162,0.0 8.02745,45.59208,0.0 8.02665,45.59251,0.0 8.02561,45.59335,0.0 8.02537,45.59364,0.0 8.02506,45.59394,0.0 8.02502,45.59399,0.0 8.02499,45.59404,0.0 8.02494,45.59415,0.0 8.0249,45.59435,0.0 8.02483,45.59461,0.0 8.02475,45.59501,0.0 8.02475,45.59526,0.0 8.02476,45.59535,0.0 8.02475,45.5954,0.0 8.02475,45.59543,0.0 8.02474,45.59545,0.0 8.0247,45.59547,0.0 8.02463,45.59549,0.0 8.02406,45.59559,0.0 8.02388,45.59564,0.0 8.02382,45.59567,0.0 8.02374,45.59574,0.0 8.02366,45.59587,0.0 8.0233,45.59634,0.0 8.02304,45.59663,0.0 8.0227,45.59693,0.0 8.02249,45.59706,0.0 8.0224,45.59708,0.0 8.0222,45.59708,0.0 8.02212,45.59705,0.0 8.022,45.59694,0.0 8.02198,45.59691,0.0 8.02197,45.59687,0.0 8.022,45.59673,0.0 8.02204,45.59665,0.0 8.02206,45.59654,0.0 8.02206,45.59645,0.0 8.02204,45.5964,0.0 8.02202,45.59637,0.0 8.02195,45.59632,0.0 8.02189,45.59629,0.0 8.02171,45.59626,0.0 8.0214,45.59631,0.0 8.02098,45.59642,0.0 8.02056,45.59649,0.0 8.02006,45.59651,0.0 8.01998,45.59652,0.0 8.01988,45.59655,0.0 8.01982,45.59656,0.0 8.01973,45.59662,0.0 8.01965,45.59674,0.0 8.01962,45.5968,0.0 8.01962,45.59681,0.0 8.01958,45.59688,0.0 8.01943,45.59704,0.0 8.01932,45.59712,0.0 8.01898,45.59723,0.0 8.01889,45.59724,0.0 8.01881,45.59724,0.0 8.01873,45.59723,0.0 8.01866,45.59721,0.0 8.0185,45.59711,0.0 8.01837,45.59705,0.0 8.01827,45.59704,0.0 8.01811,45.59705,0.0 8.01773,45.59712,0.0 8.01759,45.59716,0.0 8.01739,45.59717,0.0 8.0173,45.59715,0.0 8.01687,45.59694,0.0 8.01671,45.59689,0.0 8.01659,45.59687,0.0 8.01652,45.59687,0.0 8.01644,45.59688,0.0 8.01636,45.5969,0.0 8.01628,45.59691,0.0 8.0162,45.59693,0.0 8.01603,45.59693,0.0 8.01587,45.59691,0.0 8.01581,45.59687,0.0 8.01575,45.59684,0.0 8.01559,45.5967,0.0 8.01552,45.59666,0.0 8.01541,45.59662,0.0 8.01525,45.59658,0.0 8.01516,45.59657,0.0 8.01502,45.59657,0.0 8.01358,45.59673,0.0 8.01321,45.59673,0.0 8.01295,45.5967,0.0 8.01274,45.5967,0.0 8.01215,45.59679,0.0 8.012,45.59678,0.0 8.01185,45.59674,0.0 8.01159,45.59663,0.0 8.01138,45.59658,0.0 8.01116,45.59659,0.0 8.01063,45.59676,0.0 8.01044,45.59675,0.0 8.01033,45.59671,0.0 8.0102,45.59661,0.0 8.01015,45.59654,0.0 8.01011,45.59636,0.0 8.01011,45.5961,0.0 8.01016,45.59591,0.0 8.01024,45.59576,0.0 8.01034,45.59562,0.0 8.0105,45.59545,0.0 8.01078,45.59529,0.0 8.01143,45.59499,0.0 8.01182,45.59484,0.0 8.01188,45.59479,0.0 8.0119,45.59475,0.0 8.01189,45.59469,0.0 8.01186,45.59463,0.0 8.01171,45.5945,0.0 8.01162,45.59448,0.0 8.0115,45.59448,0.0 8.01143,45.59452,0.0 8.01128,45.5947,0.0 8.01121,45.59477,0.0 8.01109,45.59484,0.0 8.01102,45.59487,0.0 8.0106,45.59496,0.0 8.01051,45.59497,0.0 8.01031,45.59503,0.0 8.0102,45.59508,0.0 8.00991,45.59526,0.0 8.00964,45.59558,0.0 8.00953,45.59569,0.0 8.00945,45.59575,0.0 8.00929,45.59581,0.0 8.00913,45.59584,0.0 8.00856,45.59589,0.0 8.00845,45.59588,0.0 8.00825,45.59591,0.0 8.00813,45.59596,0.0 8.00781,45.59624,0.0 8.00717,45.59687,0.0 8.00698,45.59699,0.0 8.00661,45.59718,0.0 8.00637,45.59728,0.0 8.00601,45.59738,0.0 8.00505,45.59753,0.0 8.00489,45.59753,0.0 8.00466,45.5975,0.0 8.0045,45.59746,0.0 8.00424,45.59742,0.0 8.00396,45.59741,0.0 8.00384,45.59742,0.0 8.00354,45.59751,0.0 8.00328,45.59767,0.0 8.00275,45.59791,0.0 8.00266,45.59794,0.0 8.00249,45.59797,0.0 8.00233,45.59797,0.0 8.00206,45.59793,0.0 8.0014,45.59779,0.0 8.00011,45.59738,0.0 7.99984,45.59735,0.0 7.99969,45.59736,0.0 7.99893,45.59746,0.0 7.99885,45.59748,0.0 7.99878,45.59753,0.0 7.99875,45.59756,0.0 7.99873,45.59759,0.0 7.99872,45.59764,0.0 7.99874,45.59768,0.0 7.99878,45.59773,0.0 7.99883,45.59777,0.0 7.99898,45.59781,0.0 7.99908,45.59779,0.0 7.99926,45.59772,0.0 7.99938,45.59766,0.0 7.99951,45.59762,0.0 7.99969,45.59758,0.0 7.99978,45.59758,0.0 7.99991,45.59762,0.0 8.00003,45.59773,0.0 8.00006,45.59781,0.0 8.00008,45.59789,0.0 8.00012,45.59799,0.0 8.00018,45.59805,0.0 8.00035,45.59816,0.0 8.00162,45.59867,0.0 8.0019,45.59882,0.0 8.002,45.59893,0.0 8.00206,45.59901,0.0 8.00209,45.59918,0.0 8.00206,45.59935,0.0 8.002,45.5994,0.0 8.00193,45.59944,0.0 8.00186,45.59947,0.0 8.00134,45.59957,0.0 8.00122,45.59962,0.0 8.00112,45.59968,0.0 8.00062,45.59989,0.0 8.00026,45.59997,0.0 7.99999,45.6,0.0 7.99984,45.60004,0.0 7.99977,45.60005,0.0 7.99963,45.60011,0.0 7.9996,45.60014,0.0 7.99958,45.60017,0.0 7.99963,45.60033,0.0 7.99972,45.60044,0.0 7.99983,45.60054,0.0 7.99994,45.60069,0.0 7.99996,45.60077,0.0 7.99994,45.6009,0.0 7.99989,45.60101,0.0 7.99974,45.60114,0.0 7.99956,45.60123,0.0 7.99923,45.60136,0.0 7.99907,45.60139,0.0 7.99894,45.6014,0.0 7.99867,45.6014,0.0 7.99848,45.60138,0.0 7.99836,45.6014,0.0 7.99826,45.60143,0.0 7.99812,45.60152,0.0 7.99807,45.60156,0.0 7.998,45.60166,0.0 7.99798,45.60172,0.0 7.99797,45.60178,0.0 7.99797,45.60183,0.0 7.99798,45.60188,0.0 7.99802,45.60199,0.0 7.99813,45.6022,0.0 7.99814,45.60224,0.0 7.99815,45.60226,0.0 7.99815,45.60233,0.0 7.99814,45.60237,0.0 7.99812,45.6024,0.0 7.99805,45.60246,0.0 7.99801,45.60248,0.0 7.99793,45.60249,0.0 7.99783,45.60249,0.0 7.99745,45.60246,0.0 7.99735,45.60247,0.0 7.99724,45.6025,0.0 7.99702,45.6026,0.0 7.99689,45.60268,0.0 7.99685,45.60272,0.0 7.99679,45.60282,0.0 7.99676,45.60289,0.0 7.99672,45.60328,0.0 7.99669,45.60337,0.0 7.99666,45.60343,0.0 7.99658,45.6035,0.0 7.99511,45.60431,0.0 7.9948,45.60438,0.0 7.99469,45.60439,0.0 7.99459,45.60441,0.0 7.9945,45.60444,0.0 7.99445,45.60447,0.0 7.99436,45.60457,0.0 7.99428,45.6047,0.0 7.99426,45.60477,0.0 7.99425,45.60492,0.0 7.99426,45.60499,0.0 7.99431,45.60512,0.0 7.99435,45.60532,0.0 7.99434,45.60546,0.0 7.99431,45.60556,0.0 7.9942,45.60572,0.0 7.99405,45.60588,0.0 7.99396,45.60595,0.0 7.99227,45.60665,0.0 7.99214,45.60673,0.0 7.99205,45.60677,0.0 7.99194,45.60688,0.0 7.99176,45.60713,0.0 7.99162,45.60724,0.0 7.99146,45.60732,0.0 7.99138,45.60733,0.0 7.99058,45.60736,0.0 7.99044,45.60738,0.0 7.99021,45.60744,0.0 7.989,45.60808,0.0 7.98887,45.60811,0.0 7.98853,45.60812,0.0 7.98837,45.60809,0.0 7.98813,45.60811,0.0 7.98805,45.60814,0.0 7.988,45.60817,0.0 7.98796,45.60822,0.0 7.98794,45.60832,0.0 7.98798,45.60858,0.0 7.98794,45.60873,0.0 7.98787,45.60881,0.0 7.98743,45.6091,0.0 7.98724,45.60919,0.0 7.98719,45.60925,0.0 7.98717,45.60931,0.0 7.98719,45.60938,0.0 7.98726,45.60945,0.0 7.98733,45.60949,0.0 7.98768,45.60957,0.0 7.98777,45.6096,0.0 7.98785,45.60964,0.0 7.9879,45.60968,0.0 7.98795,45.60976,0.0 7.98798,45.60985,0.0 7.98797,45.61017,0.0 7.98794,45.61033,0.0 7.98786,45.61055,0.0 7.9876,45.61171,0.0 7.98754,45.61206,0.0 7.98736,45.61242,0.0 7.9873,45.6125,0.0 7.98713,45.61264,0.0 7.98693,45.61273,0.0 7.98681,45.61277,0.0 7.98664,45.61285,0.0 7.98657,45.6129,0.0 7.98639,45.61306,0.0 7.9863,45.61317,0.0 7.98626,45.61329,0.0 7.98626,45.6134,0.0 7.98628,45.61352,0.0 7.98634,45.61376,0.0 7.98635,45.61387,0.0 7.98632,45.61451,0.0 7.98634,45.61464,0.0 7.98637,45.61475,0.0 7.98647,45.61498,0.0 7.98648,45.61513,0.0 7.98646,45.61518,0.0 7.9864,45.61527,0.0 7.98621,45.61547,0.0 7.98596,45.61579,0.0 7.98584,45.61589,0.0 7.98578,45.61593,0.0 7.98571,45.61596,0.0 7.9856,45.61599,0.0 7.98547,45.61601,0.0 7.98526,45.61601,0.0 7.98473,45.61606,0.0 7.98443,45.61607,0.0 7.98374,45.61613,0.0 7.9835,45.61618,0.0 7.98319,45.61633,0.0 7.9826,45.61684,0.0 7.98235,45.61709,0.0 7.98219,45.6173,0.0 7.98212,45.61741,0.0 7.98211,45.61748,0.0 7.98214,45.61761,0.0 7.98249,45.61803,0.0 7.98257,45.61818,0.0 7.98264,45.61846,0.0 7.98267,45.61876,0.0 7.9827,45.61888,0.0 7.98274,45.61896,0.0 7.98286,45.61915,0.0 7.98306,45.61933,0.0 7.98321,45.61949,0.0 7.98326,45.61958,0.0 7.98328,45.61972,0.0 7.98326,45.61981,0.0 7.9832,45.61991,0.0 7.98315,45.61996,0.0 7.98293,45.62005,0.0 7.98282,45.62006,0.0 7.98261,45.62005,0.0 7.98191,45.61997,0.0 7.98178,45.61998,0.0 7.98171,45.62001,0.0 7.98164,45.62006,0.0 7.98158,45.62015,0.0 7.98158,45.62029,0.0 7.98165,45.62081,0.0 7.98167,45.62106,0.0 7.98202,45.62217,0.0 7.98202,45.62223,0.0 7.98197,45.62229,0.0 7.98174,45.62248,0.0 7.98152,45.62271,0.0 7.9815,45.62279,0.0 7.98152,45.62286,0.0 7.98156,45.62292,0.0 7.98165,45.62297,0.0 7.98178,45.623,0.0 7.98367,45.62309,0.0 7.98411,45.62315,0.0 7.98418,45.62318,0.0 7.98424,45.62325,0.0 7.98424,45.62329,0.0 7.98422,45.62335,0.0 7.98418,45.62339,0.0 7.98374,45.62375,0.0 7.98366,45.62384,0.0 7.98366,45.62387,0.0 7.98367,45.62389,0.0 7.98367,45.6239,0.0 7.98387,45.62408,0.0 7.98449,45.62455,0.0 7.98451,45.62457,0.0 7.98452,45.6246,0.0 7.98451,45.62463,0.0 7.98449,45.62466,0.0 7.98413,45.62488,0.0 7.98283,45.62576,0.0 7.98278,45.62578,0.0 7.98272,45.62576,0.0 7.98196,45.62524,0.0 7.98081,45.62618,0.0 7.97999,45.62681,0.0 7.97998,45.62681,0.0</coordinates>
            </LineString>
        </Placemark>
        <Placemark>
            <styleUrl>#icon-503-DB4436</styleUrl>
            <name>Start</name>
            <ExtendedData>
            </ExtendedData>
            <description><![CDATA[]]></description>
            <Point>
                <coordinates>8.85377,44.84632,0.0</coordinates>
            </Point>
        </Placemark>
        <Placemark>
            <styleUrl>#icon-503-DB4436</styleUrl>
            <name>Finish</name>
            <ExtendedData>
            </ExtendedData>
            <description><![CDATA[]]></description>
            <Point>
                <coordinates>7.97998,45.62681,0.0</coordinates>
            </Point>
        </Placemark>
        <Style id='line-1267FF-5'>
            <LineStyle>
                <color>ffFF6712</color>
                <width>5</width>
            </LineStyle>
        </Style>
    </Document>
</kml>