<?xml version='1.0' standalone='yes'?>
<kml xmlns='http://earth.google.com/kml/2.2'>
    <Document>
        <name></name>
        <Placemark>
            <styleUrl>#line-1267FF-5</styleUrl>
            <name>Giro 2017 stage 10</name>
            <ExtendedData></ExtendedData>
            <LineString>
                <tessellate>1</tessellate>
                <coordinates>12.70123,42.95964,0.0 12.70119,42.95965,0.0 12.70089,42.95997,0.0 12.70029,42.96073,0.0 12.70012,42.96091,0.0 12.69939,42.96187,0.0 12.69931,42.962,0.0 12.69918,42.96216,0.0 12.69861,42.96301,0.0 12.69817,42.96357,0.0 12.69643,42.96518,0.0 12.69587,42.96578,0.0 12.69523,42.96627,0.0 12.69516,42.96635,0.0 12.69484,42.96664,0.0 12.69485,42.96666,0.0 12.69485,42.9667,0.0 12.69484,42.96671,0.0 12.69484,42.96673,0.0 12.69483,42.96675,0.0 12.69482,42.96676,0.0 12.6948,42.9668,0.0 12.69478,42.96681,0.0 12.69476,42.96683,0.0 12.69468,42.96687,0.0 12.69465,42.96687,0.0 12.69463,42.96688,0.0 12.69461,42.96688,0.0 12.69454,42.96686,0.0 12.69452,42.96686,0.0 12.69448,42.96684,0.0 12.69446,42.96682,0.0 12.69442,42.9668,0.0 12.69441,42.96679,0.0 12.69441,42.96678,0.0 12.6944,42.96677,0.0 12.6944,42.96676,0.0 12.69439,42.96676,0.0 12.69439,42.96673,0.0 12.69426,42.96662,0.0 12.69385,42.96648,0.0 12.69377,42.96643,0.0 12.68382,42.96241,0.0 12.68333,42.96229,0.0 12.68329,42.96231,0.0 12.68323,42.96233,0.0 12.6832,42.96233,0.0 12.68318,42.96234,0.0 12.68309,42.96234,0.0 12.68306,42.96233,0.0 12.68303,42.96233,0.0 12.68295,42.9623,0.0 12.68293,42.96228,0.0 12.6829,42.96227,0.0 12.68288,42.96225,0.0 12.68287,42.96223,0.0 12.68285,42.96221,0.0 12.68282,42.96214,0.0 12.68282,42.96212,0.0 12.68246,42.96185,0.0 12.68221,42.96174,0.0 12.67952,42.9607,0.0 12.66841,42.95618,0.0 12.66792,42.956,0.0 12.66658,42.95539,0.0 12.66648,42.95533,0.0 12.66645,42.95532,0.0 12.66543,42.95461,0.0 12.66519,42.95447,0.0 12.66448,42.95413,0.0 12.66413,42.954,0.0 12.66381,42.9539,0.0 12.66129,42.95325,0.0 12.64249,42.94571,0.0 12.64248,42.94571,0.0 12.64178,42.94542,0.0 12.6414,42.9453,0.0 12.63919,42.94434,0.0 12.63907,42.94427,0.0 12.63857,42.94388,0.0 12.63831,42.9437,0.0 12.63801,42.94356,0.0 12.63744,42.94333,0.0 12.63549,42.94263,0.0 12.63537,42.94257,0.0 12.63529,42.94255,0.0 12.63356,42.94189,0.0 12.63354,42.94189,0.0 12.63093,42.94096,0.0 12.63041,42.94075,0.0 12.63013,42.94066,0.0 12.62872,42.94012,0.0 12.62794,42.93986,0.0 12.6266,42.93946,0.0 12.62537,42.93902,0.0 12.62514,42.939,0.0 12.62477,42.93894,0.0 12.62452,42.93899,0.0 12.6245,42.939,0.0 12.62449,42.939,0.0 12.62448,42.93901,0.0 12.62446,42.93901,0.0 12.62445,42.93902,0.0 12.62437,42.93902,0.0 12.62436,42.93901,0.0 12.62433,42.93901,0.0 12.62432,42.939,0.0 12.6243,42.939,0.0 12.62429,42.93899,0.0 12.62428,42.93899,0.0 12.62428,42.93898,0.0 12.62427,42.93897,0.0 12.62426,42.93897,0.0 12.62423,42.93894,0.0 12.62423,42.93893,0.0 12.62422,42.93892,0.0 12.62422,42.93891,0.0 12.62357,42.93854,0.0 12.62337,42.93845,0.0 12.62304,42.93833,0.0 12.61641,42.93624,0.0 12.61423,42.93562,0.0 12.61363,42.93548,0.0 12.6128,42.93524,0.0 12.61247,42.93511,0.0 12.61237,42.93505,0.0 12.61228,42.93497,0.0 12.61217,42.93483,0.0 12.61018,42.93125,0.0 12.60998,42.93094,0.0 12.61004,42.93065,0.0 12.61036,42.93031,0.0 12.61088,42.92971,0.0 12.61227,42.92822,0.0 12.61337,42.92694,0.0 12.61458,42.92562,0.0 12.61536,42.9247,0.0 12.61539,42.92468,0.0 12.61541,42.92456,0.0 12.61541,42.92437,0.0 12.61534,42.92414,0.0 12.61527,42.92401,0.0 12.61511,42.92381,0.0 12.61489,42.92349,0.0 12.61432,42.9228,0.0 12.61408,42.92246,0.0 12.61382,42.92204,0.0 12.61374,42.92185,0.0 12.6137,42.92167,0.0 12.6137,42.92148,0.0 12.61372,42.92133,0.0 12.61373,42.92113,0.0 12.61382,42.92058,0.0 12.61395,42.92015,0.0 12.61425,42.9193,0.0 12.61427,42.91914,0.0 12.61426,42.91904,0.0 12.61427,42.91872,0.0 12.61425,42.91844,0.0 12.61407,42.91754,0.0 12.61403,42.91747,0.0 12.6139,42.91737,0.0 12.61376,42.9173,0.0 12.61224,42.91685,0.0 12.61166,42.91662,0.0 12.61134,42.91646,0.0 12.61127,42.91641,0.0 12.6112,42.91634,0.0 12.61108,42.91617,0.0 12.61104,42.9161,0.0 12.61101,42.916,0.0 12.61095,42.91591,0.0 12.61089,42.91584,0.0 12.61081,42.91577,0.0 12.61074,42.91573,0.0 12.61055,42.91568,0.0 12.61026,42.91558,0.0 12.61012,42.91551,0.0 12.61,42.91543,0.0 12.60994,42.91538,0.0 12.60989,42.9153,0.0 12.60989,42.91522,0.0 12.60991,42.91518,0.0 12.60994,42.91514,0.0 12.60998,42.9151,0.0 12.61002,42.91507,0.0 12.61022,42.91501,0.0 12.61048,42.91502,0.0 12.61137,42.91515,0.0 12.61184,42.91518,0.0 12.61196,42.91516,0.0 12.61206,42.91512,0.0 12.61214,42.91505,0.0 12.6122,42.91497,0.0 12.61223,42.91488,0.0 12.61222,42.91483,0.0 12.61222,42.91479,0.0 12.61212,42.91462,0.0 12.61156,42.91396,0.0 12.61132,42.91375,0.0 12.61112,42.91362,0.0 12.61094,42.91355,0.0 12.60949,42.91319,0.0 12.60923,42.91314,0.0 12.60903,42.91308,0.0 12.60894,42.91304,0.0 12.60884,42.91294,0.0 12.6088,42.91287,0.0 12.6088,42.91281,0.0 12.60879,42.91274,0.0 12.60883,42.91264,0.0 12.6091,42.91233,0.0 12.60914,42.91226,0.0 12.60921,42.91209,0.0 12.60921,42.912,0.0 12.6092,42.91191,0.0 12.60917,42.91182,0.0 12.60915,42.91173,0.0 12.60899,42.91138,0.0 12.60896,42.91129,0.0 12.60896,42.9112,0.0 12.60898,42.91112,0.0 12.60902,42.91103,0.0 12.60907,42.91095,0.0 12.60932,42.91064,0.0 12.60955,42.91022,0.0 12.60971,42.90978,0.0 12.60981,42.90942,0.0 12.60985,42.90933,0.0 12.61013,42.90882,0.0 12.61021,42.90865,0.0 12.61049,42.90773,0.0 12.61081,42.90695,0.0 12.61083,42.90688,0.0 12.61084,42.9068,0.0 12.61083,42.90672,0.0 12.6108,42.90664,0.0 12.61074,42.90657,0.0 12.6107,42.90654,0.0 12.61064,42.90651,0.0 12.61053,42.90649,0.0 12.61048,42.90649,0.0 12.61041,42.9065,0.0 12.61036,42.90652,0.0 12.61022,42.90661,0.0 12.61,42.90691,0.0 12.60995,42.90701,0.0 12.60968,42.90737,0.0 12.60954,42.90749,0.0 12.60803,42.90814,0.0 12.60785,42.90819,0.0 12.60775,42.9082,0.0 12.60747,42.9082,0.0 12.60729,42.90817,0.0 12.60708,42.90806,0.0 12.60689,42.90791,0.0 12.60685,42.90786,0.0 12.60681,42.90775,0.0 12.60678,42.90754,0.0 12.60677,42.90709,0.0 12.60679,42.90694,0.0 12.60682,42.90682,0.0 12.60688,42.90667,0.0 12.60696,42.90652,0.0 12.60766,42.90574,0.0 12.60787,42.90548,0.0 12.60797,42.90528,0.0 12.60799,42.90508,0.0 12.60796,42.90498,0.0 12.60793,42.90491,0.0 12.60789,42.90485,0.0 12.60781,42.90476,0.0 12.60744,42.90443,0.0 12.60706,42.904,0.0 12.60674,42.90356,0.0 12.6067,42.90346,0.0 12.60668,42.90335,0.0 12.60668,42.90324,0.0 12.60669,42.90315,0.0 12.60669,42.90302,0.0 12.60693,42.90133,0.0 12.60698,42.90114,0.0 12.60713,42.90078,0.0 12.60808,42.89976,0.0 12.60907,42.8986,0.0 12.60914,42.89855,0.0 12.60979,42.89778,0.0 12.60986,42.89763,0.0 12.60989,42.89749,0.0 12.60989,42.89747,0.0 12.60979,42.89715,0.0 12.60938,42.89627,0.0 12.60918,42.89577,0.0 12.60892,42.89538,0.0 12.60858,42.89494,0.0 12.60834,42.89469,0.0 12.60796,42.8944,0.0 12.60771,42.89424,0.0 12.60695,42.89384,0.0 12.60669,42.89373,0.0 12.60658,42.8937,0.0 12.60647,42.89362,0.0 12.6062,42.8935,0.0 12.60601,42.89345,0.0 12.60569,42.89345,0.0 12.60559,42.89347,0.0 12.60547,42.89351,0.0 12.60487,42.89376,0.0 12.6044,42.89389,0.0 12.60409,42.89394,0.0 12.60233,42.89398,0.0 12.60083,42.89408,0.0 12.60039,42.89416,0.0 12.59939,42.8944,0.0 12.59922,42.89443,0.0 12.59907,42.89444,0.0 12.5976,42.89435,0.0 12.59743,42.89432,0.0 12.59729,42.89427,0.0 12.59719,42.89421,0.0 12.5971,42.89411,0.0 12.59704,42.894,0.0 12.59687,42.89319,0.0 12.59678,42.89256,0.0 12.59674,42.89238,0.0 12.5967,42.89229,0.0 12.59655,42.89215,0.0 12.59564,42.89147,0.0 12.59512,42.89105,0.0 12.59501,42.89093,0.0 12.59493,42.8908,0.0 12.59455,42.88958,0.0 12.5943,42.88889,0.0 12.59427,42.8885,0.0 12.59428,42.8884,0.0 12.59432,42.88826,0.0 12.59437,42.88816,0.0 12.59458,42.88793,0.0 12.59482,42.88773,0.0 12.59508,42.88762,0.0 12.59529,42.88756,0.0 12.59567,42.88754,0.0 12.59756,42.88767,0.0 12.59767,42.88766,0.0 12.59775,42.88762,0.0 12.59784,42.88756,0.0 12.59788,42.88751,0.0 12.59791,42.88746,0.0 12.59792,42.88739,0.0 12.59791,42.88729,0.0 12.59788,42.8872,0.0 12.59781,42.88705,0.0 12.59774,42.88695,0.0 12.5976,42.88684,0.0 12.59748,42.88678,0.0 12.59565,42.88616,0.0 12.59512,42.88596,0.0 12.59487,42.88585,0.0 12.59447,42.88554,0.0 12.59396,42.88507,0.0 12.59369,42.88476,0.0 12.59353,42.88454,0.0 12.59344,42.88435,0.0 12.5934,42.88422,0.0 12.5934,42.88411,0.0 12.59347,42.88395,0.0 12.59354,42.88385,0.0 12.59371,42.8837,0.0 12.59375,42.88368,0.0 12.59382,42.88363,0.0 12.59406,42.88349,0.0 12.5945,42.88319,0.0 12.59462,42.88309,0.0 12.59467,42.88302,0.0 12.5947,42.88291,0.0 12.59465,42.88277,0.0 12.59447,42.88251,0.0 12.59435,42.88238,0.0 12.59426,42.88233,0.0 12.59415,42.88231,0.0 12.59362,42.8823,0.0 12.59005,42.88257,0.0 12.58968,42.88258,0.0 12.58963,42.88259,0.0 12.58958,42.88259,0.0 12.58934,42.88255,0.0 12.58912,42.88248,0.0 12.58887,42.88234,0.0 12.58876,42.88224,0.0 12.5887,42.88217,0.0 12.58866,42.8821,0.0 12.58836,42.88131,0.0 12.58826,42.8811,0.0 12.58821,42.88102,0.0 12.58807,42.88093,0.0 12.58786,42.88088,0.0 12.58771,42.88087,0.0 12.58355,42.88116,0.0 12.5825,42.88126,0.0 12.58215,42.88131,0.0 12.58192,42.88138,0.0 12.58148,42.88155,0.0 12.58074,42.88188,0.0 12.57989,42.88217,0.0 12.57429,42.88356,0.0 12.57425,42.88356,0.0 12.5742,42.88358,0.0 12.57412,42.88359,0.0 12.57405,42.88361,0.0 12.57392,42.88363,0.0 12.57012,42.88337,0.0 12.57008,42.88336,0.0 12.56883,42.88327,0.0 12.56859,42.88323,0.0 12.56845,42.88318,0.0 12.56838,42.88314,0.0 12.5683,42.88306,0.0 12.56826,42.883,0.0 12.56819,42.88292,0.0 12.56814,42.88283,0.0 12.56787,42.88248,0.0 12.5677,42.88229,0.0 12.56758,42.88259,0.0 12.56744,42.88309,0.0 12.56744,42.88312,0.0 12.56727,42.88365,0.0 12.56719,42.88382,0.0 12.56705,42.88396,0.0 12.56695,42.88402,0.0 12.56665,42.88417,0.0 12.56643,42.88425,0.0 12.56602,42.88445,0.0 12.56575,42.88463,0.0 12.5656,42.88477,0.0 12.56004,42.88939,0.0 12.55985,42.8895,0.0 12.55919,42.88974,0.0 12.55729,42.89034,0.0 12.55652,42.89061,0.0 12.55651,42.89061,0.0 12.55602,42.89083,0.0 12.55587,42.89088,0.0 12.55391,42.89171,0.0 12.55155,42.89285,0.0 12.55133,42.89293,0.0 12.55098,42.89302,0.0 12.55055,42.89307,0.0 12.54952,42.89309,0.0 12.54914,42.89314,0.0 12.54913,42.89315,0.0 12.54902,42.89317,0.0 12.54837,42.89341,0.0 12.54822,42.89345,0.0 12.54814,42.89348,0.0 12.54697,42.89375,0.0 12.54676,42.89383,0.0 12.54666,42.89389,0.0 12.54664,42.89391,0.0 12.54657,42.89395,0.0 12.54616,42.89428,0.0 12.54583,42.89451,0.0 12.54581,42.89453,0.0 12.54572,42.89459,0.0 12.54541,42.89472,0.0 12.54519,42.89478,0.0 12.54497,42.89482,0.0 12.54481,42.89483,0.0 12.54468,42.89487,0.0 12.54426,42.89507,0.0 12.54376,42.89534,0.0 12.54338,42.89558,0.0 12.54308,42.89573,0.0 12.54306,42.89575,0.0 12.54143,42.89459,0.0 12.53966,42.89364,0.0 12.53934,42.89352,0.0 12.53892,42.89333,0.0 12.53878,42.89328,0.0 12.53891,42.89313,0.0 12.53894,42.89311,0.0 12.53897,42.89308,0.0 12.53907,42.89303,0.0 12.53919,42.89299,0.0 12.54003,42.89262,0.0 12.54012,42.89256,0.0 12.54019,42.89249,0.0 12.54022,42.89241,0.0 12.54022,42.89232,0.0 12.5402,42.89223,0.0 12.54012,42.89206,0.0 12.53988,42.89164,0.0 12.5396,42.89124,0.0 12.53954,42.89117,0.0 12.53946,42.89105,0.0 12.53943,42.89097,0.0 12.53943,42.89095,0.0 12.53944,42.89093,0.0 12.53944,42.89091,0.0 12.53946,42.89088,0.0 12.53949,42.89085,0.0 12.53952,42.89084,0.0 12.53957,42.89081,0.0 12.5396,42.8908,0.0 12.53963,42.8908,0.0 12.53999,42.89074,0.0 12.54011,42.89071,0.0 12.54035,42.89067,0.0 12.54053,42.89061,0.0 12.5406,42.89057,0.0 12.54063,42.89054,0.0 12.54065,42.89049,0.0 12.54065,42.89048,0.0 12.54066,42.89047,0.0 12.54065,42.89045,0.0 12.54065,42.89044,0.0 12.54064,42.89042,0.0 12.54062,42.8904,0.0 12.54061,42.89038,0.0 12.54044,42.89021,0.0 12.53993,42.8896,0.0 12.53972,42.88938,0.0 12.5396,42.88922,0.0 12.53948,42.88897,0.0 12.53928,42.88823,0.0 12.53915,42.88791,0.0 12.53899,42.88768,0.0 12.53884,42.88743,0.0 12.53847,42.88693,0.0 12.53842,42.88688,0.0 12.53834,42.88682,0.0 12.53714,42.8862,0.0 12.53687,42.88602,0.0 12.5368,42.88595,0.0 12.53668,42.88579,0.0 12.5365,42.88546,0.0 12.53643,42.88538,0.0 12.53625,42.88526,0.0 12.53596,42.8851,0.0 12.53539,42.88474,0.0 12.53517,42.88458,0.0 12.53539,42.8845,0.0 12.53853,42.88317,0.0 12.53934,42.88278,0.0 12.53953,42.88267,0.0 12.53987,42.88251,0.0 12.54022,42.88237,0.0 12.54046,42.88231,0.0 12.54065,42.88229,0.0 12.54095,42.8823,0.0 12.54216,42.88243,0.0 12.54288,42.88256,0.0 12.54324,42.88259,0.0 12.54396,42.88271,0.0 12.54494,42.88279,0.0 12.54591,42.8828,0.0 12.54631,42.88275,0.0 12.54675,42.88264,0.0 12.54686,42.88263,0.0 12.54805,42.88238,0.0 12.55061,42.88219,0.0 12.55085,42.88216,0.0 12.5522,42.88207,0.0 12.55268,42.88202,0.0 12.55293,42.88198,0.0 12.55315,42.88193,0.0 12.55434,42.88173,0.0 12.5547,42.88165,0.0 12.55504,42.88155,0.0 12.55613,42.88113,0.0 12.56214,42.87858,0.0 12.56234,42.87848,0.0 12.56243,42.87842,0.0 12.56256,42.87826,0.0 12.5626,42.87818,0.0 12.56263,42.87809,0.0 12.56268,42.87783,0.0 12.56275,42.87756,0.0 12.5628,42.87729,0.0 12.56296,42.87668,0.0 12.563,42.87632,0.0 12.563,42.87614,0.0 12.56297,42.87585,0.0 12.56297,42.87578,0.0 12.56296,42.87572,0.0 12.56296,42.87557,0.0 12.56298,42.87548,0.0 12.563,42.87543,0.0 12.56301,42.87537,0.0 12.56303,42.87531,0.0 12.56306,42.87525,0.0 12.56318,42.87506,0.0 12.56278,42.87477,0.0 12.56271,42.87471,0.0 12.5627,42.87471,0.0 12.56254,42.87455,0.0 12.56089,42.87236,0.0 12.56066,42.87208,0.0 12.56062,42.87195,0.0 12.56061,42.87194,0.0 12.5606,42.87194,0.0 12.5606,42.87193,0.0 12.56058,42.87193,0.0 12.56058,42.87192,0.0 12.56057,42.87192,0.0 12.56057,42.87191,0.0 12.56056,42.87191,0.0 12.56056,42.8719,0.0 12.56055,42.87189,0.0 12.56055,42.87188,0.0 12.56056,42.87188,0.0 12.56056,42.87186,0.0 12.56058,42.87186,0.0 12.56058,42.87185,0.0 12.56059,42.87185,0.0 12.56059,42.87184,0.0 12.56061,42.87184,0.0 12.56061,42.87183,0.0 12.56067,42.87183,0.0 12.56068,42.87184,0.0 12.5607,42.87184,0.0 12.5607,42.87185,0.0 12.56072,42.87185,0.0 12.56072,42.87187,0.0 12.56073,42.87187,0.0 12.56073,42.87192,0.0 12.56078,42.87193,0.0 12.56085,42.87197,0.0 12.56116,42.87234,0.0 12.56148,42.87268,0.0 12.56179,42.87296,0.0 12.56196,42.87309,0.0 12.56216,42.87318,0.0 12.5624,42.87324,0.0 12.56264,42.87324,0.0 12.56275,42.8732,0.0 12.56285,42.87315,0.0 12.56293,42.87309,0.0 12.56307,42.87294,0.0 12.56513,42.87017,0.0 12.56532,42.86996,0.0 12.56561,42.86969,0.0 12.56588,42.86947,0.0 12.56598,42.86941,0.0 12.56599,42.86941,0.0 12.56609,42.86936,0.0 12.57041,42.86803,0.0 12.57083,42.86796,0.0 12.57113,42.86795,0.0 12.57138,42.86797,0.0 12.57189,42.86806,0.0 12.57208,42.86807,0.0 12.57208,42.86806,0.0 12.5721,42.86805,0.0 12.57211,42.86804,0.0 12.57219,42.868,0.0 12.57221,42.868,0.0 12.57223,42.86799,0.0 12.57236,42.86799,0.0 12.5724,42.86801,0.0 12.57242,42.86801,0.0 12.57244,42.86802,0.0 12.57245,42.86803,0.0 12.57247,42.86804,0.0 12.5725,42.86807,0.0 12.57295,42.86805,0.0 12.5734,42.86794,0.0 12.57364,42.8679,0.0 12.57615,42.86734,0.0 12.57703,42.86718,0.0 12.57779,42.86715,0.0 12.57991,42.86728,0.0 12.58165,42.86744,0.0 12.583,42.86752,0.0 12.58334,42.86748,0.0 12.58775,42.8665,0.0 12.58855,42.86629,0.0 12.58994,42.86584,0.0 12.59493,42.86406,0.0 12.59494,42.86406,0.0 12.59519,42.86397,0.0 12.59551,42.86378,0.0 12.59665,42.8628,0.0 12.59737,42.86231,0.0 12.59774,42.86209,0.0 12.59782,42.86203,0.0 12.5985,42.86163,0.0 12.59986,42.86077,0.0 12.60346,42.8586,0.0 12.60418,42.8581,0.0 12.60445,42.85778,0.0 12.60454,42.85764,0.0 12.60459,42.85754,0.0 12.60466,42.85732,0.0 12.60468,42.85716,0.0 12.60468,42.85705,0.0 12.6044,42.85585,0.0 12.60439,42.85574,0.0 12.6044,42.85564,0.0 12.60448,42.85538,0.0 12.60453,42.85529,0.0 12.60464,42.85518,0.0 12.60478,42.85506,0.0 12.60547,42.85464,0.0 12.60704,42.85343,0.0 12.60758,42.85297,0.0 12.60766,42.85292,0.0 12.60776,42.85288,0.0 12.60859,42.85267,0.0 12.60907,42.85258,0.0 12.60946,42.85255,0.0 12.61131,42.85287,0.0 12.61179,42.85293,0.0 12.61185,42.85292,0.0 12.61191,42.85292,0.0 12.61227,42.85286,0.0 12.61233,42.85292,0.0 12.61241,42.85298,0.0 12.61304,42.85333,0.0 12.61441,42.85432,0.0 12.6155,42.85506,0.0 12.61571,42.85523,0.0 12.61639,42.85589,0.0 12.6174,42.85694,0.0 12.61787,42.85739,0.0 12.61813,42.85761,0.0 12.61837,42.85785,0.0 12.61858,42.85813,0.0 12.62023,42.86078,0.0 12.62093,42.86158,0.0 12.62104,42.86175,0.0 12.62112,42.86192,0.0 12.62117,42.86209,0.0 12.62118,42.8622,0.0 12.62117,42.86264,0.0 12.62102,42.86351,0.0 12.62102,42.86369,0.0 12.62105,42.86388,0.0 12.62113,42.86419,0.0 12.62151,42.86521,0.0 12.62158,42.86535,0.0 12.62174,42.86554,0.0 12.62192,42.86567,0.0 12.62246,42.86585,0.0 12.62345,42.86637,0.0 12.62407,42.8669,0.0 12.62421,42.867,0.0 12.6243,42.8671,0.0 12.62438,42.86724,0.0 12.62442,42.86735,0.0 12.62454,42.86754,0.0 12.625,42.86813,0.0 12.62531,42.86842,0.0 12.62539,42.86856,0.0 12.62548,42.86902,0.0 12.62563,42.86942,0.0 12.62572,42.86954,0.0 12.6267,42.87045,0.0 12.62786,42.8713,0.0 12.62819,42.87152,0.0 12.62835,42.87167,0.0 12.62911,42.87253,0.0 12.62922,42.87261,0.0 12.62933,42.87267,0.0 12.62953,42.87274,0.0 12.62971,42.87278,0.0 12.63064,42.87293,0.0 12.63078,42.87298,0.0 12.63107,42.87311,0.0 12.63153,42.87336,0.0 12.63189,42.87364,0.0 12.63211,42.87387,0.0 12.63385,42.87606,0.0 12.63395,42.87617,0.0 12.63422,42.87639,0.0 12.63522,42.877,0.0 12.63629,42.87773,0.0 12.63656,42.87797,0.0 12.63729,42.87878,0.0 12.63781,42.87931,0.0 12.63819,42.87966,0.0 12.63937,42.88032,0.0 12.63949,42.8804,0.0 12.63955,42.88045,0.0 12.63959,42.88051,0.0 12.63965,42.88064,0.0 12.63968,42.88076,0.0 12.63982,42.88106,0.0 12.63988,42.88115,0.0 12.64013,42.88138,0.0 12.64086,42.8817,0.0 12.64114,42.88187,0.0 12.6414,42.882,0.0 12.64162,42.88215,0.0 12.64203,42.88248,0.0 12.6428,42.88304,0.0 12.64317,42.88328,0.0 12.64354,42.88341,0.0 12.64359,42.88341,0.0 12.64377,42.88345,0.0 12.64387,42.88345,0.0 12.64401,42.8834,0.0 12.64459,42.88411,0.0 12.64526,42.88465,0.0 12.64548,42.88478,0.0 12.64599,42.88504,0.0 12.64621,42.88512,0.0 12.64655,42.88519,0.0 12.64665,42.8852,0.0 12.64857,42.88508,0.0 12.65049,42.8851,0.0 12.65054,42.88511,0.0 12.65059,42.88511,0.0 12.65067,42.88515,0.0 12.6508,42.8853,0.0 12.65083,42.88535,0.0 12.65083,42.88675,0.0 12.65081,42.88708,0.0 12.65083,42.88746,0.0 12.65073,42.88787,0.0 12.65052,42.88841,0.0 12.65051,42.88842,0.0 12.65051,42.88844,0.0 12.65027,42.88927,0.0 12.65019,42.8895,0.0 12.65008,42.89001,0.0 12.64996,42.89097,0.0 12.64996,42.89113,0.0 12.65003,42.89167,0.0 12.65002,42.89178,0.0 12.6495,42.89308,0.0 12.64934,42.8933,0.0</coordinates>
            </LineString>
        </Placemark>
        <Placemark>
            <styleUrl>#icon-503-DB4436</styleUrl>
            <name>Start</name>
            <ExtendedData>
            </ExtendedData>
            <description><![CDATA[]]></description>
            <Point>
                <coordinates>12.70123,42.95964,0.0</coordinates>
            </Point>
        </Placemark>
        <Placemark>
            <styleUrl>#icon-503-DB4436</styleUrl>
            <name>Finish</name>
            <ExtendedData>
            </ExtendedData>
            <description><![CDATA[]]></description>
            <Point>
                <coordinates>12.64934,42.8933,0.0</coordinates>
            </Point>
        </Placemark>
        <Style id='line-1267FF-5'>
            <LineStyle>
                <color>ffFF6712</color>
                <width>5</width>
            </LineStyle>
        </Style>
    </Document>
</kml>