<?xml version='1.0' standalone='yes'?>
<kml xmlns='http://earth.google.com/kml/2.2'>
    <Document>
        <name>Giro 2017 stage 9</name>
        <Placemark>
            <styleUrl>#line-1267FF-5</styleUrl>
            <name>Giro 2017 stage 9</name>
            <ExtendedData></ExtendedData>
            <LineString>
                <tessellate>1</tessellate>
                <coordinates>14.77615,41.97692,0.0 14.77614,41.97693,0.0 14.77614,41.97694,0.0 14.77613,41.97694,0.0 14.77613,41.97695,0.0 14.77612,41.97695,0.0 14.77612,41.97696,0.0 14.77611,41.97696,0.0 14.77611,41.97697,0.0 14.77609,41.97697,0.0 14.77609,41.97698,0.0 14.77606,41.97698,0.0 14.77605,41.97699,0.0 14.77605,41.97705,0.0 14.77596,41.97719,0.0 14.77588,41.97737,0.0 14.77584,41.97753,0.0 14.77583,41.97782,0.0 14.77586,41.97803,0.0 14.77639,41.98066,0.0 14.77651,41.98156,0.0 14.77712,41.98388,0.0 14.77747,41.98571,0.0 14.77747,41.98574,0.0 14.77754,41.98618,0.0 14.77755,41.9865,0.0 14.77748,41.98705,0.0 14.77671,41.99074,0.0 14.7757,41.9929,0.0 14.77566,41.99305,0.0 14.77551,41.99348,0.0 14.77548,41.99364,0.0 14.77542,41.99421,0.0 14.77465,41.99453,0.0 14.77449,41.99466,0.0 14.77385,41.99527,0.0 14.77376,41.9954,0.0 14.7737,41.99554,0.0 14.77363,41.99582,0.0 14.77336,41.99643,0.0 14.77224,41.99775,0.0 14.77214,41.99783,0.0 14.77206,41.99788,0.0 14.77197,41.99792,0.0 14.7716,41.99803,0.0 14.77071,41.99825,0.0 14.7707,41.99826,0.0 14.77025,41.99839,0.0 14.76993,41.99854,0.0 14.76942,41.99883,0.0 14.76923,41.99899,0.0 14.76908,41.99926,0.0 14.76904,41.99951,0.0 14.76908,42.0001,0.0 14.76907,42.00029,0.0 14.76902,42.00046,0.0 14.76902,42.00049,0.0 14.76841,42.0019,0.0 14.76821,42.00246,0.0 14.76784,42.00413,0.0 14.76775,42.0044,0.0 14.76765,42.00455,0.0 14.76755,42.00465,0.0 14.76718,42.00486,0.0 14.76654,42.0051,0.0 14.76638,42.0052,0.0 14.76619,42.00536,0.0 14.7651,42.00641,0.0 14.76472,42.00681,0.0 14.7645,42.00711,0.0 14.76432,42.00746,0.0 14.76331,42.01064,0.0 14.7632,42.01088,0.0 14.76315,42.01105,0.0 14.76313,42.01119,0.0 14.76314,42.01133,0.0 14.76318,42.01149,0.0 14.76327,42.01174,0.0 14.76407,42.01338,0.0 14.76422,42.01364,0.0 14.76434,42.0138,0.0 14.76455,42.01403,0.0 14.76475,42.01419,0.0 14.76581,42.0149,0.0 14.76563,42.01509,0.0 14.76538,42.01531,0.0 14.76526,42.01539,0.0 14.76498,42.01554,0.0 14.76426,42.01576,0.0 14.76419,42.0158,0.0 14.76404,42.01586,0.0 14.76385,42.01598,0.0 14.76376,42.01606,0.0 14.7637,42.01613,0.0 14.76364,42.01622,0.0 14.76075,42.01988,0.0 14.76061,42.02009,0.0 14.76035,42.02039,0.0 14.75895,42.02149,0.0 14.75001,42.02758,0.0 14.74961,42.02783,0.0 14.74682,42.02977,0.0 14.74644,42.03,0.0 14.74581,42.03045,0.0 14.74489,42.03106,0.0 14.74476,42.03116,0.0 14.74381,42.03178,0.0 14.74225,42.03288,0.0 14.74185,42.03314,0.0 14.74182,42.03318,0.0 14.74148,42.03344,0.0 14.74149,42.03345,0.0 14.74149,42.03351,0.0 14.74148,42.03353,0.0 14.74148,42.03354,0.0 14.74146,42.03359,0.0 14.74144,42.03361,0.0 14.74142,42.03364,0.0 14.74139,42.03366,0.0 14.74136,42.03369,0.0 14.74132,42.0337,0.0 14.74129,42.03372,0.0 14.74122,42.03374,0.0 14.74117,42.03374,0.0 14.74116,42.03375,0.0 14.74109,42.03375,0.0 14.74078,42.03389,0.0 14.74067,42.03399,0.0 14.7406,42.03402,0.0 14.74053,42.03412,0.0 14.7397,42.03624,0.0 14.73964,42.03632,0.0 14.73845,42.03738,0.0 14.73729,42.0383,0.0 14.73694,42.03863,0.0 14.73665,42.03897,0.0 14.73589,42.03975,0.0 14.73562,42.04009,0.0 14.73564,42.04009,0.0 14.73564,42.0401,0.0 14.73565,42.0401,0.0 14.73565,42.04011,0.0 14.73566,42.04011,0.0 14.73566,42.04012,0.0 14.73567,42.04012,0.0 14.73567,42.04014,0.0 14.73568,42.04014,0.0 14.73568,42.04022,0.0 14.73567,42.04023,0.0 14.73567,42.04024,0.0 14.73566,42.04024,0.0 14.73566,42.04025,0.0 14.73565,42.04025,0.0 14.73565,42.04026,0.0 14.73564,42.04026,0.0 14.73564,42.04027,0.0 14.73563,42.04027,0.0 14.73563,42.04028,0.0 14.73561,42.04028,0.0 14.73561,42.04029,0.0 14.73559,42.04029,0.0 14.73558,42.0403,0.0 14.73547,42.0403,0.0 14.73547,42.04029,0.0 14.73546,42.04029,0.0 14.73532,42.04058,0.0 14.73524,42.04108,0.0 14.735,42.04195,0.0 14.73479,42.04236,0.0 14.73481,42.04237,0.0 14.73482,42.04238,0.0 14.73483,42.04238,0.0 14.73485,42.04239,0.0 14.73486,42.0424,0.0 14.73486,42.04241,0.0 14.73488,42.04243,0.0 14.73488,42.04244,0.0 14.73489,42.04245,0.0 14.73489,42.04249,0.0 14.73488,42.0425,0.0 14.73488,42.04251,0.0 14.73484,42.04255,0.0 14.73482,42.04256,0.0 14.73481,42.04257,0.0 14.7348,42.04257,0.0 14.73478,42.04258,0.0 14.73477,42.04259,0.0 14.73473,42.04259,0.0 14.73472,42.0426,0.0 14.73469,42.0426,0.0 14.73451,42.04313,0.0 14.73434,42.04345,0.0 14.73419,42.0438,0.0 14.734,42.0441,0.0 14.73384,42.04449,0.0 14.73383,42.04457,0.0 14.73391,42.04538,0.0 14.734,42.04571,0.0 14.73403,42.04589,0.0 14.73407,42.04629,0.0 14.73408,42.04717,0.0 14.73402,42.0484,0.0 14.73398,42.04881,0.0 14.73394,42.04904,0.0 14.73393,42.04916,0.0 14.73397,42.04934,0.0 14.73402,42.04973,0.0 14.73407,42.04993,0.0 14.7341,42.04994,0.0 14.73412,42.04994,0.0 14.73414,42.04995,0.0 14.73417,42.04995,0.0 14.73423,42.04998,0.0 14.73429,42.05004,0.0 14.73431,42.05008,0.0 14.73432,42.05009,0.0 14.73432,42.05019,0.0 14.73431,42.0502,0.0 14.73429,42.05024,0.0 14.73425,42.05028,0.0 14.73423,42.05029,0.0 14.73421,42.05031,0.0 14.73419,42.05032,0.0 14.73416,42.05032,0.0 14.73411,42.05034,0.0 14.73412,42.05068,0.0 14.7341,42.05117,0.0 14.73416,42.05198,0.0 14.73413,42.05434,0.0 14.73411,42.05442,0.0 14.73412,42.05453,0.0 14.73412,42.05468,0.0 14.73415,42.05471,0.0 14.73416,42.05475,0.0 14.73416,42.05477,0.0 14.73418,42.05482,0.0 14.73418,42.05486,0.0 14.73422,42.05501,0.0 14.73422,42.05505,0.0 14.73418,42.05514,0.0 14.73432,42.05519,0.0 14.73447,42.05538,0.0 14.73454,42.05551,0.0 14.73459,42.05555,0.0 14.73459,42.05556,0.0 14.73497,42.056,0.0 14.7351,42.05612,0.0 14.73516,42.05621,0.0 14.73573,42.05685,0.0 14.73591,42.05708,0.0 14.73618,42.05734,0.0 14.7362,42.05737,0.0 14.73654,42.05758,0.0 14.73757,42.05813,0.0 14.73764,42.05818,0.0 14.73808,42.05842,0.0 14.73821,42.05848,0.0 14.73873,42.05877,0.0 14.7389,42.05888,0.0 14.73897,42.05894,0.0 14.73898,42.05894,0.0 14.73898,42.05893,0.0 14.739,42.05893,0.0 14.739,42.05892,0.0 14.73903,42.05892,0.0 14.73904,42.05891,0.0 14.73907,42.05891,0.0 14.73908,42.05892,0.0 14.7391,42.05892,0.0 14.73911,42.05893,0.0 14.73912,42.05893,0.0 14.73912,42.05894,0.0 14.73913,42.05894,0.0 14.73913,42.05895,0.0 14.73914,42.05896,0.0 14.73914,42.05901,0.0 14.73913,42.05901,0.0 14.73913,42.05902,0.0 14.73993,42.05973,0.0 14.7407,42.06032,0.0 14.74074,42.06036,0.0 14.74082,42.06042,0.0 14.74174,42.06124,0.0 14.74194,42.06138,0.0 14.74199,42.0614,0.0 14.74243,42.06165,0.0 14.74245,42.06167,0.0 14.74494,42.06295,0.0 14.74512,42.06307,0.0 14.74518,42.0631,0.0 14.74568,42.06343,0.0 14.74618,42.0639,0.0 14.74672,42.06454,0.0 14.74721,42.06524,0.0 14.74897,42.06722,0.0 14.74916,42.0675,0.0 14.74932,42.06779,0.0 14.74951,42.06821,0.0 14.75004,42.06962,0.0 14.75011,42.06967,0.0 14.75017,42.0699,0.0 14.75022,42.0704,0.0 14.75019,42.07099,0.0 14.75023,42.07106,0.0 14.75024,42.0711,0.0 14.75027,42.07141,0.0 14.75036,42.07198,0.0 14.75049,42.07227,0.0 14.75086,42.07272,0.0 14.75093,42.07286,0.0 14.75104,42.07315,0.0 14.75117,42.07356,0.0 14.75123,42.07369,0.0 14.75125,42.07377,0.0 14.75154,42.07459,0.0 14.75162,42.07488,0.0 14.75169,42.07502,0.0 14.75172,42.0751,0.0 14.75176,42.07516,0.0 14.75234,42.07569,0.0 14.75241,42.07574,0.0 14.75243,42.07576,0.0 14.75245,42.07579,0.0 14.75247,42.07581,0.0 14.7525,42.07599,0.0 14.75253,42.07606,0.0 14.75255,42.07609,0.0 14.75257,42.07615,0.0 14.75265,42.07615,0.0 14.75268,42.07616,0.0 14.7527,42.07616,0.0 14.75277,42.07619,0.0 14.75278,42.07619,0.0 14.75279,42.0762,0.0 14.7528,42.0762,0.0 14.7528,42.07621,0.0 14.75283,42.07624,0.0 14.75284,42.07626,0.0 14.75284,42.07635,0.0 14.75282,42.07637,0.0 14.75282,42.07638,0.0 14.75279,42.07641,0.0 14.75278,42.07641,0.0 14.75276,42.07643,0.0 14.75271,42.07645,0.0 14.7527,42.07645,0.0 14.75268,42.07646,0.0 14.75265,42.07646,0.0 14.75263,42.07647,0.0 14.75258,42.07647,0.0 14.75257,42.07646,0.0 14.75255,42.07646,0.0 14.75253,42.07645,0.0 14.75252,42.07645,0.0 14.75251,42.07644,0.0 14.75196,42.07667,0.0 14.74633,42.07983,0.0 14.74422,42.08112,0.0 14.74417,42.08118,0.0 14.74335,42.08169,0.0 14.74315,42.08179,0.0 14.74308,42.08184,0.0 14.74205,42.08246,0.0 14.7412,42.08301,0.0 14.74014,42.08365,0.0 14.74013,42.08366,0.0 14.74008,42.08367,0.0 14.73997,42.08372,0.0 14.7324,42.08864,0.0 14.73141,42.08933,0.0 14.72936,42.09088,0.0 14.72934,42.0909,0.0 14.72732,42.09246,0.0 14.72716,42.09256,0.0 14.72664,42.09295,0.0 14.72635,42.09321,0.0 14.72607,42.0934,0.0 14.72567,42.09362,0.0 14.72487,42.09396,0.0 14.72409,42.09434,0.0 14.72408,42.09434,0.0 14.72304,42.09485,0.0 14.72251,42.09503,0.0 14.72164,42.09522,0.0 14.72148,42.09524,0.0 14.72094,42.09536,0.0 14.72056,42.09549,0.0 14.72023,42.09564,0.0 14.72005,42.09575,0.0 14.71968,42.09608,0.0 14.71952,42.09628,0.0 14.71934,42.09655,0.0 14.71933,42.09658,0.0 14.71875,42.09771,0.0 14.71874,42.09775,0.0 14.71821,42.09889,0.0 14.71806,42.09916,0.0 14.71804,42.09924,0.0 14.71795,42.09938,0.0 14.71774,42.09963,0.0 14.71727,42.10002,0.0 14.71725,42.10003,0.0 14.71712,42.10013,0.0 14.71694,42.10032,0.0 14.71678,42.10055,0.0 14.71665,42.10085,0.0 14.71664,42.1009,0.0 14.71626,42.102,0.0 14.7162,42.10224,0.0 14.71596,42.10279,0.0 14.71584,42.10303,0.0 14.71526,42.10399,0.0 14.71521,42.1041,0.0 14.7152,42.10414,0.0 14.71519,42.10447,0.0 14.71509,42.10448,0.0 14.71484,42.10479,0.0 14.7144,42.10562,0.0 14.71434,42.10576,0.0 14.71347,42.10731,0.0 14.71323,42.10799,0.0 14.71322,42.10805,0.0 14.71323,42.10819,0.0 14.71344,42.10931,0.0 14.71379,42.1102,0.0 14.71386,42.11031,0.0 14.71393,42.11038,0.0 14.71409,42.1105,0.0 14.71415,42.11058,0.0 14.71421,42.11069,0.0 14.71434,42.11102,0.0 14.71451,42.11136,0.0 14.71454,42.11147,0.0 14.71456,42.11152,0.0 14.71454,42.11167,0.0 14.71446,42.11183,0.0 14.71425,42.11215,0.0 14.7142,42.11225,0.0 14.71416,42.1124,0.0 14.71405,42.11295,0.0 14.71403,42.11322,0.0 14.71408,42.11349,0.0 14.71412,42.11357,0.0 14.71423,42.11372,0.0 14.71437,42.11387,0.0 14.7145,42.11397,0.0 14.71459,42.11408,0.0 14.71464,42.11425,0.0 14.71464,42.11434,0.0 14.7146,42.11471,0.0 14.71454,42.11495,0.0 14.71446,42.11515,0.0 14.71442,42.11534,0.0 14.71443,42.1156,0.0 14.71442,42.11564,0.0 14.71434,42.11571,0.0 14.71428,42.11573,0.0 14.71416,42.11574,0.0 14.71405,42.11573,0.0 14.71388,42.11569,0.0 14.71375,42.11564,0.0 14.71374,42.11563,0.0 14.71357,42.11554,0.0 14.71348,42.11543,0.0 14.71334,42.11532,0.0 14.71328,42.11529,0.0 14.71322,42.11527,0.0 14.71314,42.11526,0.0 14.71304,42.11526,0.0 14.71249,42.11535,0.0 14.71226,42.11541,0.0 14.71205,42.11549,0.0 14.71198,42.11549,0.0 14.71195,42.1155,0.0 14.71189,42.11551,0.0 14.71135,42.11571,0.0 14.71061,42.11585,0.0 14.71057,42.11585,0.0 14.71052,42.11586,0.0 14.71048,42.11585,0.0 14.71043,42.11585,0.0 14.71041,42.11584,0.0 14.71039,42.11584,0.0 14.70971,42.11546,0.0 14.70948,42.11535,0.0 14.70921,42.11525,0.0 14.70887,42.11522,0.0 14.70875,42.11551,0.0 14.70876,42.11557,0.0 14.70875,42.11573,0.0 14.70876,42.11589,0.0 14.70881,42.11625,0.0 14.7088,42.11679,0.0 14.70877,42.11693,0.0 14.70877,42.11697,0.0 14.70875,42.11705,0.0 14.70874,42.11707,0.0 14.70872,42.11724,0.0 14.7087,42.11733,0.0 14.70815,42.1184,0.0 14.70747,42.11953,0.0 14.70712,42.12,0.0 14.70709,42.12005,0.0 14.70617,42.12117,0.0 14.7057,42.12182,0.0 14.70478,42.12292,0.0 14.7043,42.12372,0.0 14.70419,42.12398,0.0 14.70385,42.12455,0.0 14.70383,42.1246,0.0 14.70318,42.12572,0.0 14.70318,42.12573,0.0 14.70303,42.12604,0.0 14.70283,42.1263,0.0 14.70232,42.1272,0.0 14.70181,42.12784,0.0 14.70125,42.12848,0.0 14.70116,42.12854,0.0 14.70113,42.12857,0.0 14.70114,42.12857,0.0 14.70114,42.12861,0.0 14.70113,42.12861,0.0 14.70113,42.12862,0.0 14.70111,42.12862,0.0 14.70111,42.12863,0.0 14.7011,42.12863,0.0 14.70111,42.12868,0.0 14.70008,42.13013,0.0 14.7,42.13028,0.0 14.69927,42.13196,0.0 14.69915,42.13243,0.0 14.69889,42.13372,0.0 14.69878,42.13412,0.0 14.69863,42.1345,0.0 14.69806,42.1357,0.0 14.69796,42.13596,0.0 14.69793,42.13609,0.0 14.6976,42.13874,0.0 14.6976,42.13907,0.0 14.69814,42.14083,0.0 14.69828,42.14114,0.0 14.69858,42.14162,0.0 14.6987,42.14193,0.0 14.69872,42.14212,0.0 14.6985,42.14393,0.0 14.6984,42.14438,0.0 14.69791,42.14565,0.0 14.69789,42.14581,0.0 14.69794,42.14652,0.0 14.69801,42.1467,0.0 14.69808,42.14682,0.0 14.69831,42.14731,0.0 14.69831,42.14733,0.0 14.69839,42.14759,0.0 14.69843,42.14777,0.0 14.69845,42.14793,0.0 14.69864,42.14886,0.0 14.70152,42.15779,0.0 14.70173,42.15816,0.0 14.70313,42.16009,0.0 14.70357,42.16064,0.0 14.7036,42.16067,0.0 14.70457,42.16201,0.0 14.70486,42.16236,0.0 14.70496,42.16245,0.0 14.70516,42.16258,0.0 14.70555,42.1628,0.0 14.70562,42.16285,0.0 14.70586,42.16296,0.0 14.70341,42.16487,0.0 14.70281,42.16527,0.0 14.70069,42.16649,0.0 14.69981,42.16694,0.0 14.69947,42.16709,0.0 14.69882,42.16734,0.0 14.69686,42.16797,0.0 14.69683,42.16797,0.0 14.69661,42.16803,0.0 14.69634,42.16807,0.0 14.69614,42.16807,0.0 14.69592,42.16805,0.0 14.69572,42.16801,0.0 14.69217,42.16708,0.0 14.69166,42.16698,0.0 14.6911,42.16691,0.0 14.68781,42.16663,0.0 14.68512,42.1666,0.0 14.68502,42.16659,0.0 14.6847,42.16653,0.0 14.68282,42.16601,0.0 14.68279,42.16605,0.0 14.68275,42.16609,0.0 14.6827,42.16612,0.0 14.68254,42.16618,0.0 14.68248,42.16619,0.0 14.6824,42.16619,0.0 14.68228,42.16617,0.0 14.68222,42.16615,0.0 14.68208,42.16606,0.0 14.68205,42.16602,0.0 14.68201,42.16593,0.0 14.682,42.16589,0.0 14.682,42.16584,0.0 14.68202,42.16578,0.0 14.68165,42.16571,0.0 14.68105,42.16565,0.0 14.67978,42.16557,0.0 14.67932,42.16552,0.0 14.6773,42.16517,0.0 14.67676,42.16513,0.0 14.67118,42.1649,0.0 14.66928,42.16487,0.0 14.66901,42.16488,0.0 14.6687,42.16491,0.0 14.66639,42.16529,0.0 14.66601,42.16537,0.0 14.65835,42.16759,0.0 14.65776,42.16768,0.0 14.65757,42.16769,0.0 14.65699,42.16768,0.0 14.65675,42.16766,0.0 14.65634,42.1676,0.0 14.65579,42.16747,0.0 14.65546,42.16736,0.0 14.65511,42.1672,0.0 14.65487,42.16706,0.0 14.65465,42.1669,0.0 14.65432,42.16658,0.0 14.65314,42.16519,0.0 14.65291,42.16495,0.0 14.65265,42.16473,0.0 14.65215,42.16441,0.0 14.65177,42.16423,0.0 14.6513,42.16405,0.0 14.65105,42.16397,0.0 14.65043,42.16384,0.0 14.64999,42.16379,0.0 14.64965,42.16377,0.0 14.64882,42.1638,0.0 14.64631,42.16402,0.0 14.64177,42.16392,0.0 14.64152,42.16398,0.0 14.64135,42.16404,0.0 14.64124,42.16409,0.0 14.64123,42.16414,0.0 14.6412,42.16419,0.0 14.64117,42.16421,0.0 14.64115,42.16423,0.0 14.64112,42.16425,0.0 14.6411,42.16427,0.0 14.64106,42.16428,0.0 14.64103,42.1643,0.0 14.641,42.1643,0.0 14.64096,42.16431,0.0 14.64085,42.16431,0.0 14.64068,42.16456,0.0 14.64058,42.16468,0.0 14.6403,42.16558,0.0 14.63826,42.17804,0.0 14.63817,42.17838,0.0 14.63798,42.17883,0.0 14.63495,42.18337,0.0 14.63477,42.18367,0.0 14.6346,42.18399,0.0 14.63439,42.18447,0.0 14.63433,42.18468,0.0 14.63296,42.19249,0.0 14.63289,42.1927,0.0 14.6328,42.19286,0.0 14.63267,42.193,0.0 14.6325,42.19314,0.0 14.63238,42.19321,0.0 14.63223,42.19328,0.0 14.63209,42.19332,0.0 14.62961,42.19386,0.0 14.62799,42.19426,0.0 14.62761,42.19432,0.0 14.62762,42.19435,0.0 14.62761,42.19437,0.0 14.62761,42.1944,0.0 14.62759,42.19445,0.0 14.62751,42.19453,0.0 14.62748,42.19454,0.0 14.62745,42.19456,0.0 14.62739,42.19458,0.0 14.62736,42.19458,0.0 14.62732,42.19459,0.0 14.62725,42.19459,0.0 14.62722,42.19458,0.0 14.62719,42.19458,0.0 14.62716,42.19457,0.0 14.62713,42.19455,0.0 14.6271,42.19454,0.0 14.62705,42.19451,0.0 14.62703,42.19448,0.0 14.62496,42.19497,0.0 14.62465,42.19509,0.0 14.62452,42.19517,0.0 14.6244,42.19527,0.0 14.62432,42.19536,0.0 14.62424,42.19548,0.0 14.62423,42.19548,0.0 14.62405,42.19572,0.0 14.62398,42.19585,0.0 14.62382,42.19607,0.0 14.62362,42.1963,0.0 14.62342,42.19647,0.0 14.62319,42.19663,0.0 14.62288,42.1968,0.0 14.62242,42.19695,0.0 14.62217,42.19701,0.0 14.61851,42.19758,0.0 14.61804,42.19768,0.0 14.61771,42.19778,0.0 14.61732,42.19794,0.0 14.6144,42.19952,0.0 14.61394,42.19974,0.0 14.61382,42.19978,0.0 14.61366,42.19985,0.0 14.61324,42.19996,0.0 14.61282,42.20003,0.0 14.61245,42.20006,0.0 14.61229,42.20006,0.0 14.6117,42.20002,0.0 14.61143,42.19998,0.0 14.60568,42.19867,0.0 14.60545,42.19863,0.0 14.6051,42.19859,0.0 14.60472,42.19857,0.0 14.60427,42.19859,0.0 14.60135,42.19902,0.0 14.60114,42.19907,0.0 14.60073,42.1992,0.0 14.6001,42.19945,0.0 14.59986,42.19958,0.0 14.59962,42.19979,0.0 14.59802,42.20223,0.0 14.59798,42.20231,0.0 14.59717,42.2035,0.0 14.59714,42.20359,0.0 14.59685,42.20403,0.0 14.59673,42.20417,0.0 14.59641,42.2047,0.0 14.59602,42.20525,0.0 14.59597,42.20529,0.0 14.59478,42.20706,0.0 14.59449,42.20739,0.0 14.59322,42.20867,0.0 14.59287,42.20898,0.0 14.59243,42.20929,0.0 14.59145,42.20984,0.0 14.58862,42.21132,0.0 14.58735,42.21185,0.0 14.58659,42.21223,0.0 14.5857,42.21274,0.0 14.58556,42.2128,0.0 14.58545,42.21286,0.0 14.58505,42.21302,0.0 14.58357,42.21355,0.0 14.58321,42.21371,0.0 14.57713,42.21683,0.0 14.57701,42.21687,0.0 14.57669,42.21693,0.0 14.57564,42.21698,0.0 14.57551,42.217,0.0 14.57531,42.21707,0.0 14.57521,42.21712,0.0 14.57501,42.21725,0.0 14.57489,42.21735,0.0 14.5745,42.21774,0.0 14.57434,42.21787,0.0 14.5741,42.218,0.0 14.57204,42.21883,0.0 14.57196,42.21888,0.0 14.57178,42.21897,0.0 14.57013,42.22014,0.0 14.56974,42.22037,0.0 14.56389,42.22296,0.0 14.56384,42.22297,0.0 14.5601,42.22464,0.0 14.55513,42.22665,0.0 14.55212,42.2281,0.0 14.5519,42.22822,0.0 14.55183,42.22828,0.0 14.55169,42.22838,0.0 14.55155,42.22851,0.0 14.5513,42.22866,0.0 14.54828,42.23008,0.0 14.54663,42.23079,0.0 14.54608,42.23119,0.0 14.54541,42.23173,0.0 14.54511,42.23193,0.0 14.54462,42.23229,0.0 14.54436,42.23253,0.0 14.54405,42.23278,0.0 14.54364,42.23303,0.0 14.54265,42.23357,0.0 14.54264,42.23357,0.0 14.54152,42.23409,0.0 14.5414,42.23411,0.0 14.5373,42.23587,0.0 14.53425,42.23727,0.0 14.53419,42.23729,0.0 14.52544,42.24124,0.0 14.52537,42.24128,0.0 14.52459,42.24162,0.0 14.52409,42.24181,0.0 14.52358,42.24197,0.0 14.52192,42.24239,0.0 14.52137,42.24257,0.0 14.52071,42.24285,0.0 14.52044,42.243,0.0 14.52043,42.243,0.0 14.52024,42.24311,0.0 14.51983,42.24338,0.0 14.51823,42.24459,0.0 14.51557,42.2463,0.0 14.51258,42.24796,0.0 14.51015,42.24942,0.0 14.50963,42.24978,0.0 14.50926,42.25011,0.0 14.50736,42.25169,0.0 14.5073,42.25173,0.0 14.50695,42.25206,0.0 14.50672,42.25236,0.0 14.50637,42.2529,0.0 14.50616,42.25331,0.0 14.50596,42.25377,0.0 14.5058,42.25404,0.0 14.50504,42.25504,0.0 14.50468,42.2554,0.0 14.50465,42.25544,0.0 14.50457,42.25549,0.0 14.50458,42.2555,0.0 14.50458,42.25552,0.0 14.50457,42.25552,0.0 14.50457,42.25555,0.0 14.50456,42.25555,0.0 14.50456,42.25556,0.0 14.50453,42.25559,0.0 14.50452,42.25559,0.0 14.50452,42.2556,0.0 14.5045,42.2556,0.0 14.5045,42.25561,0.0 14.50448,42.25561,0.0 14.50447,42.25562,0.0 14.50445,42.25562,0.0 14.50438,42.25572,0.0 14.5042,42.25585,0.0 14.50412,42.25588,0.0 14.50402,42.25596,0.0 14.50369,42.25639,0.0 14.50326,42.25704,0.0 14.50244,42.25818,0.0 14.50081,42.26007,0.0 14.50056,42.26042,0.0 14.50048,42.2606,0.0 14.50042,42.26083,0.0 14.50019,42.26214,0.0 14.50016,42.2624,0.0 14.50016,42.26249,0.0 14.50019,42.2628,0.0 14.50048,42.2645,0.0 14.5005,42.26458,0.0 14.50072,42.26589,0.0 14.50071,42.26653,0.0 14.50078,42.26681,0.0 14.50084,42.26696,0.0 14.50098,42.26719,0.0 14.50124,42.26745,0.0 14.50143,42.26767,0.0 14.50154,42.26784,0.0 14.50204,42.26892,0.0 14.5021,42.26909,0.0 14.50214,42.26934,0.0 14.50214,42.26941,0.0 14.50181,42.27069,0.0 14.50178,42.27087,0.0 14.50173,42.27101,0.0 14.50168,42.27112,0.0 14.50159,42.27126,0.0 14.50145,42.27142,0.0 14.50012,42.27261,0.0 14.49989,42.27276,0.0 14.49958,42.2729,0.0 14.49894,42.27315,0.0 14.49746,42.27367,0.0 14.49725,42.27376,0.0 14.49707,42.27386,0.0 14.49689,42.27399,0.0 14.49562,42.27503,0.0 14.49398,42.27629,0.0 14.49376,42.27644,0.0 14.49311,42.27693,0.0 14.49296,42.27702,0.0 14.49235,42.2775,0.0 14.49174,42.27812,0.0 14.49168,42.27817,0.0 14.49146,42.27841,0.0 14.49126,42.27859,0.0 14.48916,42.28065,0.0 14.48899,42.2808,0.0 14.48884,42.2809,0.0 14.48607,42.28249,0.0 14.48573,42.28266,0.0 14.48572,42.28267,0.0 14.48502,42.28308,0.0 14.48477,42.28327,0.0 14.48455,42.28347,0.0 14.4842,42.28387,0.0 14.48402,42.28405,0.0 14.48383,42.28421,0.0 14.483,42.28473,0.0 14.48269,42.28495,0.0 14.48069,42.28697,0.0 14.48038,42.2872,0.0 14.48033,42.28722,0.0 14.4803,42.28724,0.0 14.48014,42.28732,0.0 14.47903,42.28774,0.0 14.47887,42.28782,0.0 14.47717,42.28894,0.0 14.47693,42.28907,0.0 14.47672,42.28916,0.0 14.47652,42.28921,0.0 14.47556,42.28937,0.0 14.47534,42.28945,0.0 14.47527,42.28949,0.0 14.47522,42.28953,0.0 14.4751,42.28965,0.0 14.47461,42.29028,0.0 14.4745,42.2904,0.0 14.47439,42.29049,0.0 14.47434,42.29054,0.0 14.47415,42.29065,0.0 14.47399,42.29071,0.0 14.47378,42.29077,0.0 14.47362,42.2908,0.0 14.47355,42.2908,0.0 14.47342,42.29082,0.0 14.47314,42.29084,0.0 14.47299,42.29084,0.0 14.47237,42.29088,0.0 14.47209,42.29096,0.0 14.4719,42.29106,0.0 14.47176,42.29118,0.0 14.47097,42.29217,0.0 14.47082,42.29228,0.0 14.47001,42.29264,0.0 14.46976,42.29279,0.0 14.46957,42.29292,0.0 14.46942,42.29306,0.0 14.46914,42.29338,0.0 14.46904,42.29353,0.0 14.46892,42.29367,0.0 14.46878,42.29379,0.0 14.46851,42.29394,0.0 14.46839,42.29398,0.0 14.4683,42.294,0.0 14.46757,42.29403,0.0 14.46735,42.29408,0.0 14.4672,42.29413,0.0 14.46467,42.29527,0.0 14.46453,42.29535,0.0 14.4643,42.29556,0.0 14.46422,42.29567,0.0 14.46418,42.29574,0.0 14.4638,42.29621,0.0 14.46366,42.29635,0.0 14.46358,42.29641,0.0 14.4632,42.2966,0.0 14.46295,42.29675,0.0 14.46286,42.29682,0.0 14.46279,42.29691,0.0 14.4627,42.29708,0.0 14.46265,42.2972,0.0 14.46254,42.29761,0.0 14.4625,42.29769,0.0 14.46237,42.29787,0.0 14.46155,42.29851,0.0 14.46151,42.29855,0.0 14.46146,42.29858,0.0 14.46126,42.29878,0.0 14.46121,42.29884,0.0 14.46109,42.29903,0.0 14.461,42.29921,0.0 14.46094,42.29942,0.0 14.46092,42.29953,0.0 14.46087,42.29967,0.0 14.46068,42.29987,0.0 14.46043,42.29999,0.0 14.46012,42.30003,0.0 14.45998,42.3,0.0 14.4597,42.2999,0.0 14.45944,42.29983,0.0 14.45922,42.29983,0.0 14.45907,42.29986,0.0 14.45895,42.29992,0.0 14.45887,42.29997,0.0 14.45878,42.30004,0.0 14.45867,42.30015,0.0 14.45849,42.30028,0.0 14.45827,42.30037,0.0 14.45791,42.30043,0.0 14.45773,42.30048,0.0 14.45764,42.30052,0.0 14.4574,42.30068,0.0 14.45716,42.30088,0.0 14.45667,42.30121,0.0 14.4559,42.30163,0.0 14.45582,42.30165,0.0 14.45565,42.30172,0.0 14.45488,42.30197,0.0 14.45462,42.30209,0.0 14.45451,42.30217,0.0 14.45435,42.30233,0.0 14.45408,42.30266,0.0 14.45379,42.30294,0.0 14.45361,42.30309,0.0 14.45329,42.30327,0.0 14.45151,42.30404,0.0 14.45132,42.30415,0.0 14.45111,42.30432,0.0 14.44937,42.30604,0.0 14.44916,42.30623,0.0 14.44894,42.30638,0.0 14.44842,42.30668,0.0 14.44782,42.30707,0.0 14.44766,42.30721,0.0 14.44751,42.30737,0.0 14.44733,42.3076,0.0 14.44717,42.30772,0.0 14.44638,42.30813,0.0 14.44625,42.30818,0.0 14.44612,42.30821,0.0 14.44595,42.30821,0.0 14.44574,42.30815,0.0 14.44544,42.30804,0.0 14.44534,42.30802,0.0 14.44522,42.30801,0.0 14.44516,42.30799,0.0 14.44491,42.30795,0.0 14.4434,42.30801,0.0 14.44299,42.30805,0.0 14.4428,42.30809,0.0 14.44262,42.30816,0.0 14.44252,42.30821,0.0 14.44216,42.30845,0.0 14.44198,42.30868,0.0 14.44191,42.30881,0.0 14.44185,42.309,0.0 14.44183,42.30911,0.0 14.44182,42.30923,0.0 14.44157,42.3109,0.0 14.44157,42.31093,0.0 14.44152,42.31109,0.0 14.44147,42.31118,0.0 14.44133,42.31136,0.0 14.4412,42.31147,0.0 14.44068,42.31177,0.0 14.43924,42.31248,0.0 14.43887,42.31268,0.0 14.43848,42.31292,0.0 14.43832,42.31305,0.0 14.43816,42.31321,0.0 14.43669,42.31493,0.0 14.43575,42.31638,0.0 14.43545,42.31668,0.0 14.43495,42.31711,0.0 14.43322,42.31847,0.0 14.43265,42.31886,0.0 14.43241,42.31899,0.0 14.43223,42.31907,0.0 14.43201,42.31914,0.0 14.43143,42.31927,0.0 14.42938,42.31966,0.0 14.42919,42.31972,0.0 14.42887,42.31987,0.0 14.42843,42.32016,0.0 14.42612,42.32232,0.0 14.4259,42.32248,0.0 14.42566,42.32261,0.0 14.42541,42.32272,0.0 14.42499,42.32283,0.0 14.42482,42.32286,0.0 14.42447,42.32289,0.0 14.42422,42.32288,0.0 14.42379,42.3228,0.0 14.42261,42.32242,0.0 14.42254,42.32239,0.0 14.4223,42.32232,0.0 14.42188,42.32223,0.0 14.42167,42.32221,0.0 14.4213,42.3222,0.0 14.42109,42.32221,0.0 14.42089,42.32224,0.0 14.41889,42.32265,0.0 14.41869,42.32272,0.0 14.41866,42.32275,0.0 14.41862,42.32278,0.0 14.41857,42.32283,0.0 14.41854,42.3229,0.0 14.41852,42.32297,0.0 14.4185,42.32316,0.0 14.41845,42.3233,0.0 14.41841,42.32334,0.0 14.41837,42.32337,0.0 14.41824,42.32343,0.0 14.41818,42.32344,0.0 14.4181,42.32344,0.0 14.41791,42.32341,0.0 14.41779,42.32338,0.0 14.41752,42.32334,0.0 14.41716,42.32333,0.0 14.41693,42.32335,0.0 14.41659,42.32334,0.0 14.41626,42.32335,0.0 14.41612,42.32338,0.0 14.41606,42.3234,0.0 14.41596,42.32348,0.0 14.41593,42.32353,0.0 14.41591,42.32359,0.0 14.4159,42.32365,0.0 14.4159,42.32372,0.0 14.41597,42.32385,0.0 14.4161,42.32393,0.0 14.41619,42.32396,0.0 14.41627,42.32397,0.0 14.41654,42.32394,0.0 14.41663,42.32395,0.0 14.4167,42.32395,0.0 14.41677,42.32397,0.0 14.41691,42.32405,0.0 14.41698,42.32412,0.0 14.41754,42.3249,0.0 14.41775,42.32522,0.0 14.41777,42.32528,0.0 14.41777,42.32535,0.0 14.41778,42.32541,0.0 14.41771,42.32557,0.0 14.41761,42.32568,0.0 14.41641,42.32638,0.0 14.41624,42.32653,0.0 14.41615,42.32669,0.0 14.41612,42.32682,0.0 14.41612,42.32691,0.0 14.41613,42.327,0.0 14.41616,42.32708,0.0 14.4162,42.32714,0.0 14.41624,42.32722,0.0 14.4165,42.32763,0.0 14.41655,42.32769,0.0 14.41659,42.32776,0.0 14.41661,42.32781,0.0 14.41662,42.32782,0.0 14.41664,42.3279,0.0 14.41667,42.3281,0.0 14.41665,42.32844,0.0 14.41668,42.32873,0.0 14.41677,42.32897,0.0 14.41684,42.32912,0.0 14.41709,42.32956,0.0 14.41714,42.3297,0.0 14.4173,42.33064,0.0 14.41732,42.33089,0.0 14.41747,42.33178,0.0 14.41769,42.33281,0.0 14.41771,42.33301,0.0 14.41771,42.33322,0.0 14.41758,42.33406,0.0 14.41747,42.33452,0.0 14.41732,42.335,0.0 14.41726,42.33511,0.0 14.41712,42.33519,0.0 14.41701,42.33522,0.0 14.41697,42.33522,0.0 14.4169,42.33523,0.0 14.41677,42.33523,0.0 14.41633,42.3352,0.0 14.41615,42.33521,0.0 14.4161,42.33522,0.0 14.41601,42.33527,0.0 14.41597,42.33531,0.0 14.41592,42.33539,0.0 14.41578,42.33566,0.0 14.41575,42.3357,0.0 14.41566,42.33578,0.0 14.41551,42.33589,0.0 14.41481,42.33628,0.0 14.41397,42.33666,0.0 14.41376,42.3368,0.0 14.41321,42.33729,0.0 14.41308,42.33739,0.0 14.41303,42.33742,0.0 14.41289,42.33746,0.0 14.41244,42.3375,0.0 14.41236,42.33752,0.0 14.41218,42.3376,0.0 14.41185,42.33783,0.0 14.41177,42.3379,0.0 14.41171,42.33801,0.0 14.41168,42.33809,0.0 14.41161,42.3384,0.0 14.41155,42.33857,0.0 14.41149,42.3387,0.0 14.41118,42.33918,0.0 14.41115,42.33925,0.0 14.41114,42.33931,0.0 14.41114,42.3399,0.0 14.41108,42.34022,0.0 14.41106,42.34027,0.0 14.4108,42.34066,0.0 14.41078,42.34073,0.0 14.41075,42.3408,0.0 14.41074,42.34088,0.0 14.41074,42.34097,0.0 14.41076,42.34118,0.0 14.41096,42.34196,0.0 14.41093,42.34224,0.0 14.41083,42.34248,0.0 14.41064,42.34287,0.0 14.41051,42.34305,0.0 14.41049,42.34306,0.0 14.41046,42.3431,0.0 14.41036,42.3432,0.0 14.4087,42.34466,0.0 14.40854,42.34478,0.0 14.40846,42.34483,0.0 14.40842,42.34484,0.0 14.40836,42.34487,0.0 14.40802,42.34492,0.0 14.40677,42.34496,0.0 14.40665,42.345,0.0 14.40639,42.34499,0.0 14.40621,42.34495,0.0 14.40585,42.34483,0.0 14.40469,42.34439,0.0 14.40394,42.34404,0.0 14.40385,42.34396,0.0 14.40348,42.3438,0.0 14.40284,42.34357,0.0 14.40218,42.34344,0.0 14.40174,42.34339,0.0 14.40164,42.34339,0.0 14.40159,42.34338,0.0 14.40129,42.34337,0.0 14.40093,42.34338,0.0 14.40074,42.3434,0.0 14.4007,42.34341,0.0 14.39953,42.3435,0.0 14.39937,42.34354,0.0 14.39881,42.34375,0.0 14.3985,42.34385,0.0 14.39014,42.34606,0.0 14.38972,42.34619,0.0 14.38941,42.34632,0.0 14.3891,42.3465,0.0 14.38876,42.34678,0.0 14.38866,42.34688,0.0 14.38851,42.34707,0.0 14.38842,42.34721,0.0 14.38833,42.34738,0.0 14.3883,42.34751,0.0 14.38782,42.34877,0.0 14.38777,42.34887,0.0 14.38776,42.34891,0.0 14.38753,42.34944,0.0 14.3875,42.34953,0.0 14.38743,42.34959,0.0 14.38646,42.35217,0.0 14.38644,42.35224,0.0 14.3837,42.35919,0.0 14.38368,42.35934,0.0 14.38321,42.36054,0.0 14.38308,42.3611,0.0 14.38308,42.36117,0.0 14.38299,42.36224,0.0 14.38296,42.36246,0.0 14.38292,42.3626,0.0 14.38232,42.36929,0.0 14.38228,42.36955,0.0 14.38216,42.36991,0.0 14.38201,42.37017,0.0 14.38175,42.37049,0.0 14.38133,42.37081,0.0 14.38006,42.37162,0.0 14.37996,42.37172,0.0 14.3786,42.3726,0.0 14.37733,42.37334,0.0 14.37693,42.37353,0.0 14.37658,42.37364,0.0 14.37615,42.37375,0.0 14.37605,42.37375,0.0 14.3752,42.37397,0.0 14.37442,42.3741,0.0 14.3728,42.37417,0.0 14.37259,42.3742,0.0 14.37224,42.37428,0.0 14.37191,42.3744,0.0 14.37168,42.37451,0.0 14.37163,42.37455,0.0 14.37158,42.37458,0.0 14.37153,42.3746,0.0 14.3715,42.37463,0.0 14.37136,42.37471,0.0 14.37117,42.37486,0.0 14.37104,42.37499,0.0 14.37081,42.37528,0.0 14.37,42.37685,0.0 14.36991,42.37699,0.0 14.36988,42.37705,0.0 14.36966,42.3773,0.0 14.36739,42.37954,0.0 14.3671,42.37976,0.0 14.36705,42.37978,0.0 14.367,42.37982,0.0 14.36365,42.38164,0.0 14.36358,42.38167,0.0 14.363,42.38199,0.0 14.36293,42.38204,0.0 14.36264,42.38218,0.0 14.36258,42.38222,0.0 14.36249,42.38226,0.0 14.36234,42.38235,0.0 14.36084,42.38314,0.0 14.3608,42.38317,0.0 14.35882,42.38424,0.0 14.35816,42.38463,0.0 14.35753,42.38512,0.0 14.35701,42.38546,0.0 14.35582,42.38612,0.0 14.35574,42.38615,0.0 14.35563,42.38621,0.0 14.35414,42.38679,0.0 14.35389,42.38691,0.0 14.3452,42.39172,0.0 14.34413,42.39226,0.0 14.34067,42.39364,0.0 14.3405,42.39369,0.0 14.33998,42.39377,0.0 14.33947,42.39392,0.0 14.33884,42.3942,0.0 14.33788,42.39475,0.0 14.32753,42.399,0.0 14.32659,42.39933,0.0 14.32525,42.39988,0.0 14.32481,42.4001,0.0 14.32402,42.40054,0.0 14.32137,42.40188,0.0 14.32113,42.40198,0.0 14.32099,42.40205,0.0 14.32078,42.40212,0.0 14.32073,42.40213,0.0 14.32059,42.40213,0.0 14.32055,42.40212,0.0 14.32042,42.40211,0.0 14.32042,42.40212,0.0 14.32041,42.40213,0.0 14.32041,42.40214,0.0 14.3204,42.40214,0.0 14.3204,42.40215,0.0 14.32039,42.40215,0.0 14.32038,42.40216,0.0 14.32037,42.40216,0.0 14.32037,42.40217,0.0 14.32034,42.40217,0.0 14.32034,42.40218,0.0 14.32025,42.40218,0.0 14.32025,42.40217,0.0 14.32022,42.40217,0.0 14.32022,42.40216,0.0 14.32021,42.40216,0.0 14.32019,42.40214,0.0 14.31993,42.40223,0.0 14.31702,42.40361,0.0 14.31701,42.40362,0.0 14.314,42.40507,0.0 14.31397,42.40509,0.0 14.31394,42.40512,0.0 14.31386,42.40518,0.0 14.3138,42.40524,0.0 14.3138,42.40525,0.0 14.31381,42.40525,0.0 14.31381,42.40527,0.0 14.31382,42.40527,0.0 14.31382,42.40531,0.0 14.31381,42.40532,0.0 14.31381,42.40533,0.0 14.31378,42.40536,0.0 14.31377,42.40536,0.0 14.31377,42.40537,0.0 14.31375,42.40537,0.0 14.31375,42.40538,0.0 14.31367,42.40538,0.0 14.31366,42.40537,0.0 14.31364,42.40537,0.0 14.31363,42.40536,0.0 14.31362,42.40536,0.0 14.31362,42.40535,0.0 14.31361,42.40535,0.0 14.31361,42.40534,0.0 14.3136,42.40534,0.0 14.31359,42.40533,0.0 14.31323,42.40545,0.0 14.31247,42.40582,0.0 14.31217,42.406,0.0 14.31173,42.40633,0.0 14.31071,42.40716,0.0 14.31042,42.40733,0.0 14.31017,42.40744,0.0 14.30776,42.40829,0.0 14.3073,42.40849,0.0 14.30709,42.4086,0.0 14.30569,42.40954,0.0 14.30568,42.40954,0.0 14.30544,42.40972,0.0 14.29904,42.414,0.0 14.299,42.41402,0.0 14.29753,42.41506,0.0 14.29565,42.41646,0.0 14.29486,42.41715,0.0 14.2944,42.41763,0.0 14.2943,42.41775,0.0 14.29406,42.418,0.0 14.29373,42.41829,0.0 14.29157,42.41958,0.0 14.2915,42.41961,0.0 14.29144,42.41962,0.0 14.29145,42.41963,0.0 14.29145,42.41964,0.0 14.29144,42.41965,0.0 14.29144,42.41966,0.0 14.29143,42.41966,0.0 14.29143,42.41967,0.0 14.29142,42.41967,0.0 14.29142,42.41968,0.0 14.29141,42.41968,0.0 14.2914,42.41969,0.0 14.29133,42.41969,0.0 14.29133,42.41968,0.0 14.29131,42.41968,0.0 14.29131,42.41967,0.0 14.2913,42.41967,0.0 14.2913,42.41965,0.0 14.29129,42.41965,0.0 14.29129,42.41964,0.0 14.29109,42.4197,0.0 14.28936,42.41995,0.0 14.28914,42.42,0.0 14.28634,42.42108,0.0 14.28598,42.42124,0.0 14.28593,42.42127,0.0 14.28538,42.42152,0.0 14.28425,42.42197,0.0 14.28023,42.42346,0.0 14.28023,42.42347,0.0 14.28024,42.42347,0.0 14.28024,42.42349,0.0 14.28025,42.4235,0.0 14.28025,42.42352,0.0 14.28024,42.42352,0.0 14.28024,42.42354,0.0 14.28023,42.42354,0.0 14.28023,42.42355,0.0 14.28022,42.42355,0.0 14.28022,42.42356,0.0 14.2802,42.42356,0.0 14.2802,42.42357,0.0 14.28012,42.42357,0.0 14.28011,42.42356,0.0 14.28009,42.42356,0.0 14.28009,42.42355,0.0 14.28008,42.42355,0.0 14.28008,42.42354,0.0 14.28007,42.42354,0.0 14.27973,42.42369,0.0 14.27801,42.42455,0.0 14.27763,42.4248,0.0 14.27754,42.42485,0.0 14.27745,42.42488,0.0 14.27743,42.42491,0.0 14.27743,42.42492,0.0 14.27742,42.42492,0.0 14.27741,42.42494,0.0 14.2774,42.42495,0.0 14.27738,42.42495,0.0 14.27738,42.42496,0.0 14.27735,42.42496,0.0 14.27735,42.42497,0.0 14.27728,42.42497,0.0 14.27728,42.42496,0.0 14.27725,42.42496,0.0 14.27725,42.42495,0.0 14.27723,42.42495,0.0 14.27723,42.42494,0.0 14.27721,42.42494,0.0 14.27721,42.42493,0.0 14.2772,42.42493,0.0 14.2772,42.42492,0.0 14.27719,42.42491,0.0 14.27719,42.4249,0.0 14.27718,42.42489,0.0 14.27718,42.42485,0.0 14.27719,42.42484,0.0 14.27719,42.42483,0.0 14.27706,42.42477,0.0 14.27692,42.42469,0.0 14.27667,42.42458,0.0 14.27631,42.42446,0.0 14.27595,42.42436,0.0 14.27568,42.42432,0.0 14.27539,42.4243,0.0 14.27538,42.42431,0.0 14.27536,42.42431,0.0 14.27534,42.4243,0.0 14.27531,42.4243,0.0 14.27529,42.42429,0.0 14.27527,42.42429,0.0 14.27526,42.42428,0.0 14.27525,42.42428,0.0 14.27522,42.42425,0.0 14.27521,42.42425,0.0 14.27521,42.42424,0.0 14.2752,42.42423,0.0 14.2752,42.42422,0.0 14.2751,42.42428,0.0 14.27462,42.42424,0.0 14.27447,42.42424,0.0 14.27392,42.42418,0.0 14.27359,42.42427,0.0 14.27359,42.42428,0.0 14.27358,42.42429,0.0 14.27358,42.4243,0.0 14.27357,42.4243,0.0 14.27356,42.42431,0.0 14.27355,42.42431,0.0 14.27355,42.42432,0.0 14.27353,42.42432,0.0 14.27352,42.42433,0.0 14.27343,42.42433,0.0 14.27343,42.42432,0.0 14.27341,42.42432,0.0 14.2734,42.42431,0.0 14.27339,42.42431,0.0 14.27339,42.4243,0.0 14.27338,42.4243,0.0 14.27337,42.42429,0.0 14.27337,42.42428,0.0 14.27336,42.42428,0.0 14.27336,42.42426,0.0 14.27335,42.42425,0.0 14.27335,42.42424,0.0 14.27329,42.42423,0.0 14.27299,42.42413,0.0 14.27064,42.42395,0.0 14.27031,42.42399,0.0 14.26983,42.42399,0.0 14.26974,42.42396,0.0 14.26948,42.42383,0.0 14.26939,42.42372,0.0 14.26925,42.42352,0.0 14.26924,42.42348,0.0 14.26795,42.42164,0.0 14.2677,42.42138,0.0 14.2676,42.4213,0.0 14.26737,42.42108,0.0 14.2671,42.42085,0.0 14.26674,42.4205,0.0 14.26656,42.42035,0.0 14.26563,42.41947,0.0 14.26504,42.41883,0.0 14.26104,42.41419,0.0 14.26056,42.41348,0.0 14.25985,42.41208,0.0 14.25969,42.41166,0.0 14.25899,42.40927,0.0 14.25896,42.40906,0.0 14.25893,42.409,0.0 14.25873,42.40845,0.0 14.25872,42.40845,0.0 14.25871,42.40846,0.0 14.25869,42.40846,0.0 14.25868,42.40845,0.0 14.25864,42.40845,0.0 14.25863,42.40844,0.0 14.25861,42.40844,0.0 14.2586,42.40843,0.0 14.25859,42.40843,0.0 14.25859,42.40842,0.0 14.25858,42.40842,0.0 14.25855,42.40839,0.0 14.25855,42.40838,0.0 14.25854,42.40838,0.0 14.25854,42.40837,0.0 14.25853,42.40836,0.0 14.25853,42.40833,0.0 14.25852,42.40832,0.0 14.25853,42.40832,0.0 14.25853,42.40829,0.0 14.25854,42.40828,0.0 14.25854,42.40826,0.0 14.25859,42.40821,0.0 14.2586,42.40821,0.0 14.2586,42.4082,0.0 14.25861,42.4082,0.0 14.25862,42.40819,0.0 14.25864,42.40819,0.0 14.25864,42.408,0.0 14.25866,42.40782,0.0 14.25866,42.40775,0.0 14.25852,42.40712,0.0 14.25838,42.40635,0.0 14.25798,42.40288,0.0 14.25786,42.40237,0.0 14.25773,42.40202,0.0 14.25308,42.39444,0.0 14.25271,42.39392,0.0 14.24986,42.39059,0.0 14.24955,42.39017,0.0 14.24902,42.38927,0.0 14.24884,42.38901,0.0 14.24859,42.38872,0.0 14.24826,42.38841,0.0 14.24588,42.38672,0.0 14.24541,42.38634,0.0 14.24496,42.38591,0.0 14.24207,42.38274,0.0 14.2418,42.38239,0.0 14.24161,42.3821,0.0 14.24131,42.38156,0.0 14.24111,42.38105,0.0 14.24042,42.37903,0.0 14.24026,42.37864,0.0 14.23974,42.37772,0.0 14.23926,42.3771,0.0 14.23868,42.37643,0.0 14.23699,42.37433,0.0 14.23684,42.37412,0.0 14.23682,42.3741,0.0 14.23621,42.37322,0.0 14.23617,42.37315,0.0 14.23613,42.3731,0.0 14.23536,42.37174,0.0 14.2349,42.37084,0.0 14.23483,42.37073,0.0 14.23429,42.36964,0.0 14.23429,42.36963,0.0 14.23416,42.36939,0.0 14.23393,42.36888,0.0 14.23382,42.36868,0.0 14.23377,42.36856,0.0 14.23313,42.36729,0.0 14.23311,42.36726,0.0 14.2323,42.3656,0.0 14.23207,42.36491,0.0 14.23174,42.36345,0.0 14.23173,42.36337,0.0 14.23166,42.36317,0.0 14.23163,42.36312,0.0 14.23163,42.3631,0.0 14.23148,42.36275,0.0 14.23134,42.36252,0.0 14.23122,42.36236,0.0 14.23113,42.36228,0.0 14.23071,42.36199,0.0 14.23056,42.36191,0.0 14.23035,42.36182,0.0 14.22995,42.36171,0.0 14.22653,42.36104,0.0 14.22543,42.36077,0.0 14.22533,42.36078,0.0 14.22519,42.36078,0.0 14.22251,42.36014,0.0 14.2219,42.36005,0.0 14.22159,42.36003,0.0 14.22153,42.36002,0.0 14.2199,42.35998,0.0 14.21981,42.35996,0.0 14.21563,42.35987,0.0 14.21481,42.35988,0.0 14.21298,42.35997,0.0 14.21244,42.35997,0.0 14.21223,42.35995,0.0 14.21208,42.35996,0.0 14.21013,42.35968,0.0 14.20953,42.35964,0.0 14.20905,42.35964,0.0 14.20865,42.35966,0.0 14.20784,42.35976,0.0 14.20751,42.35984,0.0 14.20676,42.36006,0.0 14.20657,42.36009,0.0 14.2035,42.36098,0.0 14.20325,42.36104,0.0 14.20118,42.36133,0.0 14.2011,42.36136,0.0 14.2004,42.36146,0.0 14.20038,42.36148,0.0 14.20037,42.36148,0.0 14.20036,42.36149,0.0 14.20034,42.36149,0.0 14.20033,42.3615,0.0 14.2003,42.3615,0.0 14.20029,42.36151,0.0 14.2002,42.36151,0.0 14.20019,42.3615,0.0 14.20016,42.3615,0.0 14.20015,42.36149,0.0 14.20014,42.36149,0.0 14.20013,42.36148,0.0 14.20012,42.36148,0.0 14.20012,42.36147,0.0 14.20011,42.36147,0.0 14.20011,42.36145,0.0 14.2001,42.36145,0.0 14.2001,42.36144,0.0 14.20004,42.36144,0.0 14.19712,42.36106,0.0 14.19575,42.36099,0.0 14.19505,42.36099,0.0 14.19455,42.36096,0.0 14.19446,42.36094,0.0 14.1941,42.36091,0.0 14.19389,42.36087,0.0 14.19351,42.36075,0.0 14.19341,42.3607,0.0 14.19338,42.36069,0.0 14.19311,42.36056,0.0 14.193,42.36047,0.0 14.19294,42.36044,0.0 14.19178,42.35957,0.0 14.19146,42.35938,0.0 14.19114,42.3593,0.0 14.19052,42.35925,0.0 14.18981,42.35924,0.0 14.18944,42.35917,0.0 14.18908,42.35902,0.0 14.18878,42.35885,0.0 14.18828,42.35843,0.0 14.18798,42.35823,0.0 14.18778,42.35813,0.0 14.18646,42.3576,0.0 14.18523,42.35684,0.0 14.18456,42.35639,0.0 14.18449,42.35632,0.0 14.18423,42.3561,0.0 14.18403,42.35586,0.0 14.18387,42.35556,0.0 14.18375,42.35528,0.0 14.18366,42.35501,0.0 14.18345,42.35451,0.0 14.18317,42.35405,0.0 14.18271,42.35348,0.0 14.18249,42.35324,0.0 14.18241,42.3532,0.0 14.18219,42.35298,0.0 14.18171,42.35267,0.0 14.18159,42.35261,0.0 14.1813,42.35249,0.0 14.17936,42.35187,0.0 14.17931,42.35186,0.0 14.17859,42.35161,0.0 14.17857,42.35161,0.0 14.17845,42.35156,0.0 14.17824,42.3515,0.0 14.17821,42.35146,0.0 14.17815,42.35144,0.0 14.17794,42.3514,0.0 14.17783,42.3514,0.0 14.17769,42.35143,0.0 14.17756,42.35147,0.0 14.17734,42.35162,0.0 14.17724,42.35171,0.0 14.17718,42.3518,0.0 14.17702,42.35187,0.0 14.17702,42.35188,0.0 14.17701,42.35188,0.0 14.17701,42.35189,0.0 14.177,42.35189,0.0 14.177,42.3519,0.0 14.17699,42.35191,0.0 14.17698,42.35191,0.0 14.17698,42.35192,0.0 14.17696,42.35192,0.0 14.17696,42.35193,0.0 14.17694,42.35193,0.0 14.17665,42.35231,0.0 14.17659,42.35234,0.0 14.17647,42.35256,0.0 14.17645,42.35328,0.0 14.17643,42.35347,0.0 14.17639,42.35359,0.0 14.17633,42.3537,0.0 14.1763,42.35374,0.0 14.17626,42.35377,0.0 14.17621,42.35382,0.0 14.17607,42.35384,0.0 14.17382,42.35398,0.0 14.17227,42.35415,0.0 14.17212,42.35415,0.0 14.17145,42.35421,0.0 14.17104,42.35427,0.0 14.17096,42.3543,0.0 14.1708,42.35441,0.0 14.17068,42.35452,0.0 14.17062,42.35459,0.0 14.1705,42.35477,0.0 14.17044,42.35484,0.0 14.17022,42.35538,0.0 14.17003,42.35593,0.0 14.17003,42.35595,0.0 14.17,42.3561,0.0 14.16991,42.35643,0.0 14.16991,42.35651,0.0 14.16992,42.35656,0.0 14.16992,42.35659,0.0 14.16994,42.35666,0.0 14.16977,42.35699,0.0 14.16977,42.357,0.0 14.16978,42.357,0.0 14.16978,42.35701,0.0 14.16979,42.35702,0.0 14.16979,42.35708,0.0 14.16978,42.35708,0.0 14.16978,42.35709,0.0 14.16975,42.35712,0.0 14.16974,42.35712,0.0 14.16974,42.35713,0.0 14.16972,42.35713,0.0 14.16971,42.35714,0.0 14.16962,42.35714,0.0 14.16961,42.35713,0.0 14.1696,42.35713,0.0 14.16959,42.35712,0.0 14.16958,42.35712,0.0 14.16957,42.35711,0.0 14.16956,42.35711,0.0 14.16956,42.3571,0.0 14.16955,42.35709,0.0 14.16955,42.35708,0.0 14.16938,42.35705,0.0 14.16929,42.35705,0.0 14.16912,42.35709,0.0 14.16899,42.35711,0.0 14.16865,42.35711,0.0 14.16831,42.35703,0.0 14.16464,42.35565,0.0 14.16432,42.35547,0.0 14.16421,42.35538,0.0 14.16413,42.3553,0.0 14.16375,42.35482,0.0 14.16366,42.35463,0.0 14.16365,42.35452,0.0 14.16367,42.35437,0.0 14.16373,42.35419,0.0 14.16388,42.35404,0.0 14.16442,42.35371,0.0 14.16455,42.35357,0.0 14.16455,42.35351,0.0 14.16461,42.35321,0.0 14.16461,42.35318,0.0 14.16463,42.35314,0.0 14.16467,42.35309,0.0 14.16475,42.35303,0.0 14.16537,42.35278,0.0 14.16557,42.35265,0.0 14.16564,42.35258,0.0 14.16566,42.35255,0.0 14.16567,42.35251,0.0 14.16567,42.35249,0.0 14.16568,42.35246,0.0 14.16567,42.35242,0.0 14.16567,42.35235,0.0 14.16557,42.35225,0.0 14.16551,42.35221,0.0 14.1653,42.35213,0.0 14.16486,42.35201,0.0 14.16449,42.35194,0.0 14.16416,42.35181,0.0 14.16414,42.35179,0.0 14.16412,42.35178,0.0 14.16411,42.35176,0.0 14.16408,42.35172,0.0 14.16405,42.35165,0.0 14.16405,42.35159,0.0 14.16408,42.35148,0.0 14.16449,42.35048,0.0 14.16457,42.35035,0.0 14.16466,42.35025,0.0 14.16467,42.35023,0.0 14.16467,42.35014,0.0 14.16466,42.35009,0.0 14.16463,42.35,0.0 14.16462,42.34999,0.0 14.16461,42.34997,0.0 14.16452,42.34987,0.0 14.16443,42.34981,0.0 14.16399,42.34969,0.0 14.1636,42.34965,0.0 14.16358,42.34972,0.0 14.16356,42.34974,0.0 14.16354,42.34977,0.0 14.16351,42.3498,0.0 14.1633,42.34992,0.0 14.16326,42.34993,0.0 14.1632,42.34993,0.0 14.16313,42.34991,0.0 14.16306,42.34988,0.0 14.16249,42.34947,0.0 14.16239,42.34941,0.0 14.16214,42.34931,0.0 14.16205,42.34929,0.0 14.16107,42.34917,0.0 14.16091,42.34913,0.0 14.16068,42.34911,0.0 14.16051,42.34913,0.0 14.16051,42.34914,0.0 14.1605,42.34914,0.0 14.1605,42.34915,0.0 14.16048,42.34915,0.0 14.16048,42.34916,0.0 14.16045,42.34916,0.0 14.16044,42.34917,0.0 14.16039,42.34917,0.0 14.16039,42.34916,0.0 14.16031,42.34921,0.0 14.16025,42.34928,0.0 14.16022,42.34942,0.0 14.16037,42.35101,0.0 14.16037,42.35125,0.0 14.16036,42.35137,0.0 14.16033,42.35151,0.0 14.16026,42.35166,0.0 14.15998,42.352,0.0 14.15992,42.35205,0.0 14.1599,42.35206,0.0 14.15985,42.3521,0.0 14.1598,42.35212,0.0 14.1597,42.35214,0.0 14.15956,42.35211,0.0 14.15949,42.35207,0.0 14.15946,42.35204,0.0 14.15943,42.352,0.0 14.15935,42.35136,0.0 14.15932,42.35126,0.0 14.15927,42.35121,0.0 14.15918,42.35115,0.0 14.15908,42.35113,0.0 14.15898,42.35113,0.0 14.1589,42.35116,0.0 14.15887,42.35118,0.0 14.1588,42.35125,0.0 14.15877,42.35132,0.0 14.15876,42.35139,0.0 14.15875,42.3516,0.0 14.15876,42.35215,0.0 14.15874,42.35251,0.0 14.15867,42.35288,0.0 14.15864,42.35295,0.0 14.1586,42.35301,0.0 14.15843,42.35316,0.0 14.15801,42.35344,0.0 14.15757,42.35379,0.0 14.15746,42.35392,0.0 14.15745,42.35405,0.0 14.15753,42.35425,0.0 14.15758,42.35431,0.0 14.15765,42.35436,0.0 14.15768,42.35439,0.0 14.15812,42.35457,0.0 14.15849,42.35468,0.0 14.15863,42.35474,0.0 14.15869,42.3548,0.0 14.15873,42.35486,0.0 14.15874,42.35487,0.0 14.15876,42.35492,0.0 14.15876,42.35503,0.0 14.15875,42.35507,0.0 14.15861,42.35532,0.0 14.15848,42.35547,0.0 14.15838,42.35553,0.0 14.15833,42.35555,0.0 14.15817,42.35555,0.0 14.15796,42.35549,0.0 14.15751,42.35524,0.0 14.15717,42.35511,0.0 14.15682,42.35501,0.0 14.15355,42.35438,0.0 14.15336,42.3544,0.0 14.15325,42.35443,0.0 14.15317,42.3545,0.0 14.15313,42.35457,0.0 14.15311,42.35464,0.0 14.15311,42.35472,0.0 14.15314,42.35478,0.0 14.15314,42.3548,0.0 14.15322,42.35486,0.0 14.15386,42.3551,0.0 14.15416,42.35523,0.0 14.15585,42.35586,0.0 14.15596,42.35595,0.0 14.15604,42.35606,0.0 14.15606,42.35614,0.0 14.15606,42.3562,0.0 14.15604,42.35628,0.0 14.15602,42.35633,0.0 14.15593,42.35642,0.0 14.15586,42.35646,0.0 14.1549,42.35687,0.0 14.15485,42.3569,0.0 14.15472,42.35695,0.0 14.15459,42.35702,0.0 14.15438,42.35711,0.0 14.1543,42.35716,0.0 14.15423,42.35719,0.0 14.15416,42.35723,0.0 14.15391,42.35732,0.0 14.15362,42.35735,0.0 14.15311,42.35735,0.0 14.15286,42.35733,0.0 14.15273,42.35731,0.0 14.15262,42.35728,0.0 14.14409,42.357,0.0 14.14398,42.35702,0.0 14.14387,42.35702,0.0 14.14384,42.35703,0.0 14.14384,42.35704,0.0 14.14383,42.35704,0.0 14.14383,42.35705,0.0 14.14382,42.35705,0.0 14.14382,42.35706,0.0 14.1438,42.35706,0.0 14.1438,42.35707,0.0 14.14374,42.35707,0.0 14.14373,42.35706,0.0 14.14371,42.35706,0.0 14.14371,42.35705,0.0 14.1437,42.35705,0.0 14.1437,42.35704,0.0 14.14369,42.35704,0.0 14.14369,42.35702,0.0 14.14364,42.35702,0.0 14.14361,42.35701,0.0 14.14236,42.35694,0.0 14.13931,42.35686,0.0 14.1392,42.35687,0.0 14.13918,42.35688,0.0 14.13909,42.35688,0.0 14.13897,42.3569,0.0 14.13893,42.35694,0.0 14.13892,42.35694,0.0 14.13891,42.35695,0.0 14.13889,42.35695,0.0 14.13887,42.35696,0.0 14.13883,42.35696,0.0 14.13881,42.35695,0.0 14.13879,42.35695,0.0 14.13877,42.35694,0.0 14.13876,42.35693,0.0 14.13875,42.35693,0.0 14.13873,42.35691,0.0 14.13873,42.3569,0.0 14.13871,42.35688,0.0 14.13871,42.35686,0.0 14.1387,42.35685,0.0 14.1387,42.35682,0.0 14.13871,42.35681,0.0 14.13871,42.35679,0.0 14.13872,42.35679,0.0 14.13874,42.35677,0.0 14.13874,42.35676,0.0 14.13875,42.35676,0.0 14.13875,42.35664,0.0 14.13877,42.35657,0.0 14.13763,42.35287,0.0 14.13754,42.35262,0.0 14.1362,42.34815,0.0 14.13616,42.34807,0.0 14.13495,42.34414,0.0 14.13484,42.34373,0.0 14.13391,42.34072,0.0 14.13389,42.34072,0.0 14.13389,42.34073,0.0 14.13382,42.34073,0.0 14.13381,42.34072,0.0 14.13378,42.34072,0.0 14.13377,42.34071,0.0 14.13376,42.34071,0.0 14.13375,42.3407,0.0 14.13374,42.3407,0.0 14.13374,42.34069,0.0 14.13373,42.34069,0.0 14.13371,42.34067,0.0 14.13371,42.34066,0.0 14.1337,42.34065,0.0 14.1337,42.34064,0.0 14.13369,42.34064,0.0 14.13369,42.34058,0.0 14.1337,42.34057,0.0 14.1337,42.34056,0.0 14.13371,42.34055,0.0 14.13371,42.34054,0.0 14.13372,42.34054,0.0 14.13372,42.34053,0.0 14.13373,42.34053,0.0 14.13373,42.34052,0.0 14.13374,42.34052,0.0 14.13374,42.34051,0.0 14.13376,42.34051,0.0 14.13377,42.3405,0.0 14.13378,42.3405,0.0 14.13379,42.34049,0.0 14.13382,42.34049,0.0 14.1336,42.33967,0.0 14.13346,42.33927,0.0 14.13309,42.33803,0.0 14.13283,42.3373,0.0 14.13265,42.337,0.0 14.13257,42.3369,0.0 14.13245,42.33679,0.0 14.13243,42.33678,0.0 14.13233,42.3367,0.0 14.13215,42.33658,0.0 14.13187,42.33645,0.0 14.1314,42.33628,0.0 14.13082,42.33612,0.0 14.13034,42.33596,0.0 14.13029,42.33595,0.0 14.12653,42.33478,0.0 14.1263,42.33481,0.0 14.1261,42.33487,0.0 14.12539,42.33513,0.0 14.12529,42.33513,0.0 14.12503,42.33504,0.0 14.12493,42.33499,0.0 14.12477,42.33485,0.0 14.12428,42.33431,0.0 14.12402,42.33408,0.0 14.12394,42.33404,0.0 14.1239,42.334,0.0 14.12387,42.33394,0.0 14.12377,42.3339,0.0 14.11353,42.33068,0.0 14.11342,42.33068,0.0 14.11326,42.33064,0.0 14.11324,42.33066,0.0 14.11323,42.33066,0.0 14.11322,42.33067,0.0 14.1132,42.33067,0.0 14.11319,42.33068,0.0 14.11317,42.33068,0.0 14.11316,42.33069,0.0 14.11308,42.33069,0.0 14.11307,42.33068,0.0 14.11304,42.33068,0.0 14.11303,42.33067,0.0 14.11302,42.33067,0.0 14.11301,42.33066,0.0 14.113,42.33066,0.0 14.11299,42.33065,0.0 14.11298,42.33065,0.0 14.11298,42.33064,0.0 14.11297,42.33064,0.0 14.11296,42.33063,0.0 14.11296,42.33062,0.0 14.11295,42.33062,0.0 14.11295,42.33061,0.0 14.11294,42.3306,0.0 14.11294,42.33058,0.0 14.11293,42.33057,0.0 14.11293,42.33053,0.0 14.11265,42.3304,0.0 14.1026,42.32723,0.0 14.10233,42.32712,0.0 14.10092,42.32627,0.0 14.09826,42.32459,0.0 14.09803,42.32447,0.0 14.09776,42.32436,0.0 14.09736,42.32425,0.0 14.09424,42.32361,0.0 14.09395,42.32353,0.0 14.08612,42.31977,0.0 14.0859,42.31968,0.0 14.07557,42.31474,0.0 14.07534,42.31469,0.0 14.07534,42.31471,0.0 14.07533,42.31472,0.0 14.07533,42.31473,0.0 14.07532,42.31473,0.0 14.07532,42.31474,0.0 14.07531,42.31474,0.0 14.07531,42.31475,0.0 14.0753,42.31475,0.0 14.0753,42.31476,0.0 14.07529,42.31476,0.0 14.07528,42.31477,0.0 14.07526,42.31477,0.0 14.07525,42.31478,0.0 14.07521,42.31478,0.0 14.07521,42.31479,0.0 14.0752,42.31478,0.0 14.07514,42.31478,0.0 14.07513,42.31477,0.0 14.07512,42.31477,0.0 14.07511,42.31476,0.0 14.0751,42.31476,0.0 14.07508,42.31474,0.0 14.07508,42.31473,0.0 14.07507,42.31473,0.0 14.07507,42.31472,0.0 14.07506,42.31472,0.0 14.07506,42.31469,0.0 14.07496,42.31465,0.0 14.07468,42.3145,0.0 14.07445,42.3144,0.0 14.07439,42.31439,0.0 14.07433,42.31437,0.0 14.06514,42.31348,0.0 14.06459,42.31336,0.0 14.06417,42.31323,0.0 14.06362,42.313,0.0 14.05764,42.30973,0.0 14.05678,42.30923,0.0 14.05647,42.30894,0.0 14.05629,42.30871,0.0 14.056,42.30825,0.0 14.05589,42.30805,0.0 14.05583,42.30797,0.0 14.05411,42.30501,0.0 14.05391,42.30475,0.0 14.05319,42.30399,0.0 14.0531,42.30391,0.0 14.05076,42.30155,0.0 14.05071,42.30149,0.0 14.0507,42.30147,0.0 14.04951,42.30027,0.0 14.04926,42.3001,0.0 14.04484,42.29796,0.0 14.04457,42.29787,0.0 14.04269,42.29746,0.0 14.04234,42.29736,0.0 14.04197,42.29716,0.0 14.0418,42.29705,0.0 14.04161,42.2969,0.0 14.0414,42.29668,0.0 14.04129,42.29653,0.0 14.0402,42.2948,0.0 14.0398,42.29411,0.0 14.03948,42.29364,0.0 14.03793,42.29156,0.0 14.03776,42.29136,0.0 14.03751,42.2911,0.0 14.03327,42.28713,0.0 14.03323,42.2871,0.0 14.03311,42.28698,0.0 14.03208,42.28606,0.0 14.03195,42.28597,0.0 14.03194,42.28597,0.0 14.03181,42.28588,0.0 14.03148,42.28573,0.0 14.02802,42.28446,0.0 14.02706,42.28408,0.0 14.02623,42.2837,0.0 14.02552,42.28329,0.0 14.02522,42.28309,0.0 14.02459,42.2826,0.0 14.02428,42.2823,0.0 14.02379,42.28175,0.0 14.02324,42.28098,0.0 14.02251,42.27976,0.0 14.02145,42.27809,0.0 14.02123,42.2777,0.0 14.02096,42.27712,0.0 14.02086,42.27683,0.0 14.02078,42.27654,0.0 14.0207,42.2761,0.0 14.02066,42.27541,0.0 14.0207,42.27405,0.0 14.02069,42.27386,0.0 14.02066,42.27361,0.0 14.02059,42.2733,0.0 14.02056,42.27323,0.0 14.0205,42.27304,0.0 14.02043,42.27289,0.0 14.02042,42.27288,0.0 14.02039,42.27283,0.0 14.02034,42.27277,0.0 14.02025,42.2726,0.0 14.0201,42.27237,0.0 14.02003,42.27229,0.0 14.01998,42.27221,0.0 14.01991,42.27214,0.0 14.01987,42.27209,0.0 14.01952,42.27176,0.0 14.01922,42.27152,0.0 14.01875,42.27121,0.0 14.01834,42.271,0.0 14.01384,42.269,0.0 14.01356,42.26886,0.0 14.01054,42.26751,0.0 14.01042,42.26747,0.0 14.01039,42.26749,0.0 14.01032,42.26749,0.0 14.01022,42.26746,0.0 14.01019,42.26744,0.0 14.01018,42.26741,0.0 14.01017,42.2674,0.0 14.01017,42.26739,0.0 14.01015,42.26737,0.0 14.00992,42.26723,0.0 14.00986,42.26718,0.0 14.00864,42.26664,0.0 14.00845,42.26653,0.0 14.00826,42.26639,0.0 14.00775,42.26592,0.0 14.0076,42.26581,0.0 14.00734,42.26565,0.0 14.00514,42.26468,0.0 14.00505,42.26467,0.0 14.00299,42.26379,0.0 14.00283,42.2637,0.0 14.00276,42.26364,0.0 14.00267,42.26359,0.0 14.00205,42.26332,0.0 14.00177,42.26324,0.0 14.00164,42.26322,0.0 14.00144,42.26322,0.0 14.0012,42.26325,0.0 14.00089,42.26333,0.0 14.00075,42.26339,0.0 14.00062,42.26347,0.0 14.00047,42.26358,0.0 13.99948,42.26462,0.0 13.99871,42.26533,0.0 13.9985,42.26546,0.0 13.99849,42.26546,0.0 13.99828,42.26557,0.0 13.99814,42.26563,0.0 13.99786,42.26571,0.0 13.99722,42.26584,0.0 13.99525,42.26615,0.0 13.99513,42.26578,0.0 13.99511,42.26562,0.0 13.99511,42.26554,0.0 13.99514,42.26543,0.0 13.9952,42.26532,0.0 13.99528,42.26524,0.0 13.99539,42.26517,0.0 13.99552,42.26512,0.0 13.9963,42.26497,0.0 13.99668,42.26488,0.0 13.99686,42.2648,0.0 13.99712,42.26462,0.0 13.99849,42.26356,0.0 13.99862,42.26341,0.0 13.9987,42.2633,0.0 13.9988,42.26308,0.0 13.9988,42.26306,0.0 13.99911,42.26234,0.0 13.99979,42.26101,0.0 13.99981,42.26092,0.0 13.99981,42.26085,0.0 13.9998,42.26077,0.0 13.99978,42.26071,0.0 13.99968,42.26058,0.0 13.99964,42.26055,0.0 13.99889,42.26016,0.0 13.99877,42.26006,0.0 13.99871,42.25999,0.0 13.99863,42.25985,0.0 13.99862,42.25978,0.0 13.9986,42.25973,0.0 13.9986,42.25965,0.0 13.99863,42.2595,0.0 13.99886,42.25894,0.0 13.99889,42.25881,0.0 13.99892,42.25859,0.0 13.99891,42.25847,0.0 13.99883,42.25821,0.0 13.99877,42.25811,0.0 13.99803,42.25708,0.0 13.99798,42.25695,0.0 13.99797,42.2569,0.0 13.99797,42.25675,0.0 13.99805,42.25656,0.0 13.99817,42.25641,0.0 13.99828,42.2563,0.0 13.99834,42.25622,0.0 13.99839,42.25613,0.0 13.99842,42.25604,0.0 13.99845,42.25588,0.0 13.99844,42.25576,0.0 13.9984,42.25558,0.0 13.99831,42.25533,0.0 13.99826,42.25524,0.0 13.99819,42.25515,0.0 13.99805,42.255,0.0 13.99792,42.25489,0.0 13.9977,42.25475,0.0 13.99746,42.25464,0.0 13.99725,42.25457,0.0 13.99711,42.25454,0.0 13.99675,42.25449,0.0 13.99656,42.2545,0.0 13.99606,42.25449,0.0 13.99575,42.25444,0.0 13.99543,42.25434,0.0 13.99387,42.25367,0.0 13.99378,42.25361,0.0 13.99364,42.25346,0.0 13.99357,42.25332,0.0 13.99353,42.25321,0.0 13.9935,42.25309,0.0 13.99349,42.25296,0.0 13.9935,42.25286,0.0 13.99387,42.2517,0.0 13.99391,42.2516,0.0 13.99398,42.25135,0.0 13.99398,42.25122,0.0 13.99396,42.25113,0.0 13.99381,42.25092,0.0 13.99363,42.25077,0.0 13.99309,42.25037,0.0 13.99298,42.25027,0.0 13.99227,42.2495,0.0 13.99211,42.24939,0.0 13.99193,42.2493,0.0 13.99187,42.24928,0.0 13.99146,42.24923,0.0 13.99007,42.24916,0.0 13.98997,42.24917,0.0 13.98984,42.24921,0.0 13.98978,42.24925,0.0 13.98974,42.24929,0.0 13.9897,42.24935,0.0 13.98968,42.24942,0.0 13.98968,42.24947,0.0 13.98972,42.24958,0.0 13.9898,42.24966,0.0 13.99119,42.25074,0.0 13.99131,42.25086,0.0 13.99136,42.25093,0.0 13.99139,42.25099,0.0 13.9914,42.25108,0.0 13.99136,42.25123,0.0 13.99121,42.25147,0.0 13.99116,42.25151,0.0 13.99108,42.25156,0.0 13.99103,42.25158,0.0 13.99095,42.2516,0.0 13.99083,42.25161,0.0 13.99061,42.25155,0.0 13.99055,42.25152,0.0 13.99049,42.25148,0.0 13.99037,42.25133,0.0 13.99021,42.2511,0.0 13.98995,42.25081,0.0 13.98985,42.25073,0.0 13.98972,42.25065,0.0 13.98944,42.25051,0.0 13.98918,42.25042,0.0 13.98855,42.25025,0.0 13.98823,42.25013,0.0 13.98801,42.25002,0.0 13.98699,42.24929,0.0 13.98689,42.2492,0.0 13.98673,42.24898,0.0 13.98613,42.24735,0.0 13.98601,42.24692,0.0 13.98597,42.24671,0.0 13.98593,42.24539,0.0 13.98595,42.24511,0.0 13.986,42.24492,0.0 13.98613,42.24469,0.0 13.98633,42.24444,0.0 13.98651,42.24425,0.0 13.98655,42.24419,0.0 13.9866,42.24409,0.0 13.98744,42.24163,0.0 13.98749,42.24152,0.0 13.98787,42.2405,0.0 13.98852,42.23824,0.0 13.98852,42.23818,0.0 13.9885,42.2381,0.0 13.98848,42.23805,0.0 13.98844,42.23801,0.0 13.98833,42.23796,0.0 13.98825,42.23794,0.0 13.98818,42.23794,0.0 13.9881,42.23796,0.0 13.98802,42.238,0.0 13.98758,42.23832,0.0 13.98716,42.23866,0.0 13.98663,42.23918,0.0 13.98619,42.23973,0.0 13.98608,42.23989,0.0 13.98567,42.24061,0.0 13.98562,42.24068,0.0 13.98557,42.24071,0.0 13.98546,42.24074,0.0 13.98533,42.24073,0.0 13.98529,42.24071,0.0 13.98524,42.24066,0.0 13.98522,42.24062,0.0 13.98521,42.24058,0.0 13.98521,42.24053,0.0 13.98522,42.24048,0.0 13.98553,42.23999,0.0 13.98567,42.23969,0.0 13.98571,42.23941,0.0 13.98568,42.23922,0.0 13.98563,42.23909,0.0 13.98557,42.23898,0.0 13.9855,42.23889,0.0 13.98523,42.23863,0.0 13.98522,42.23861,0.0 13.985,42.23843,0.0 13.98493,42.2384,0.0 13.9849,42.2384,0.0 13.98488,42.23839,0.0 13.98486,42.23839,0.0 13.98484,42.23838,0.0 13.98481,42.23838,0.0 13.98479,42.23836,0.0 13.98478,42.23836,0.0 13.98476,42.23835,0.0 13.98471,42.2383,0.0 13.98471,42.23828,0.0 13.9847,42.23828,0.0 13.9847,42.23826,0.0 13.98469,42.23825,0.0 13.98469,42.23821,0.0 13.9847,42.2382,0.0 13.9847,42.23817,0.0 13.98473,42.23814,0.0 13.98473,42.23813,0.0 13.98474,42.23812,0.0 13.98475,42.23812,0.0 13.98477,42.2381,0.0 13.98478,42.2381,0.0 13.98479,42.23809,0.0 13.9848,42.23809,0.0 13.98481,42.23803,0.0 13.98485,42.23789,0.0 13.98488,42.23784,0.0 13.98488,42.23783,0.0 13.98491,42.23774,0.0 13.9851,42.2373,0.0 13.98513,42.23708,0.0 13.98511,42.23708,0.0 13.9851,42.23707,0.0 13.98507,42.23707,0.0 13.98506,42.23706,0.0 13.98504,42.23706,0.0 13.98503,42.23705,0.0 13.98502,42.23705,0.0 13.98501,42.23704,0.0 13.98501,42.23703,0.0 13.985,42.23703,0.0 13.98499,42.23702,0.0 13.98499,42.23701,0.0 13.98498,42.23701,0.0 13.98498,42.237,0.0 13.98497,42.23699,0.0 13.98497,42.23698,0.0 13.98496,42.23698,0.0 13.98496,42.23691,0.0 13.98497,42.2369,0.0 13.98497,42.23689,0.0 13.98498,42.23688,0.0 13.98498,42.23687,0.0 13.98499,42.23687,0.0 13.98499,42.23686,0.0 13.985,42.23685,0.0 13.98501,42.23685,0.0 13.98502,42.23684,0.0 13.98503,42.23684,0.0 13.98503,42.23683,0.0 13.98504,42.23683,0.0 13.98505,42.23682,0.0 13.98507,42.23682,0.0 13.98508,42.23681,0.0 13.98518,42.23681,0.0 13.98519,42.23676,0.0 13.98519,42.23671,0.0 13.98518,42.23664,0.0 13.98515,42.2366,0.0 13.98507,42.23645,0.0 13.9843,42.23558,0.0 13.98403,42.23531,0.0 13.98395,42.23521,0.0 13.98394,42.23515,0.0 13.98394,42.23509,0.0 13.98396,42.23504,0.0 13.98403,42.23497,0.0 13.98413,42.23494,0.0 13.98421,42.23494,0.0 13.98428,42.23495,0.0 13.98435,42.23498,0.0 13.98439,42.23501,0.0 13.98459,42.23525,0.0 13.98468,42.23531,0.0 13.98478,42.23536,0.0 13.98489,42.23538,0.0 13.98525,42.23536,0.0 13.98619,42.23521,0.0 13.98683,42.23515,0.0 13.98688,42.23514,0.0 13.9873,42.23513,0.0 13.98754,42.2351,0.0 13.98761,42.23508,0.0 13.9877,42.23503,0.0 13.98777,42.23498,0.0 13.98782,42.23492,0.0 13.98791,42.23478,0.0 13.98796,42.23473,0.0 13.98798,42.23466,0.0 13.98807,42.23444,0.0 13.98808,42.23438,0.0 13.9881,42.23432,0.0 13.98813,42.23416,0.0 13.98813,42.23387,0.0 13.98804,42.23324,0.0 13.988,42.23307,0.0 13.988,42.23302,0.0 13.98804,42.23283,0.0 13.98812,42.23267,0.0 13.98818,42.23259,0.0 13.9886,42.23217,0.0 13.98864,42.23211,0.0 13.98868,42.23207,0.0 13.9887,42.23203,0.0 13.98873,42.23194,0.0 13.98879,42.23155,0.0 13.98881,42.23132,0.0 13.98875,42.23108,0.0 13.98874,42.23106,0.0 13.98858,42.23045,0.0 13.98857,42.23038,0.0 13.98855,42.22968,0.0 13.9885,42.22928,0.0 13.98852,42.2292,0.0 13.98854,42.22915,0.0 13.98862,42.22907,0.0 13.98871,42.229,0.0 13.98882,42.22893,0.0 13.98901,42.22883,0.0 13.98923,42.22862,0.0 13.98938,42.22843,0.0 13.98944,42.22832,0.0 13.98947,42.22823,0.0 13.98949,42.22814,0.0 13.98949,42.22802,0.0 13.98946,42.22789,0.0 13.98927,42.22749,0.0 13.98923,42.22738,0.0 13.9892,42.22719,0.0 13.9892,42.22709,0.0 13.98919,42.22699,0.0 13.9892,42.22689,0.0 13.98928,42.22666,0.0 13.98932,42.22658,0.0 13.98947,42.22637,0.0 13.99022,42.22545,0.0 13.99027,42.2254,0.0 13.9903,42.22536,0.0 13.99035,42.22532,0.0 13.99053,42.22522,0.0 13.99071,42.22516,0.0 13.99123,42.22508,0.0 13.99133,42.22505,0.0 13.99149,42.22496,0.0 13.99155,42.22491,0.0 13.99159,42.22486,0.0 13.99171,42.22464,0.0 13.99172,42.22464,0.0 13.99218,42.22348,0.0 13.99226,42.22323,0.0 13.99228,42.22308,0.0 13.99227,42.22287,0.0 13.99221,42.22249,0.0 13.9919,42.22094,0.0 13.99189,42.2208,0.0 13.9919,42.22062,0.0 13.99198,42.22043,0.0 13.99213,42.22024,0.0 13.99242,42.21996,0.0 13.99284,42.2196,0.0 13.99402,42.21847,0.0 13.99433,42.2182,0.0 13.99444,42.21813,0.0 13.99461,42.21805,0.0 13.99488,42.21797,0.0 13.99678,42.21756,0.0 13.99701,42.21746,0.0 13.99707,42.21739,0.0 13.99731,42.21738,0.0 13.99735,42.21739,0.0 13.99737,42.2174,0.0 13.9975,42.21752,0.0 13.99768,42.21766,0.0 13.99794,42.21779,0.0 13.99839,42.21782,0.0 13.99844,42.21784,0.0 13.99846,42.21784,0.0 13.99849,42.21785,0.0 13.99892,42.21783,0.0 13.99942,42.21784,0.0 14.00001,42.21791,0.0 14.00032,42.21791,0.0 14.00109,42.21786,0.0 14.00124,42.21787,0.0 14.00209,42.21808,0.0 14.00276,42.21821,0.0 14.00291,42.21825,0.0 14.0031,42.21835,0.0 14.00331,42.21844,0.0 14.00359,42.21854,0.0 14.00378,42.21863,0.0 14.00405,42.21883,0.0 14.00407,42.21876,0.0 14.00407,42.2187,0.0 14.00401,42.2185,0.0 14.00386,42.21828,0.0 14.0035,42.21787,0.0 14.00341,42.21781,0.0 14.0028,42.2175,0.0 14.00264,42.21739,0.0 14.00239,42.21718,0.0 14.00223,42.217,0.0 14.00209,42.21676,0.0 14.00202,42.2166,0.0 14.00196,42.21635,0.0 14.00203,42.2163,0.0 14.00224,42.21612,0.0 14.00261,42.21561,0.0 14.00278,42.21543,0.0 14.00299,42.21526,0.0 14.00315,42.21504,0.0 14.00345,42.21438,0.0 14.00359,42.21411,0.0 14.00371,42.21396,0.0 14.00409,42.21362,0.0 14.00444,42.21337,0.0 14.00459,42.2133,0.0 14.005,42.21315,0.0 14.00509,42.21313,0.0 14.00608,42.21274,0.0 14.00652,42.21259,0.0 14.0069,42.21248,0.0 14.00706,42.21247,0.0 14.00712,42.21246,0.0 14.00729,42.21246,0.0 14.00769,42.21254,0.0 14.00985,42.21313,0.0 14.01005,42.21317,0.0 14.01021,42.21317,0.0 14.01035,42.21315,0.0 14.01048,42.2131,0.0 14.01055,42.21306,0.0 14.01073,42.21298,0.0 14.0113,42.21266,0.0 14.01178,42.21244,0.0 14.01273,42.21205,0.0 14.01294,42.21203,0.0 14.01308,42.21205,0.0 14.01332,42.21214,0.0 14.01342,42.2122,0.0 14.01343,42.21222,0.0 14.0135,42.21231,0.0 14.01356,42.21244,0.0 14.01357,42.21264,0.0 14.01356,42.21266,0.0 14.0135,42.21274,0.0 14.01326,42.21312,0.0 14.01323,42.21322,0.0 14.01322,42.2133,0.0 14.01322,42.21335,0.0 14.01324,42.21343,0.0 14.01327,42.21348,0.0 14.01331,42.21352,0.0 14.01333,42.21356,0.0 14.01344,42.21367,0.0 14.01345,42.21367,0.0 14.0149,42.21429,0.0 14.01563,42.21457,0.0 14.01586,42.21461,0.0 14.0162,42.21461,0.0 14.01627,42.2146,0.0 14.0165,42.2146,0.0 14.01666,42.21462,0.0 14.01679,42.21466,0.0 14.01682,42.21466,0.0 14.01708,42.21481,0.0 14.01713,42.21485,0.0 14.01728,42.21501,0.0 14.0175,42.21529,0.0 14.0176,42.21537,0.0 14.01772,42.21543,0.0 14.01777,42.21544,0.0 14.01781,42.21546,0.0 14.01807,42.21552,0.0 14.01816,42.21553,0.0 14.01834,42.21553,0.0 14.01855,42.21548,0.0 14.01885,42.21545,0.0 14.01886,42.21544,0.0 14.0191,42.21544,0.0 14.01929,42.21549,0.0 14.01945,42.21555,0.0 14.01958,42.21564,0.0 14.02037,42.2164,0.0 14.02049,42.21647,0.0 14.02053,42.21648,0.0 14.02058,42.21648,0.0 14.02062,42.21647,0.0 14.02063,42.21647,0.0 14.02071,42.21641,0.0 14.02087,42.21626,0.0 14.02118,42.21571,0.0 14.02149,42.21465,0.0 14.02169,42.21421,0.0 14.02176,42.2141,0.0 14.02182,42.21393,0.0 14.02185,42.21373,0.0 14.02185,42.21364,0.0 14.02186,42.21357,0.0 14.02186,42.21346,0.0 14.02188,42.21331,0.0 14.02191,42.21317,0.0 14.02191,42.21314,0.0 14.02188,42.21304,0.0 14.02166,42.21282,0.0 14.02164,42.21278,0.0 14.02164,42.2127,0.0 14.02167,42.21263,0.0 14.02175,42.21232,0.0 14.02175,42.21216,0.0 14.02174,42.21205,0.0 14.02177,42.21194,0.0 14.02189,42.21179,0.0 14.02239,42.21126,0.0 14.02239,42.21125,0.0 14.0224,42.21124,0.0 14.0224,42.21114,0.0 14.02241,42.21114,0.0 14.02244,42.21108,0.0 14.02249,42.21101,0.0 14.02255,42.21095,0.0 14.02256,42.21095,0.0 14.02265,42.2109,0.0 14.02325,42.21076,0.0 14.02331,42.21076,0.0 14.02346,42.2108,0.0 14.02352,42.21084,0.0 14.02374,42.21092,0.0 14.02379,42.21095,0.0 14.02392,42.21106,0.0 14.02395,42.21112,0.0 14.02395,42.21118,0.0 14.02389,42.21145,0.0 14.02383,42.21162,0.0 14.02365,42.21191,0.0 14.02341,42.21224,0.0 14.02321,42.21244,0.0 14.02312,42.21267,0.0 14.02312,42.21273,0.0 14.02316,42.21284,0.0 14.02325,42.21297,0.0 14.02347,42.21319,0.0 14.02359,42.21337,0.0 14.02372,42.21363,0.0 14.02377,42.21369,0.0 14.02379,42.21373,0.0 14.02381,42.21375,0.0 14.02383,42.21376,0.0 14.02384,42.21377,0.0 14.02385,42.21377,0.0 14.02386,42.21378,0.0 14.0239,42.21379,0.0 14.02393,42.21381,0.0 14.02398,42.21382,0.0 14.024,42.21383,0.0 14.02404,42.21384,0.0 14.02411,42.21384,0.0 14.02413,42.21383,0.0 14.02416,42.2138,0.0 14.02419,42.21375,0.0 14.0242,42.21372,0.0 14.02424,42.21367,0.0 14.02428,42.21358,0.0 14.02435,42.21347,0.0 14.0244,42.21336,0.0 14.02447,42.21325,0.0 14.02521,42.21189,0.0 14.02537,42.2115,0.0 14.02533,42.21141,0.0 14.02532,42.21135,0.0 14.0253,42.2113,0.0 14.02528,42.21118,0.0 14.02502,42.21084,0.0 14.02469,42.21034,0.0 14.02461,42.21017,0.0 14.02457,42.21002,0.0 14.0246,42.20992,0.0 14.02474,42.2096,0.0 14.02497,42.20919,0.0 14.025,42.20909,0.0 14.02503,42.20887,0.0 14.02506,42.20766,0.0 14.02508,42.20753,0.0 14.02512,42.20741,0.0 14.02527,42.20725,0.0 14.02537,42.20718,0.0 14.02564,42.20705,0.0 14.02623,42.20684,0.0 14.02647,42.20678,0.0 14.02671,42.20675,0.0 14.0291,42.20694,0.0 14.02922,42.20693,0.0 14.02944,42.20682,0.0 14.02957,42.20671,0.0 14.02962,42.20661,0.0 14.02963,42.20652,0.0 14.02963,42.20641,0.0 14.02945,42.20559,0.0 14.02942,42.20539,0.0 14.02942,42.20531,0.0 14.02954,42.20505,0.0 14.02969,42.20492,0.0 14.02987,42.20479,0.0 14.03304,42.20305,0.0 14.03326,42.20288,0.0 14.03345,42.2027,0.0 14.03376,42.20251,0.0 14.0339,42.20245,0.0 14.03405,42.20241,0.0 14.03455,42.20232,0.0 14.03486,42.20228,0.0 14.03512,42.20228,0.0 14.03548,42.20236,0.0 14.03584,42.20247,0.0 14.03608,42.20252,0.0 14.03622,42.20253,0.0 14.03627,42.20254,0.0 14.03645,42.20251,0.0 14.03692,42.20232,0.0 14.03721,42.20216,0.0 14.03767,42.20195,0.0 14.03837,42.20172,0.0 14.03993,42.2013,0.0 14.04019,42.20121,0.0 14.04053,42.20101,0.0 14.04092,42.20067,0.0 14.04149,42.20036,0.0 14.04157,42.20028,0.0 14.04158,42.20028,0.0 14.0416,42.20022,0.0 14.0421,42.19916,0.0 14.04226,42.19867,0.0 14.04235,42.19821,0.0 14.04239,42.19806,0.0 14.04249,42.1975,0.0 14.04257,42.19722,0.0 14.04266,42.19666,0.0 14.04263,42.19642,0.0 14.04256,42.19632,0.0 14.04243,42.1962,0.0 14.04234,42.19608,0.0 14.0423,42.19604,0.0 14.04224,42.1959,0.0 14.04222,42.19583,0.0 14.04221,42.19575,0.0 14.04223,42.1957,0.0 14.04229,42.19562,0.0 14.04236,42.19556,0.0 14.04245,42.19552,0.0 14.04255,42.1955,0.0 14.04269,42.19544,0.0 14.04287,42.19542,0.0 14.04314,42.19542,0.0 14.04332,42.19538,0.0 14.04337,42.19535,0.0 14.04339,42.19533,0.0 14.04342,42.19526,0.0 14.04343,42.1952,0.0 14.04343,42.19515,0.0 14.04344,42.19509,0.0 14.04346,42.19503,0.0 14.04355,42.19489,0.0 14.04398,42.19434,0.0 14.04443,42.19399,0.0 14.04446,42.19396,0.0 14.04451,42.19389,0.0 14.04453,42.19382,0.0 14.04454,42.1938,0.0 14.04454,42.19366,0.0 14.04447,42.19354,0.0 14.04376,42.19261,0.0 14.04373,42.19259,0.0 14.04371,42.19255,0.0 14.04366,42.19248,0.0 14.04363,42.19241,0.0 14.04363,42.19233,0.0 14.04365,42.19229,0.0 14.04372,42.19222,0.0 14.04391,42.19207,0.0 14.04403,42.19195,0.0 14.04405,42.19192,0.0 14.04407,42.1919,0.0 14.04409,42.19187,0.0 14.04411,42.19181,0.0 14.04411,42.19164,0.0 14.04403,42.19134,0.0 14.04399,42.19124,0.0 14.04395,42.19095,0.0 14.04395,42.19075,0.0 14.04397,42.19065,0.0 14.04399,42.1906,0.0 14.04401,42.19052,0.0 14.04407,42.19039,0.0 14.04425,42.1901,0.0 14.04447,42.18981,0.0 14.04465,42.18961,0.0 14.04483,42.18948,0.0 14.04494,42.18934,0.0 14.04508,42.1891,0.0 14.04514,42.18894,0.0 14.04533,42.18852,0.0 14.04544,42.18832,0.0 14.04557,42.18813,0.0 14.04565,42.18803,0.0 14.04569,42.18793,0.0 14.04571,42.18784,0.0 14.04571,42.1878,0.0 14.0457,42.18777,0.0 14.04565,42.18767,0.0 14.04562,42.18763,0.0 14.04558,42.18754,0.0 14.04557,42.18749,0.0 14.04558,42.18747,0.0 14.04559,42.18743,0.0 14.04562,42.18739,0.0 14.04567,42.18735,0.0 14.04636,42.18696,0.0 14.04652,42.18685,0.0 14.04665,42.18674,0.0 14.04674,42.18662,0.0 14.04684,42.18652,0.0 14.04701,42.18639,0.0 14.0476,42.18578,0.0 14.04861,42.18505,0.0 14.04879,42.1849,0.0 14.04889,42.1848,0.0 14.04894,42.18477,0.0 14.04899,42.18475,0.0 14.0491,42.18475,0.0 14.04914,42.18476,0.0 14.04915,42.18476,0.0 14.04918,42.18478,0.0 14.04929,42.18489,0.0 14.04945,42.18514,0.0 14.05005,42.1859,0.0 14.05066,42.18657,0.0 14.05073,42.18662,0.0 14.05075,42.18662,0.0 14.05082,42.18664,0.0 14.05092,42.18663,0.0 14.05134,42.18647,0.0 14.05153,42.18641,0.0 14.05187,42.18634,0.0 14.05197,42.18635,0.0 14.05249,42.1865,0.0 14.05354,42.1869,0.0 14.05397,42.18703,0.0 14.05414,42.18705,0.0 14.05423,42.18705,0.0 14.05444,42.18701,0.0 14.05566,42.18666,0.0 14.0561,42.18648,0.0 14.05711,42.186,0.0 14.0574,42.18593,0.0 14.05753,42.18593,0.0 14.05755,42.18594,0.0 14.05764,42.18596,0.0 14.05774,42.18601,0.0 14.05888,42.18742,0.0 14.05904,42.18753,0.0 14.05912,42.18756,0.0 14.05921,42.18756,0.0 14.05928,42.18754,0.0 14.05929,42.18754,0.0 14.05933,42.18751,0.0 14.05936,42.18747,0.0 14.05941,42.18738,0.0 14.05943,42.18731,0.0 14.05949,42.18721,0.0 14.05968,42.18696,0.0 14.0603,42.18605,0.0 14.06096,42.18533,0.0 14.06189,42.18425,0.0 14.06214,42.18391,0.0 14.06248,42.18338,0.0 14.06265,42.18316,0.0 14.06278,42.18303,0.0 14.06303,42.18288,0.0 14.06316,42.18284,0.0 14.06332,42.18284,0.0 14.06341,42.18286,0.0 14.06358,42.18292,0.0 14.06367,42.18299,0.0 14.06382,42.1832,0.0 14.06386,42.18358,0.0 14.06385,42.18382,0.0 14.0638,42.18419,0.0 14.0638,42.1844,0.0 14.06376,42.18482,0.0 14.06369,42.18523,0.0 14.0637,42.18532,0.0 14.06371,42.18533,0.0 14.06374,42.18538,0.0 14.06382,42.18544,0.0 14.06387,42.18545,0.0 14.06393,42.18545,0.0 14.06397,42.18544,0.0 14.06406,42.18539,0.0 14.06411,42.18532,0.0 14.06432,42.18488,0.0 14.06443,42.18471,0.0 14.06462,42.18452,0.0 14.06477,42.18439,0.0 14.06506,42.1842,0.0 14.06542,42.1839,0.0 14.06589,42.18356,0.0 14.06597,42.18352,0.0 14.06608,42.1835,0.0 14.06665,42.18344,0.0 14.06771,42.18322,0.0 14.0681,42.1831,0.0 14.06815,42.18309,0.0 14.06887,42.18287,0.0 14.06935,42.1827,0.0 14.07,42.18239,0.0 14.07104,42.18181,0.0 14.07141,42.18163,0.0 14.0716,42.18157,0.0 14.07192,42.18152,0.0 14.07255,42.18154,0.0 14.07294,42.18158,0.0 14.07313,42.18162,0.0 14.07324,42.18168,0.0 14.07338,42.18179,0.0 14.07426,42.18263,0.0 14.0744,42.18271,0.0 14.07451,42.18276,0.0 14.07464,42.1828,0.0 14.07477,42.18282,0.0 14.07507,42.1828,0.0 14.0752,42.18278,0.0 14.07579,42.18261,0.0 14.07837,42.182,0.0 14.0789,42.18192,0.0 14.07894,42.1819,0.0 14.07899,42.18184,0.0 14.07899,42.1818,0.0 14.07898,42.1818,0.0 14.07897,42.18179,0.0 14.07895,42.18178,0.0 14.07891,42.18175,0.0 14.07889,42.18175,0.0 14.07837,42.18166,0.0 14.07763,42.18167,0.0 14.07752,42.18166,0.0 14.07737,42.18163,0.0 14.07692,42.1815,0.0 14.07659,42.18137,0.0 14.07647,42.18128,0.0 14.0764,42.1812,0.0 14.07635,42.18113,0.0 14.0763,42.18099,0.0 14.07629,42.18085,0.0 14.07632,42.18072,0.0 14.07641,42.18056,0.0 14.0766,42.18032,0.0 14.0772,42.1798,0.0 14.07793,42.17924,0.0 14.07818,42.17908,0.0 14.07838,42.17897,0.0 14.07915,42.17866,0.0 14.07966,42.17848,0.0 14.07975,42.17844,0.0 14.07982,42.17842,0.0 14.07983,42.17841,0.0 14.07992,42.17841,0.0 14.08002,42.17846,0.0 14.0801,42.17855,0.0 14.08022,42.17872,0.0 14.08032,42.17881,0.0 14.08055,42.17896,0.0 14.0808,42.17908,0.0 14.08143,42.17932,0.0 14.08194,42.17949,0.0 14.08262,42.17963,0.0 14.08303,42.17966,0.0 14.08356,42.17974,0.0 14.08388,42.17977,0.0 14.08399,42.17976,0.0 14.08414,42.17976,0.0 14.08445,42.17971,0.0 14.08457,42.17967,0.0 14.08458,42.17966,0.0 14.08458,42.1796,0.0 14.08456,42.17957,0.0 14.08448,42.1795,0.0 14.08419,42.17938,0.0 14.08408,42.17932,0.0 14.08395,42.17923,0.0 14.08371,42.17902,0.0 14.08354,42.17882,0.0 14.08343,42.17862,0.0 14.08335,42.17831,0.0 14.08334,42.17824,0.0 14.08335,42.17816,0.0 14.0834,42.17794,0.0 14.08346,42.17777,0.0 14.0837,42.17737,0.0 14.08381,42.17725,0.0 14.08441,42.17678,0.0 14.08487,42.17638,0.0 14.08505,42.17624,0.0 14.0852,42.17608,0.0 14.0853,42.17602,0.0 14.08538,42.17602,0.0 14.08539,42.17603,0.0 14.08541,42.17604,0.0 14.08542,42.17604,0.0 14.08542,42.17605,0.0 14.08544,42.17611,0.0 14.08544,42.17619,0.0 14.08542,42.17634,0.0 14.08543,42.17667,0.0 14.08548,42.17697,0.0 14.08555,42.17714,0.0 14.08564,42.17731,0.0 14.0857,42.1774,0.0 14.0858,42.1775,0.0 14.08589,42.17757,0.0 14.08592,42.1776,0.0 14.08593,42.1776,0.0 14.08597,42.17761,0.0 14.08605,42.17761,0.0 14.08605,42.1776,0.0 14.08606,42.17759,0.0 14.08607,42.17759,0.0 14.08608,42.17757,0.0 14.08609,42.1775,0.0 14.08607,42.17728,0.0 14.0861,42.17707,0.0 14.08616,42.17691,0.0 14.08636,42.17658,0.0 14.08686,42.17585,0.0 14.08763,42.17482,0.0 14.08789,42.17454,0.0 14.08799,42.17454,0.0 14.08803,42.17455,0.0 14.08807,42.17459,0.0 14.08831,42.17499,0.0 14.08859,42.17533,0.0 14.08882,42.17552,0.0 14.08905,42.17567,0.0 14.08946,42.17585,0.0 14.08999,42.176,0.0 14.09123,42.17643,0.0 14.09131,42.17644,0.0 14.09133,42.17643,0.0 14.09135,42.17643,0.0 14.09137,42.17642,0.0 14.09141,42.17634,0.0 14.09141,42.17629,0.0 14.09132,42.17597,0.0 14.09121,42.17456,0.0 14.09122,42.17433,0.0 14.09126,42.17417,0.0 14.09136,42.17396,0.0 14.09144,42.17385,0.0 14.09151,42.17378,0.0 14.09166,42.17367,0.0 14.09168,42.17367,0.0 14.0918,42.17365,0.0 14.09193,42.17364,0.0 14.09234,42.17372,0.0 14.09264,42.17383,0.0 14.09273,42.17388,0.0 14.09283,42.17395,0.0 14.09302,42.17413,0.0 14.09311,42.17418,0.0 14.09322,42.17426,0.0 14.09403,42.17451,0.0 14.09437,42.17468,0.0 14.09454,42.17475,0.0 14.09474,42.17481,0.0 14.09497,42.17483,0.0 14.09501,42.17484,0.0 14.09511,42.17483,0.0 14.0952,42.17483,0.0 14.09529,42.1748,0.0 14.09562,42.17474,0.0 14.09574,42.17469,0.0 14.09584,42.17466,0.0 14.09607,42.17455,0.0 14.09631,42.1744,0.0 14.09646,42.17433,0.0 14.0968,42.17422,0.0 14.09698,42.17422,0.0 14.09725,42.17427,0.0 14.09732,42.17427,0.0 14.09741,42.17428,0.0 14.09748,42.17428,0.0 14.09756,42.17427,0.0 14.09762,42.17427,0.0 14.09796,42.1742,0.0 14.09805,42.17417,0.0 14.09818,42.17414,0.0 14.09877,42.17395,0.0 14.09936,42.17379,0.0 14.09943,42.17375,0.0 14.09973,42.17362,0.0 14.10006,42.17345,0.0 14.10039,42.17336,0.0 14.1008,42.1733,0.0 14.10139,42.17326,0.0 14.10245,42.17314,0.0 14.10282,42.17303,0.0 14.10493,42.17217,0.0 14.10577,42.17171,0.0 14.10587,42.17169,0.0 14.10853,42.17141,0.0 14.10907,42.17125,0.0 14.10941,42.17112,0.0 14.1103,42.17083,0.0 14.11073,42.17074,0.0 14.11231,42.17064,0.0 14.11382,42.17032,0.0 14.11414,42.17033,0.0 14.11533,42.17057,0.0 14.11557,42.17065,0.0 14.11577,42.17076,0.0 14.11648,42.1712,0.0 14.11655,42.17103,0.0 14.11668,42.17086,0.0 14.11678,42.1708,0.0 14.11998,42.16919,0.0 14.12064,42.16871,0.0 14.12092,42.16848,0.0 14.12099,42.16844,0.0</coordinates>
            </LineString>
        </Placemark>
        <Placemark>
            <styleUrl>#icon-503-DB4436</styleUrl>
            <name>Start</name>
            <ExtendedData>
            </ExtendedData>
            <description><![CDATA[]]></description>
            <Point>
                <coordinates>14.77615,41.97692,0.0</coordinates>
            </Point>
        </Placemark>
        <Placemark>
            <styleUrl>#icon-503-DB4436</styleUrl>
            <name>Finish</name>
            <ExtendedData>
            </ExtendedData>
            <description><![CDATA[]]></description>
            <Point>
                <coordinates>14.12099,42.16844,0.0</coordinates>
            </Point>
        </Placemark>
        <Style id='line-1267FF-5'>
            <LineStyle>
                <color>ffFF6712</color>
                <width>5</width>
            </LineStyle>
        </Style>
    </Document>
</kml>