<?xml version="1.0"?>
<gpx creator="GPS Visualizer http://www.gpsvisualizer.com/" version="1.1" xmlns="http://www.topografix.com/GPX/1/1" xmlns:xsi="http://www.w3.org/2001/XMLSchema-instance" xsi:schemaLocation="http://www.topografix.com/GPX/1/1 http://www.topografix.com/GPX/1/1/gpx.xsd">

  <trk>
    <name>008 Balma Boves</name>

    <trkseg>
      <trkpt lat="44.664803836494684" lon="7.299721352756023">
        <ele>553.379999999999995</ele>
              </trkpt>
      <trkpt lat="44.66482462361455" lon="7.299882285296917">
        <ele>551.92999999999995</ele>
              </trkpt>
      <trkpt lat="44.664956638589501" lon="7.300074063241482">
        <ele>550.970000000000027</ele>
              </trkpt>
      <trkpt lat="44.665089240297675" lon="7.300309762358665">
        <ele>549.049999999999955</ele>
              </trkpt>
      <trkpt lat="44.665225865319371" lon="7.300581000745296">
        <ele>546.649999999999977</ele>
              </trkpt>
      <trkpt lat="44.66534212231636" lon="7.300867242738605">
        <ele>544.240000000000009</ele>
              </trkpt>
      <trkpt lat="44.665499031543732" lon="7.301098499447107">
        <ele>541.840000000000032</ele>
              </trkpt>
      <trkpt lat="44.665707740932703" lon="7.301097242161632">
        <ele>538.480000000000018</ele>
              </trkpt>
      <trkpt lat="44.665892729535699" lon="7.301081484183669">
        <ele>536.07000000000005</ele>
              </trkpt>
      <trkpt lat="44.666137816384435" lon="7.301187347620726">
        <ele>534.149999999999977</ele>
              </trkpt>
      <trkpt lat="44.666361613199115" lon="7.301405193284154">
        <ele>532.230000000000018</ele>
              </trkpt>
      <trkpt lat="44.6665851585567" lon="7.301635695621371">
        <ele>530.789999999999964</ele>
              </trkpt>
      <trkpt lat="44.666731590405107" lon="7.30179201811552">
        <ele>530.299999999999955</ele>
              </trkpt>
      <trkpt lat="44.666875172406435" lon="7.301946831867099">
        <ele>529.82000000000005</ele>
              </trkpt>
      <trkpt lat="44.667079523205757" lon="7.302163420245051">
        <ele>529.340000000000032</ele>
              </trkpt>
      <trkpt lat="44.667267445474863" lon="7.302354359999299">
        <ele>529.340000000000032</ele>
              </trkpt>
      <trkpt lat="44.667489985004067" lon="7.302582180127501">
        <ele>529.340000000000032</ele>
              </trkpt>
      <trkpt lat="44.66763767413795" lon="7.302739508450031">
        <ele>529.82000000000005</ele>
              </trkpt>
      <trkpt lat="44.667816543951631" lon="7.302930280566216">
        <ele>529.82000000000005</ele>
              </trkpt>
      <trkpt lat="44.667992061004043" lon="7.303110240027308">
        <ele>529.82000000000005</ele>
              </trkpt>
      <trkpt lat="44.66816246509552" lon="7.303294725716114">
        <ele>529.340000000000032</ele>
              </trkpt>
      <trkpt lat="44.66813312843442" lon="7.303535118699074">
        <ele>527.419999999999959</ele>
              </trkpt>
      <trkpt lat="44.668138241395354" lon="7.303850194439292">
        <ele>524.059999999999945</ele>
              </trkpt>
      <trkpt lat="44.668165566399693" lon="7.304142974317074">
        <ele>522.610000000000014</ele>
              </trkpt>
      <trkpt lat="44.66814779676497" lon="7.30443793348968">
        <ele>523.090000000000032</ele>
              </trkpt>
      <trkpt lat="44.668215103447437" lon="7.304673716425896">
        <ele>523.580000000000041</ele>
              </trkpt>
      <trkpt lat="44.668322894722223" lon="7.304881839081645">
        <ele>523.580000000000041</ele>
              </trkpt>
      <trkpt lat="44.668438984081149" lon="7.305136816576123">
        <ele>524.059999999999945</ele>
              </trkpt>
      <trkpt lat="44.668627744540572" lon="7.305589355528355">
        <ele>524.059999999999945</ele>
              </trkpt>
      <trkpt lat="44.668525317683816" lon="7.305718185380101">
        <ele>524.059999999999945</ele>
              </trkpt>
      <trkpt lat="44.668407635763288" lon="7.305772248655558">
        <ele>524.539999999999964</ele>
              </trkpt>
      <trkpt lat="44.668350219726562" lon="7.305832263082266">
        <ele>525.980000000000018</ele>
              </trkpt>
      <trkpt lat="44.668278805911541" lon="7.30623216368258">
        <ele>525.980000000000018</ele>
              </trkpt>
      <trkpt lat="44.667857447639108" lon="7.30668755248189">
        <ele>525.980000000000018</ele>
              </trkpt>
      <trkpt lat="44.6679821703583" lon="7.306987959891558">
        <ele>531.75</ele>
              </trkpt>
      <trkpt lat="44.667900279164314" lon="7.307860096916556">
        <ele>531.75</ele>
              </trkpt>
      <trkpt lat="44.66798116452992" lon="7.308073081076145">
        <ele>530.299999999999955</ele>
              </trkpt>
      <trkpt lat="44.667875887826085" lon="7.30825019069016">
        <ele>534.629999999999995</ele>
              </trkpt>
      <trkpt lat="44.667433826252818" lon="7.307611741125584">
        <ele>576.92999999999995</ele>
              </trkpt>
      <trkpt lat="44.667196199297905" lon="7.307562036439776">
        <ele>593.269999999999982</ele>
              </trkpt>
      <trkpt lat="44.666725723072886" lon="7.307977275922894">
        <ele>595.190000000000055</ele>
              </trkpt>
      <trkpt lat="44.666360523551702" lon="7.308446075767279">
        <ele>594.230000000000018</ele>
              </trkpt>
      <trkpt lat="44.666051231324673" lon="7.308707758784294">
        <ele>583.17999999999995</ele>
              </trkpt>
      <trkpt lat="44.666055422276258" lon="7.308897273615003">
        <ele>622.590000000000032</ele>
              </trkpt>
      <trkpt lat="44.666296821087599" lon="7.308909092098475">
        <ele>639.409999999999968</ele>
              </trkpt>
      <trkpt lat="44.666163381189108" lon="7.309609316289425">
        <ele>647.590000000000032</ele>
              </trkpt>
      <trkpt lat="44.666332947090268" lon="7.309380071237683">
        <ele>653.830000000000041</ele>
              </trkpt>
      <trkpt lat="44.666500752791762" lon="7.309501525014639">
        <ele>654.799999999999955</ele>
              </trkpt>
      <trkpt lat="44.666483402252197" lon="7.309664888307452">
        <ele>656.240000000000009</ele>
              </trkpt>
      <trkpt lat="44.666518019512296" lon="7.309886757284403">
        <ele>658.159999999999968</ele>
              </trkpt>
      <trkpt lat="44.666652800515294" lon="7.310058083385229">
        <ele>661.519999999999982</ele>
              </trkpt>
      <trkpt lat="44.666558587923646" lon="7.310412218794227">
        <ele>658.639999999999986</ele>
              </trkpt>
      <trkpt lat="44.666353818029165" lon="7.310459828004241">
        <ele>644.700000000000045</ele>
              </trkpt>
      <trkpt lat="44.6660032030195" lon="7.311005825176835">
        <ele>661.519999999999982</ele>
              </trkpt>
      <trkpt lat="44.665769767016172" lon="7.311621475964785">
        <ele>672.580000000000041</ele>
              </trkpt>
      <trkpt lat="44.66572274453938" lon="7.312795948237181">
        <ele>648.07000000000005</ele>
              </trkpt>
      <trkpt lat="44.665853753685951" lon="7.312989654019475">
        <ele>643.259999999999991</ele>
              </trkpt>
      <trkpt lat="44.665900273248553" lon="7.313045980408788">
        <ele>662.970000000000027</ele>
              </trkpt>
      <trkpt lat="44.666042849421501" lon="7.313185120001435">
        <ele>663.450000000000045</ele>
              </trkpt>
    </trkseg>
  </trk>

</gpx>
