<?xml version="1.0"?>
<gpx creator="GPS Visualizer http://www.gpsvisualizer.com/" version="1.1" xmlns="http://www.topografix.com/GPX/1/1" xmlns:xsi="http://www.w3.org/2001/XMLSchema-instance" xsi:schemaLocation="http://www.topografix.com/GPX/1/1 http://www.topografix.com/GPX/1/1/gpx.xsd">

  <trk>
    <name>CAAR-FVG1 003 Venzone-Udine</name>
    <desc>From http://www.italy-cycling-guide.info/</desc>
 
    <trkseg>
      <trkpt lat="46.333435904234648" lon="13.139144433662295">
        <ele>242</ele>
      </trkpt>
      <trkpt lat="46.333309756591916" lon="13.139054076746106">
        <ele>242</ele>
      </trkpt>
      <trkpt lat="46.333019491285086" lon="13.139053992927074">
        <ele>241</ele>
      </trkpt>
      <trkpt lat="46.332732578739524" lon="13.139317268505692">
        <ele>242</ele>
      </trkpt>
      <trkpt lat="46.332585895434022" lon="13.1393738463521">
        <ele>242</ele>
      </trkpt>
      <trkpt lat="46.332323206588626" lon="13.139336965978146">
        <ele>241</ele>
      </trkpt>
      <trkpt lat="46.332202591001987" lon="13.139251386746764">
        <ele>241</ele>
      </trkpt>
      <trkpt lat="46.331898495554924" lon="13.138755932450294">
        <ele>241</ele>
      </trkpt>
      <trkpt lat="46.331641087308526" lon="13.139191204681993">
        <ele>241</ele>
      </trkpt>
      <trkpt lat="46.331574283540249" lon="13.139660591259599">
        <ele>242</ele>
      </trkpt>
      <trkpt lat="46.330854194238782" lon="13.13964894041419">
        <ele>243</ele>
      </trkpt>
      <trkpt lat="46.330270981416106" lon="13.139348197728395">
        <ele>242</ele>
      </trkpt>
      <trkpt lat="46.330168219283223" lon="13.139200676232576">
        <ele>242</ele>
      </trkpt>
      <trkpt lat="46.330088591203094" lon="13.138760626316071">
        <ele>241</ele>
      </trkpt>
      <trkpt lat="46.32924260571599" lon="13.13721994869411">
        <ele>239</ele>
      </trkpt>
      <trkpt lat="46.32925333455205" lon="13.136788196861744">
        <ele>238</ele>
      </trkpt>
      <trkpt lat="46.32939507253468" lon="13.136306572705507">
        <ele>237</ele>
      </trkpt>
      <trkpt lat="46.329857669770718" lon="13.135547926649451">
        <ele>236</ele>
      </trkpt>
      <trkpt lat="46.329919109120965" lon="13.135291691869497">
        <ele>235</ele>
      </trkpt>
      <trkpt lat="46.32970386184752" lon="13.134794058278203">
        <ele>235</ele>
      </trkpt>
      <trkpt lat="46.328917136415839" lon="13.134249988943338">
        <ele>233</ele>
      </trkpt>
      <trkpt lat="46.329105645418167" lon="13.133763168007135">
        <ele>232</ele>
      </trkpt>
      <trkpt lat="46.329288454726338" lon="13.133623609319329">
        <ele>232</ele>
      </trkpt>
      <trkpt lat="46.329335058107972" lon="13.132466906681657">
        <ele>230</ele>
      </trkpt>
      <trkpt lat="46.329177226871252" lon="13.132309829816222">
        <ele>230</ele>
      </trkpt>
      <trkpt lat="46.327859591692686" lon="13.131684958934784">
        <ele>226</ele>
      </trkpt>
      <trkpt lat="46.327269170433283" lon="13.131503406912088">
        <ele>225</ele>
      </trkpt>
      <trkpt lat="46.326891565695405" lon="13.131310371682048">
        <ele>225</ele>
      </trkpt>
      <trkpt lat="46.32656735368073" lon="13.131000492721796">
        <ele>225</ele>
      </trkpt>
      <trkpt lat="46.326144067570567" lon="13.130388278514147">
        <ele>225</ele>
      </trkpt>
      <trkpt lat="46.325827902182937" lon="13.130035819485784">
        <ele>225</ele>
      </trkpt>
      <trkpt lat="46.323623713105917" lon="13.128464547917247">
        <ele>225</ele>
      </trkpt>
      <trkpt lat="46.323414165526628" lon="13.12834451906383">
        <ele>225</ele>
      </trkpt>
      <trkpt lat="46.323187099769711" lon="13.128303699195385">
        <ele>225</ele>
      </trkpt>
      <trkpt lat="46.321158930659294" lon="13.128288444131613">
        <ele>225</ele>
      </trkpt>
      <trkpt lat="46.3210170250386" lon="13.128567393869162">
        <ele>225</ele>
      </trkpt>
      <trkpt lat="46.321187345311046" lon="13.129115821793675">
        <ele>225</ele>
      </trkpt>
      <trkpt lat="46.321093467995524" lon="13.129711858928204">
        <ele>225</ele>
      </trkpt>
      <trkpt lat="46.320917196571827" lon="13.130250731483102">
        <ele>225</ele>
      </trkpt>
      <trkpt lat="46.320921052247286" lon="13.130447203293443">
        <ele>225</ele>
      </trkpt>
      <trkpt lat="46.319649601355195" lon="13.130074460059404">
        <ele>225</ele>
      </trkpt>
      <trkpt lat="46.319260764867067" lon="13.129963902756572">
        <ele>225</ele>
      </trkpt>
      <trkpt lat="46.318925321102142" lon="13.1298294570297">
        <ele>225</ele>
      </trkpt>
      <trkpt lat="46.318032648414373" lon="13.129457635805011">
        <ele>225</ele>
      </trkpt>
      <trkpt lat="46.315221861004829" lon="13.127981415018439">
        <ele>225</ele>
      </trkpt>
      <trkpt lat="46.314220977947116" lon="13.127591153606772">
        <ele>225</ele>
      </trkpt>
      <trkpt lat="46.313449088484049" lon="13.127506161108613">
        <ele>225</ele>
      </trkpt>
      <trkpt lat="46.309569859877229" lon="13.127757282927632">
        <ele>225</ele>
      </trkpt>
      <trkpt lat="46.308595882728696" lon="13.127564331516623">
        <ele>228</ele>
      </trkpt>
      <trkpt lat="46.307775126770139" lon="13.127141045406461">
        <ele>233</ele>
      </trkpt>
      <trkpt lat="46.307207923382521" lon="13.126625223085284">
        <ele>236</ele>
      </trkpt>
      <trkpt lat="46.306591015309095" lon="13.125644288957119">
        <ele>229</ele>
      </trkpt>
      <trkpt lat="46.306244088336825" lon="13.125324016436934">
        <ele>237</ele>
      </trkpt>
      <trkpt lat="46.304981941357255" lon="13.122998708859086">
        <ele>230</ele>
      </trkpt>
      <trkpt lat="46.304638870060444" lon="13.122551199048758">
        <ele>228</ele>
      </trkpt>
      <trkpt lat="46.304031852632761" lon="13.121937476098537">
        <ele>227</ele>
      </trkpt>
      <trkpt lat="46.303635472431779" lon="13.121635224670172">
        <ele>225</ele>
      </trkpt>
      <trkpt lat="46.30270910449326" lon="13.121202969923615">
        <ele>225</ele>
      </trkpt>
      <trkpt lat="46.30192045122385" lon="13.121034326031804">
        <ele>225</ele>
      </trkpt>
      <trkpt lat="46.299649374559522" lon="13.120707599446177">
        <ele>225</ele>
      </trkpt>
      <trkpt lat="46.299432702362537" lon="13.120530070737004">
        <ele>224</ele>
      </trkpt>
      <trkpt lat="46.299329940229654" lon="13.1206891592592">
        <ele>224</ele>
      </trkpt>
      <trkpt lat="46.299443850293756" lon="13.120876243337989">
        <ele>224</ele>
      </trkpt>
      <trkpt lat="46.29941183142364" lon="13.121388042345643">
        <ele>225</ele>
      </trkpt>
      <trkpt lat="46.299226675182581" lon="13.121599853038788">
        <ele>225</ele>
      </trkpt>
      <trkpt lat="46.299169845879078" lon="13.121865894645452">
        <ele>225</ele>
      </trkpt>
      <trkpt lat="46.29979488439858" lon="13.122234363108873">
        <ele>225</ele>
      </trkpt>
      <trkpt lat="46.300173243507743" lon="13.122971802949905">
        <ele>225</ele>
      </trkpt>
      <trkpt lat="46.300357980653644" lon="13.123092083260417">
        <ele>225</ele>
      </trkpt>
      <trkpt lat="46.300572222098708" lon="13.123109266161919">
        <ele>225</ele>
      </trkpt>
      <trkpt lat="46.300745643675327" lon="13.123249914497137">
        <ele>225</ele>
      </trkpt>
      <trkpt lat="46.300749247893691" lon="13.123587872833014">
        <ele>225</ele>
      </trkpt>
      <trkpt lat="46.300256140530109" lon="13.124577859416604">
        <ele>225</ele>
      </trkpt>
      <trkpt lat="46.29994198679924" lon="13.125030063092709">
        <ele>226</ele>
      </trkpt>
      <trkpt lat="46.299722213298082" lon="13.125205999240279">
        <ele>227</ele>
      </trkpt>
      <trkpt lat="46.298657292500138" lon="13.125396268442273">
        <ele>222</ele>
      </trkpt>
      <trkpt lat="46.298155216500163" lon="13.125945618376136">
        <ele>225</ele>
      </trkpt>
      <trkpt lat="46.297735534608364" lon="13.126026084646583">
        <ele>227</ele>
      </trkpt>
      <trkpt lat="46.297532105818391" lon="13.126007560640574">
        <ele>226</ele>
      </trkpt>
      <trkpt lat="46.297183418646455" lon="13.125644037500024">
        <ele>228</ele>
      </trkpt>
      <trkpt lat="46.296730125322938" lon="13.124927971512079">
        <ele>223</ele>
      </trkpt>
      <trkpt lat="46.296410690993071" lon="13.124048290774226">
        <ele>227</ele>
      </trkpt>
      <trkpt lat="46.296087736263871" lon="13.123599104583263">
        <ele>231</ele>
      </trkpt>
      <trkpt lat="46.295424979180098" lon="13.122853618115187">
        <ele>237</ele>
      </trkpt>
      <trkpt lat="46.29482994787395" lon="13.121868493035436">
        <ele>227</ele>
      </trkpt>
      <trkpt lat="46.294510681182146" lon="13.121574791148305">
        <ele>226</ele>
      </trkpt>
      <trkpt lat="46.29384633153677" lon="13.121483009308577">
        <ele>226</ele>
      </trkpt>
      <trkpt lat="46.29345397464931" lon="13.121314030140638">
        <ele>226</ele>
      </trkpt>
      <trkpt lat="46.293400414288044" lon="13.121162485331297">
        <ele>226</ele>
      </trkpt>
      <trkpt lat="46.293025072664022" lon="13.121239179745317">
        <ele>225</ele>
      </trkpt>
      <trkpt lat="46.292902026325464" lon="13.1214006152004">
        <ele>225</ele>
      </trkpt>
      <trkpt lat="46.292313449084759" lon="13.122902819886804">
        <ele>225</ele>
      </trkpt>
      <trkpt lat="46.290114708244801" lon="13.123734053224325">
        <ele>213</ele>
      </trkpt>
      <trkpt lat="46.289904238656163" lon="13.123704046010971">
        <ele>212</ele>
      </trkpt>
      <trkpt lat="46.289634592831135" lon="13.123496007174253">
        <ele>211</ele>
      </trkpt>
      <trkpt lat="46.2892771884799" lon="13.12271598726511">
        <ele>210</ele>
      </trkpt>
      <trkpt lat="46.289143580943346" lon="13.122619763016701">
        <ele>209</ele>
      </trkpt>
      <trkpt lat="46.288609150797129" lon="13.12304824590683">
        <ele>206</ele>
      </trkpt>
      <trkpt lat="46.287948070093989" lon="13.1234728731215">
        <ele>203</ele>
      </trkpt>
      <trkpt lat="46.287155309692025" lon="13.123893644660711">
        <ele>200</ele>
      </trkpt>
      <trkpt lat="46.286380654200912" lon="13.124191788956523">
        <ele>200</ele>
      </trkpt>
      <trkpt lat="46.286694640293717" lon="13.122868705540895">
        <ele>200</ele>
      </trkpt>
      <trkpt lat="46.286705872043967" lon="13.122601239010692">
        <ele>200</ele>
      </trkpt>
      <trkpt lat="46.286552818492055" lon="13.122447347268462">
        <ele>200</ele>
      </trkpt>
      <trkpt lat="46.279012877494097" lon="13.126117279753089">
        <ele>199</ele>
      </trkpt>
      <trkpt lat="46.278988569974899" lon="13.12453418970108">
        <ele>198</ele>
      </trkpt>
      <trkpt lat="46.279071634635329" lon="13.123987186700106">
        <ele>198</ele>
      </trkpt>
      <trkpt lat="46.279297862201929" lon="13.123186128214002">
        <ele>198</ele>
      </trkpt>
      <trkpt lat="46.278384737670422" lon="13.121181176975369">
        <ele>197</ele>
      </trkpt>
      <trkpt lat="46.277525592595339" lon="13.11952767893672">
        <ele>197</ele>
      </trkpt>
      <trkpt lat="46.277025109156966" lon="13.117791954427958">
        <ele>196</ele>
      </trkpt>
      <trkpt lat="46.276805000379682" lon="13.117253668606281">
        <ele>196</ele>
      </trkpt>
      <trkpt lat="46.276552453637123" lon="13.116742959246039">
        <ele>196</ele>
      </trkpt>
      <trkpt lat="46.275506224483252" lon="13.115179482847452">
        <ele>195</ele>
      </trkpt>
      <trkpt lat="46.275220988318324" lon="13.114108107984066">
        <ele>195</ele>
      </trkpt>
      <trkpt lat="46.274936506524682" lon="13.113647438585758">
        <ele>195</ele>
      </trkpt>
      <trkpt lat="46.274630147963762" lon="13.113475861027837">
        <ele>195</ele>
      </trkpt>
      <trkpt lat="46.274389084428549" lon="13.11353956349194">
        <ele>194</ele>
      </trkpt>
      <trkpt lat="46.273983651772141" lon="13.113536378368735">
        <ele>194</ele>
      </trkpt>
      <trkpt lat="46.273789694532752" lon="13.113433783873916">
        <ele>194</ele>
      </trkpt>
      <trkpt lat="46.27364301122725" lon="13.113213088363409">
        <ele>194</ele>
      </trkpt>
      <trkpt lat="46.273518623784184" lon="13.112284624949098">
        <ele>194</ele>
      </trkpt>
      <trkpt lat="46.2733244150877" lon="13.108744276687503">
        <ele>194</ele>
      </trkpt>
      <trkpt lat="46.273343022912741" lon="13.108164416626096">
        <ele>195</ele>
      </trkpt>
      <trkpt lat="46.271494226530194" lon="13.101204503327608">
        <ele>193</ele>
      </trkpt>
      <trkpt lat="46.271118633449078" lon="13.100259527564049">
        <ele>193</ele>
      </trkpt>
      <trkpt lat="46.270895255729556" lon="13.099150601774454">
        <ele>193</ele>
      </trkpt>
      <trkpt lat="46.269894540309906" lon="13.091637566685677">
        <ele>194</ele>
      </trkpt>
      <trkpt lat="46.269659679383039" lon="13.091176897287369">
        <ele>195</ele>
      </trkpt>
      <trkpt lat="46.269199680536985" lon="13.090622099116445">
        <ele>196</ele>
      </trkpt>
      <trkpt lat="46.268873708322644" lon="13.088357141241431">
        <ele>197</ele>
      </trkpt>
      <trkpt lat="46.268972028046846" lon="13.087537055835128">
        <ele>197</ele>
      </trkpt>
      <trkpt lat="46.268978398293257" lon="13.086990304291248">
        <ele>197</ele>
      </trkpt>
      <trkpt lat="46.268867589533329" lon="13.08681252412498">
        <ele>197</ele>
      </trkpt>
      <trkpt lat="46.268587550148368" lon="13.086419496685266">
        <ele>197</ele>
      </trkpt>
      <trkpt lat="46.26856617629528" lon="13.085953127592802">
        <ele>197</ele>
      </trkpt>
      <trkpt lat="46.26836434006691" lon="13.08549958281219">
        <ele>197</ele>
      </trkpt>
      <trkpt lat="46.266892729327083" lon="13.083880953490734">
        <ele>197</ele>
      </trkpt>
      <trkpt lat="46.266723498702049" lon="13.083527656272054">
        <ele>197</ele>
      </trkpt>
      <trkpt lat="46.266649067401886" lon="13.082727855071425">
        <ele>197</ele>
      </trkpt>
      <trkpt lat="46.266860542818904" lon="13.081548940390348">
        <ele>194</ele>
      </trkpt>
      <trkpt lat="46.266866493970156" lon="13.081338386982679">
        <ele>194</ele>
      </trkpt>
      <trkpt lat="46.265402594581246" lon="13.079738281667233">
        <ele>199</ele>
      </trkpt>
      <trkpt lat="46.261998787522316" lon="13.077035117894411">
        <ele>200</ele>
      </trkpt>
      <trkpt lat="46.261590672656894" lon="13.076840490102768">
        <ele>199</ele>
      </trkpt>
      <trkpt lat="46.260641254484653" lon="13.076230371370912">
        <ele>199</ele>
      </trkpt>
      <trkpt lat="46.260444363579154" lon="13.076205980032682">
        <ele>199</ele>
      </trkpt>
      <trkpt lat="46.260050917044282" lon="13.076280578970909">
        <ele>199</ele>
      </trkpt>
      <trkpt lat="46.259454879909754" lon="13.076173374429345">
        <ele>199</ele>
      </trkpt>
      <trkpt lat="46.259144330397248" lon="13.076332043856382">
        <ele>199</ele>
      </trkpt>
      <trkpt lat="46.258706459775567" lon="13.077931813895702">
        <ele>199</ele>
      </trkpt>
      <trkpt lat="46.257918057963252" lon="13.078920543193817">
        <ele>198</ele>
      </trkpt>
      <trkpt lat="46.257735919207335" lon="13.079032357782125">
        <ele>198</ele>
      </trkpt>
      <trkpt lat="46.257065450772643" lon="13.079116512089968">
        <ele>197</ele>
      </trkpt>
      <trkpt lat="46.257229149341583" lon="13.079876583069563">
        <ele>199</ele>
      </trkpt>
      <trkpt lat="46.256426414474845" lon="13.081584144383669">
        <ele>199</ele>
      </trkpt>
      <trkpt lat="46.256230697035789" lon="13.081790171563625">
        <ele>199</ele>
      </trkpt>
      <trkpt lat="46.254547527059913" lon="13.080967487767339">
        <ele>195</ele>
      </trkpt>
      <trkpt lat="46.254243347793818" lon="13.080643443390727">
        <ele>194</ele>
      </trkpt>
      <trkpt lat="46.253830287605524" lon="13.079878930002451">
        <ele>193</ele>
      </trkpt>
      <trkpt lat="46.253649322316051" lon="13.079854622483253">
        <ele>192</ele>
      </trkpt>
      <trkpt lat="46.253622164949775" lon="13.079779269173741">
        <ele>192</ele>
      </trkpt>
      <trkpt lat="46.253393003717065" lon="13.078415533527732">
        <ele>190</ele>
      </trkpt>
      <trkpt lat="46.252868296578526" lon="13.076866725459695">
        <ele>188</ele>
      </trkpt>
      <trkpt lat="46.252863770350814" lon="13.076280076056719">
        <ele>187</ele>
      </trkpt>
      <trkpt lat="46.252680961042643" lon="13.075471557676792">
        <ele>187</ele>
      </trkpt>
      <trkpt lat="46.25257283449173" lon="13.074617693200707">
        <ele>187</ele>
      </trkpt>
      <trkpt lat="46.25224401243031" lon="13.073877403512597">
        <ele>188</ele>
      </trkpt>
      <trkpt lat="46.252080732956529" lon="13.072150060907006">
        <ele>190</ele>
      </trkpt>
      <trkpt lat="46.25201728194952" lon="13.06979357264936">
        <ele>194</ele>
      </trkpt>
      <trkpt lat="46.251829778775573" lon="13.068982288241386">
        <ele>195</ele>
      </trkpt>
      <trkpt lat="46.251718299463391" lon="13.06876796297729">
        <ele>195</ele>
      </trkpt>
      <trkpt lat="46.251397859305143" lon="13.068330259993672">
        <ele>195</ele>
      </trkpt>
      <trkpt lat="46.251293420791626" lon="13.066930482164025">
        <ele>194</ele>
      </trkpt>
      <trkpt lat="46.251544961705804" lon="13.064654627814889">
        <ele>186</ele>
      </trkpt>
      <trkpt lat="46.251327032223344" lon="13.062103344127536">
        <ele>183</ele>
      </trkpt>
      <trkpt lat="46.251217313110828" lon="13.061832441017032">
        <ele>183</ele>
      </trkpt>
      <trkpt lat="46.237314166501164" lon="13.051793687045574">
        <ele>175</ele>
      </trkpt>
      <trkpt lat="46.236857352778316" lon="13.051614733412862">
        <ele>175</ele>
      </trkpt>
      <trkpt lat="46.232588365674019" lon="13.050546711310744">
        <ele>175</ele>
      </trkpt>
      <trkpt lat="46.232366748154163" lon="13.050623405724764">
        <ele>175</ele>
      </trkpt>
      <trkpt lat="46.232234565541148" lon="13.050826750695705">
        <ele>175</ele>
      </trkpt>
      <trkpt lat="46.230612667277455" lon="13.054538257420063">
        <ele>175</ele>
      </trkpt>
      <trkpt lat="46.227184971794486" lon="13.05112162604928">
        <ele>175</ele>
      </trkpt>
      <trkpt lat="46.226259106770158" lon="13.050284693017602">
        <ele>175</ele>
      </trkpt>
      <trkpt lat="46.225332403555512" lon="13.049678262323141">
        <ele>173</ele>
      </trkpt>
      <trkpt lat="46.222227914258838" lon="13.047872046008706">
        <ele>164</ele>
      </trkpt>
      <trkpt lat="46.221847794950008" lon="13.04769585840404">
        <ele>163</ele>
      </trkpt>
      <trkpt lat="46.221620226278901" lon="13.047675993293524">
        <ele>163</ele>
      </trkpt>
      <trkpt lat="46.221202556043863" lon="13.047902304679155">
        <ele>162</ele>
      </trkpt>
      <trkpt lat="46.221144217997789" lon="13.048238670453429">
        <ele>162</ele>
      </trkpt>
      <trkpt lat="46.221155449748039" lon="13.048542933538556">
        <ele>162</ele>
      </trkpt>
      <trkpt lat="46.221301378682256" lon="13.048842502757907">
        <ele>162</ele>
      </trkpt>
      <trkpt lat="46.222301675006747" lon="13.049714220687747">
        <ele>165</ele>
      </trkpt>
      <trkpt lat="46.222013588994741" lon="13.05180910974741">
        <ele>165</ele>
      </trkpt>
      <trkpt lat="46.221904456615448" lon="13.053317433223128">
        <ele>165</ele>
      </trkpt>
      <trkpt lat="46.221746122464538" lon="13.054459886625409">
        <ele>164</ele>
      </trkpt>
      <trkpt lat="46.221531210467219" lon="13.05659425444901">
        <ele>165</ele>
      </trkpt>
      <trkpt lat="46.221083952113986" lon="13.059642249718308">
        <ele>164</ele>
      </trkpt>
      <trkpt lat="46.221016645431519" lon="13.061814671382308">
        <ele>164</ele>
      </trkpt>
      <trkpt lat="46.222011996433139" lon="13.063953565433621">
        <ele>167</ele>
      </trkpt>
      <trkpt lat="46.221121251583099" lon="13.067805133759975">
        <ele>166</ele>
      </trkpt>
      <trkpt lat="46.221096524968743" lon="13.068093471229076">
        <ele>166</ele>
      </trkpt>
      <trkpt lat="46.222543325275183" lon="13.068772153928876">
        <ele>168</ele>
      </trkpt>
      <trkpt lat="46.223423676565289" lon="13.069262243807316">
        <ele>170</ele>
      </trkpt>
      <trkpt lat="46.223605060949922" lon="13.070279220119119">
        <ele>170</ele>
      </trkpt>
      <trkpt lat="46.223555942997336" lon="13.070868467912078">
        <ele>170</ele>
      </trkpt>
      <trkpt lat="46.223305994644761" lon="13.072285344824195">
        <ele>170</ele>
      </trkpt>
      <trkpt lat="46.223138105124235" lon="13.072843244299293">
        <ele>170</ele>
      </trkpt>
      <trkpt lat="46.221452420577407" lon="13.076662290841341">
        <ele>168</ele>
      </trkpt>
      <trkpt lat="46.221169196069241" lon="13.076386861503124">
        <ele>168</ele>
      </trkpt>
      <trkpt lat="46.220404766499996" lon="13.077926281839609">
        <ele>167</ele>
      </trkpt>
      <trkpt lat="46.218195632100105" lon="13.081024149432778">
        <ele>168</ele>
      </trkpt>
      <trkpt lat="46.218071328476071" lon="13.081258004531264">
        <ele>168</ele>
      </trkpt>
      <trkpt lat="46.217769999057055" lon="13.082401966676116">
        <ele>168</ele>
      </trkpt>
      <trkpt lat="46.216737348586321" lon="13.081792434677482">
        <ele>168</ele>
      </trkpt>
      <trkpt lat="46.216572979465127" lon="13.081674501299858">
        <ele>168</ele>
      </trkpt>
      <trkpt lat="46.216430487111211" lon="13.081466127187014">
        <ele>168</ele>
      </trkpt>
      <trkpt lat="46.216269722208381" lon="13.081455146893859">
        <ele>168</ele>
      </trkpt>
      <trkpt lat="46.216201074421406" lon="13.081699060276151">
        <ele>169</ele>
      </trkpt>
      <trkpt lat="46.216409951448441" lon="13.082837909460068">
        <ele>169</ele>
      </trkpt>
      <trkpt lat="46.216358738020062" lon="13.083459176123142">
        <ele>169</ele>
      </trkpt>
      <trkpt lat="46.215536389499903" lon="13.085053246468306">
        <ele>170</ele>
      </trkpt>
      <trkpt lat="46.215369924902916" lon="13.085570326074958">
        <ele>170</ele>
      </trkpt>
      <trkpt lat="46.215013694018126" lon="13.087062807753682">
        <ele>170</ele>
      </trkpt>
      <trkpt lat="46.214627036824822" lon="13.090092446655035">
        <ele>171</ele>
      </trkpt>
      <trkpt lat="46.214650170877576" lon="13.090025056153536">
        <ele>171</ele>
      </trkpt>
      <trkpt lat="46.215154174715281" lon="13.08997979387641">
        <ele>171</ele>
      </trkpt>
      <trkpt lat="46.215551560744643" lon="13.0897834058851">
        <ele>171</ele>
      </trkpt>
      <trkpt lat="46.215843418613076" lon="13.089950708672404">
        <ele>171</ele>
      </trkpt>
      <trkpt lat="46.215613251551986" lon="13.089986750856042">
        <ele>171</ele>
      </trkpt>
      <trkpt lat="46.215543011203408" lon="13.090111222118139">
        <ele>171</ele>
      </trkpt>
      <trkpt lat="46.215060213580728" lon="13.092155400663614">
        <ele>171</ele>
      </trkpt>
      <trkpt lat="46.214954350143671" lon="13.093008175492287">
        <ele>172</ele>
      </trkpt>
      <trkpt lat="46.215109750628471" lon="13.097407417371869">
        <ele>173</ele>
      </trkpt>
      <trkpt lat="46.214982764795423" lon="13.099515633657575">
        <ele>173</ele>
      </trkpt>
      <trkpt lat="46.215081671252847" lon="13.101823171600699">
        <ele>174</ele>
      </trkpt>
      <trkpt lat="46.215040516108274" lon="13.102147551253438">
        <ele>174</ele>
      </trkpt>
      <trkpt lat="46.214887462556362" lon="13.102130955085158">
        <ele>174</ele>
      </trkpt>
      <trkpt lat="46.213727071881294" lon="13.101600212976336">
        <ele>174</ele>
      </trkpt>
      <trkpt lat="46.213184678927064" lon="13.101447578519583">
        <ele>174</ele>
      </trkpt>
      <trkpt lat="46.21270464733243" lon="13.101618234068155">
        <ele>174</ele>
      </trkpt>
      <trkpt lat="46.212155884131789" lon="13.102512834593654">
        <ele>174</ele>
      </trkpt>
      <trkpt lat="46.210515042766929" lon="13.101444561034441">
        <ele>173</ele>
      </trkpt>
      <trkpt lat="46.210343297570944" lon="13.101394018158317">
        <ele>173</ele>
      </trkpt>
      <trkpt lat="46.208509085699916" lon="13.1055221054703">
        <ele>174</ele>
      </trkpt>
      <trkpt lat="46.207922520115972" lon="13.105329573154449">
        <ele>174</ele>
      </trkpt>
      <trkpt lat="46.207853704690933" lon="13.105552364140749">
        <ele>174</ele>
      </trkpt>
      <trkpt lat="46.207674164324999" lon="13.105719499289989">
        <ele>174</ele>
      </trkpt>
      <trkpt lat="46.20748708024621" lon="13.105726288631558">
        <ele>174</ele>
      </trkpt>
      <trkpt lat="46.207263534888625" lon="13.105822345241904">
        <ele>174</ele>
      </trkpt>
      <trkpt lat="46.207482637837529" lon="13.107201000675559">
        <ele>174</ele>
      </trkpt>
      <trkpt lat="46.207579616457224" lon="13.10749813914299">
        <ele>174</ele>
      </trkpt>
      <trkpt lat="46.207284908741713" lon="13.107421528548002">
        <ele>174</ele>
      </trkpt>
      <trkpt lat="46.207069745287299" lon="13.107483135536313">
        <ele>174</ele>
      </trkpt>
      <trkpt lat="46.206889869645238" lon="13.1079759914428">
        <ele>175</ele>
      </trkpt>
      <trkpt lat="46.206902358680964" lon="13.108252761885524">
        <ele>176</ele>
      </trkpt>
      <trkpt lat="46.206422913819551" lon="13.108489047735929">
        <ele>176</ele>
      </trkpt>
      <trkpt lat="46.206589797511697" lon="13.109581461176276">
        <ele>184</ele>
      </trkpt>
      <trkpt lat="46.205613641068339" lon="13.109693443402648">
        <ele>179</ele>
      </trkpt>
      <trkpt lat="46.205089017748833" lon="13.109824452549219">
        <ele>177</ele>
      </trkpt>
      <trkpt lat="46.204893048852682" lon="13.109635105356574">
        <ele>176</ele>
      </trkpt>
      <trkpt lat="46.204488035291433" lon="13.109883293509483">
        <ele>176</ele>
      </trkpt>
      <trkpt lat="46.204470852389932" lon="13.110598856583238">
        <ele>177</ele>
      </trkpt>
      <trkpt lat="46.204102886840701" lon="13.111927891150117">
        <ele>177</ele>
      </trkpt>
      <trkpt lat="46.203961735591292" lon="13.112789047881961">
        <ele>179</ele>
      </trkpt>
      <trkpt lat="46.203911444172263" lon="13.114963062107563">
        <ele>179</ele>
      </trkpt>
      <trkpt lat="46.203766940161586" lon="13.1163858063519">
        <ele>178</ele>
      </trkpt>
      <trkpt lat="46.203632997348905" lon="13.116533495485783">
        <ele>177</ele>
      </trkpt>
      <trkpt lat="46.202470846474171" lon="13.116676323115826">
        <ele>176</ele>
      </trkpt>
      <trkpt lat="46.202297089621425" lon="13.116764081642032">
        <ele>176</ele>
      </trkpt>
      <trkpt lat="46.20181554928422" lon="13.11722869053483">
        <ele>176</ele>
      </trkpt>
      <trkpt lat="46.201561829075217" lon="13.116973545402288">
        <ele>176</ele>
      </trkpt>
      <trkpt lat="46.201433753594756" lon="13.11717638745904">
        <ele>176</ele>
      </trkpt>
      <trkpt lat="46.201235689222813" lon="13.117197426036">
        <ele>176</ele>
      </trkpt>
      <trkpt lat="46.200905442237854" lon="13.11741434969008">
        <ele>176</ele>
      </trkpt>
      <trkpt lat="46.200931090861559" lon="13.117966800928116">
        <ele>176</ele>
      </trkpt>
      <trkpt lat="46.200808044523001" lon="13.119542179629207">
        <ele>175</ele>
      </trkpt>
      <trkpt lat="46.201346078887582" lon="13.120096726343036">
        <ele>175</ele>
      </trkpt>
      <trkpt lat="46.202384848147631" lon="13.121407236903906">
        <ele>175</ele>
      </trkpt>
      <trkpt lat="46.204002639278769" lon="13.122440557926893">
        <ele>180</ele>
      </trkpt>
      <trkpt lat="46.203797617927194" lon="13.122738869860768">
        <ele>180</ele>
      </trkpt>
      <trkpt lat="46.203740704804659" lon="13.123004995286465">
        <ele>180</ele>
      </trkpt>
      <trkpt lat="46.203832570463419" lon="13.123803036287427">
        <ele>183</ele>
      </trkpt>
      <trkpt lat="46.203517829999328" lon="13.124531004577875">
        <ele>185</ele>
      </trkpt>
      <trkpt lat="46.203422695398331" lon="13.125330889597535">
        <ele>188</ele>
      </trkpt>
      <trkpt lat="46.203058082610369" lon="13.12579725869">
        <ele>187</ele>
      </trkpt>
      <trkpt lat="46.202231040224433" lon="13.127105170860887">
        <ele>185</ele>
      </trkpt>
      <trkpt lat="46.201635506004095" lon="13.128543505445123">
        <ele>181</ele>
      </trkpt>
      <trkpt lat="46.201495360583067" lon="13.128762692213058">
        <ele>182</ele>
      </trkpt>
      <trkpt lat="46.200632024556398" lon="13.129513459280133">
        <ele>179</ele>
      </trkpt>
      <trkpt lat="46.19962066411972" lon="13.12991201877594">
        <ele>177</ele>
      </trkpt>
      <trkpt lat="46.197732724249363" lon="13.130425494164228">
        <ele>171</ele>
      </trkpt>
      <trkpt lat="46.197329722344875" lon="13.130871159955859">
        <ele>170</ele>
      </trkpt>
      <trkpt lat="46.19700794108212" lon="13.132338495925069">
        <ele>172</ele>
      </trkpt>
      <trkpt lat="46.196902329102159" lon="13.13259506598115">
        <ele>172</ele>
      </trkpt>
      <trkpt lat="46.195972859859467" lon="13.133661914616823">
        <ele>171</ele>
      </trkpt>
      <trkpt lat="46.195502048358321" lon="13.134302040562034">
        <ele>172</ele>
      </trkpt>
      <trkpt lat="46.195149756968021" lon="13.13463756814599">
        <ele>172</ele>
      </trkpt>
      <trkpt lat="46.194449029862881" lon="13.135051969438791">
        <ele>173</ele>
      </trkpt>
      <trkpt lat="46.193446638062596" lon="13.135251626372337">
        <ele>173</ele>
      </trkpt>
      <trkpt lat="46.192103773355484" lon="13.136722315102816">
        <ele>174</ele>
      </trkpt>
      <trkpt lat="46.191526176407933" lon="13.137258170172572">
        <ele>174</ele>
      </trkpt>
      <trkpt lat="46.190224383026361" lon="13.138164086267352">
        <ele>177</ele>
      </trkpt>
      <trkpt lat="46.189850047230721" lon="13.138810498639941">
        <ele>179</ele>
      </trkpt>
      <trkpt lat="46.188646154478192" lon="13.139778021723032">
        <ele>179</ele>
      </trkpt>
      <trkpt lat="46.188121028244495" lon="13.140016905963421">
        <ele>179</ele>
      </trkpt>
      <trkpt lat="46.187724312767386" lon="13.139999806880951">
        <ele>179</ele>
      </trkpt>
      <trkpt lat="46.187139507383108" lon="13.139745919033885">
        <ele>178</ele>
      </trkpt>
      <trkpt lat="46.186955608427525" lon="13.139744075015187">
        <ele>178</ele>
      </trkpt>
      <trkpt lat="46.186766847968102" lon="13.139816662296653">
        <ele>178</ele>
      </trkpt>
      <trkpt lat="46.186603819951415" lon="13.140014642849565">
        <ele>178</ele>
      </trkpt>
      <trkpt lat="46.186498710885644" lon="13.140280852094293">
        <ele>178</ele>
      </trkpt>
      <trkpt lat="46.186541877686977" lon="13.141252230852842">
        <ele>180</ele>
      </trkpt>
      <trkpt lat="46.186473397538066" lon="13.142680507153273">
        <ele>185</ele>
      </trkpt>
      <trkpt lat="46.186075760051608" lon="13.142777569591999">
        <ele>184</ele>
      </trkpt>
      <trkpt lat="46.185077894479036" lon="13.143298923969269">
        <ele>180</ele>
      </trkpt>
      <trkpt lat="46.18156579323113" lon="13.145971158519387">
        <ele>166</ele>
      </trkpt>
      <trkpt lat="46.181244850158691" lon="13.148167133331299">
        <ele>172</ele>
      </trkpt>
      <trkpt lat="46.181051731109619" lon="13.148617744445801">
        <ele>174</ele>
      </trkpt>
      <trkpt lat="46.180579662322998" lon="13.149282932281494">
        <ele>177</ele>
      </trkpt>
      <trkpt lat="46.180493831634521" lon="13.149518966674805">
        <ele>178</ele>
      </trkpt>
      <trkpt lat="46.180472373962402" lon="13.149905204772949">
        <ele>181</ele>
      </trkpt>
      <trkpt lat="46.18053674697876" lon="13.150012493133545">
        <ele>182</ele>
      </trkpt>
      <trkpt lat="46.180729866027832" lon="13.149969577789307">
        <ele>183</ele>
      </trkpt>
      <trkpt lat="46.181159019470215" lon="13.150291442871094">
        <ele>184</ele>
      </trkpt>
      <trkpt lat="46.181598398834467" lon="13.150343745946884">
        <ele>185</ele>
      </trkpt>
      <trkpt lat="46.181790763512254" lon="13.150445334613323">
        <ele>185</ele>
      </trkpt>
      <trkpt lat="46.182157471776009" lon="13.150807181373239">
        <ele>185</ele>
      </trkpt>
      <trkpt lat="46.182353273034096" lon="13.151315627619624">
        <ele>183</ele>
      </trkpt>
      <trkpt lat="46.182424519211054" lon="13.152790004387498">
        <ele>185</ele>
      </trkpt>
      <trkpt lat="46.182354697957635" lon="13.153145061805844">
        <ele>186</ele>
      </trkpt>
      <trkpt lat="46.182325445115566" lon="13.153948467224836">
        <ele>190</ele>
      </trkpt>
      <trkpt lat="46.182725764811039" lon="13.155533652752638">
        <ele>195</ele>
      </trkpt>
      <trkpt lat="46.182668097317219" lon="13.155820900574327">
        <ele>194</ele>
      </trkpt>
      <trkpt lat="46.181920599192381" lon="13.157183043658733">
        <ele>189</ele>
      </trkpt>
      <trkpt lat="46.181830912828445" lon="13.157454114407301">
        <ele>188</ele>
      </trkpt>
      <trkpt lat="46.181830745190382" lon="13.157721245661378">
        <ele>187</ele>
      </trkpt>
      <trkpt lat="46.181904589757323" lon="13.15795099362731">
        <ele>186</ele>
      </trkpt>
      <trkpt lat="46.182510768994689" lon="13.158782478421926">
        <ele>186</ele>
      </trkpt>
      <trkpt lat="46.182837914675474" lon="13.159540621563792">
        <ele>188</ele>
      </trkpt>
      <trkpt lat="46.182907484471798" lon="13.160104723647237">
        <ele>189</ele>
      </trkpt>
      <trkpt lat="46.18289583362639" lon="13.16120870411396">
        <ele>195</ele>
      </trkpt>
      <trkpt lat="46.1831284314394" lon="13.162275552749634">
        <ele>202</ele>
      </trkpt>
      <trkpt lat="46.183160953223705" lon="13.162726499140263">
        <ele>203</ele>
      </trkpt>
      <trkpt lat="46.182790054008365" lon="13.16269414499402">
        <ele>201</ele>
      </trkpt>
      <trkpt lat="46.182372635230422" lon="13.162831021472812">
        <ele>198</ele>
      </trkpt>
      <trkpt lat="46.180556025356054" lon="13.162946859374642">
        <ele>183</ele>
      </trkpt>
      <trkpt lat="46.179814729839563" lon="13.163189683109522">
        <ele>179</ele>
      </trkpt>
      <trkpt lat="46.179322628304362" lon="13.163181887939572">
        <ele>176</ele>
      </trkpt>
      <trkpt lat="46.179144512861967" lon="13.163378359749913">
        <ele>176</ele>
      </trkpt>
      <trkpt lat="46.179024064913392" lon="13.164588287472725">
        <ele>176</ele>
      </trkpt>
      <trkpt lat="46.178946197032928" lon="13.164782244712114">
        <ele>175</ele>
      </trkpt>
      <trkpt lat="46.178724747151136" lon="13.164889449253678">
        <ele>175</ele>
      </trkpt>
      <trkpt lat="46.177216758951545" lon="13.164925407618284">
        <ele>174</ele>
      </trkpt>
      <trkpt lat="46.175680691376328" lon="13.1653683912009">
        <ele>173</ele>
      </trkpt>
      <trkpt lat="46.174523904919624" lon="13.165565030649304">
        <ele>171</ele>
      </trkpt>
      <trkpt lat="46.174318045377731" lon="13.165555810555816">
        <ele>170</ele>
      </trkpt>
      <trkpt lat="46.173486979678273" lon="13.165289601311088">
        <ele>166</ele>
      </trkpt>
      <trkpt lat="46.172536304220557" lon="13.165191784501076">
        <ele>163</ele>
      </trkpt>
      <trkpt lat="46.171663077548146" lon="13.165343999862671">
        <ele>162</ele>
      </trkpt>
      <trkpt lat="46.171490242704749" lon="13.165455982089043">
        <ele>160</ele>
      </trkpt>
      <trkpt lat="46.171382619068027" lon="13.165743816643953">
        <ele>159</ele>
      </trkpt>
      <trkpt lat="46.171240210533142" lon="13.167687999084592">
        <ele>157</ele>
      </trkpt>
      <trkpt lat="46.170478127896786" lon="13.169663026928902">
        <ele>154</ele>
      </trkpt>
      <trkpt lat="46.170372096821666" lon="13.170187063515186">
        <ele>153</ele>
      </trkpt>
      <trkpt lat="46.170465303584933" lon="13.173094997182488">
        <ele>156</ele>
      </trkpt>
      <trkpt lat="46.170923542231321" lon="13.175771841779351">
        <ele>159</ele>
      </trkpt>
      <trkpt lat="46.170745091512799" lon="13.175823055207729">
        <ele>159</ele>
      </trkpt>
      <trkpt lat="46.169682936742902" lon="13.175833448767662">
        <ele>157</ele>
      </trkpt>
      <trkpt lat="46.169506749138236" lon="13.175771925598383">
        <ele>157</ele>
      </trkpt>
      <trkpt lat="46.168783893808722" lon="13.175142612308264">
        <ele>156</ele>
      </trkpt>
      <trkpt lat="46.167892059311271" lon="13.174009462818503">
        <ele>156</ele>
      </trkpt>
      <trkpt lat="46.167343966662884" lon="13.173628505319357">
        <ele>157</ele>
      </trkpt>
      <trkpt lat="46.166742062196136" lon="13.173509817570448">
        <ele>159</ele>
      </trkpt>
      <trkpt lat="46.166345262899995" lon="13.173563797026873">
        <ele>159</ele>
      </trkpt>
      <trkpt lat="46.165996911004186" lon="13.173708720132709">
        <ele>160</ele>
      </trkpt>
      <trkpt lat="46.162642389535904" lon="13.17564569413662">
        <ele>188</ele>
      </trkpt>
      <trkpt lat="46.162281464785337" lon="13.175914250314236">
        <ele>188</ele>
      </trkpt>
      <trkpt lat="46.161750219762325" lon="13.176741627976298">
        <ele>186</ele>
      </trkpt>
      <trkpt lat="46.16134487092495" lon="13.177247559651732">
        <ele>186</ele>
      </trkpt>
      <trkpt lat="46.160920662805438" lon="13.177980808541179">
        <ele>186</ele>
      </trkpt>
      <trkpt lat="46.160587817430496" lon="13.178285155445337">
        <ele>187</ele>
      </trkpt>
      <trkpt lat="46.160238962620497" lon="13.178481459617615">
        <ele>189</ele>
      </trkpt>
      <trkpt lat="46.159674692898989" lon="13.178552454337478">
        <ele>190</ele>
      </trkpt>
      <trkpt lat="46.158113144338131" lon="13.180215256288648">
        <ele>197</ele>
      </trkpt>
      <trkpt lat="46.15788783878088" lon="13.180664191022515">
        <ele>198</ele>
      </trkpt>
      <trkpt lat="46.157601680606604" lon="13.181002987548709">
        <ele>198</ele>
      </trkpt>
      <trkpt lat="46.156085897237062" lon="13.182233702391386">
        <ele>195</ele>
      </trkpt>
      <trkpt lat="46.156144486740232" lon="13.182622119784355">
        <ele>195</ele>
      </trkpt>
      <trkpt lat="46.156216152012348" lon="13.184659089893103">
        <ele>192</ele>
      </trkpt>
      <trkpt lat="46.156602976843715" lon="13.185508595779538">
        <ele>190</ele>
      </trkpt>
      <trkpt lat="46.156200142577291" lon="13.185922745615244">
        <ele>191</ele>
      </trkpt>
      <trkpt lat="46.156082209199667" lon="13.186162132769823">
        <ele>191</ele>
      </trkpt>
      <trkpt lat="46.155555490404367" lon="13.188242018222809">
        <ele>192</ele>
      </trkpt>
      <trkpt lat="46.155136814340949" lon="13.18914508447051">
        <ele>193</ele>
      </trkpt>
      <trkpt lat="46.154902875423431" lon="13.18959167227149">
        <ele>193</ele>
      </trkpt>
      <trkpt lat="46.154154120013118" lon="13.190698502585292">
        <ele>193</ele>
      </trkpt>
      <trkpt lat="46.1539685446769" lon="13.190871085971594">
        <ele>192</ele>
      </trkpt>
      <trkpt lat="46.153760086745024" lon="13.190945684909821">
        <ele>192</ele>
      </trkpt>
      <trkpt lat="46.153163462877274" lon="13.190937638282776">
        <ele>190</ele>
      </trkpt>
      <trkpt lat="46.152581758797169" lon="13.191070491448045">
        <ele>190</ele>
      </trkpt>
      <trkpt lat="46.151958899572492" lon="13.190990025177598">
        <ele>189</ele>
      </trkpt>
      <trkpt lat="46.151773072779179" lon="13.191092535853386">
        <ele>190</ele>
      </trkpt>
      <trkpt lat="46.151254568248987" lon="13.191888062283397">
        <ele>193</ele>
      </trkpt>
      <trkpt lat="46.150756599381566" lon="13.192297769710422">
        <ele>195</ele>
      </trkpt>
      <trkpt lat="46.150557277724147" lon="13.192354515194893">
        <ele>195</ele>
      </trkpt>
      <trkpt lat="46.150146145373583" lon="13.192264074459672">
        <ele>194</ele>
      </trkpt>
      <trkpt lat="46.1490538995713" lon="13.192346887663007">
        <ele>193</ele>
      </trkpt>
      <trkpt lat="46.148870168253779" lon="13.19242718629539">
        <ele>194</ele>
      </trkpt>
      <trkpt lat="46.148539837449789" lon="13.192689372226596">
        <ele>196</ele>
      </trkpt>
      <trkpt lat="46.148290643468499" lon="13.193123219534755">
        <ele>198</ele>
      </trkpt>
      <trkpt lat="46.147796614095569" lon="13.193568550050259">
        <ele>201</ele>
      </trkpt>
      <trkpt lat="46.147548006847501" lon="13.193976748734713">
        <ele>202</ele>
      </trkpt>
      <trkpt lat="46.147301075980067" lon="13.194232983514667">
        <ele>201</ele>
      </trkpt>
      <trkpt lat="46.147392019629478" lon="13.195234788581729">
        <ele>202</ele>
      </trkpt>
      <trkpt lat="46.147553119808435" lon="13.19606015458703">
        <ele>202</ele>
      </trkpt>
      <trkpt lat="46.147661916911602" lon="13.196284873411059">
        <ele>202</ele>
      </trkpt>
      <trkpt lat="46.147578684613109" lon="13.196823578327894">
        <ele>202</ele>
      </trkpt>
      <trkpt lat="46.14756896160543" lon="13.197636120021343">
        <ele>203</ele>
      </trkpt>
      <trkpt lat="46.147260507568717" lon="13.198742112144828">
        <ele>204</ele>
      </trkpt>
      <trkpt lat="46.147433258593082" lon="13.199382154271007">
        <ele>203</ele>
      </trkpt>
      <trkpt lat="46.147548090666533" lon="13.200889639556408">
        <ele>206</ele>
      </trkpt>
      <trkpt lat="46.147762667387724" lon="13.201968893408775">
        <ele>210</ele>
      </trkpt>
      <trkpt lat="46.147959642112255" lon="13.20248119533062">
        <ele>209</ele>
      </trkpt>
      <trkpt lat="46.148102134466171" lon="13.202675068750978">
        <ele>209</ele>
      </trkpt>
      <trkpt lat="46.148415198549628" lon="13.203047811985016">
        <ele>210</ele>
      </trkpt>
      <trkpt lat="46.148971505463123" lon="13.203445784747601">
        <ele>210</ele>
      </trkpt>
      <trkpt lat="46.149119362235069" lon="13.203656757250428">
        <ele>209</ele>
      </trkpt>
      <trkpt lat="46.149322539567947" lon="13.204182973131537">
        <ele>208</ele>
      </trkpt>
      <trkpt lat="46.149485064670444" lon="13.204356981441379">
        <ele>206</ele>
      </trkpt>
      <trkpt lat="46.149558322504163" lon="13.204588908702135">
        <ele>206</ele>
      </trkpt>
      <trkpt lat="46.14950736053288" lon="13.206284567713737">
        <ele>199</ele>
      </trkpt>
      <trkpt lat="46.149607188999653" lon="13.206381881609559">
        <ele>199</ele>
      </trkpt>
      <trkpt lat="46.149286916479468" lon="13.210475519299507">
        <ele>190</ele>
      </trkpt>
      <trkpt lat="46.149201672524214" lon="13.215333251282573">
        <ele>182</ele>
      </trkpt>
      <trkpt lat="46.145583037286997" lon="13.215120518580079">
        <ele>176</ele>
      </trkpt>
      <trkpt lat="46.142719862982631" lon="13.215110963210464">
        <ele>172</ele>
      </trkpt>
      <trkpt lat="46.140760593116283" lon="13.215436600148678">
        <ele>169</ele>
      </trkpt>
      <trkpt lat="46.140012927353382" lon="13.215650506317616">
        <ele>168</ele>
      </trkpt>
      <trkpt lat="46.138800904154778" lon="13.21567858569324">
        <ele>168</ele>
      </trkpt>
      <trkpt lat="46.138352137058973" lon="13.216197844594717">
        <ele>167</ele>
      </trkpt>
      <trkpt lat="46.138153402134776" lon="13.216337990015745">
        <ele>166</ele>
      </trkpt>
      <trkpt lat="46.13763271830976" lon="13.216571509838104">
        <ele>165</ele>
      </trkpt>
      <trkpt lat="46.137236505746841" lon="13.216673098504543">
        <ele>164</ele>
      </trkpt>
      <trkpt lat="46.132943378761411" lon="13.216086616739631">
        <ele>161</ele>
      </trkpt>
      <trkpt lat="46.132753947749734" lon="13.216114612296224">
        <ele>161</ele>
      </trkpt>
      <trkpt lat="46.132132345810533" lon="13.216048646718264">
        <ele>160</ele>
      </trkpt>
      <trkpt lat="46.131250904873013" lon="13.215863825753331">
        <ele>158</ele>
      </trkpt>
      <trkpt lat="46.129564130678773" lon="13.215128313750029">
        <ele>156</ele>
      </trkpt>
      <trkpt lat="46.129357935860753" lon="13.214890938252211">
        <ele>155</ele>
      </trkpt>
      <trkpt lat="46.129452316090465" lon="13.214696813374758">
        <ele>156</ele>
      </trkpt>
      <trkpt lat="46.129315188154578" lon="13.213337017223239">
        <ele>158</ele>
      </trkpt>
      <trkpt lat="46.129264058545232" lon="13.21155016310513">
        <ele>159</ele>
      </trkpt>
      <trkpt lat="46.12861798144877" lon="13.210952281951904">
        <ele>156</ele>
      </trkpt>
      <trkpt lat="46.128212967887521" lon="13.210865613073111">
        <ele>156</ele>
      </trkpt>
      <trkpt lat="46.127876099199057" lon="13.211003327742219">
        <ele>155</ele>
      </trkpt>
      <trkpt lat="46.127624390646815" lon="13.211275907233357">
        <ele>154</ele>
      </trkpt>
      <trkpt lat="46.127361031249166" lon="13.210771484300494">
        <ele>154</ele>
      </trkpt>
      <trkpt lat="46.126642534509301" lon="13.209660882130265">
        <ele>153</ele>
      </trkpt>
      <trkpt lat="46.126309856772423" lon="13.20929953828454">
        <ele>153</ele>
      </trkpt>
      <trkpt lat="46.126055885106325" lon="13.208838617429137">
        <ele>152</ele>
      </trkpt>
      <trkpt lat="46.12580643966794" lon="13.208551621064544">
        <ele>152</ele>
      </trkpt>
      <trkpt lat="46.123727727681398" lon="13.209133073687553">
        <ele>148</ele>
      </trkpt>
      <trkpt lat="46.12337158061564" lon="13.209459967911243">
        <ele>147</ele>
      </trkpt>
      <trkpt lat="46.122428365051746" lon="13.21065841242671">
        <ele>146</ele>
      </trkpt>
      <trkpt lat="46.122058387845755" lon="13.210962004959583">
        <ele>145</ele>
      </trkpt>
      <trkpt lat="46.121661504730582" lon="13.211157135665417">
        <ele>145</ele>
      </trkpt>
      <trkpt lat="46.121247773990035" lon="13.211266938596964">
        <ele>144</ele>
      </trkpt>
      <trkpt lat="46.120011024177074" lon="13.211501883342862">
        <ele>141</ele>
      </trkpt>
      <trkpt lat="46.119823604822159" lon="13.211445137858391">
        <ele>140</ele>
      </trkpt>
      <trkpt lat="46.119979005306959" lon="13.211584612727165">
        <ele>142</ele>
      </trkpt>
      <trkpt lat="46.119849504902959" lon="13.211630042642355">
        <ele>141</ele>
      </trkpt>
      <trkpt lat="46.119014918804169" lon="13.211233830079436">
        <ele>138</ele>
      </trkpt>
      <trkpt lat="46.117834998294711" lon="13.210877934470773">
        <ele>138</ele>
      </trkpt>
      <trkpt lat="46.115870196372271" lon="13.210986983031034">
        <ele>139</ele>
      </trkpt>
      <trkpt lat="46.113757370039821" lon="13.211290072649717">
        <ele>138</ele>
      </trkpt>
      <trkpt lat="46.113477665930986" lon="13.211266184225678">
        <ele>138</ele>
      </trkpt>
      <trkpt lat="46.112626735121012" lon="13.211846966296434">
        <ele>138</ele>
      </trkpt>
      <trkpt lat="46.112515507265925" lon="13.212059531360865">
        <ele>138</ele>
      </trkpt>
      <trkpt lat="46.112539144232869" lon="13.212160114198923">
        <ele>139</ele>
      </trkpt>
      <trkpt lat="46.112399334087968" lon="13.212314760312438">
        <ele>139</ele>
      </trkpt>
      <trkpt lat="46.11227142624557" lon="13.212102195248008">
        <ele>138</ele>
      </trkpt>
      <trkpt lat="46.111911591142416" lon="13.21238424628973">
        <ele>138</ele>
      </trkpt>
      <trkpt lat="46.111084464937449" lon="13.212542412802577">
        <ele>137</ele>
      </trkpt>
      <trkpt lat="46.109172301366925" lon="13.213496608659625">
        <ele>133</ele>
      </trkpt>
      <trkpt lat="46.109012709930539" lon="13.213419076055288">
        <ele>133</ele>
      </trkpt>
      <trkpt lat="46.108865775167942" lon="13.21356039494276">
        <ele>133</ele>
      </trkpt>
      <trkpt lat="46.105518881231546" lon="13.21537071838975">
        <ele>134</ele>
      </trkpt>
      <trkpt lat="46.104334937408566" lon="13.216091142967343">
        <ele>132</ele>
      </trkpt>
      <trkpt lat="46.103892875835299" lon="13.214885992929339">
        <ele>132</ele>
      </trkpt>
      <trkpt lat="46.103235818445683" lon="13.212414253503084">
        <ele>132</ele>
      </trkpt>
      <trkpt lat="46.102557135745883" lon="13.212735364213586">
        <ele>130</ele>
      </trkpt>
      <trkpt lat="46.102464348077774" lon="13.212318532168865">
        <ele>130</ele>
      </trkpt>
      <trkpt lat="46.101169846951962" lon="13.211413789540529">
        <ele>130</ele>
      </trkpt>
      <trkpt lat="46.101078232750297" lon="13.211295185610652">
        <ele>130</ele>
      </trkpt>
      <trkpt lat="46.101082675158978" lon="13.209262741729617">
        <ele>129</ele>
      </trkpt>
      <trkpt lat="46.100646313279867" lon="13.208951018750668">
        <ele>129</ele>
      </trkpt>
      <trkpt lat="46.100227301940322" lon="13.208754882216454">
        <ele>128</ele>
      </trkpt>
      <trkpt lat="46.09737703576684" lon="13.207726255059242">
        <ele>128</ele>
      </trkpt>
      <trkpt lat="46.096838666126132" lon="13.207464823499322">
        <ele>126</ele>
      </trkpt>
      <trkpt lat="46.095887655392289" lon="13.206774238497019">
        <ele>125</ele>
      </trkpt>
      <trkpt lat="46.095548439770937" lon="13.206368470564485">
        <ele>124</ele>
      </trkpt>
      <trkpt lat="46.09531064517796" lon="13.205938478931785">
        <ele>123</ele>
      </trkpt>
      <trkpt lat="46.09524711035192" lon="13.205712754279375">
        <ele>123</ele>
      </trkpt>
      <trkpt lat="46.094726342707872" lon="13.201991440728307">
        <ele>124</ele>
      </trkpt>
      <trkpt lat="46.094582844525576" lon="13.20142624899745">
        <ele>124</ele>
      </trkpt>
      <trkpt lat="46.094104992225766" lon="13.200161503627896">
        <ele>124</ele>
      </trkpt>
      <trkpt lat="46.093956464901567" lon="13.199972491711378">
        <ele>124</ele>
      </trkpt>
      <trkpt lat="46.093605682253838" lon="13.199775936082006">
        <ele>124</ele>
      </trkpt>
      <trkpt lat="46.093119867146015" lon="13.199696308001876">
        <ele>124</ele>
      </trkpt>
      <trkpt lat="46.093289349228144" lon="13.199591198936105">
        <ele>124</ele>
      </trkpt>
      <trkpt lat="46.09367374330759" lon="13.198998179286718">
        <ele>122</ele>
      </trkpt>
      <trkpt lat="46.093768458813429" lon="13.198416978120804">
        <ele>120</ele>
      </trkpt>
      <trkpt lat="46.093758568167686" lon="13.197010662406683">
        <ele>119</ele>
      </trkpt>
      <trkpt lat="46.09224840067327" lon="13.196279341354966">
        <ele>120</ele>
      </trkpt>
      <trkpt lat="46.091214912012219" lon="13.195884302258492">
        <ele>120</ele>
      </trkpt>
      <trkpt lat="46.091187335550785" lon="13.196014557033777">
        <ele>120</ele>
      </trkpt>
      <trkpt lat="46.091130170971155" lon="13.195971054956317">
        <ele>120</ele>
      </trkpt>
      <trkpt lat="46.091597545892" lon="13.19419551640749">
        <ele>117</ele>
      </trkpt>
      <trkpt lat="46.091908263042569" lon="13.193731410428882">
        <ele>117</ele>
      </trkpt>
      <trkpt lat="46.091722771525383" lon="13.19341323338449">
        <ele>117</ele>
      </trkpt>
      <trkpt lat="46.089957458898425" lon="13.192539755254984">
        <ele>118</ele>
      </trkpt>
      <trkpt lat="46.089775068685412" lon="13.192667663097382">
        <ele>118</ele>
      </trkpt>
      <trkpt lat="46.089636599645019" lon="13.192677218466997">
        <ele>118</ele>
      </trkpt>
      <trkpt lat="46.088772341609001" lon="13.191819079220295">
        <ele>117</ele>
      </trkpt>
      <trkpt lat="46.088318293914199" lon="13.191188760101795">
        <ele>116</ele>
      </trkpt>
      <trkpt lat="46.088143950328231" lon="13.191115586087108">
        <ele>116</ele>
      </trkpt>
      <trkpt lat="46.087885536253452" lon="13.19122270680964">
        <ele>116</ele>
      </trkpt>
      <trkpt lat="46.087674396112561" lon="13.191112987697124">
        <ele>115</ele>
      </trkpt>
      <trkpt lat="46.087343394756317" lon="13.190832696855068">
        <ele>115</ele>
      </trkpt>
      <trkpt lat="46.086687343195081" lon="13.19011252373457">
        <ele>116</ele>
      </trkpt>
      <trkpt lat="46.086552646011114" lon="13.189926696941257">
        <ele>116</ele>
      </trkpt>
      <trkpt lat="46.086546024307609" lon="13.189615728333592">
        <ele>116</ele>
      </trkpt>
      <trkpt lat="46.085944706574082" lon="13.188770832493901">
        <ele>115</ele>
      </trkpt>
      <trkpt lat="46.085595013573766" lon="13.18843899294734">
        <ele>114</ele>
      </trkpt>
      <trkpt lat="46.085478253662586" lon="13.188245287165046">
        <ele>114</ele>
      </trkpt>
      <trkpt lat="46.085261665284634" lon="13.188186949118972">
        <ele>114</ele>
      </trkpt>
      <trkpt lat="46.084392964839935" lon="13.189372485503554">
        <ele>115</ele>
      </trkpt>
      <trkpt lat="46.083239950239658" lon="13.18932437337935">
        <ele>115</ele>
      </trkpt>
      <trkpt lat="46.083188150078058" lon="13.190738148987293">
        <ele>117</ele>
      </trkpt>
      <trkpt lat="46.083014979958534" lon="13.192046312615275">
        <ele>116</ele>
      </trkpt>
      <trkpt lat="46.083064349368215" lon="13.192179752513766">
        <ele>116</ele>
      </trkpt>
      <trkpt lat="46.083932798355818" lon="13.192483512684703">
        <ele>116</ele>
      </trkpt>
      <trkpt lat="46.08408342115581" lon="13.192698759958148">
        <ele>116</ele>
      </trkpt>
      <trkpt lat="46.084033465012908" lon="13.192978715524077">
        <ele>115</ele>
      </trkpt>
      <trkpt lat="46.083546308800578" lon="13.194286040961742">
        <ele>114</ele>
      </trkpt>
      <trkpt lat="46.083548907190561" lon="13.195089530199766">
        <ele>114</ele>
      </trkpt>
      <trkpt lat="46.083354195579886" lon="13.195542236790061">
        <ele>113</ele>
      </trkpt>
      <trkpt lat="46.083160238340497" lon="13.196364250034094">
        <ele>112</ele>
      </trkpt>
      <trkpt lat="46.08326593413949" lon="13.196960454806685">
        <ele>112</ele>
      </trkpt>
      <trkpt lat="46.083257300779223" lon="13.197239069268107">
        <ele>112</ele>
      </trkpt>
      <trkpt lat="46.083358805626631" lon="13.197475438937545">
        <ele>112</ele>
      </trkpt>
      <trkpt lat="46.083539938554168" lon="13.19766822271049">
        <ele>112</ele>
      </trkpt>
      <trkpt lat="46.083608334884048" lon="13.197875758633018">
        <ele>112</ele>
      </trkpt>
      <trkpt lat="46.083530634641647" lon="13.198472466319799">
        <ele>111</ele>
      </trkpt>
      <trkpt lat="46.083599282428622" lon="13.198715625330806">
        <ele>112</ele>
      </trkpt>
      <trkpt lat="46.083519486710429" lon="13.199259359389544">
        <ele>113</ele>
      </trkpt>
      <trkpt lat="46.08362065628171" lon="13.200637679547071">
        <ele>117</ele>
      </trkpt>
      <trkpt lat="46.083754934370518" lon="13.201524987816811">
        <ele>118</ele>
      </trkpt>
      <trkpt lat="46.083847805857658" lon="13.20348140783608">
        <ele>119</ele>
      </trkpt>
      <trkpt lat="46.083911675959826" lon="13.203625744208694">
        <ele>119</ele>
      </trkpt>
      <trkpt lat="46.083528120070696" lon="13.204170148819685">
        <ele>118</ele>
      </trkpt>
      <trkpt lat="46.083175744861364" lon="13.204527385532856">
        <ele>118</ele>
      </trkpt>
      <trkpt lat="46.082794703543186" lon="13.204807844012976">
        <ele>117</ele>
      </trkpt>
      <trkpt lat="46.082401508465409" lon="13.205014709383249">
        <ele>117</ele>
      </trkpt>
      <trkpt lat="46.082003451883793" lon="13.205055948346853">
        <ele>116</ele>
      </trkpt>
      <trkpt lat="46.081666834652424" lon="13.204973386600614">
        <ele>115</ele>
      </trkpt>
      <trkpt lat="46.081028468906879" lon="13.205304723232985">
        <ele>118</ele>
      </trkpt>
      <trkpt lat="46.080737365409732" lon="13.205602196976542">
        <ele>118</ele>
      </trkpt>
      <trkpt lat="46.080805258825421" lon="13.205910818651319">
        <ele>118</ele>
      </trkpt>
      <trkpt lat="46.079055285081267" lon="13.209145730361342">
        <ele>115</ele>
      </trkpt>
      <trkpt lat="46.077786851674318" lon="13.20781166665256">
        <ele>114</ele>
      </trkpt>
      <trkpt lat="46.076665688306093" lon="13.209826927632093">
        <ele>113</ele>
      </trkpt>
      <trkpt lat="46.076474161818624" lon="13.209656607359648">
        <ele>115</ele>
      </trkpt>
      <trkpt lat="46.075687268748879" lon="13.210582556203008">
        <ele>114</ele>
      </trkpt>
      <trkpt lat="46.075510075315833" lon="13.210686994716525">
        <ele>115</ele>
      </trkpt>
      <trkpt lat="46.073838220909238" lon="13.214027434587479">
        <ele>114</ele>
      </trkpt>
      <trkpt lat="46.07363898307085" lon="13.214570330455899">
        <ele>115</ele>
      </trkpt>
      <trkpt lat="46.073135901242495" lon="13.214801335707307">
        <ele>115</ele>
      </trkpt>
      <trkpt lat="46.072970693930984" lon="13.214947180822492">
        <ele>115</ele>
      </trkpt>
      <trkpt lat="46.072564842179418" lon="13.215976059436798">
        <ele>115</ele>
      </trkpt>
      <trkpt lat="46.072549587115645" lon="13.21623807772994">
        <ele>114</ele>
      </trkpt>
      <trkpt lat="46.072370801120996" lon="13.216648623347282">
        <ele>114</ele>
      </trkpt>
      <trkpt lat="46.072739772498608" lon="13.216990772634745">
        <ele>114</ele>
      </trkpt>
      <trkpt lat="46.07125055976212" lon="13.220199784263968">
        <ele>116</ele>
      </trkpt>
      <trkpt lat="46.071064816787839" lon="13.220570515841246">
        <ele>115</ele>
      </trkpt>
      <trkpt lat="46.070793997496367" lon="13.221170492470264">
        <ele>115</ele>
      </trkpt>
      <trkpt lat="46.071578459814191" lon="13.221982782706618">
        <ele>114</ele>
      </trkpt>
      <trkpt lat="46.07271010056138" lon="13.224139362573624">
        <ele>117</ele>
      </trkpt>
      <trkpt lat="46.0725864674896" lon="13.224498024210334">
        <ele>116</ele>
      </trkpt>
      <trkpt lat="46.071887081488967" lon="13.225977765396237">
        <ele>113</ele>
      </trkpt>
      <trkpt lat="46.071201274171472" lon="13.227070262655616">
        <ele>114</ele>
      </trkpt>
      <trkpt lat="46.070586210116744" lon="13.227921947836876">
        <ele>113</ele>
      </trkpt>
      <trkpt lat="46.070259651169181" lon="13.228088580071926">
        <ele>114</ele>
      </trkpt>
      <trkpt lat="46.070246156305075" lon="13.228214727714658">
        <ele>115</ele>
      </trkpt>
      <trkpt lat="46.069979360327125" lon="13.228597026318312">
        <ele>115</ele>
      </trkpt>
      <trkpt lat="46.070034597069025" lon="13.228799868375063">
        <ele>115</ele>
      </trkpt>
      <trkpt lat="46.069933846592903" lon="13.228924842551351">
        <ele>115</ele>
      </trkpt>
      <trkpt lat="46.06956772506237" lon="13.229237152263522">
        <ele>114</ele>
      </trkpt>
      <trkpt lat="46.068436838686466" lon="13.229966042563319">
        <ele>114</ele>
      </trkpt>
      <trkpt lat="46.067920261994004" lon="13.230110546573997">
        <ele>114</ele>
      </trkpt>
      <trkpt lat="46.067788666114211" lon="13.230158239603043">
        <ele>114</ele>
      </trkpt>
      <trkpt lat="46.067055417224765" lon="13.230681521818042">
        <ele>116</ele>
      </trkpt>
      <trkpt lat="46.066460721194744" lon="13.231310164555907">
        <ele>117</ele>
      </trkpt>
      <trkpt lat="46.065100086852908" lon="13.231815006583929">
        <ele>119</ele>
      </trkpt>
      <trkpt lat="46.064597759395838" lon="13.231948781758547">
        <ele>119</ele>
      </trkpt>
      <trkpt lat="46.064248234033585" lon="13.232165453955531">
        <ele>118</ele>
      </trkpt>
      <trkpt lat="46.063750265166163" lon="13.232134860008955">
        <ele>117</ele>
      </trkpt>
      <trkpt lat="46.062373789027333" lon="13.232294032350183">
        <ele>115</ele>
      </trkpt>
      <trkpt lat="46.061928207054734" lon="13.232551775872707">
        <ele>115</ele>
      </trkpt>
      <trkpt lat="46.061794683337212" lon="13.232937678694725">
        <ele>115</ele>
      </trkpt>
      <trkpt lat="46.061812955886126" lon="13.233752315863967">
        <ele>117</ele>
      </trkpt>
      <trkpt lat="46.062645446509123" lon="13.235101383179426">
        <ele>117</ele>
      </trkpt>
      <trkpt lat="46.063074683770537" lon="13.23571334592998">
        <ele>117</ele>
      </trkpt>
      <trkpt lat="46.063173674046993" lon="13.235736899077892">
        <ele>117</ele>
      </trkpt>
      <trkpt lat="46.063259923830628" lon="13.235933873802423">
        <ele>117</ele>
      </trkpt>
    </trkseg>
  </trk>

</gpx>
