<?xml version="1.0"?>
<gpx creator="GPS Visualizer http://www.gpsvisualizer.com/" version="1.1" xmlns="http://www.topografix.com/GPX/1/1" xmlns:xsi="http://www.w3.org/2001/XMLSchema-instance" xsi:schemaLocation="http://www.topografix.com/GPX/1/1 http://www.topografix.com/GPX/1/1/gpx.xsd">

  <trk>
    <name>CAAR-FVG1 001 Villach-Tarvisio</name>
    <desc>From http://www.italy-cycling-guide.info/</desc>
   
    <trkseg>
      <trkpt lat="46.603177115321159" lon="13.874191828072071">
        <ele>487</ele>
      </trkpt>
      <trkpt lat="46.603023894131184" lon="13.874088395386934">
        <ele>488</ele>
      </trkpt>
      <trkpt lat="46.602866062894464" lon="13.873872812837362">
        <ele>488</ele>
      </trkpt>
      <trkpt lat="46.594733688980341" lon="13.860337799414992">
        <ele>492</ele>
      </trkpt>
      <trkpt lat="46.593956518918276" lon="13.858376098796725">
        <ele>493</ele>
      </trkpt>
      <trkpt lat="46.593755353242159" lon="13.857552241533995">
        <ele>493</ele>
      </trkpt>
      <trkpt lat="46.593543794006109" lon="13.856301158666611">
        <ele>493</ele>
      </trkpt>
      <trkpt lat="46.593320332467556" lon="13.855805033817887">
        <ele>491</ele>
      </trkpt>
      <trkpt lat="46.593189239501953" lon="13.854857794940472">
        <ele>491</ele>
      </trkpt>
      <trkpt lat="46.593000562861562" lon="13.854276677593589">
        <ele>491</ele>
      </trkpt>
      <trkpt lat="46.592615246772766" lon="13.853473858907819">
        <ele>492</ele>
      </trkpt>
      <trkpt lat="46.590389683842659" lon="13.849847428500652">
        <ele>492</ele>
      </trkpt>
      <trkpt lat="46.589619470760226" lon="13.848869344219565">
        <ele>493</ele>
      </trkpt>
      <trkpt lat="46.589188389480114" lon="13.84844982996583">
        <ele>494</ele>
      </trkpt>
      <trkpt lat="46.588646750897169" lon="13.848039032891393">
        <ele>493</ele>
      </trkpt>
      <trkpt lat="46.587627092376351" lon="13.847559839487076">
        <ele>493</ele>
      </trkpt>
      <trkpt lat="46.586266541853547" lon="13.847327576950192">
        <ele>495</ele>
      </trkpt>
      <trkpt lat="46.585678970441222" lon="13.846988864243031">
        <ele>496</ele>
      </trkpt>
      <trkpt lat="46.585209416225553" lon="13.846599943935871">
        <ele>496</ele>
      </trkpt>
      <trkpt lat="46.584721086546779" lon="13.846061239019036">
        <ele>498</ele>
      </trkpt>
      <trkpt lat="46.58408054150641" lon="13.844912080094218">
        <ele>498</ele>
      </trkpt>
      <trkpt lat="46.583660189062357" lon="13.844830691814423">
        <ele>498</ele>
      </trkpt>
      <trkpt lat="46.583579806610942" lon="13.844299027696252">
        <ele>498</ele>
      </trkpt>
      <trkpt lat="46.583683155477047" lon="13.84208201430738">
        <ele>500</ele>
      </trkpt>
      <trkpt lat="46.583603108301759" lon="13.841704912483692">
        <ele>501</ele>
      </trkpt>
      <trkpt lat="46.583601431921124" lon="13.840991109609604">
        <ele>502</ele>
      </trkpt>
      <trkpt lat="46.583403367549181" lon="13.840012522414327">
        <ele>501</ele>
      </trkpt>
      <trkpt lat="46.582967676222324" lon="13.839252786710858">
        <ele>501</ele>
      </trkpt>
      <trkpt lat="46.582518490031362" lon="13.838634034618735">
        <ele>502</ele>
      </trkpt>
      <trkpt lat="46.581212170422077" lon="13.837810680270195">
        <ele>498</ele>
      </trkpt>
      <trkpt lat="46.580948894843459" lon="13.837695932015777">
        <ele>497</ele>
      </trkpt>
      <trkpt lat="46.580104334279895" lon="13.837682520970702">
        <ele>496</ele>
      </trkpt>
      <trkpt lat="46.57946010120213" lon="13.837737170979381">
        <ele>496</ele>
      </trkpt>
      <trkpt lat="46.578928185626864" lon="13.837881172075868">
        <ele>496</ele>
      </trkpt>
      <trkpt lat="46.578329717740417" lon="13.83813246153295">
        <ele>495</ele>
      </trkpt>
      <trkpt lat="46.577838119119406" lon="13.838554574176669">
        <ele>497</ele>
      </trkpt>
      <trkpt lat="46.577348113059998" lon="13.839139631018043">
        <ele>500</ele>
      </trkpt>
      <trkpt lat="46.574585186317563" lon="13.842925233766437">
        <ele>501</ele>
      </trkpt>
      <trkpt lat="46.574199702590704" lon="13.843258749693632">
        <ele>500</ele>
      </trkpt>
      <trkpt lat="46.573554631322622" lon="13.843512469902635">
        <ele>500</ele>
      </trkpt>
      <trkpt lat="46.573038725182414" lon="13.843450360000134">
        <ele>501</ele>
      </trkpt>
      <trkpt lat="46.572680482640862" lon="13.84315699338913">
        <ele>502</ele>
      </trkpt>
      <trkpt lat="46.572296423837543" lon="13.842998072504997">
        <ele>502</ele>
      </trkpt>
      <trkpt lat="46.571360165253282" lon="13.841894678771496">
        <ele>502</ele>
      </trkpt>
      <trkpt lat="46.571257151663303" lon="13.841593852266669">
        <ele>502</ele>
      </trkpt>
      <trkpt lat="46.570982141420245" lon="13.839077604934573">
        <ele>510</ele>
      </trkpt>
      <trkpt lat="46.57095112837851" lon="13.838289035484195">
        <ele>515</ele>
      </trkpt>
      <trkpt lat="46.570859346538782" lon="13.837778996676207">
        <ele>513</ele>
      </trkpt>
      <trkpt lat="46.570812240242958" lon="13.836825639009476">
        <ele>515</ele>
      </trkpt>
      <trkpt lat="46.570623060688376" lon="13.835381269454956">
        <ele>509</ele>
      </trkpt>
      <trkpt lat="46.57035400159657" lon="13.831545459106565">
        <ele>506</ele>
      </trkpt>
      <trkpt lat="46.569970613345504" lon="13.827462717890739">
        <ele>514</ele>
      </trkpt>
      <trkpt lat="46.569846896454692" lon="13.824649918824434">
        <ele>513</ele>
      </trkpt>
      <trkpt lat="46.569658638909459" lon="13.82248017936945">
        <ele>510</ele>
      </trkpt>
      <trkpt lat="46.569638857617974" lon="13.821380473673344">
        <ele>511</ele>
      </trkpt>
      <trkpt lat="46.56949058175087" lon="13.820148250088096">
        <ele>510</ele>
      </trkpt>
      <trkpt lat="46.569288158789277" lon="13.816940747201443">
        <ele>508</ele>
      </trkpt>
      <trkpt lat="46.569320764392614" lon="13.814782742410898">
        <ele>507</ele>
      </trkpt>
      <trkpt lat="46.569427214562893" lon="13.813758138567209">
        <ele>507</ele>
      </trkpt>
      <trkpt lat="46.569560403004289" lon="13.813066212460399">
        <ele>507</ele>
      </trkpt>
      <trkpt lat="46.56949452124536" lon="13.81165461614728">
        <ele>506</ele>
      </trkpt>
      <trkpt lat="46.569368625059724" lon="13.811186822131276">
        <ele>505</ele>
      </trkpt>
      <trkpt lat="46.569357141852379" lon="13.81086403504014">
        <ele>506</ele>
      </trkpt>
      <trkpt lat="46.568919355049729" lon="13.809629799798131">
        <ele>505</ele>
      </trkpt>
      <trkpt lat="46.568494308739901" lon="13.807532396167517">
        <ele>504</ele>
      </trkpt>
      <trkpt lat="46.568488441407681" lon="13.806567303836346">
        <ele>504</ele>
      </trkpt>
      <trkpt lat="46.568633448332548" lon="13.804064970463514">
        <ele>505</ele>
      </trkpt>
      <trkpt lat="46.568487351760268" lon="13.800713215023279">
        <ele>506</ele>
      </trkpt>
      <trkpt lat="46.568467319011688" lon="13.799197766929865">
        <ele>506</ele>
      </trkpt>
      <trkpt lat="46.568670496344566" lon="13.798748999834061">
        <ele>506</ele>
      </trkpt>
      <trkpt lat="46.568482657894492" lon="13.797914581373334">
        <ele>507</ele>
      </trkpt>
      <trkpt lat="46.568462625145912" lon="13.797189211472869">
        <ele>507</ele>
      </trkpt>
      <trkpt lat="46.568488022312522" lon="13.796465937048197">
        <ele>507</ele>
      </trkpt>
      <trkpt lat="46.568705281242728" lon="13.795003043487668">
        <ele>509</ele>
      </trkpt>
      <trkpt lat="46.568594807758927" lon="13.794094864279032">
        <ele>509</ele>
      </trkpt>
      <trkpt lat="46.56839020550251" lon="13.793393382802606">
        <ele>509</ele>
      </trkpt>
      <trkpt lat="46.568422392010689" lon="13.792837243527174">
        <ele>509</ele>
      </trkpt>
      <trkpt lat="46.568380733951926" lon="13.79264060407877">
        <ele>509</ele>
      </trkpt>
      <trkpt lat="46.567759634926915" lon="13.791609881445765">
        <ele>508</ele>
      </trkpt>
      <trkpt lat="46.567281195893884" lon="13.791147451847792">
        <ele>508</ele>
      </trkpt>
      <trkpt lat="46.564927473664284" lon="13.789748176932335">
        <ele>509</ele>
      </trkpt>
      <trkpt lat="46.563780661672354" lon="13.789153899997473">
        <ele>509</ele>
      </trkpt>
      <trkpt lat="46.562971053645015" lon="13.788348399102688">
        <ele>509</ele>
      </trkpt>
      <trkpt lat="46.562662431970239" lon="13.787907846271992">
        <ele>509</ele>
      </trkpt>
      <trkpt lat="46.562171503901482" lon="13.786789868026972">
        <ele>509</ele>
      </trkpt>
      <trkpt lat="46.56185676343739" lon="13.78555647097528">
        <ele>510</ele>
      </trkpt>
      <trkpt lat="46.561735644936562" lon="13.784695314243436">
        <ele>510</ele>
      </trkpt>
      <trkpt lat="46.561285201460123" lon="13.782751886174083">
        <ele>510</ele>
      </trkpt>
      <trkpt lat="46.561070121824741" lon="13.78138312138617">
        <ele>511</ele>
      </trkpt>
      <trkpt lat="46.561029804870486" lon="13.780553732067347">
        <ele>511</ele>
      </trkpt>
      <trkpt lat="46.560377944260836" lon="13.780819270759821">
        <ele>510</ele>
      </trkpt>
      <trkpt lat="46.560099245980382" lon="13.780681220814586">
        <ele>510</ele>
      </trkpt>
      <trkpt lat="46.559406230226159" lon="13.780492544174194">
        <ele>511</ele>
      </trkpt>
      <trkpt lat="46.558705251663923" lon="13.780491035431623">
        <ele>512</ele>
      </trkpt>
      <trkpt lat="46.55786513350904" lon="13.780375365167856">
        <ele>513</ele>
      </trkpt>
      <trkpt lat="46.557218385860324" lon="13.780384082347155">
        <ele>514</ele>
      </trkpt>
      <trkpt lat="46.556075597181916" lon="13.780630761757493">
        <ele>516</ele>
      </trkpt>
      <trkpt lat="46.554872207343578" lon="13.781196121126413">
        <ele>518</ele>
      </trkpt>
      <trkpt lat="46.554566519334912" lon="13.781286058947444">
        <ele>519</ele>
      </trkpt>
      <trkpt lat="46.554379686713219" lon="13.781157229095697">
        <ele>519</ele>
      </trkpt>
      <trkpt lat="46.554280947893858" lon="13.780543254688382">
        <ele>519</ele>
      </trkpt>
      <trkpt lat="46.553440410643816" lon="13.780574603006244">
        <ele>520</ele>
      </trkpt>
      <trkpt lat="46.552179688587785" lon="13.780135978013277">
        <ele>522</ele>
      </trkpt>
      <trkpt lat="46.551967291161418" lon="13.780143354088068">
        <ele>523</ele>
      </trkpt>
      <trkpt lat="46.551066571846604" lon="13.780368575826287">
        <ele>529</ele>
      </trkpt>
      <trkpt lat="46.550899688154459" lon="13.779944954439998">
        <ele>529</ele>
      </trkpt>
      <trkpt lat="46.550640352070332" lon="13.779505658894777">
        <ele>530</ele>
      </trkpt>
      <trkpt lat="46.550316056236625" lon="13.778692446649075">
        <ele>530</ele>
      </trkpt>
      <trkpt lat="46.549996789544821" lon="13.777402555570006">
        <ele>530</ele>
      </trkpt>
      <trkpt lat="46.549910707399249" lon="13.776373844593763">
        <ele>530</ele>
      </trkpt>
      <trkpt lat="46.550312452018261" lon="13.771441429853439">
        <ele>531</ele>
      </trkpt>
      <trkpt lat="46.550409514456987" lon="13.769289460033178">
        <ele>536</ele>
      </trkpt>
      <trkpt lat="46.550355199724436" lon="13.768045250326395">
        <ele>534</ele>
      </trkpt>
      <trkpt lat="46.550144059583545" lon="13.766020853072405">
        <ele>530</ele>
      </trkpt>
      <trkpt lat="46.549555398523808" lon="13.763989750295877">
        <ele>531</ele>
      </trkpt>
      <trkpt lat="46.548527358099818" lon="13.761189272627234">
        <ele>540</ele>
      </trkpt>
      <trkpt lat="46.548130307346582" lon="13.75993475317955">
        <ele>540</ele>
      </trkpt>
      <trkpt lat="46.547735435888171" lon="13.758079251274467">
        <ele>541</ele>
      </trkpt>
      <trkpt lat="46.54757559299469" lon="13.756872843950987">
        <ele>542</ele>
      </trkpt>
      <trkpt lat="46.54753502458334" lon="13.755663251504302">
        <ele>545</ele>
      </trkpt>
      <trkpt lat="46.547651868313551" lon="13.75526050105691">
        <ele>546</ele>
      </trkpt>
      <trkpt lat="46.548308506608009" lon="13.753662575036287">
        <ele>548</ele>
      </trkpt>
      <trkpt lat="46.548482431098819" lon="13.752668900415301">
        <ele>549</ele>
      </trkpt>
      <trkpt lat="46.548580080270767" lon="13.750804681330919">
        <ele>552</ele>
      </trkpt>
      <trkpt lat="46.548621570691466" lon="13.745630029588938">
        <ele>562</ele>
      </trkpt>
      <trkpt lat="46.548601370304823" lon="13.745171036571264">
        <ele>564</ele>
      </trkpt>
      <trkpt lat="46.548374807462096" lon="13.743860358372331">
        <ele>566</ele>
      </trkpt>
      <trkpt lat="46.548355361446738" lon="13.740206435322762">
        <ele>573</ele>
      </trkpt>
      <trkpt lat="46.548094432801008" lon="13.738102745264769">
        <ele>575</ele>
      </trkpt>
      <trkpt lat="46.548055289313197" lon="13.736499371007085">
        <ele>575</ele>
      </trkpt>
      <trkpt lat="46.547846747562289" lon="13.73487051576376">
        <ele>575</ele>
      </trkpt>
      <trkpt lat="46.547643570229411" lon="13.733734767884016">
        <ele>576</ele>
      </trkpt>
      <trkpt lat="46.547500910237432" lon="13.732789205387235">
        <ele>573</ele>
      </trkpt>
      <trkpt lat="46.54744072817266" lon="13.727283300831914">
        <ele>570</ele>
      </trkpt>
      <trkpt lat="46.547616496682167" lon="13.726643174886703">
        <ele>574</ele>
      </trkpt>
      <trkpt lat="46.547975158318877" lon="13.72548739425838">
        <ele>580</ele>
      </trkpt>
      <trkpt lat="46.548097282648087" lon="13.724885322153568">
        <ele>579</ele>
      </trkpt>
      <trkpt lat="46.548287970945239" lon="13.721630126237869">
        <ele>571</ele>
      </trkpt>
      <trkpt lat="46.548239188268781" lon="13.719620229676366">
        <ele>573</ele>
      </trkpt>
      <trkpt lat="46.54843557626009" lon="13.716741884127259">
        <ele>573</ele>
      </trkpt>
      <trkpt lat="46.54961415566504" lon="13.708271887153387">
        <ele>573</ele>
      </trkpt>
      <trkpt lat="46.550138024613261" lon="13.701359499245882">
        <ele>564</ele>
      </trkpt>
      <trkpt lat="46.550370622426271" lon="13.697417071089149">
        <ele>562</ele>
      </trkpt>
      <trkpt lat="46.550314212217927" lon="13.696960844099522">
        <ele>561</ele>
      </trkpt>
      <trkpt lat="46.550314966589212" lon="13.696112427860498">
        <ele>560</ele>
      </trkpt>
      <trkpt lat="46.550173899158835" lon="13.695814786478877">
        <ele>561</ele>
      </trkpt>
      <trkpt lat="46.55016727745533" lon="13.695640359073877">
        <ele>560</ele>
      </trkpt>
      <trkpt lat="46.550366096198559" lon="13.695233082398772">
        <ele>560</ele>
      </trkpt>
      <trkpt lat="46.550482185557485" lon="13.693327708169818">
        <ele>559</ele>
      </trkpt>
      <trkpt lat="46.550473384559155" lon="13.69251960888505">
        <ele>557</ele>
      </trkpt>
      <trkpt lat="46.550318570807576" lon="13.691711761057377">
        <ele>564</ele>
      </trkpt>
      <trkpt lat="46.550350841134787" lon="13.691601371392608">
        <ele>564</ele>
      </trkpt>
      <trkpt lat="46.550549827516079" lon="13.691446138545871">
        <ele>566</ele>
      </trkpt>
      <trkpt lat="46.55046776868403" lon="13.69075664319098">
        <ele>569</ele>
      </trkpt>
      <trkpt lat="46.550241708755493" lon="13.690104447305202">
        <ele>574</ele>
      </trkpt>
      <trkpt lat="46.549919927492738" lon="13.687934372574091">
        <ele>586</ele>
      </trkpt>
      <trkpt lat="46.549639049917459" lon="13.685113610699773">
        <ele>592</ele>
      </trkpt>
      <trkpt lat="46.549954209476709" lon="13.681975761428475">
        <ele>596</ele>
      </trkpt>
      <trkpt lat="46.550016151741147" lon="13.679994866251945">
        <ele>592</ele>
      </trkpt>
      <trkpt lat="46.550125032663345" lon="13.679421879351139">
        <ele>594</ele>
      </trkpt>
      <trkpt lat="46.550888624042273" lon="13.676637159660459">
        <ele>602</ele>
      </trkpt>
      <trkpt lat="46.551481392234564" lon="13.673590589314699">
        <ele>606</ele>
      </trkpt>
      <trkpt lat="46.551594799384475" lon="13.671796359121799">
        <ele>609</ele>
      </trkpt>
      <trkpt lat="46.551542244851589" lon="13.670944506302476">
        <ele>608</ele>
      </trkpt>
      <trkpt lat="46.551357340067625" lon="13.66991026327014">
        <ele>611</ele>
      </trkpt>
      <trkpt lat="46.550993649289012" lon="13.66875029169023">
        <ele>611</ele>
      </trkpt>
      <trkpt lat="46.550287725403905" lon="13.667464843019843">
        <ele>611</ele>
      </trkpt>
      <trkpt lat="46.549900732934475" lon="13.666952708736062">
        <ele>613</ele>
      </trkpt>
      <trkpt lat="46.54830314218998" lon="13.66513391956687">
        <ele>622</ele>
      </trkpt>
      <trkpt lat="46.547416001558304" lon="13.663460975512862">
        <ele>622</ele>
      </trkpt>
      <trkpt lat="46.546904956921935" lon="13.661872101947665">
        <ele>625</ele>
      </trkpt>
      <trkpt lat="46.546313194558024" lon="13.659289721399546">
        <ele>630</ele>
      </trkpt>
      <trkpt lat="46.546139605343342" lon="13.658918654546142">
        <ele>631</ele>
      </trkpt>
      <trkpt lat="46.545824613422155" lon="13.65782112814486">
        <ele>633</ele>
      </trkpt>
      <trkpt lat="46.544979885220528" lon="13.655384592711926">
        <ele>643</ele>
      </trkpt>
      <trkpt lat="46.544816438108683" lon="13.653635289520025">
        <ele>646</ele>
      </trkpt>
      <trkpt lat="46.544406646862626" lon="13.65340537391603">
        <ele>647</ele>
      </trkpt>
      <trkpt lat="46.543926950544119" lon="13.65303891710937">
        <ele>650</ele>
      </trkpt>
      <trkpt lat="46.543645318597555" lon="13.652984770014882">
        <ele>650</ele>
      </trkpt>
      <trkpt lat="46.54293654486537" lon="13.651715079322457">
        <ele>653</ele>
      </trkpt>
      <trkpt lat="46.542397169396281" lon="13.650436503812671">
        <ele>655</ele>
      </trkpt>
      <trkpt lat="46.542193656787276" lon="13.649405864998698">
        <ele>656</ele>
      </trkpt>
      <trkpt lat="46.542150154709816" lon="13.6488963291049">
        <ele>656</ele>
      </trkpt>
      <trkpt lat="46.542082093656063" lon="13.646680237725377">
        <ele>664</ele>
      </trkpt>
      <trkpt lat="46.541802473366261" lon="13.64572118036449">
        <ele>666</ele>
      </trkpt>
      <trkpt lat="46.541342474520206" lon="13.645110307261348">
        <ele>664</ele>
      </trkpt>
      <trkpt lat="46.540798656642437" lon="13.644762374460697">
        <ele>663</ele>
      </trkpt>
      <trkpt lat="46.540340669453144" lon="13.644666150212288">
        <ele>664</ele>
      </trkpt>
      <trkpt lat="46.538442755118012" lon="13.644559951499104">
        <ele>667</ele>
      </trkpt>
      <trkpt lat="46.538161290809512" lon="13.644394325092435">
        <ele>667</ele>
      </trkpt>
      <trkpt lat="46.537872785702348" lon="13.64393625408411">
        <ele>668</ele>
      </trkpt>
      <trkpt lat="46.537627782672644" lon="13.642582492902875">
        <ele>677</ele>
      </trkpt>
      <trkpt lat="46.537199132144451" lon="13.641538443043828">
        <ele>682</ele>
      </trkpt>
      <trkpt lat="46.53597361408174" lon="13.639652514830232">
        <ele>689</ele>
      </trkpt>
      <trkpt lat="46.535781752318144" lon="13.639555033296347">
        <ele>685</ele>
      </trkpt>
      <trkpt lat="46.535229803994298" lon="13.639283124357462">
        <ele>680</ele>
      </trkpt>
      <trkpt lat="46.535055125132203" lon="13.639056226238608">
        <ele>680</ele>
      </trkpt>
      <trkpt lat="46.53501883149147" lon="13.638723464682698">
        <ele>686</ele>
      </trkpt>
      <trkpt lat="46.534616835415363" lon="13.638168834149837">
        <ele>695</ele>
      </trkpt>
      <trkpt lat="46.534755388274789" lon="13.638148801401258">
        <ele>696</ele>
      </trkpt>
      <trkpt lat="46.534637873992324" lon="13.637916287407279">
        <ele>701</ele>
      </trkpt>
      <trkpt lat="46.53456729836762" lon="13.637885106727481">
        <ele>701</ele>
      </trkpt>
      <trkpt lat="46.534071676433086" lon="13.638124745339155">
        <ele>691</ele>
      </trkpt>
      <trkpt lat="46.533859865739942" lon="13.638093480840325">
        <ele>691</ele>
      </trkpt>
      <trkpt lat="46.533492151647806" lon="13.637804137542844">
        <ele>695</ele>
      </trkpt>
      <trkpt lat="46.533159306272864" lon="13.637350173667073">
        <ele>702</ele>
      </trkpt>
      <trkpt lat="46.532888822257519" lon="13.636820605024695">
        <ele>710</ele>
      </trkpt>
      <trkpt lat="46.532799387350678" lon="13.635696172714233">
        <ele>734</ele>
      </trkpt>
      <trkpt lat="46.532512390986085" lon="13.635178925469518">
        <ele>737</ele>
      </trkpt>
      <trkpt lat="46.53240904211998" lon="13.635197533294559">
        <ele>737</ele>
      </trkpt>
      <trkpt lat="46.532237296923995" lon="13.63586749881506">
        <ele>724</ele>
      </trkpt>
      <trkpt lat="46.531897662207484" lon="13.636448867619038">
        <ele>716</ele>
      </trkpt>
      <trkpt lat="46.531566828489304" lon="13.636486502364278">
        <ele>718</ele>
      </trkpt>
      <trkpt lat="46.531109679490328" lon="13.636351469904184">
        <ele>718</ele>
      </trkpt>
      <trkpt lat="46.530938604846597" lon="13.636157931759953">
        <ele>720</ele>
      </trkpt>
      <trkpt lat="46.530538452789187" lon="13.635164592415094">
        <ele>731</ele>
      </trkpt>
      <trkpt lat="46.529209166765213" lon="13.633723156526685">
        <ele>726</ele>
      </trkpt>
      <trkpt lat="46.528900125995278" lon="13.633288387209177">
        <ele>723</ele>
      </trkpt>
      <trkpt lat="46.528148017823696" lon="13.631696999073029">
        <ele>721</ele>
      </trkpt>
      <trkpt lat="46.527657425031066" lon="13.629323579370975">
        <ele>723</ele>
      </trkpt>
      <trkpt lat="46.527696652337909" lon="13.627214273437858">
        <ele>724</ele>
      </trkpt>
      <trkpt lat="46.52789069339633" lon="13.626906406134367">
        <ele>737</ele>
      </trkpt>
      <trkpt lat="46.528045255690813" lon="13.626848990097642">
        <ele>744</ele>
      </trkpt>
      <trkpt lat="46.528102336451411" lon="13.62667347304523">
        <ele>748</ele>
      </trkpt>
      <trkpt lat="46.527809305116534" lon="13.626007195562124">
        <ele>743</ele>
      </trkpt>
      <trkpt lat="46.527552818879485" lon="13.625653060153127">
        <ele>735</ele>
      </trkpt>
      <trkpt lat="46.527232127264142" lon="13.624604484066367">
        <ele>745</ele>
      </trkpt>
      <trkpt lat="46.526754861697555" lon="13.624071478843689">
        <ele>738</ele>
      </trkpt>
      <trkpt lat="46.526027731597424" lon="13.623410649597645">
        <ele>720</ele>
      </trkpt>
      <trkpt lat="46.525885825976729" lon="13.623201018199325">
        <ele>713</ele>
      </trkpt>
      <trkpt lat="46.525938464328647" lon="13.622735822573304">
        <ele>710</ele>
      </trkpt>
      <trkpt lat="46.526133762672544" lon="13.622207175940275">
        <ele>716</ele>
      </trkpt>
      <trkpt lat="46.526327636092901" lon="13.621310982853174">
        <ele>729</ele>
      </trkpt>
      <trkpt lat="46.526251528412104" lon="13.621315425261855">
        <ele>730</ele>
      </trkpt>
      <trkpt lat="46.526149353012443" lon="13.6214529722929">
        <ele>727</ele>
      </trkpt>
      <trkpt lat="46.525596147403121" lon="13.621827056631446">
        <ele>707</ele>
      </trkpt>
      <trkpt lat="46.525296913459897" lon="13.621829487383366">
        <ele>709</ele>
      </trkpt>
      <trkpt lat="46.52515928260982" lon="13.62178179435432">
        <ele>711</ele>
      </trkpt>
      <trkpt lat="46.5248944144696" lon="13.621481722220778">
        <ele>715</ele>
      </trkpt>
      <trkpt lat="46.524552432820201" lon="13.620873196050525">
        <ele>718</ele>
      </trkpt>
      <trkpt lat="46.524065779522061" lon="13.620780156925321">
        <ele>714</ele>
      </trkpt>
      <trkpt lat="46.523866457864642" lon="13.620645040646195">
        <ele>713</ele>
      </trkpt>
      <trkpt lat="46.523621371015906" lon="13.620190406218171">
        <ele>714</ele>
      </trkpt>
      <trkpt lat="46.523343594744802" lon="13.619483141228557">
        <ele>717</ele>
      </trkpt>
      <trkpt lat="46.523136645555496" lon="13.618469936773181">
        <ele>721</ele>
      </trkpt>
      <trkpt lat="46.522571872919798" lon="13.617235282436013">
        <ele>724</ele>
      </trkpt>
      <trkpt lat="46.522131990641356" lon="13.616716442629695">
        <ele>722</ele>
      </trkpt>
      <trkpt lat="46.521302685141563" lon="13.615469047799706">
        <ele>734</ele>
      </trkpt>
      <trkpt lat="46.521124066784978" lon="13.615359999239445">
        <ele>734</ele>
      </trkpt>
      <trkpt lat="46.52071813121438" lon="13.615307528525591">
        <ele>729</ele>
      </trkpt>
      <trkpt lat="46.520567005500197" lon="13.615122707560658">
        <ele>726</ele>
      </trkpt>
      <trkpt lat="46.520475139841437" lon="13.614558354020119">
        <ele>728</ele>
      </trkpt>
      <trkpt lat="46.520422920584679" lon="13.613565349951386">
        <ele>731</ele>
      </trkpt>
      <trkpt lat="46.520582344383001" lon="13.612000280991197">
        <ele>745</ele>
      </trkpt>
      <trkpt lat="46.520426273345947" lon="13.610889008268714">
        <ele>744</ele>
      </trkpt>
      <trkpt lat="46.520601706579328" lon="13.610340747982264">
        <ele>754</ele>
      </trkpt>
      <trkpt lat="46.520552923902869" lon="13.609925508499146">
        <ele>754</ele>
      </trkpt>
      <trkpt lat="46.520663145929575" lon="13.609168622642756">
        <ele>757</ele>
      </trkpt>
      <trkpt lat="46.520515289157629" lon="13.609045492485166">
        <ele>758</ele>
      </trkpt>
      <trkpt lat="46.520080603659153" lon="13.609943445771933">
        <ele>741</ele>
      </trkpt>
      <trkpt lat="46.519885389134288" lon="13.609942942857742">
        <ele>744</ele>
      </trkpt>
      <trkpt lat="46.519643822684884" lon="13.610080908983946">
        <ele>750</ele>
      </trkpt>
      <trkpt lat="46.51947014965117" lon="13.610264640301466">
        <ele>751</ele>
      </trkpt>
      <trkpt lat="46.518895654007792" lon="13.611758798360825">
        <ele>721</ele>
      </trkpt>
      <trkpt lat="46.518327025696635" lon="13.612743001431227">
        <ele>718</ele>
      </trkpt>
      <trkpt lat="46.518148658797145" lon="13.613183302804828">
        <ele>717</ele>
      </trkpt>
      <trkpt lat="46.517760660499334" lon="13.613709267228842">
        <ele>722</ele>
      </trkpt>
      <trkpt lat="46.517109051346779" lon="13.614138085395098">
        <ele>726</ele>
      </trkpt>
      <trkpt lat="46.516742678359151" lon="13.614652147516608">
        <ele>722</ele>
      </trkpt>
      <trkpt lat="46.51630774140358" lon="13.614977784454823">
        <ele>720</ele>
      </trkpt>
      <trkpt lat="46.515896022319794" lon="13.615069314837456">
        <ele>723</ele>
      </trkpt>
      <trkpt lat="46.515568541362882" lon="13.615033440291882">
        <ele>722</ele>
      </trkpt>
      <trkpt lat="46.515325885266066" lon="13.614892875775695">
        <ele>722</ele>
      </trkpt>
      <trkpt lat="46.514918692409992" lon="13.614527676254511">
        <ele>723</ele>
      </trkpt>
      <trkpt lat="46.514671510085464" lon="13.614106569439173">
        <ele>723</ele>
      </trkpt>
      <trkpt lat="46.514434386044741" lon="13.613272234797478">
        <ele>729</ele>
      </trkpt>
      <trkpt lat="46.514218552038074" lon="13.612782899290323">
        <ele>732</ele>
      </trkpt>
      <trkpt lat="46.514027863740921" lon="13.612526915967464">
        <ele>732</ele>
      </trkpt>
      <trkpt lat="46.513372650370002" lon="13.611985696479678">
        <ele>719</ele>
      </trkpt>
      <trkpt lat="46.513259410858154" lon="13.611672464758158">
        <ele>717</ele>
      </trkpt>
      <trkpt lat="46.513259829953313" lon="13.611185979098082">
        <ele>712</ele>
      </trkpt>
      <trkpt lat="46.513739693909883" lon="13.610081160441041">
        <ele>719</ele>
      </trkpt>
      <trkpt lat="46.514035323634744" lon="13.609532564878464">
        <ele>725</ele>
      </trkpt>
      <trkpt lat="46.514245877042413" lon="13.609302565455437">
        <ele>727</ele>
      </trkpt>
      <trkpt lat="46.514940317720175" lon="13.608987992629409">
        <ele>737</ele>
      </trkpt>
      <trkpt lat="46.51504073292017" lon="13.608886487782001">
        <ele>738</ele>
      </trkpt>
      <trkpt lat="46.515782279893756" lon="13.60701254568994">
        <ele>750</ele>
      </trkpt>
      <trkpt lat="46.515168808400631" lon="13.607385540381074">
        <ele>741</ele>
      </trkpt>
      <trkpt lat="46.514046136289835" lon="13.607768090441823">
        <ele>738</ele>
      </trkpt>
      <trkpt lat="46.513143824413419" lon="13.607814526185393">
        <ele>738</ele>
      </trkpt>
      <trkpt lat="46.512830760329962" lon="13.607749231159687">
        <ele>738</ele>
      </trkpt>
      <trkpt lat="46.512421052902937" lon="13.607540437951684">
        <ele>738</ele>
      </trkpt>
      <trkpt lat="46.511384965851903" lon="13.606478786095977">
        <ele>732</ele>
      </trkpt>
      <trkpt lat="46.511117164045572" lon="13.606057930737734">
        <ele>732</ele>
      </trkpt>
      <trkpt lat="46.510636042803526" lon="13.604667875915766">
        <ele>735</ele>
      </trkpt>
      <trkpt lat="46.509885946288705" lon="13.602971797809005">
        <ele>740</ele>
      </trkpt>
      <trkpt lat="46.50943910703063" lon="13.602337036281824">
        <ele>741</ele>
      </trkpt>
      <trkpt lat="46.508607789874077" lon="13.601402034983039">
        <ele>738</ele>
      </trkpt>
      <trkpt lat="46.50800303556025" lon="13.600401654839516">
        <ele>735</ele>
      </trkpt>
      <trkpt lat="46.507893819361925" lon="13.59997040592134">
        <ele>735</ele>
      </trkpt>
      <trkpt lat="46.507673794403672" lon="13.597709974274039">
        <ele>745</ele>
      </trkpt>
      <trkpt lat="46.507484866306186" lon="13.596961386501789">
        <ele>746</ele>
      </trkpt>
      <trkpt lat="46.507130395621061" lon="13.596253367140889">
        <ele>750</ele>
      </trkpt>
      <trkpt lat="46.506188856437802" lon="13.594949478283525">
        <ele>744</ele>
      </trkpt>
      <trkpt lat="46.505834888666868" lon="13.594226622954011">
        <ele>741</ele>
      </trkpt>
      <trkpt lat="46.505621233955026" lon="13.593189613893628">
        <ele>739</ele>
      </trkpt>
      <trkpt lat="46.505376566201448" lon="13.589911619201303">
        <ele>747</ele>
      </trkpt>
      <trkpt lat="46.505041038617492" lon="13.588384101167321">
        <ele>750</ele>
      </trkpt>
      <trkpt lat="46.504845572635531" lon="13.586628846824169">
        <ele>758</ele>
      </trkpt>
      <trkpt lat="46.504505099728703" lon="13.585336022078991">
        <ele>749</ele>
      </trkpt>
      <trkpt lat="46.504398314282298" lon="13.584599420428276">
        <ele>748</ele>
      </trkpt>
      <trkpt lat="46.504431003704667" lon="13.58382317237556">
        <ele>752</ele>
      </trkpt>
      <trkpt lat="46.50481372140348" lon="13.581853425130248">
        <ele>751</ele>
      </trkpt>
      <trkpt lat="46.5048748254776" lon="13.581147333607078">
        <ele>747</ele>
      </trkpt>
      <trkpt lat="46.504810871556401" lon="13.580005131661892">
        <ele>742</ele>
      </trkpt>
      <trkpt lat="46.504578441381454" lon="13.578811548650265">
        <ele>740</ele>
      </trkpt>
      <trkpt lat="46.504580453038216" lon="13.578190617263317">
        <ele>739</ele>
      </trkpt>
      <trkpt lat="46.504834340885282" lon="13.575517879799008">
        <ele>747</ele>
      </trkpt>
    </trkseg>
  </trk>

</gpx>
