<?xml version="1.0"?>
<gpx xmlns="http://www.topografix.com/GPX/1/1" xmlns:xsi="http://www.w3.org/2001/XMLSchema-instance" xmlns:wptx1="http://www.garmin.com/xmlschemas/WaypointExtension/v1" xmlns:gpxtrx="http://www.garmin.com/xmlschemas/GpxExtensions/v3" xmlns:gpxtpx="http://www.garmin.com/xmlschemas/TrackPointExtension/v1" xmlns:gpxx="http://www.garmin.com/xmlschemas/GpxExtensions/v3" xmlns:trp="http://www.garmin.com/xmlschemas/TripExtensions/v1" xmlns:adv="http://www.garmin.com/xmlschemas/AdventuresExtensions/v1" xmlns:prs="http://www.garmin.com/xmlschemas/PressureExtension/v1" xmlns:tmd="http://www.garmin.com/xmlschemas/TripMetaDataExtensions/v1" xmlns:vptm="http://www.garmin.com/xmlschemas/ViaPointTransportationModeExtensions/v1" xmlns:ctx="http://www.garmin.com/xmlschemas/CreationTimeExtension/v1" xmlns:gpxacc="http://www.garmin.com/xmlschemas/AccelerationExtension/v1" xmlns:gpxpx="http://www.garmin.com/xmlschemas/PowerExtension/v1" xmlns:vidx1="http://www.garmin.com/xmlschemas/VideoExtension/v1" creator="Garmin Desktop App" version="1.1" xsi:schemaLocation="http://www.topografix.com/GPX/1/1 http://www.topografix.com/GPX/1/1/gpx.xsd http://www.garmin.com/xmlschemas/WaypointExtension/v1 http://www8.garmin.com/xmlschemas/WaypointExtensionv1.xsd http://www.garmin.com/xmlschemas/TrackPointExtension/v1 http://www.garmin.com/xmlschemas/TrackPointExtensionv1.xsd http://www.garmin.com/xmlschemas/GpxExtensions/v3 http://www8.garmin.com/xmlschemas/GpxExtensionsv3.xsd http://www.garmin.com/xmlschemas/ActivityExtension/v1 http://www8.garmin.com/xmlschemas/ActivityExtensionv1.xsd http://www.garmin.com/xmlschemas/AdventuresExtensions/v1 http://www8.garmin.com/xmlschemas/AdventuresExtensionv1.xsd http://www.garmin.com/xmlschemas/PressureExtension/v1 http://www.garmin.com/xmlschemas/PressureExtensionv1.xsd http://www.garmin.com/xmlschemas/TripExtensions/v1 http://www.garmin.com/xmlschemas/TripExtensionsv1.xsd http://www.garmin.com/xmlschemas/TripMetaDataExtensions/v1 http://www.garmin.com/xmlschemas/TripMetaDataExtensionsv1.xsd http://www.garmin.com/xmlschemas/ViaPointTransportationModeExtensions/v1 http://www.garmin.com/xmlschemas/ViaPointTransportationModeExtensionsv1.xsd http://www.garmin.com/xmlschemas/CreationTimeExtension/v1 http://www.garmin.com/xmlschemas/CreationTimeExtensionsv1.xsd http://www.garmin.com/xmlschemas/AccelerationExtension/v1 http://www.garmin.com/xmlschemas/AccelerationExtensionv1.xsd http://www.garmin.com/xmlschemas/PowerExtension/v1 http://www.garmin.com/xmlschemas/PowerExtensionv1.xsd http://www.garmin.com/xmlschemas/VideoExtension/v1 http://www.garmin.com/xmlschemas/VideoExtensionv1.xsd">

  <metadata>
    <link href="http://www.garmin.com">
      <text>Garmin International</text>
    </link>
    <time>2017-03-07T08:03:20Z</time>
    <bounds maxlat="46.583727914839983" maxlon="13.830067226663232" minlat="45.596907511353493" minlon="12.441224008798599"/>
  </metadata>

  <wpt lat="45.707159964367747" lon="13.487579980865121">
    <time>2014-10-26T08:23:32Z</time>
    <name>Agriturismo all'Argine</name>
    <cmt>331 436 4429
agricampingargine.it</cmt>
    <desc>331 436 4429
agricampingargine.it</desc>
    <link href="http://www.agricampingargine.it"/>
    <sym>Campground</sym>
    <type>user</type>
    <extensions>
      <gpxx:WaypointExtension>
        <gpxx:DisplayMode>SymbolOnly</gpxx:DisplayMode>
        <gpxx:PhoneNumber>331 4364429</gpxx:PhoneNumber>
      </gpxx:WaypointExtension>
      <wptx1:WaypointExtension>
        <wptx1:DisplayMode>SymbolOnly</wptx1:DisplayMode>
        <wptx1:PhoneNumber>331 4364429</wptx1:PhoneNumber>
      </wptx1:WaypointExtension>
      <ctx:CreationTimeExtension>
        <ctx:CreationTime>2014-10-26T08:23:32Z</ctx:CreationTime>
      </ctx:CreationTimeExtension>
    </extensions>
  </wpt>

  <wpt lat="46.290592979639769" lon="13.129691993817687">
    <time>2012-12-18T14:11:08Z</time>
    <name>Ai Pioppi</name>
    <cmt>0432 980358
aipioppi.it</cmt>
    <desc>0432 980358
aipioppi.it</desc>
    <link href="www.aipioppi.it"/>
    <sym>Campground</sym>
    <type>user</type>
    <extensions>
      <gpxx:WaypointExtension>
        <gpxx:DisplayMode>SymbolOnly</gpxx:DisplayMode>
        <gpxx:PhoneNumber>0432 980358</gpxx:PhoneNumber>
      </gpxx:WaypointExtension>
      <wptx1:WaypointExtension>
        <wptx1:DisplayMode>SymbolOnly</wptx1:DisplayMode>
        <wptx1:PhoneNumber>0432 980358</wptx1:PhoneNumber>
      </wptx1:WaypointExtension>
      <ctx:CreationTimeExtension>
        <ctx:CreationTime>2012-12-18T14:11:08Z</ctx:CreationTime>
      </ctx:CreationTimeExtension>
    </extensions>
  </wpt>

  <wpt lat="45.678327977657318" lon="13.419577432796359">
    <time>2014-10-26T08:26:09Z</time>
    <name>Al Bosco (Grado)</name>
    <cmt>0431 80485
campingalbosco.it</cmt>
    <desc>0431 80485
campingalbosco.it</desc>
    <link href="http://www.campingalbosco.it"/>
    <sym>Campground</sym>
    <type>user</type>
    <extensions>
      <gpxx:WaypointExtension>
        <gpxx:DisplayMode>SymbolOnly</gpxx:DisplayMode>
        <gpxx:PhoneNumber>0431 80485</gpxx:PhoneNumber>
      </gpxx:WaypointExtension>
      <wptx1:WaypointExtension>
        <wptx1:DisplayMode>SymbolOnly</wptx1:DisplayMode>
        <wptx1:PhoneNumber>0431 80485</wptx1:PhoneNumber>
      </wptx1:WaypointExtension>
      <ctx:CreationTimeExtension>
        <ctx:CreationTime>2014-10-26T08:26:09Z</ctx:CreationTime>
      </ctx:CreationTimeExtension>
    </extensions>
  </wpt>

  <wpt lat="45.77611000277102" lon="13.370829960331321">
    <time>2014-10-26T08:28:20Z</time>
    <name>Aquileia</name>
    <cmt>0431 91042
campingaquileia.it</cmt>
    <desc>0431 91042
campingaquileia.it</desc>
    <link href="http://www.campingaquileia.it"/>
    <sym>Campground</sym>
    <type>user</type>
    <extensions>
      <gpxx:WaypointExtension>
        <gpxx:DisplayMode>SymbolOnly</gpxx:DisplayMode>
        <gpxx:PhoneNumber>0431 91042</gpxx:PhoneNumber>
      </gpxx:WaypointExtension>
      <wptx1:WaypointExtension>
        <wptx1:DisplayMode>SymbolOnly</wptx1:DisplayMode>
        <wptx1:PhoneNumber>0431 91042</wptx1:PhoneNumber>
      </wptx1:WaypointExtension>
      <ctx:CreationTimeExtension>
        <ctx:CreationTime>2014-10-26T08:28:20Z</ctx:CreationTime>
      </ctx:CreationTimeExtension>
    </extensions>
  </wpt>

  <wpt lat="45.726389978080988" lon="13.400829965248704">
    <time>2014-10-26T08:30:12Z</time>
    <name>Belvedere Pineta</name>
    <cmt>0431 91007
belvederepineta.it</cmt>
    <desc>0431 91007
belvederepineta.it</desc>
    <link href="http://www.belvederepineta.it"/>
    <sym>Campground</sym>
    <type>user</type>
    <extensions>
      <gpxx:WaypointExtension>
        <gpxx:DisplayMode>SymbolOnly</gpxx:DisplayMode>
        <gpxx:PhoneNumber>0431 91007</gpxx:PhoneNumber>
      </gpxx:WaypointExtension>
      <wptx1:WaypointExtension>
        <wptx1:DisplayMode>SymbolOnly</wptx1:DisplayMode>
        <wptx1:PhoneNumber>0431 91007</wptx1:PhoneNumber>
      </wptx1:WaypointExtension>
      <ctx:CreationTimeExtension>
        <ctx:CreationTime>2014-10-26T08:30:12Z</ctx:CreationTime>
      </ctx:CreationTimeExtension>
    </extensions>
  </wpt>

  <wpt lat="46.299899993464351" lon="12.441224008798599">
    <ele>688</ele>
    <time>2012-12-18T14:09:54Z</time>
    <name>Bresin (Cimolais)</name>
    <cmt>335 326 0762
JUNE-SEPTEMBER</cmt>
    <desc>335 326 0762
JUNE-SEPTEMBER</desc>
    <sym>Campground</sym>
    <type>user</type>
    <extensions>
      <gpxx:WaypointExtension>
        <gpxx:DisplayMode>SymbolOnly</gpxx:DisplayMode>
        <gpxx:PhoneNumber>335 3260762</gpxx:PhoneNumber>
      </gpxx:WaypointExtension>
      <wptx1:WaypointExtension>
        <wptx1:DisplayMode>SymbolOnly</wptx1:DisplayMode>
        <wptx1:PhoneNumber>335 3260762</wptx1:PhoneNumber>
      </wptx1:WaypointExtension>
      <ctx:CreationTimeExtension>
        <ctx:CreationTime>2012-12-18T14:09:54Z</ctx:CreationTime>
      </ctx:CreationTimeExtension>
    </extensions>
  </wpt>

  <wpt lat="46.583727914839983" lon="12.788117537274957">
    <time>2012-12-18T13:46:24Z</time>
    <name>Collina</name>
    <cmt>0433 72209</cmt>
    <desc>0433 72209</desc>
    <sym>Campground</sym>
    <type>user</type>
    <extensions>
      <gpxx:WaypointExtension>
        <gpxx:DisplayMode>SymbolOnly</gpxx:DisplayMode>
        <gpxx:PhoneNumber>0433 72209</gpxx:PhoneNumber>
        <gpxx:PhoneNumber>333 6239945</gpxx:PhoneNumber>
      </gpxx:WaypointExtension>
      <wptx1:WaypointExtension>
        <wptx1:DisplayMode>SymbolOnly</wptx1:DisplayMode>
        <wptx1:PhoneNumber>0433 72209</wptx1:PhoneNumber>
        <wptx1:PhoneNumber>333 6239945</wptx1:PhoneNumber>
      </wptx1:WaypointExtension>
      <ctx:CreationTimeExtension>
        <ctx:CreationTime>2012-12-18T13:46:24Z</ctx:CreationTime>
      </ctx:CreationTimeExtension>
    </extensions>
  </wpt>

  <wpt lat="45.701135136187077" lon="13.830067226663232">
    <time>2014-10-26T08:32:18Z</time>
    <name>Excelsior</name>
    <cmt>348 738 9314
campingexcelsior.com</cmt>
    <desc>348 738 9314
campingexcelsior.com</desc>
    <link href="http://www.campingexcelsior.com"/>
    <sym>Campground</sym>
    <type>user</type>
    <extensions>
      <gpxx:WaypointExtension>
        <gpxx:DisplayMode>SymbolOnly</gpxx:DisplayMode>
        <gpxx:PhoneNumber>348 7389314</gpxx:PhoneNumber>
      </gpxx:WaypointExtension>
      <wptx1:WaypointExtension>
        <wptx1:DisplayMode>SymbolOnly</wptx1:DisplayMode>
        <wptx1:PhoneNumber>348 7389314</wptx1:PhoneNumber>
      </wptx1:WaypointExtension>
      <ctx:CreationTimeExtension>
        <ctx:CreationTime>2014-10-26T08:32:18Z</ctx:CreationTime>
      </ctx:CreationTimeExtension>
    </extensions>
  </wpt>

  <wpt lat="46.080769971013069" lon="12.780469972640276">
    <time>2016-02-26T08:10:09Z</time>
    <name>Gelindo dei Magredi</name>
    <cmt>Via Roma 14
Vivaro PN
+39 0427 97037
gelindo.it</cmt>
    <desc>Via Roma 14
Vivaro PN
+39 0427 97037
gelindo.it</desc>
    <link href="http://www.gelindo.it/"/>
    <sym>Campground</sym>
    <type>user</type>
    <extensions>
      <gpxx:WaypointExtension>
        <gpxx:DisplayMode>SymbolOnly</gpxx:DisplayMode>
        <gpxx:Address>
          <gpxx:StreetAddress>Via Roma 14</gpxx:StreetAddress>
          <gpxx:City>Vivaro</gpxx:City>
          <gpxx:State>PN</gpxx:State>
        </gpxx:Address>
        <gpxx:PhoneNumber>+39 0427 97037</gpxx:PhoneNumber>
      </gpxx:WaypointExtension>
      <wptx1:WaypointExtension>
        <wptx1:DisplayMode>SymbolOnly</wptx1:DisplayMode>
        <wptx1:Address>
          <wptx1:StreetAddress>Via Roma 14</wptx1:StreetAddress>
          <wptx1:City>Vivaro</wptx1:City>
          <wptx1:State>PN</wptx1:State>
        </wptx1:Address>
        <wptx1:PhoneNumber>+39 0427 97037</wptx1:PhoneNumber>
      </wptx1:WaypointExtension>
      <ctx:CreationTimeExtension>
        <ctx:CreationTime>2016-02-26T08:10:09Z</ctx:CreationTime>
      </ctx:CreationTimeExtension>
    </extensions>
  </wpt>

  <wpt lat="45.751190017908812" lon="13.668189961463213">
    <time>2014-10-26T08:34:44Z</time>
    <name>Imperial</name>
    <cmt>339 547 2401
campingcarso.com</cmt>
    <desc>339 547 2401
campingcarso.com</desc>
    <link href="http://www.campingcarso.com"/>
    <sym>Campground</sym>
    <type>user</type>
    <extensions>
      <gpxx:WaypointExtension>
        <gpxx:DisplayMode>SymbolOnly</gpxx:DisplayMode>
        <gpxx:PhoneNumber>339 5472401</gpxx:PhoneNumber>
      </gpxx:WaypointExtension>
      <wptx1:WaypointExtension>
        <wptx1:DisplayMode>SymbolOnly</wptx1:DisplayMode>
        <wptx1:PhoneNumber>339 5472401</wptx1:PhoneNumber>
      </wptx1:WaypointExtension>
      <ctx:CreationTimeExtension>
        <ctx:CreationTime>2014-10-26T08:34:44Z</ctx:CreationTime>
      </ctx:CreationTimeExtension>
    </extensions>
  </wpt>

  <wpt lat="45.723187001422048" lon="13.378801988437772">
    <ele>4.996822</ele>
    <time>2015-07-14T13:39:21Z</time>
    <name>Isola Del Paradiso</name>
    <cmt>campingisoiadelparadiso.com</cmt>
    <desc>campingisoiadelparadiso.com</desc>
    <sym>Campground</sym>
    <type>user</type>
    <extensions>
      <gpxx:WaypointExtension>
        <gpxx:DisplayMode>SymbolOnly</gpxx:DisplayMode>
      </gpxx:WaypointExtension>
      <wptx1:WaypointExtension>
        <wptx1:DisplayMode>SymbolOnly</wptx1:DisplayMode>
      </wptx1:WaypointExtension>
      <ctx:CreationTimeExtension>
        <ctx:CreationTime>2015-07-14T13:39:21Z</ctx:CreationTime>
      </ctx:CreationTimeExtension>
    </extensions>
  </wpt>

  <wpt lat="45.786110032349825" lon="13.529169978573918">
    <time>2014-10-26T08:36:57Z</time>
    <name>Isola Panzano Lido</name>
    <cmt>0481 411202
isolapanzanolido.com</cmt>
    <desc>0481 411202
isolapanzanolido.com</desc>
    <link href="http://www.isolapanzanolido.com"/>
    <sym>Campground</sym>
    <type>user</type>
    <extensions>
      <gpxx:WaypointExtension>
        <gpxx:DisplayMode>SymbolOnly</gpxx:DisplayMode>
        <gpxx:PhoneNumber>0481 411202</gpxx:PhoneNumber>
      </gpxx:WaypointExtension>
      <wptx1:WaypointExtension>
        <wptx1:DisplayMode>SymbolOnly</wptx1:DisplayMode>
        <wptx1:PhoneNumber>0481 411202</wptx1:PhoneNumber>
      </wptx1:WaypointExtension>
      <ctx:CreationTimeExtension>
        <ctx:CreationTime>2014-10-26T08:36:57Z</ctx:CreationTime>
      </ctx:CreationTimeExtension>
    </extensions>
  </wpt>

  <wpt lat="46.325790015980601" lon="13.06333196349442">
    <ele>204</ele>
    <time>2012-12-18T14:06:20Z</time>
    <name>Lago Tre Comuni</name>
    <cmt>+39 0432 979 464
lago3comuni.com</cmt>
    <desc>+39 0432 979 464
lago3comuni.com</desc>
    <link href="http://www.lago3comuni.com"/>
    <sym>Campground</sym>
    <type>user</type>
    <extensions>
      <gpxx:WaypointExtension>
        <gpxx:DisplayMode>SymbolOnly</gpxx:DisplayMode>
        <gpxx:PhoneNumber>0432 979464</gpxx:PhoneNumber>
      </gpxx:WaypointExtension>
      <wptx1:WaypointExtension>
        <wptx1:DisplayMode>SymbolOnly</wptx1:DisplayMode>
        <wptx1:PhoneNumber>0432 979464</wptx1:PhoneNumber>
      </wptx1:WaypointExtension>
      <ctx:CreationTimeExtension>
        <ctx:CreationTime>2012-12-18T14:06:20Z</ctx:CreationTime>
      </ctx:CreationTimeExtension>
    </extensions>
  </wpt>

  <wpt lat="45.77250000089407" lon="13.624440031126142">
    <time>2014-10-26T08:38:43Z</time>
    <name>Mare Pineta (Duino)</name>
    <cmt>040 299264
marepineta.com</cmt>
    <desc>040 299264
marepineta.com</desc>
    <link href="http://www.marepineta.com"/>
    <sym>Campground</sym>
    <type>user</type>
    <extensions>
      <gpxx:WaypointExtension>
        <gpxx:DisplayMode>SymbolOnly</gpxx:DisplayMode>
        <gpxx:PhoneNumber>040 299264</gpxx:PhoneNumber>
      </gpxx:WaypointExtension>
      <wptx1:WaypointExtension>
        <wptx1:DisplayMode>SymbolOnly</wptx1:DisplayMode>
        <wptx1:PhoneNumber>040 299264</wptx1:PhoneNumber>
      </wptx1:WaypointExtension>
      <ctx:CreationTimeExtension>
        <ctx:CreationTime>2014-10-26T08:38:43Z</ctx:CreationTime>
      </ctx:CreationTimeExtension>
    </extensions>
  </wpt>

  <wpt lat="45.860230028629303" lon="13.507339982315898">
    <time>2014-10-26T08:41:04Z</time>
    <name>Parco Rurale Alture di Polazzo</name>
    <cmt>0481 1995220
parcorurale.it</cmt>
    <desc>0481 1995220
parcorurale.it</desc>
    <link href="http://www.parcorurale.it"/>
    <sym>Campground</sym>
    <type>user</type>
    <extensions>
      <gpxx:WaypointExtension>
        <gpxx:DisplayMode>SymbolOnly</gpxx:DisplayMode>
        <gpxx:PhoneNumber>0481 1995220</gpxx:PhoneNumber>
      </gpxx:WaypointExtension>
      <wptx1:WaypointExtension>
        <wptx1:DisplayMode>SymbolOnly</wptx1:DisplayMode>
        <wptx1:PhoneNumber>0481 1995220</wptx1:PhoneNumber>
      </wptx1:WaypointExtension>
      <ctx:CreationTimeExtension>
        <ctx:CreationTime>2014-10-26T08:41:04Z</ctx:CreationTime>
      </ctx:CreationTimeExtension>
    </extensions>
  </wpt>

  <wpt lat="45.695000002160668" lon="13.765279976651073">
    <time>2014-10-26T08:42:36Z</time>
    <name>Pian del Grisa</name>
    <cmt>040 213142
piandelgrisa.it</cmt>
    <desc>040 213142
piandelgrisa.it</desc>
    <link href="http://www.piandelgrisa.it"/>
    <sym>Campground</sym>
    <type>user</type>
    <extensions>
      <gpxx:WaypointExtension>
        <gpxx:DisplayMode>SymbolOnly</gpxx:DisplayMode>
        <gpxx:PhoneNumber>040 213142</gpxx:PhoneNumber>
      </gpxx:WaypointExtension>
      <wptx1:WaypointExtension>
        <wptx1:DisplayMode>SymbolOnly</wptx1:DisplayMode>
        <wptx1:PhoneNumber>040 213142</wptx1:PhoneNumber>
      </wptx1:WaypointExtension>
      <ctx:CreationTimeExtension>
        <ctx:CreationTime>2014-10-26T08:42:36Z</ctx:CreationTime>
      </ctx:CreationTimeExtension>
    </extensions>
  </wpt>

  <wpt lat="46.466245651245117" lon="12.70843505859375">
    <time>2013-01-21T10:57:53Z</time>
    <name>Prosciuttificio Wolf [approx]</name>
    <cmt>0433 86054
info@wolfsauris.it</cmt>
    <desc>0433 86054
info@wolfsauris.it</desc>
    <link href="http://www.wolfsauris.com/it/?area=news&amp;id=58"/>
    <sym>Campground</sym>
    <type>user</type>
    <extensions>
      <gpxx:WaypointExtension>
        <gpxx:DisplayMode>SymbolOnly</gpxx:DisplayMode>
        <gpxx:PhoneNumber>0433 86054</gpxx:PhoneNumber>
      </gpxx:WaypointExtension>
      <wptx1:WaypointExtension>
        <wptx1:DisplayMode>SymbolOnly</wptx1:DisplayMode>
        <wptx1:PhoneNumber>0433 86054</wptx1:PhoneNumber>
      </wptx1:WaypointExtension>
      <ctx:CreationTimeExtension>
        <ctx:CreationTime>2013-01-21T10:57:53Z</ctx:CreationTime>
      </ctx:CreationTimeExtension>
    </extensions>
  </wpt>

  <wpt lat="45.694631701335311" lon="13.452472295612097">
    <time>2014-10-26T08:44:46Z</time>
    <name>Punta Spin</name>
    <cmt>0431 81780
puntaspin.it</cmt>
    <desc>0431 81780
puntaspin.it</desc>
    <link href="http://www.puntaspin.it"/>
    <sym>Campground</sym>
    <type>user</type>
    <extensions>
      <gpxx:WaypointExtension>
        <gpxx:DisplayMode>SymbolOnly</gpxx:DisplayMode>
        <gpxx:PhoneNumber>0431 81780</gpxx:PhoneNumber>
      </gpxx:WaypointExtension>
      <wptx1:WaypointExtension>
        <wptx1:DisplayMode>SymbolOnly</wptx1:DisplayMode>
        <wptx1:PhoneNumber>0431 81780</wptx1:PhoneNumber>
      </wptx1:WaypointExtension>
      <ctx:CreationTimeExtension>
        <ctx:CreationTime>2014-10-26T08:44:46Z</ctx:CreationTime>
      </ctx:CreationTimeExtension>
    </extensions>
  </wpt>

  <wpt lat="45.681670010089874" lon="13.125559967011213">
    <time>2014-10-26T08:46:46Z</time>
    <name>Sabbiadoro (Lignano)</name>
    <cmt>0431 71455
campingsabbiadoro.it</cmt>
    <desc>0431 71455
campingsabbiadoro.it</desc>
    <link href="http://www.campingsabbiadoro.it"/>
    <sym>Campground</sym>
    <type>user</type>
    <extensions>
      <gpxx:WaypointExtension>
        <gpxx:DisplayMode>SymbolOnly</gpxx:DisplayMode>
        <gpxx:PhoneNumber>0431 71455</gpxx:PhoneNumber>
      </gpxx:WaypointExtension>
      <wptx1:WaypointExtension>
        <wptx1:DisplayMode>SymbolOnly</wptx1:DisplayMode>
        <wptx1:PhoneNumber>0431 71455</wptx1:PhoneNumber>
      </wptx1:WaypointExtension>
      <ctx:CreationTimeExtension>
        <ctx:CreationTime>2014-10-26T08:46:46Z</ctx:CreationTime>
      </ctx:CreationTimeExtension>
    </extensions>
  </wpt>

  <wpt lat="45.596907511353493" lon="13.72465331107378">
    <time>2014-10-26T08:49:58Z</time>
    <name>San Bartolomeo</name>
    <cmt>040 271275
campeggiosanbartolomeo.it</cmt>
    <desc>040 271275
campeggiosanbartolomeo.it</desc>
    <link href="http://www.campeggiosanbartolomeo.it"/>
    <sym>Campground</sym>
    <type>user</type>
    <extensions>
      <gpxx:WaypointExtension>
        <gpxx:DisplayMode>SymbolOnly</gpxx:DisplayMode>
        <gpxx:PhoneNumber>040 271275</gpxx:PhoneNumber>
      </gpxx:WaypointExtension>
      <wptx1:WaypointExtension>
        <wptx1:DisplayMode>SymbolOnly</wptx1:DisplayMode>
        <wptx1:PhoneNumber>040 271275</wptx1:PhoneNumber>
      </wptx1:WaypointExtension>
      <ctx:CreationTimeExtension>
        <ctx:CreationTime>2014-10-26T08:49:58Z</ctx:CreationTime>
      </ctx:CreationTimeExtension>
    </extensions>
  </wpt>

  <wpt lat="46.191098364070058" lon="12.571653546765447">
    <ele>426</ele>
    <time>2012-12-18T14:16:30Z</time>
    <name>San Francesco (Barcis)</name>
    <cmt>0427 76366
331 945 0910
info@campingbarcis.it
MAY/SEPT/OCT - WEEKENDS ONLY</cmt>
    <desc>0427 76366
331 945 0910
info@campingbarcis.it
MAY/SEPT/OCT - WEEKENDS ONLY</desc>
    <link href="http://www.campingbarcis.it"/>
    <sym>Campground</sym>
    <type>user</type>
    <extensions>
      <gpxx:WaypointExtension>
        <gpxx:DisplayMode>SymbolOnly</gpxx:DisplayMode>
        <gpxx:PhoneNumber>0427 76366</gpxx:PhoneNumber>
        <gpxx:PhoneNumber>331 9450910</gpxx:PhoneNumber>
      </gpxx:WaypointExtension>
      <wptx1:WaypointExtension>
        <wptx1:DisplayMode>SymbolOnly</wptx1:DisplayMode>
        <wptx1:PhoneNumber>0427 76366</wptx1:PhoneNumber>
        <wptx1:PhoneNumber>331 9450910</wptx1:PhoneNumber>
      </wptx1:WaypointExtension>
      <ctx:CreationTimeExtension>
        <ctx:CreationTime>2012-12-18T14:16:30Z</ctx:CreationTime>
      </ctx:CreationTimeExtension>
    </extensions>
  </wpt>

  <wpt lat="46.489537535235286" lon="12.866965178400278">
    <time>2012-12-18T13:52:06Z</time>
    <name>Spin (Ovaro)</name>
    <cmt>0433 67047
349 544 6591
campeggiospin.it</cmt>
    <desc>0433 67047
349 544 6591
campeggiospin.it</desc>
    <link href="http://www.campeggiospin.it"/>
    <sym>Campground</sym>
    <type>user</type>
    <extensions>
      <gpxx:WaypointExtension>
        <gpxx:DisplayMode>SymbolOnly</gpxx:DisplayMode>
        <gpxx:PhoneNumber>0433 67047</gpxx:PhoneNumber>
        <gpxx:PhoneNumber>349 5446591</gpxx:PhoneNumber>
      </gpxx:WaypointExtension>
      <wptx1:WaypointExtension>
        <wptx1:DisplayMode>SymbolOnly</wptx1:DisplayMode>
        <wptx1:PhoneNumber>0433 67047</wptx1:PhoneNumber>
        <wptx1:PhoneNumber>349 5446591</wptx1:PhoneNumber>
      </wptx1:WaypointExtension>
      <ctx:CreationTimeExtension>
        <ctx:CreationTime>2012-12-18T13:52:06Z</ctx:CreationTime>
      </ctx:CreationTimeExtension>
    </extensions>
  </wpt>

  <wpt lat="45.704719992354512" lon="13.464169995859265">
    <time>2014-10-26T08:52:18Z</time>
    <name>Tenuta Primero</name>
    <cmt>0431 896900
tenuta.primero.com</cmt>
    <desc>0431 896900
tenuta.primero.com</desc>
    <link href="http://www.tenuta.primero.com"/>
    <sym>Campground</sym>
    <type>user</type>
    <extensions>
      <gpxx:WaypointExtension>
        <gpxx:DisplayMode>SymbolOnly</gpxx:DisplayMode>
        <gpxx:PhoneNumber>0431 896900</gpxx:PhoneNumber>
      </gpxx:WaypointExtension>
      <wptx1:WaypointExtension>
        <wptx1:DisplayMode>SymbolOnly</wptx1:DisplayMode>
        <wptx1:PhoneNumber>0431 896900</wptx1:PhoneNumber>
      </wptx1:WaypointExtension>
      <ctx:CreationTimeExtension>
        <ctx:CreationTime>2014-10-26T08:52:18Z</ctx:CreationTime>
      </ctx:CreationTimeExtension>
    </extensions>
  </wpt>

  <wpt lat="46.412690319120884" lon="12.594468332827091">
    <time>2012-12-18T13:53:05Z</time>
    <name>Tornerai</name>
    <cmt>0433 88035
340 491 1414
campingtornerai.it</cmt>
    <desc>0433 88035
340 491 1414
campingtornerai.it</desc>
    <link href="http://www.campingtornerai.it"/>
    <sym>Campground</sym>
    <type>user</type>
    <extensions>
      <gpxx:WaypointExtension>
        <gpxx:DisplayMode>SymbolOnly</gpxx:DisplayMode>
        <gpxx:PhoneNumber>0433 88035</gpxx:PhoneNumber>
        <gpxx:PhoneNumber>340 4911414</gpxx:PhoneNumber>
      </gpxx:WaypointExtension>
      <wptx1:WaypointExtension>
        <wptx1:DisplayMode>SymbolOnly</wptx1:DisplayMode>
        <wptx1:PhoneNumber>0433 88035</wptx1:PhoneNumber>
        <wptx1:PhoneNumber>340 4911414</wptx1:PhoneNumber>
      </wptx1:WaypointExtension>
      <ctx:CreationTimeExtension>
        <ctx:CreationTime>2012-12-18T13:53:05Z</ctx:CreationTime>
      </ctx:CreationTimeExtension>
    </extensions>
  </wpt>

  <wpt lat="46.326110037043691" lon="13.063330035656691">
    <time>2012-12-03T20:50:01Z</time>
    <name>Val del Lago</name>
    <cmt>0432 979464
348 243 1337
valdellago.it</cmt>
    <desc>0432 979464
348 243 1337
valdellago.it</desc>
    <link href="http://www.valdellago.it"/>
    <sym>Campground</sym>
    <type>user</type>
    <extensions>
      <gpxx:WaypointExtension>
        <gpxx:DisplayMode>SymbolOnly</gpxx:DisplayMode>
      </gpxx:WaypointExtension>
      <wptx1:WaypointExtension>
        <wptx1:DisplayMode>SymbolOnly</wptx1:DisplayMode>
      </wptx1:WaypointExtension>
      <ctx:CreationTimeExtension>
        <ctx:CreationTime>2012-12-03T20:50:01Z</ctx:CreationTime>
      </ctx:CreationTimeExtension>
    </extensions>
  </wpt>

  <wpt lat="46.283961972221732" lon="12.789311036467552">
    <ele>364</ele>
    <time>2012-10-07T11:13:43Z</time>
    <name>Valtramontina</name>
    <cmt>0427 869004
333 626 2164
camptramontina.com</cmt>
    <desc>0427 869004
333 626 2164
camptramontina.com</desc>
    <link href="www.camptramontina.com"/>
    <sym>Campground</sym>
    <type>user</type>
    <extensions>
      <gpxx:WaypointExtension>
        <gpxx:DisplayMode>SymbolOnly</gpxx:DisplayMode>
        <gpxx:PhoneNumber>0427 869004</gpxx:PhoneNumber>
        <gpxx:PhoneNumber>333 6262164</gpxx:PhoneNumber>
      </gpxx:WaypointExtension>
      <wptx1:WaypointExtension>
        <wptx1:DisplayMode>SymbolOnly</wptx1:DisplayMode>
        <wptx1:PhoneNumber>0427 869004</wptx1:PhoneNumber>
        <wptx1:PhoneNumber>333 6262164</wptx1:PhoneNumber>
      </wptx1:WaypointExtension>
      <ctx:CreationTimeExtension>
        <ctx:CreationTime>2012-10-07T11:13:43Z</ctx:CreationTime>
      </ctx:CreationTimeExtension>
    </extensions>
  </wpt>

  <wpt lat="46.521431179717183" lon="12.922039479017258">
    <time>2012-12-18T13:57:18Z</time>
    <name>Zoncolan (Albergo Pace Alpino)</name>
    <cmt>0433 66018
pacealpina.it</cmt>
    <desc>0433 66018
pacealpina.it</desc>
    <link href="http://www.pacealpina.it/eng/campeggio.html"/>
    <sym>Campground</sym>
    <type>user</type>
    <extensions>
      <gpxx:WaypointExtension>
        <gpxx:DisplayMode>SymbolOnly</gpxx:DisplayMode>
        <gpxx:PhoneNumber>0433 66018</gpxx:PhoneNumber>
      </gpxx:WaypointExtension>
      <wptx1:WaypointExtension>
        <wptx1:DisplayMode>SymbolOnly</wptx1:DisplayMode>
        <wptx1:PhoneNumber>0433 66018</wptx1:PhoneNumber>
      </wptx1:WaypointExtension>
      <ctx:CreationTimeExtension>
        <ctx:CreationTime>2012-12-18T13:57:18Z</ctx:CreationTime>
      </ctx:CreationTimeExtension>
    </extensions>
  </wpt>

</gpx>
