<?xml version="1.0"?>
<gpx xmlns="http://www.topografix.com/GPX/1/1" xmlns:xsi="http://www.w3.org/2001/XMLSchema-instance" xmlns:wptx1="http://www.garmin.com/xmlschemas/WaypointExtension/v1" xmlns:gpxtrx="http://www.garmin.com/xmlschemas/GpxExtensions/v3" xmlns:gpxtpx="http://www.garmin.com/xmlschemas/TrackPointExtension/v1" xmlns:gpxx="http://www.garmin.com/xmlschemas/GpxExtensions/v3" xmlns:trp="http://www.garmin.com/xmlschemas/TripExtensions/v1" xmlns:adv="http://www.garmin.com/xmlschemas/AdventuresExtensions/v1" xmlns:prs="http://www.garmin.com/xmlschemas/PressureExtension/v1" xmlns:tmd="http://www.garmin.com/xmlschemas/TripMetaDataExtensions/v1" xmlns:vptm="http://www.garmin.com/xmlschemas/ViaPointTransportationModeExtensions/v1" xmlns:ctx="http://www.garmin.com/xmlschemas/CreationTimeExtension/v1" xmlns:gpxacc="http://www.garmin.com/xmlschemas/AccelerationExtension/v1" xmlns:gpxpx="http://www.garmin.com/xmlschemas/PowerExtension/v1" xmlns:vidx1="http://www.garmin.com/xmlschemas/VideoExtension/v1" creator="Garmin Desktop App" version="1.1" xsi:schemaLocation="http://www.topografix.com/GPX/1/1 http://www.topografix.com/GPX/1/1/gpx.xsd http://www.garmin.com/xmlschemas/WaypointExtension/v1 http://www8.garmin.com/xmlschemas/WaypointExtensionv1.xsd http://www.garmin.com/xmlschemas/TrackPointExtension/v1 http://www.garmin.com/xmlschemas/TrackPointExtensionv1.xsd http://www.garmin.com/xmlschemas/GpxExtensions/v3 http://www8.garmin.com/xmlschemas/GpxExtensionsv3.xsd http://www.garmin.com/xmlschemas/ActivityExtension/v1 http://www8.garmin.com/xmlschemas/ActivityExtensionv1.xsd http://www.garmin.com/xmlschemas/AdventuresExtensions/v1 http://www8.garmin.com/xmlschemas/AdventuresExtensionv1.xsd http://www.garmin.com/xmlschemas/PressureExtension/v1 http://www.garmin.com/xmlschemas/PressureExtensionv1.xsd http://www.garmin.com/xmlschemas/TripExtensions/v1 http://www.garmin.com/xmlschemas/TripExtensionsv1.xsd http://www.garmin.com/xmlschemas/TripMetaDataExtensions/v1 http://www.garmin.com/xmlschemas/TripMetaDataExtensionsv1.xsd http://www.garmin.com/xmlschemas/ViaPointTransportationModeExtensions/v1 http://www.garmin.com/xmlschemas/ViaPointTransportationModeExtensionsv1.xsd http://www.garmin.com/xmlschemas/CreationTimeExtension/v1 http://www.garmin.com/xmlschemas/CreationTimeExtensionsv1.xsd http://www.garmin.com/xmlschemas/AccelerationExtension/v1 http://www.garmin.com/xmlschemas/AccelerationExtensionv1.xsd http://www.garmin.com/xmlschemas/PowerExtension/v1 http://www.garmin.com/xmlschemas/PowerExtensionv1.xsd http://www.garmin.com/xmlschemas/VideoExtension/v1 http://www.garmin.com/xmlschemas/VideoExtensionv1.xsd">

  <metadata>
    <link href="http://www.garmin.com">
      <text>Garmin International</text>
    </link>
    <time>2017-03-07T08:02:01Z</time>
    <bounds maxlat="43.454000037163496" maxlon="13.936110036447644" minlat="41.772780027240515" minlon="12.015830017626286"/>
  </metadata>

  <wpt lat="42.718890029937029" lon="12.057499978691339">
    <time>2016-08-08T14:39:36Z</time>
    <name>Agriturismo Sossogna</name>
    <cmt>Località Rocca Ripesena 61
Orvieto
+39 0763 343 141
sossogna.net</cmt>
    <desc>Località Rocca Ripesena 61
Orvieto
+39 0763 343 141
sossogna.net</desc>
    <link href="http://www.sossogna.net/"/>
    <sym>Campground</sym>
    <type>user</type>
    <extensions>
      <gpxx:WaypointExtension>
        <gpxx:DisplayMode>SymbolOnly</gpxx:DisplayMode>
      </gpxx:WaypointExtension>
      <wptx1:WaypointExtension>
        <wptx1:DisplayMode>SymbolOnly</wptx1:DisplayMode>
      </wptx1:WaypointExtension>
      <ctx:CreationTimeExtension>
        <ctx:CreationTime>2016-08-08T14:39:36Z</ctx:CreationTime>
      </ctx:CreationTimeExtension>
    </extensions>
  </wpt>

  <wpt lat="43.167376918718219" lon="12.798198033124208">
    <time>2012-12-19T12:46:52Z</time>
    <name>Agriturismo Villa della Cupa</name>
    <cmt>0742 810329
349 3165891 (only late afternoons!)
info@villadellacupa.com</cmt>
    <desc>0742 810329
349 3165891 (only late afternoons!)
info@villadellacupa.com</desc>
    <link href="http://www.villadellacupa.com"/>
    <sym>Campground</sym>
    <type>user</type>
    <extensions>
      <gpxx:WaypointExtension>
        <gpxx:DisplayMode>SymbolOnly</gpxx:DisplayMode>
        <gpxx:PhoneNumber>0742 810329</gpxx:PhoneNumber>
        <gpxx:PhoneNumber>349 3165891 (only late afternoons!)</gpxx:PhoneNumber>
      </gpxx:WaypointExtension>
      <wptx1:WaypointExtension>
        <wptx1:DisplayMode>SymbolOnly</wptx1:DisplayMode>
        <wptx1:PhoneNumber>0742 810329</wptx1:PhoneNumber>
        <wptx1:PhoneNumber>349 3165891 (only late afternoons!)</wptx1:PhoneNumber>
      </wptx1:WaypointExtension>
      <ctx:CreationTimeExtension>
        <ctx:CreationTime>2012-12-19T12:46:52Z</ctx:CreationTime>
      </ctx:CreationTimeExtension>
    </extensions>
  </wpt>

  <wpt lat="43.180280020460486" lon="12.015830017626286">
    <time>2012-12-03T20:50:01Z</time>
    <name>Badiaccia  (Lago di Trasimeno)</name>
    <cmt>075 9659097	
335 6189223 (inverno)
0758230103 (inverno)
badiaccia.com</cmt>
    <desc>075 9659097	
335 6189223 (inverno)
0758230103 (inverno)
badiaccia.com</desc>
    <link href="http://www.badiaccia.com/"/>
    <sym>Campground</sym>
    <type>user</type>
    <extensions>
      <gpxx:WaypointExtension>
        <gpxx:DisplayMode>SymbolOnly</gpxx:DisplayMode>
        <gpxx:PhoneNumber>075 9659097</gpxx:PhoneNumber>
        <gpxx:PhoneNumber>335 6189223 (inverno)</gpxx:PhoneNumber>
        <gpxx:PhoneNumber>0758230103 (inverno)</gpxx:PhoneNumber>
      </gpxx:WaypointExtension>
      <wptx1:WaypointExtension>
        <wptx1:DisplayMode>SymbolOnly</wptx1:DisplayMode>
        <wptx1:PhoneNumber>075 9659097</wptx1:PhoneNumber>
        <wptx1:PhoneNumber>335 6189223 (inverno)</wptx1:PhoneNumber>
        <wptx1:PhoneNumber>0758230103 (inverno)</wptx1:PhoneNumber>
      </wptx1:WaypointExtension>
      <ctx:CreationTimeExtension>
        <ctx:CreationTime>2012-12-03T20:50:01Z</ctx:CreationTime>
      </ctx:CreationTimeExtension>
    </extensions>
  </wpt>

  <wpt lat="43.454000037163496" lon="12.194999987259507">
    <time>2012-12-19T12:46:52Z</time>
    <name>Ca' Solare</name>
    <cmt>075 855 9642
335 5247 644
agriturismo.casolare@gmail.com</cmt>
    <desc>075 855 9642
335 5247 644
agriturismo.casolare@gmail.com</desc>
    <link href="http://www.agriturismo-casolare.it/"/>
    <sym>Campground</sym>
    <type>user</type>
    <extensions>
      <gpxx:WaypointExtension>
        <gpxx:DisplayMode>SymbolAndName</gpxx:DisplayMode>
        <gpxx:Categories>
          <gpxx:Category>apennines-waypoints</gpxx:Category>
          <gpxx:Category>camping-umbria</gpxx:Category>
        </gpxx:Categories>
        <gpxx:Address>
          <gpxx:StreetAddress>Localita' Uppiano 14</gpxx:StreetAddress>
          <gpxx:City>Citta' di Castello</gpxx:City>
          <gpxx:State>PG</gpxx:State>
        </gpxx:Address>
        <gpxx:PhoneNumber>075 855 9642</gpxx:PhoneNumber>
        <gpxx:PhoneNumber>335 5247 644</gpxx:PhoneNumber>
      </gpxx:WaypointExtension>
      <wptx1:WaypointExtension>
        <wptx1:DisplayMode>SymbolAndName</wptx1:DisplayMode>
        <wptx1:Categories>
          <wptx1:Category>apennines-waypoints</wptx1:Category>
          <wptx1:Category>camping-umbria</wptx1:Category>
        </wptx1:Categories>
        <wptx1:Address>
          <wptx1:StreetAddress>Localita' Uppiano 14</wptx1:StreetAddress>
          <wptx1:City>Citta' di Castello</wptx1:City>
          <wptx1:State>PG</wptx1:State>
        </wptx1:Address>
        <wptx1:PhoneNumber>075 855 9642</wptx1:PhoneNumber>
        <wptx1:PhoneNumber>335 5247 644</wptx1:PhoneNumber>
      </wptx1:WaypointExtension>
      <ctx:CreationTimeExtension>
        <ctx:CreationTime>2012-12-19T12:46:52Z</ctx:CreationTime>
      </ctx:CreationTimeExtension>
    </extensions>
  </wpt>

  <wpt lat="43.075833292677999" lon="12.573333363980055">
    <time>2012-12-19T12:46:52Z</time>
    <name>Camping Assisi</name>
    <cmt>075 816816
campingassisi.it</cmt>
    <desc>075 816816
campingassisi.it</desc>
    <link href="http://www.campingassisi.it"/>
    <sym>Campground</sym>
    <type>user</type>
    <extensions>
      <gpxx:WaypointExtension>
        <gpxx:DisplayMode>SymbolOnly</gpxx:DisplayMode>
        <gpxx:PhoneNumber>075 816816</gpxx:PhoneNumber>
        <gpxx:PhoneNumber>075 813710</gpxx:PhoneNumber>
      </gpxx:WaypointExtension>
      <wptx1:WaypointExtension>
        <wptx1:DisplayMode>SymbolOnly</wptx1:DisplayMode>
        <wptx1:PhoneNumber>075 816816</wptx1:PhoneNumber>
        <wptx1:PhoneNumber>075 813710</wptx1:PhoneNumber>
      </wptx1:WaypointExtension>
      <ctx:CreationTimeExtension>
        <ctx:CreationTime>2012-12-19T12:46:52Z</ctx:CreationTime>
      </ctx:CreationTimeExtension>
    </extensions>
  </wpt>

  <wpt lat="43.434472214430571" lon="12.424333300441504">
    <time>2012-12-19T12:46:52Z</time>
    <name>Candeleto (formerly La Pineta) (Pietralunga)</name>
    <cmt>075 9460799
candeleto@candeleto.it</cmt>
    <desc>075 9460799
candeleto@candeleto.it</desc>
    <link href="http://www.campingpineta.net"/>
    <sym>Campground</sym>
    <type>user</type>
    <extensions>
      <gpxx:WaypointExtension>
        <gpxx:DisplayMode>SymbolOnly</gpxx:DisplayMode>
        <gpxx:PhoneNumber>075 9460799</gpxx:PhoneNumber>
      </gpxx:WaypointExtension>
      <wptx1:WaypointExtension>
        <wptx1:DisplayMode>SymbolOnly</wptx1:DisplayMode>
        <wptx1:PhoneNumber>075 9460799</wptx1:PhoneNumber>
      </wptx1:WaypointExtension>
      <ctx:CreationTimeExtension>
        <ctx:CreationTime>2012-12-19T12:46:52Z</ctx:CreationTime>
      </ctx:CreationTimeExtension>
    </extensions>
  </wpt>

  <wpt lat="42.409166637808084" lon="12.463333373889327">
    <time>2013-01-14T11:33:41Z</time>
    <name>Capitello</name>
    <cmt>340 9790652
capitellocamping.com</cmt>
    <desc>340 9790652
capitellocamping.com</desc>
    <link href="http://www.capitellocamping.com"/>
    <sym>Campground</sym>
    <type>user</type>
    <extensions>
      <gpxx:WaypointExtension>
        <gpxx:DisplayMode>SymbolOnly</gpxx:DisplayMode>
        <gpxx:PhoneNumber>340 9790652</gpxx:PhoneNumber>
      </gpxx:WaypointExtension>
      <wptx1:WaypointExtension>
        <wptx1:DisplayMode>SymbolOnly</wptx1:DisplayMode>
        <wptx1:PhoneNumber>340 9790652</wptx1:PhoneNumber>
      </wptx1:WaypointExtension>
      <ctx:CreationTimeExtension>
        <ctx:CreationTime>2013-01-14T11:33:41Z</ctx:CreationTime>
      </ctx:CreationTimeExtension>
    </extensions>
  </wpt>

  <wpt lat="42.551550026983023" lon="12.717839973047376">
    <time>2012-12-19T12:46:52Z</time>
    <name>Cascata delle Marmore1</name>
    <cmt>0744 67198
333 4217817 
0744 389792 (fuori stagione)
campinglemarmore.com</cmt>
    <desc>0744 67198
333 4217817 
0744 389792 (fuori stagione)
campinglemarmore.com</desc>
    <link href="http://www.campinglemarmore.com/"/>
    <sym>Campground</sym>
    <type>user</type>
    <extensions>
      <gpxx:WaypointExtension>
        <gpxx:DisplayMode>SymbolOnly</gpxx:DisplayMode>
        <gpxx:PhoneNumber>0744 67198</gpxx:PhoneNumber>
        <gpxx:PhoneNumber>333 4217817</gpxx:PhoneNumber>
        <gpxx:PhoneNumber>0744 389792 (fuori stagione)</gpxx:PhoneNumber>
      </gpxx:WaypointExtension>
      <wptx1:WaypointExtension>
        <wptx1:DisplayMode>SymbolOnly</wptx1:DisplayMode>
        <wptx1:PhoneNumber>0744 67198</wptx1:PhoneNumber>
        <wptx1:PhoneNumber>333 4217817</wptx1:PhoneNumber>
        <wptx1:PhoneNumber>0744 389792 (fuori stagione)</wptx1:PhoneNumber>
      </wptx1:WaypointExtension>
      <ctx:CreationTimeExtension>
        <ctx:CreationTime>2012-12-19T12:46:52Z</ctx:CreationTime>
      </ctx:CreationTimeExtension>
    </extensions>
  </wpt>

  <wpt lat="43.147773742675781" lon="12.16886043548584">
    <time>2012-12-03T21:03:14Z</time>
    <name>Cerquestra</name>
    <cmt>075 8400100
075 953837 (inverno)
info@campingcerquestra.it</cmt>
    <desc>075 8400100
075 953837 (inverno)
info@campingcerquestra.it</desc>
    <link href="http://www.campingcerquestra.it"/>
    <sym>Campground</sym>
    <type>user</type>
    <extensions>
      <gpxx:WaypointExtension>
        <gpxx:DisplayMode>SymbolOnly</gpxx:DisplayMode>
        <gpxx:PhoneNumber>075 8400100</gpxx:PhoneNumber>
      </gpxx:WaypointExtension>
      <wptx1:WaypointExtension>
        <wptx1:DisplayMode>SymbolOnly</wptx1:DisplayMode>
        <wptx1:PhoneNumber>075 8400100</wptx1:PhoneNumber>
      </wptx1:WaypointExtension>
      <ctx:CreationTimeExtension>
        <ctx:CreationTime>2012-12-03T21:03:14Z</ctx:CreationTime>
      </ctx:CreationTimeExtension>
    </extensions>
  </wpt>

  <wpt lat="43.321650037541986" lon="12.56873999722302">
    <time>2012-12-19T12:46:52Z</time>
    <name>Città di Gubbio/Villa Ortoguidone</name>
    <cmt>075 9272037
info@gubbiocamping.com</cmt>
    <desc>075 9272037
info@gubbiocamping.com</desc>
    <link href="http://www.gubbiocamping.com"/>
    <sym>Campground</sym>
    <type>user</type>
    <extensions>
      <gpxx:WaypointExtension>
        <gpxx:DisplayMode>SymbolOnly</gpxx:DisplayMode>
        <gpxx:Categories>
          <gpxx:Category>apennines-waypoints</gpxx:Category>
          <gpxx:Category>camping-umbria</gpxx:Category>
        </gpxx:Categories>
        <gpxx:Address>
          <gpxx:StreetAddress>Localita' Ortoguidone, Frazione Cipolleto 49</gpxx:StreetAddress>
          <gpxx:City>Gubbio</gpxx:City>
          <gpxx:State>PG</gpxx:State>
        </gpxx:Address>
        <gpxx:PhoneNumber>075 927 2037</gpxx:PhoneNumber>
      </gpxx:WaypointExtension>
      <wptx1:WaypointExtension>
        <wptx1:DisplayMode>SymbolOnly</wptx1:DisplayMode>
        <wptx1:Categories>
          <wptx1:Category>apennines-waypoints</wptx1:Category>
          <wptx1:Category>camping-umbria</wptx1:Category>
        </wptx1:Categories>
        <wptx1:Address>
          <wptx1:StreetAddress>Localita' Ortoguidone, Frazione Cipolleto 49</wptx1:StreetAddress>
          <wptx1:City>Gubbio</wptx1:City>
          <wptx1:State>PG</wptx1:State>
        </wptx1:Address>
        <wptx1:PhoneNumber>075 927 2037</wptx1:PhoneNumber>
      </wptx1:WaypointExtension>
      <ctx:CreationTimeExtension>
        <ctx:CreationTime>2012-12-19T12:46:52Z</ctx:CreationTime>
      </ctx:CreationTimeExtension>
    </extensions>
  </wpt>

  <wpt lat="42.53475277684629" lon="12.7720916736871">
    <time>2012-12-19T12:46:52Z</time>
    <name>Cuore Verde</name>
    <cmt>349 4987423
campingcuoreverde.it</cmt>
    <desc>349 4987423
campingcuoreverde.it</desc>
    <link href="http://www.campingcuoreverde.it"/>
    <sym>Campground</sym>
    <type>user</type>
    <extensions>
      <gpxx:WaypointExtension>
        <gpxx:DisplayMode>SymbolOnly</gpxx:DisplayMode>
        <gpxx:PhoneNumber>349 4987423</gpxx:PhoneNumber>
      </gpxx:WaypointExtension>
      <wptx1:WaypointExtension>
        <wptx1:DisplayMode>SymbolOnly</wptx1:DisplayMode>
        <wptx1:PhoneNumber>349 4987423</wptx1:PhoneNumber>
      </wptx1:WaypointExtension>
      <ctx:CreationTimeExtension>
        <ctx:CreationTime>2012-12-19T12:46:52Z</ctx:CreationTime>
      </ctx:CreationTimeExtension>
    </extensions>
  </wpt>

  <wpt lat="43.158888900652528" lon="12.186666699126363">
    <time>2012-12-03T20:50:01Z</time>
    <name>Eden Park (Lago di Trasimeno)</name>
    <cmt>075 843320
campingedenpark.com</cmt>
    <desc>075 843320
campingedenpark.com</desc>
    <link href="http://www.campingedenpark.com"/>
    <sym>Campground</sym>
    <type>user</type>
    <extensions>
      <gpxx:WaypointExtension>
        <gpxx:DisplayMode>SymbolOnly</gpxx:DisplayMode>
        <gpxx:PhoneNumber>075 843320</gpxx:PhoneNumber>
      </gpxx:WaypointExtension>
      <wptx1:WaypointExtension>
        <wptx1:DisplayMode>SymbolOnly</wptx1:DisplayMode>
        <wptx1:PhoneNumber>075 843320</wptx1:PhoneNumber>
      </wptx1:WaypointExtension>
      <ctx:CreationTimeExtension>
        <ctx:CreationTime>2012-12-03T20:50:01Z</ctx:CreationTime>
      </ctx:CreationTimeExtension>
    </extensions>
  </wpt>

  <wpt lat="43.180570034310222" lon="12.164330016821623">
    <time>2012-12-19T12:46:52Z</time>
    <name>Europa (Lago di Trasimeno)</name>
    <cmt>075 827405
campingvillageeuropa.it</cmt>
    <desc>075 827405
campingvillageeuropa.it</desc>
    <link href="http://www.campingvillageeuropa.it"/>
    <sym>Campground</sym>
    <type>user</type>
    <extensions>
      <gpxx:WaypointExtension>
        <gpxx:DisplayMode>SymbolOnly</gpxx:DisplayMode>
        <gpxx:PhoneNumber>075 827405</gpxx:PhoneNumber>
      </gpxx:WaypointExtension>
      <wptx1:WaypointExtension>
        <wptx1:DisplayMode>SymbolOnly</wptx1:DisplayMode>
        <wptx1:PhoneNumber>075 827405</wptx1:PhoneNumber>
      </wptx1:WaypointExtension>
      <ctx:CreationTimeExtension>
        <ctx:CreationTime>2012-12-19T12:46:52Z</ctx:CreationTime>
      </ctx:CreationTimeExtension>
    </extensions>
  </wpt>

  <wpt lat="43.069869987666607" lon="12.62165998108685">
    <time>2012-12-19T12:46:52Z</time>
    <name>Fontemaggio</name>
    <cmt>075 812 317 
075 813 636
fontemaggio.it</cmt>
    <desc>075 812 317 
075 813 636
fontemaggio.it</desc>
    <link href="http://www.fontemaggio.it"/>
    <sym>Campground</sym>
    <type>user</type>
    <extensions>
      <gpxx:WaypointExtension>
        <gpxx:DisplayMode>SymbolOnly</gpxx:DisplayMode>
        <gpxx:PhoneNumber>075 812 317</gpxx:PhoneNumber>
        <gpxx:PhoneNumber>075 813 636</gpxx:PhoneNumber>
      </gpxx:WaypointExtension>
      <wptx1:WaypointExtension>
        <wptx1:DisplayMode>SymbolOnly</wptx1:DisplayMode>
        <wptx1:PhoneNumber>075 812 317</wptx1:PhoneNumber>
        <wptx1:PhoneNumber>075 813 636</wptx1:PhoneNumber>
      </wptx1:WaypointExtension>
      <ctx:CreationTimeExtension>
        <ctx:CreationTime>2012-12-19T12:46:52Z</ctx:CreationTime>
      </ctx:CreationTimeExtension>
    </extensions>
  </wpt>

  <wpt lat="42.97345002181828" lon="12.587779993191361">
    <time>2012-12-19T12:46:52Z</time>
    <name>Giardino degli Elfi</name>
    <cmt>0742 362014
335 6328098
ilgiardinodeglielfi.it</cmt>
    <desc>0742 362014
335 6328098
ilgiardinodeglielfi.it</desc>
    <link href="http://www.ilgiardinodeglielfi.it/"/>
    <sym>Campground</sym>
    <type>user</type>
    <extensions>
      <gpxx:WaypointExtension>
        <gpxx:DisplayMode>SymbolOnly</gpxx:DisplayMode>
        <gpxx:PhoneNumber>0742 362014</gpxx:PhoneNumber>
        <gpxx:PhoneNumber>335 6328098</gpxx:PhoneNumber>
      </gpxx:WaypointExtension>
      <wptx1:WaypointExtension>
        <wptx1:DisplayMode>SymbolOnly</wptx1:DisplayMode>
        <wptx1:PhoneNumber>0742 362014</wptx1:PhoneNumber>
        <wptx1:PhoneNumber>335 6328098</wptx1:PhoneNumber>
      </wptx1:WaypointExtension>
      <ctx:CreationTimeExtension>
        <ctx:CreationTime>2012-12-19T12:46:52Z</ctx:CreationTime>
      </ctx:CreationTimeExtension>
    </extensions>
  </wpt>

  <wpt lat="42.481243293732405" lon="12.717020306736231">
    <time>2012-12-19T12:46:52Z</time>
    <name>I Prati</name>
    <cmt>0744 336200
f.freetime@tin.it</cmt>
    <desc>0744 336200
f.freetime@tin.it</desc>
    <sym>Campground</sym>
    <type>user</type>
    <extensions>
      <gpxx:WaypointExtension>
        <gpxx:DisplayMode>SymbolOnly</gpxx:DisplayMode>
        <gpxx:PhoneNumber>0744 336200</gpxx:PhoneNumber>
        <gpxx:PhoneNumber>329 2369694</gpxx:PhoneNumber>
      </gpxx:WaypointExtension>
      <wptx1:WaypointExtension>
        <wptx1:DisplayMode>SymbolOnly</wptx1:DisplayMode>
        <wptx1:PhoneNumber>0744 336200</wptx1:PhoneNumber>
        <wptx1:PhoneNumber>329 2369694</wptx1:PhoneNumber>
      </wptx1:WaypointExtension>
      <ctx:CreationTimeExtension>
        <ctx:CreationTime>2012-12-19T12:46:52Z</ctx:CreationTime>
      </ctx:CreationTimeExtension>
    </extensions>
  </wpt>

  <wpt lat="42.888221740722656" lon="13.01480770111084">
    <time>2012-12-19T12:44:59Z</time>
    <name>Il Collaccio</name>
    <cmt>0743 665108 
0743 939005 
0743 939084
334 2611111
info@ilcollaccio.com</cmt>
    <desc>0743 665108 
0743 939005 
0743 939084
334 2611111
info@ilcollaccio.com</desc>
    <link href="http://www.ilcollaccio.com/"/>
    <sym>Campground</sym>
    <type>user</type>
    <extensions>
      <gpxx:WaypointExtension>
        <gpxx:DisplayMode>SymbolAndName</gpxx:DisplayMode>
        <gpxx:Categories>
          <gpxx:Category>apennines-waypoints</gpxx:Category>
          <gpxx:Category>camping-umbria</gpxx:Category>
        </gpxx:Categories>
        <gpxx:Address>
          <gpxx:City>Preci</gpxx:City>
          <gpxx:State>PG</gpxx:State>
        </gpxx:Address>
        <gpxx:PhoneNumber>0743 939084</gpxx:PhoneNumber>
      </gpxx:WaypointExtension>
      <wptx1:WaypointExtension>
        <wptx1:DisplayMode>SymbolAndName</wptx1:DisplayMode>
        <wptx1:Categories>
          <wptx1:Category>apennines-waypoints</wptx1:Category>
          <wptx1:Category>camping-umbria</wptx1:Category>
        </wptx1:Categories>
        <wptx1:Address>
          <wptx1:City>Preci</wptx1:City>
          <wptx1:State>PG</wptx1:State>
        </wptx1:Address>
        <wptx1:PhoneNumber>0743 939084</wptx1:PhoneNumber>
      </wptx1:WaypointExtension>
      <ctx:CreationTimeExtension>
        <ctx:CreationTime>2012-12-19T12:44:59Z</ctx:CreationTime>
      </ctx:CreationTimeExtension>
    </extensions>
  </wpt>

  <wpt lat="42.751669976860285" lon="13.015559976920485">
    <time>2016-08-08T14:34:06Z</time>
    <name>Il Drago</name>
    <cmt>Località San Giorgio di Cascia 1
+39 0743 751070
campeggioildrago.it</cmt>
    <desc>Località San Giorgio di Cascia 1
+39 0743 751070
campeggioildrago.it</desc>
    <link href="http://www.campeggioildrago.it/"/>
    <sym>Campground</sym>
    <type>user</type>
    <extensions>
      <gpxx:WaypointExtension>
        <gpxx:DisplayMode>SymbolOnly</gpxx:DisplayMode>
      </gpxx:WaypointExtension>
      <wptx1:WaypointExtension>
        <wptx1:DisplayMode>SymbolOnly</wptx1:DisplayMode>
      </wptx1:WaypointExtension>
      <ctx:CreationTimeExtension>
        <ctx:CreationTime>2016-08-08T14:34:06Z</ctx:CreationTime>
      </ctx:CreationTimeExtension>
    </extensions>
  </wpt>

  <wpt lat="42.707719802856445" lon="12.29121208190918">
    <time>2012-12-09T10:03:33Z</time>
    <name>Il Falcone (Baschi)</name>
    <cmt>0744 950249
328 3272851
campingilfalcone.com</cmt>
    <desc>0744 950249
328 3272851
campingilfalcone.com</desc>
    <link href="http://www.campingilfalcone.com"/>
    <sym>Campground</sym>
    <type>user</type>
    <extensions>
      <gpxx:WaypointExtension>
        <gpxx:DisplayMode>SymbolOnly</gpxx:DisplayMode>
        <gpxx:PhoneNumber>0744 950249</gpxx:PhoneNumber>
      </gpxx:WaypointExtension>
      <wptx1:WaypointExtension>
        <wptx1:DisplayMode>SymbolOnly</wptx1:DisplayMode>
        <wptx1:PhoneNumber>0744 950249</wptx1:PhoneNumber>
      </wptx1:WaypointExtension>
      <ctx:CreationTimeExtension>
        <ctx:CreationTime>2012-12-09T10:03:33Z</ctx:CreationTime>
      </ctx:CreationTimeExtension>
    </extensions>
  </wpt>

  <wpt lat="43.110421970486641" lon="12.32756364159286">
    <time>2012-12-19T12:46:52Z</time>
    <name>Il Rocolo</name>
    <cmt>Strada Fontana la Trinità
Perugia PG
+39 075 9288029
+39 320 252 0935
+39 393 968 6405 
+39 328 332 2119
ilrocolo.it</cmt>
    <desc>Strada Fontana la Trinità
Perugia PG
+39 075 9288029
+39 320 252 0935
+39 393 968 6405 
+39 328 332 2119
ilrocolo.it</desc>
    <link href="http://www.ilrocolo.it"/>
    <sym>Campground</sym>
    <type>user</type>
    <extensions>
      <gpxx:WaypointExtension>
        <gpxx:DisplayMode>SymbolOnly</gpxx:DisplayMode>
      </gpxx:WaypointExtension>
      <wptx1:WaypointExtension>
        <wptx1:DisplayMode>SymbolOnly</wptx1:DisplayMode>
      </wptx1:WaypointExtension>
      <ctx:CreationTimeExtension>
        <ctx:CreationTime>2012-12-19T12:46:52Z</ctx:CreationTime>
      </ctx:CreationTimeExtension>
    </extensions>
  </wpt>

  <wpt lat="43.088055532425642" lon="12.156388917937875">
    <time>2012-12-19T12:46:52Z</time>
    <name>Italgest (Lago Trasimeno)</name>
    <cmt>075 848238
italgest.com</cmt>
    <desc>075 848238
italgest.com</desc>
    <link href="http://www.italgest.com"/>
    <sym>Campground</sym>
    <type>user</type>
    <extensions>
      <gpxx:WaypointExtension>
        <gpxx:DisplayMode>SymbolOnly</gpxx:DisplayMode>
        <gpxx:PhoneNumber>075 848238</gpxx:PhoneNumber>
      </gpxx:WaypointExtension>
      <wptx1:WaypointExtension>
        <wptx1:DisplayMode>SymbolOnly</wptx1:DisplayMode>
        <wptx1:PhoneNumber>075 848238</wptx1:PhoneNumber>
      </wptx1:WaypointExtension>
      <ctx:CreationTimeExtension>
        <ctx:CreationTime>2012-12-19T12:46:52Z</ctx:CreationTime>
      </ctx:CreationTimeExtension>
    </extensions>
  </wpt>

  <wpt lat="43.183822631835938" lon="12.15062141418457">
    <time>2012-12-19T12:46:52Z</time>
    <name>Kursaal (Lago di Trasimeno)</name>
    <cmt>075 828085
kursaalhotel.net</cmt>
    <desc>075 828085
kursaalhotel.net</desc>
    <link href="http://www.kursaalhotel.net"/>
    <sym>Campground</sym>
    <type>user</type>
    <extensions>
      <gpxx:WaypointExtension>
        <gpxx:DisplayMode>SymbolOnly</gpxx:DisplayMode>
        <gpxx:PhoneNumber>075 828085</gpxx:PhoneNumber>
      </gpxx:WaypointExtension>
      <wptx1:WaypointExtension>
        <wptx1:DisplayMode>SymbolOnly</wptx1:DisplayMode>
        <wptx1:PhoneNumber>075 828085</wptx1:PhoneNumber>
      </wptx1:WaypointExtension>
      <ctx:CreationTimeExtension>
        <ctx:CreationTime>2012-12-19T12:46:52Z</ctx:CreationTime>
      </ctx:CreationTimeExtension>
    </extensions>
  </wpt>

  <wpt lat="43.451629970222712" lon="12.222109995782375">
    <time>2012-12-19T12:46:52Z</time>
    <name>La Montesca (Citta di Castello)</name>
    <cmt>075 855 8566</cmt>
    <desc>075 855 8566</desc>
    <link href="http://www.lamontesca.it/"/>
    <sym>Campground</sym>
    <type>user</type>
    <extensions>
      <gpxx:WaypointExtension>
        <gpxx:DisplayMode>SymbolOnly</gpxx:DisplayMode>
        <gpxx:PhoneNumber>075 8558566</gpxx:PhoneNumber>
      </gpxx:WaypointExtension>
      <wptx1:WaypointExtension>
        <wptx1:DisplayMode>SymbolOnly</wptx1:DisplayMode>
        <wptx1:PhoneNumber>075 8558566</wptx1:PhoneNumber>
      </wptx1:WaypointExtension>
      <ctx:CreationTimeExtension>
        <ctx:CreationTime>2012-12-19T12:46:52Z</ctx:CreationTime>
      </ctx:CreationTimeExtension>
    </extensions>
  </wpt>

  <wpt lat="43.183890022337437" lon="12.148610008880496">
    <time>2012-12-03T20:50:01Z</time>
    <name>La Spiaggia (Lago di Trasimeno)</name>
    <cmt>075 827246
campinglaspiaggia.it</cmt>
    <desc>075 827246
campinglaspiaggia.it</desc>
    <link href="http://www.campinglaspiaggia.it"/>
    <sym>Campground</sym>
    <type>user</type>
    <extensions>
      <gpxx:WaypointExtension>
        <gpxx:DisplayMode>SymbolOnly</gpxx:DisplayMode>
        <gpxx:PhoneNumber>075 827246</gpxx:PhoneNumber>
      </gpxx:WaypointExtension>
      <wptx1:WaypointExtension>
        <wptx1:DisplayMode>SymbolOnly</wptx1:DisplayMode>
        <wptx1:PhoneNumber>075 827246</wptx1:PhoneNumber>
      </wptx1:WaypointExtension>
      <ctx:CreationTimeExtension>
        <ctx:CreationTime>2012-12-03T20:50:01Z</ctx:CreationTime>
      </ctx:CreationTimeExtension>
    </extensions>
  </wpt>

  <wpt lat="41.772780027240515" lon="13.936110036447644">
    <time>2012-12-03T20:50:01Z</time>
    <name>Le Quite (Civitella Alfedena)</name>
    <cmt>+39 333 8119 803
campinglequite.eu</cmt>
    <desc>+39 333 8119 803
campinglequite.eu</desc>
    <link href="http://www.campinglequite.eu/"/>
    <sym>Campground</sym>
    <type>user</type>
    <extensions>
      <gpxx:WaypointExtension>
        <gpxx:DisplayMode>SymbolOnly</gpxx:DisplayMode>
        <gpxx:PhoneNumber>333 8119803</gpxx:PhoneNumber>
      </gpxx:WaypointExtension>
      <wptx1:WaypointExtension>
        <wptx1:DisplayMode>SymbolOnly</wptx1:DisplayMode>
        <wptx1:PhoneNumber>333 8119803</wptx1:PhoneNumber>
      </wptx1:WaypointExtension>
      <ctx:CreationTimeExtension>
        <ctx:CreationTime>2012-12-03T20:50:01Z</ctx:CreationTime>
      </ctx:CreationTimeExtension>
    </extensions>
  </wpt>

  <wpt lat="43.133997917175293" lon="12.044491767883301">
    <time>2012-12-19T12:46:52Z</time>
    <name>Listro (Lago di Trasimeno)</name>
    <cmt>Via Lungolago
Castiglione del Lago PG
+39 075 951193
listro.it</cmt>
    <desc>Via Lungolago
Castiglione del Lago PG
+39 075 951193
listro.it</desc>
    <link href="http://www.listro.it"/>
    <sym>Campground</sym>
    <type>user</type>
    <extensions>
      <gpxx:WaypointExtension>
        <gpxx:DisplayMode>SymbolOnly</gpxx:DisplayMode>
        <gpxx:Address>
          <gpxx:StreetAddress>Via Lungolago</gpxx:StreetAddress>
          <gpxx:City>Castiglione del Lago</gpxx:City>
          <gpxx:State>PG</gpxx:State>
        </gpxx:Address>
        <gpxx:PhoneNumber>075 951193</gpxx:PhoneNumber>
      </gpxx:WaypointExtension>
      <wptx1:WaypointExtension>
        <wptx1:DisplayMode>SymbolOnly</wptx1:DisplayMode>
        <wptx1:Address>
          <wptx1:StreetAddress>Via Lungolago</wptx1:StreetAddress>
          <wptx1:City>Castiglione del Lago</wptx1:City>
          <wptx1:State>PG</wptx1:State>
        </wptx1:Address>
        <wptx1:PhoneNumber>075 951193</wptx1:PhoneNumber>
      </wptx1:WaypointExtension>
      <ctx:CreationTimeExtension>
        <ctx:CreationTime>2012-12-19T12:46:52Z</ctx:CreationTime>
      </ctx:CreationTimeExtension>
    </extensions>
  </wpt>

  <wpt lat="43.437738977372646" lon="12.159319901838899">
    <time>2012-12-19T12:46:52Z</time>
    <name>Luna del Monte</name>
    <cmt>075 8570054
campinglunadelmonte.nl</cmt>
    <desc>075 8570054
campinglunadelmonte.nl</desc>
    <link href="http://campinglunadelmonte.nl/"/>
    <sym>Campground</sym>
    <type>user</type>
    <extensions>
      <gpxx:WaypointExtension>
        <gpxx:DisplayMode>SymbolOnly</gpxx:DisplayMode>
        <gpxx:PhoneNumber>075 8570054</gpxx:PhoneNumber>
      </gpxx:WaypointExtension>
      <wptx1:WaypointExtension>
        <wptx1:DisplayMode>SymbolOnly</wptx1:DisplayMode>
        <wptx1:PhoneNumber>075 8570054</wptx1:PhoneNumber>
      </wptx1:WaypointExtension>
      <ctx:CreationTimeExtension>
        <ctx:CreationTime>2012-12-19T12:46:52Z</ctx:CreationTime>
      </ctx:CreationTimeExtension>
    </extensions>
  </wpt>

  <wpt lat="42.725851535797119" lon="12.737724781036377">
    <time>2012-12-19T12:46:52Z</time>
    <name>Monteluco (Spoleto)</name>
    <cmt>074 3220358
074 346788
074 346788 (inverno)
347 0344146 (inverno)
campeggiomonteluco@libero.it</cmt>
    <desc>074 3220358
074 346788
074 346788 (inverno)
347 0344146 (inverno)
campeggiomonteluco@libero.it</desc>
    <link href="http://www.campeggiomonteluco.com/"/>
    <sym>Campground</sym>
    <type>user</type>
    <extensions>
      <gpxx:WaypointExtension>
        <gpxx:DisplayMode>SymbolOnly</gpxx:DisplayMode>
        <gpxx:PhoneNumber>074 3220358</gpxx:PhoneNumber>
        <gpxx:PhoneNumber>074 346788</gpxx:PhoneNumber>
        <gpxx:PhoneNumber>074 346788 (inverno)</gpxx:PhoneNumber>
        <gpxx:PhoneNumber>347 0344146 (inverno)</gpxx:PhoneNumber>
      </gpxx:WaypointExtension>
      <wptx1:WaypointExtension>
        <wptx1:DisplayMode>SymbolOnly</wptx1:DisplayMode>
        <wptx1:PhoneNumber>074 3220358</wptx1:PhoneNumber>
        <wptx1:PhoneNumber>074 346788</wptx1:PhoneNumber>
        <wptx1:PhoneNumber>074 346788 (inverno)</wptx1:PhoneNumber>
        <wptx1:PhoneNumber>347 0344146 (inverno)</wptx1:PhoneNumber>
      </wptx1:WaypointExtension>
      <ctx:CreationTimeExtension>
        <ctx:CreationTime>2012-12-19T12:46:52Z</ctx:CreationTime>
      </ctx:CreationTimeExtension>
    </extensions>
  </wpt>

  <wpt lat="42.484844578430057" lon="12.51518726348877">
    <time>2012-12-03T20:50:01Z</time>
    <name>Monti Del Sole</name>
    <cmt>0744 796336
campingmontidelsole.it</cmt>
    <desc>0744 796336
campingmontidelsole.it</desc>
    <link href="http://www.campingmontidelsole.it/"/>
    <sym>Campground</sym>
    <type>user</type>
    <extensions>
      <gpxx:WaypointExtension>
        <gpxx:DisplayMode>SymbolOnly</gpxx:DisplayMode>
        <gpxx:PhoneNumber>0744 796336</gpxx:PhoneNumber>
      </gpxx:WaypointExtension>
      <wptx1:WaypointExtension>
        <wptx1:DisplayMode>SymbolOnly</wptx1:DisplayMode>
        <wptx1:PhoneNumber>0744 796336</wptx1:PhoneNumber>
      </wptx1:WaypointExtension>
      <ctx:CreationTimeExtension>
        <ctx:CreationTime>2012-12-03T20:50:01Z</ctx:CreationTime>
      </ctx:CreationTimeExtension>
    </extensions>
  </wpt>

  <wpt lat="43.119871057569981" lon="12.313048867508769">
    <time>2013-01-19T20:22:17Z</time>
    <name>Paradis d’Été</name>
    <cmt>075 5173121
338 2678271
wel.it/cparadis</cmt>
    <desc>075 5173121
338 2678271
wel.it/cparadis</desc>
    <link href="http://www.wel.it/cparadis/"/>
    <sym>Campground</sym>
    <type>user</type>
    <extensions>
      <gpxx:WaypointExtension>
        <gpxx:DisplayMode>SymbolOnly</gpxx:DisplayMode>
        <gpxx:PhoneNumber>075 5173121</gpxx:PhoneNumber>
        <gpxx:PhoneNumber>338 2678271</gpxx:PhoneNumber>
      </gpxx:WaypointExtension>
      <wptx1:WaypointExtension>
        <wptx1:DisplayMode>SymbolOnly</wptx1:DisplayMode>
        <wptx1:PhoneNumber>075 5173121</wptx1:PhoneNumber>
        <wptx1:PhoneNumber>338 2678271</wptx1:PhoneNumber>
      </wptx1:WaypointExtension>
      <ctx:CreationTimeExtension>
        <ctx:CreationTime>2013-01-19T20:22:17Z</ctx:CreationTime>
      </ctx:CreationTimeExtension>
    </extensions>
  </wpt>

  <wpt lat="43.136249966919422" lon="12.830083295702934">
    <time>2012-12-03T20:50:01Z</time>
    <name>Pian Delle Stelle</name>
    <cmt>0742 818241
(seasonal) 1/6 - 31/8</cmt>
    <desc>0742 818241
(seasonal) 1/6 - 31/8</desc>
    <sym>Campground</sym>
    <type>user</type>
    <extensions>
      <gpxx:WaypointExtension>
        <gpxx:DisplayMode>SymbolOnly</gpxx:DisplayMode>
        <gpxx:PhoneNumber>0742 818241</gpxx:PhoneNumber>
      </gpxx:WaypointExtension>
      <wptx1:WaypointExtension>
        <wptx1:DisplayMode>SymbolOnly</wptx1:DisplayMode>
        <wptx1:PhoneNumber>0742 818241</wptx1:PhoneNumber>
      </wptx1:WaypointExtension>
      <ctx:CreationTimeExtension>
        <ctx:CreationTime>2012-12-03T20:50:01Z</ctx:CreationTime>
      </ctx:CreationTimeExtension>
    </extensions>
  </wpt>

  <wpt lat="42.912401435896754" lon="12.586156418547034">
    <time>2012-12-19T12:46:52Z</time>
    <name>Pian Di Boccio</name>
    <cmt>Località Pian di Boccio 10
Bevagna
piandiboccio.com</cmt>
    <desc>Località Pian di Boccio 10
Bevagna
piandiboccio.com</desc>
    <link href="http://www.piandiboccio.com"/>
    <sym>Campground</sym>
    <type>user</type>
    <extensions>
      <gpxx:WaypointExtension>
        <gpxx:DisplayMode>SymbolOnly</gpxx:DisplayMode>
        <gpxx:PhoneNumber>+39 0742 360164</gpxx:PhoneNumber>
      </gpxx:WaypointExtension>
      <wptx1:WaypointExtension>
        <wptx1:DisplayMode>SymbolOnly</wptx1:DisplayMode>
        <wptx1:PhoneNumber>+39 0742 360164</wptx1:PhoneNumber>
      </wptx1:WaypointExtension>
      <ctx:CreationTimeExtension>
        <ctx:CreationTime>2012-12-19T12:46:52Z</ctx:CreationTime>
      </ctx:CreationTimeExtension>
    </extensions>
  </wpt>

  <wpt lat="42.819112949073315" lon="12.567174760624766">
    <time>2013-01-19T20:05:37Z</time>
    <name>Pineta Di Giano</name>
    <cmt>+39 0742 930040
+39 328 0913797
pinetadigiano.com</cmt>
    <desc>+39 0742 930040
+39 328 0913797
pinetadigiano.com</desc>
    <link href="http://www.pinetadigiano.com"/>
    <sym>Campground</sym>
    <type>user</type>
    <extensions>
      <gpxx:WaypointExtension>
        <gpxx:DisplayMode>SymbolOnly</gpxx:DisplayMode>
        <gpxx:PhoneNumber>0742 930040</gpxx:PhoneNumber>
        <gpxx:PhoneNumber>328 0913797</gpxx:PhoneNumber>
      </gpxx:WaypointExtension>
      <wptx1:WaypointExtension>
        <wptx1:DisplayMode>SymbolOnly</wptx1:DisplayMode>
        <wptx1:PhoneNumber>0742 930040</wptx1:PhoneNumber>
        <wptx1:PhoneNumber>328 0913797</wptx1:PhoneNumber>
      </wptx1:WaypointExtension>
      <ctx:CreationTimeExtension>
        <ctx:CreationTime>2013-01-19T20:05:37Z</ctx:CreationTime>
      </ctx:CreationTimeExtension>
    </extensions>
  </wpt>

  <wpt lat="43.081812858581543" lon="12.142252922058105">
    <time>2012-12-19T12:46:52Z</time>
    <name>Polvese (Lago di Trasimeno)</name>
    <cmt>075 848078
polvese.com</cmt>
    <desc>075 848078
polvese.com</desc>
    <link href="http://www.polvese.com"/>
    <sym>Campground</sym>
    <type>user</type>
    <extensions>
      <gpxx:WaypointExtension>
        <gpxx:DisplayMode>SymbolOnly</gpxx:DisplayMode>
        <gpxx:PhoneNumber>075 848078</gpxx:PhoneNumber>
      </gpxx:WaypointExtension>
      <wptx1:WaypointExtension>
        <wptx1:DisplayMode>SymbolOnly</wptx1:DisplayMode>
        <wptx1:PhoneNumber>075 848078</wptx1:PhoneNumber>
      </wptx1:WaypointExtension>
      <ctx:CreationTimeExtension>
        <ctx:CreationTime>2012-12-19T12:46:52Z</ctx:CreationTime>
      </ctx:CreationTimeExtension>
    </extensions>
  </wpt>

  <wpt lat="43.191659962758422" lon="12.076290026307106">
    <time>2016-02-26T08:10:09Z</time>
    <name>Punta Navaccia</name>
    <cmt>Via Navaccia 4
Tuoro Sul Trasimeno PG
+39 075 826357
puntanavaccia.it</cmt>
    <desc>Via Navaccia 4
Tuoro Sul Trasimeno PG
+39 075 826357
puntanavaccia.it</desc>
    <link href="http://www.puntanavaccia.it/"/>
    <sym>Campground</sym>
    <type>user</type>
    <extensions>
      <gpxx:WaypointExtension>
        <gpxx:DisplayMode>SymbolOnly</gpxx:DisplayMode>
        <gpxx:Address>
          <gpxx:StreetAddress>Via Navaccia 4</gpxx:StreetAddress>
          <gpxx:City>Tuoro Sul Trasimeno</gpxx:City>
          <gpxx:State>PG</gpxx:State>
        </gpxx:Address>
        <gpxx:PhoneNumber>+39 075 826357</gpxx:PhoneNumber>
      </gpxx:WaypointExtension>
      <wptx1:WaypointExtension>
        <wptx1:DisplayMode>SymbolOnly</wptx1:DisplayMode>
        <wptx1:Address>
          <wptx1:StreetAddress>Via Navaccia 4</wptx1:StreetAddress>
          <wptx1:City>Tuoro Sul Trasimeno</wptx1:City>
          <wptx1:State>PG</wptx1:State>
        </wptx1:Address>
        <wptx1:PhoneNumber>+39 075 826357</wptx1:PhoneNumber>
      </wptx1:WaypointExtension>
      <ctx:CreationTimeExtension>
        <ctx:CreationTime>2016-02-26T08:10:09Z</ctx:CreationTime>
      </ctx:CreationTimeExtension>
    </extensions>
  </wpt>

  <wpt lat="43.350759968161583" lon="12.684500031173229">
    <time>2012-12-19T12:46:52Z</time>
    <name>Rio Verde (Costacciaro)</name>
    <cmt>075 9170138
info@campingrioverde.it</cmt>
    <desc>075 9170138
info@campingrioverde.it</desc>
    <link href="http://www.campingrioverde.it"/>
    <sym>Campground</sym>
    <type>user</type>
    <extensions>
      <gpxx:WaypointExtension>
        <gpxx:DisplayMode>SymbolOnly</gpxx:DisplayMode>
        <gpxx:Categories>
          <gpxx:Category>apennines-waypoints</gpxx:Category>
          <gpxx:Category>camping-umbria</gpxx:Category>
        </gpxx:Categories>
        <gpxx:Address>
          <gpxx:City>Costacciaro</gpxx:City>
          <gpxx:State>PG</gpxx:State>
        </gpxx:Address>
        <gpxx:PhoneNumber>075 9170138</gpxx:PhoneNumber>
      </gpxx:WaypointExtension>
      <wptx1:WaypointExtension>
        <wptx1:DisplayMode>SymbolOnly</wptx1:DisplayMode>
        <wptx1:Categories>
          <wptx1:Category>apennines-waypoints</wptx1:Category>
          <wptx1:Category>camping-umbria</wptx1:Category>
        </wptx1:Categories>
        <wptx1:Address>
          <wptx1:City>Costacciaro</wptx1:City>
          <wptx1:State>PG</wptx1:State>
        </wptx1:Address>
        <wptx1:PhoneNumber>075 9170138</wptx1:PhoneNumber>
      </wptx1:WaypointExtension>
      <ctx:CreationTimeExtension>
        <ctx:CreationTime>2012-12-19T12:46:52Z</ctx:CreationTime>
      </ctx:CreationTimeExtension>
    </extensions>
  </wpt>

  <wpt lat="43.12471479177475" lon="12.166572259739041">
    <ele>252</ele>
    <time>2012-12-19T12:46:52Z</time>
    <name>Riva Verde (Lago Trasimeno)</name>
    <cmt>393 6660530
rivaverde@gmail.com</cmt>
    <desc>393 6660530
rivaverde@gmail.com</desc>
    <sym>Campground</sym>
    <type>user</type>
    <extensions>
      <gpxx:WaypointExtension>
        <gpxx:DisplayMode>SymbolOnly</gpxx:DisplayMode>
        <gpxx:PhoneNumber>393 6660530</gpxx:PhoneNumber>
      </gpxx:WaypointExtension>
      <wptx1:WaypointExtension>
        <wptx1:DisplayMode>SymbolOnly</wptx1:DisplayMode>
        <wptx1:PhoneNumber>393 6660530</wptx1:PhoneNumber>
      </wptx1:WaypointExtension>
      <ctx:CreationTimeExtension>
        <ctx:CreationTime>2012-12-19T12:46:52Z</ctx:CreationTime>
      </ctx:CreationTimeExtension>
    </extensions>
  </wpt>

  <wpt lat="43.160480037331581" lon="12.187280002981424">
    <time>2014-10-30T09:44:09Z</time>
    <name>Rivalago</name>
    <cmt>075 843975
campingrivalago.it</cmt>
    <desc>075 843975
campingrivalago.it</desc>
    <link href="http://www.campingrivalago.it"/>
    <sym>Campground</sym>
    <type>user</type>
    <extensions>
      <gpxx:WaypointExtension>
        <gpxx:DisplayMode>SymbolOnly</gpxx:DisplayMode>
        <gpxx:PhoneNumber>075 843975</gpxx:PhoneNumber>
      </gpxx:WaypointExtension>
      <wptx1:WaypointExtension>
        <wptx1:DisplayMode>SymbolOnly</wptx1:DisplayMode>
        <wptx1:PhoneNumber>075 843975</wptx1:PhoneNumber>
      </wptx1:WaypointExtension>
      <ctx:CreationTimeExtension>
        <ctx:CreationTime>2014-10-30T09:44:09Z</ctx:CreationTime>
      </ctx:CreationTimeExtension>
    </extensions>
  </wpt>

  <wpt lat="42.699769986793399" lon="12.247350001707673">
    <time>2012-12-19T12:46:52Z</time>
    <name>Scacco Matto (Umbria)</name>
    <cmt>0744 950163
0744 950373
scaccomatto.net</cmt>
    <desc>0744 950163
0744 950373
scaccomatto.net</desc>
    <link href="http://www.scaccomatto.net"/>
    <sym>Campground</sym>
    <type>user</type>
    <extensions>
      <gpxx:WaypointExtension>
        <gpxx:DisplayMode>SymbolOnly</gpxx:DisplayMode>
        <gpxx:PhoneNumber>0744 950163</gpxx:PhoneNumber>
        <gpxx:PhoneNumber>0744 950373</gpxx:PhoneNumber>
      </gpxx:WaypointExtension>
      <wptx1:WaypointExtension>
        <wptx1:DisplayMode>SymbolOnly</wptx1:DisplayMode>
        <wptx1:PhoneNumber>0744 950163</wptx1:PhoneNumber>
        <wptx1:PhoneNumber>0744 950373</wptx1:PhoneNumber>
      </wptx1:WaypointExtension>
      <ctx:CreationTimeExtension>
        <ctx:CreationTime>2012-12-19T12:46:52Z</ctx:CreationTime>
      </ctx:CreationTimeExtension>
    </extensions>
  </wpt>

  <wpt lat="43.016727715730667" lon="12.691167080774903">
    <time>2012-12-19T12:46:52Z</time>
    <name>Subasio</name>
    <cmt>075 801 0655
335 5971 000
347 5397 495
campeggiosubasio.com</cmt>
    <desc>075 801 0655
335 5971 000
347 5397 495
campeggiosubasio.com</desc>
    <link href="http://www.campeggiosubasio.com"/>
    <sym>Campground</sym>
    <type>user</type>
    <extensions>
      <gpxx:WaypointExtension>
        <gpxx:DisplayMode>SymbolOnly</gpxx:DisplayMode>
        <gpxx:PhoneNumber>075 801 0655</gpxx:PhoneNumber>
        <gpxx:PhoneNumber>335 5971 000</gpxx:PhoneNumber>
        <gpxx:PhoneNumber>347 5397 495</gpxx:PhoneNumber>
      </gpxx:WaypointExtension>
      <wptx1:WaypointExtension>
        <wptx1:DisplayMode>SymbolOnly</wptx1:DisplayMode>
        <wptx1:PhoneNumber>075 801 0655</wptx1:PhoneNumber>
        <wptx1:PhoneNumber>335 5971 000</wptx1:PhoneNumber>
        <wptx1:PhoneNumber>347 5397 495</wptx1:PhoneNumber>
      </wptx1:WaypointExtension>
      <ctx:CreationTimeExtension>
        <ctx:CreationTime>2012-12-19T12:46:52Z</ctx:CreationTime>
      </ctx:CreationTimeExtension>
    </extensions>
  </wpt>

  <wpt lat="43.065910041332245" lon="12.358940038830042">
    <time>2016-02-26T08:10:09Z</time>
    <name>The Rustic Campsite (Perugia Farmhouse)</name>
    <cmt>Strada Torre Poggio 4
Perugia
+39 075 528 8373</cmt>
    <desc>Strada Torre Poggio 4
Perugia
+39 075 528 8373</desc>
    <link href="http://www.rustic-campsite.it"/>
    <sym>Campground</sym>
    <type>user</type>
    <extensions>
      <gpxx:WaypointExtension>
        <gpxx:DisplayMode>SymbolOnly</gpxx:DisplayMode>
        <gpxx:Address>
          <gpxx:StreetAddress>Strada Torre Poggio 4</gpxx:StreetAddress>
          <gpxx:City>Perugia</gpxx:City>
          <gpxx:State>PG</gpxx:State>
        </gpxx:Address>
        <gpxx:PhoneNumber>+39 075 528 8373</gpxx:PhoneNumber>
      </gpxx:WaypointExtension>
      <wptx1:WaypointExtension>
        <wptx1:DisplayMode>SymbolOnly</wptx1:DisplayMode>
        <wptx1:Address>
          <wptx1:StreetAddress>Strada Torre Poggio 4</wptx1:StreetAddress>
          <wptx1:City>Perugia</wptx1:City>
          <wptx1:State>PG</wptx1:State>
        </wptx1:Address>
        <wptx1:PhoneNumber>+39 075 528 8373</wptx1:PhoneNumber>
      </wptx1:WaypointExtension>
      <ctx:CreationTimeExtension>
        <ctx:CreationTime>2016-02-26T08:10:09Z</ctx:CreationTime>
      </ctx:CreationTimeExtension>
    </extensions>
  </wpt>

  <wpt lat="43.235305538401008" lon="12.787916706874967">
    <time>2012-12-03T20:50:01Z</time>
    <name>Valsorda [UNCONFIRMED]</name>
    <cmt>075 913261</cmt>
    <desc>075 913261</desc>
    <sym>Campground</sym>
    <type>user</type>
    <extensions>
      <gpxx:WaypointExtension>
        <gpxx:DisplayMode>SymbolOnly</gpxx:DisplayMode>
        <gpxx:PhoneNumber>075 913261</gpxx:PhoneNumber>
      </gpxx:WaypointExtension>
      <wptx1:WaypointExtension>
        <wptx1:DisplayMode>SymbolOnly</wptx1:DisplayMode>
        <wptx1:PhoneNumber>075 913261</wptx1:PhoneNumber>
      </wptx1:WaypointExtension>
      <ctx:CreationTimeExtension>
        <ctx:CreationTime>2012-12-03T20:50:01Z</ctx:CreationTime>
      </ctx:CreationTimeExtension>
    </extensions>
  </wpt>

</gpx>
