<?xml version="1.0"?>
<gpx xmlns="http://www.topografix.com/GPX/1/1" xmlns:xsi="http://www.w3.org/2001/XMLSchema-instance" xmlns:wptx1="http://www.garmin.com/xmlschemas/WaypointExtension/v1" xmlns:gpxtrx="http://www.garmin.com/xmlschemas/GpxExtensions/v3" xmlns:gpxtpx="http://www.garmin.com/xmlschemas/TrackPointExtension/v1" xmlns:gpxx="http://www.garmin.com/xmlschemas/GpxExtensions/v3" xmlns:trp="http://www.garmin.com/xmlschemas/TripExtensions/v1" xmlns:adv="http://www.garmin.com/xmlschemas/AdventuresExtensions/v1" xmlns:prs="http://www.garmin.com/xmlschemas/PressureExtension/v1" xmlns:tmd="http://www.garmin.com/xmlschemas/TripMetaDataExtensions/v1" xmlns:vptm="http://www.garmin.com/xmlschemas/ViaPointTransportationModeExtensions/v1" xmlns:ctx="http://www.garmin.com/xmlschemas/CreationTimeExtension/v1" xmlns:gpxacc="http://www.garmin.com/xmlschemas/AccelerationExtension/v1" xmlns:gpxpx="http://www.garmin.com/xmlschemas/PowerExtension/v1" xmlns:vidx1="http://www.garmin.com/xmlschemas/VideoExtension/v1" creator="Garmin Desktop App" version="1.1" xsi:schemaLocation="http://www.topografix.com/GPX/1/1 http://www.topografix.com/GPX/1/1/gpx.xsd http://www.garmin.com/xmlschemas/WaypointExtension/v1 http://www8.garmin.com/xmlschemas/WaypointExtensionv1.xsd http://www.garmin.com/xmlschemas/TrackPointExtension/v1 http://www.garmin.com/xmlschemas/TrackPointExtensionv1.xsd http://www.garmin.com/xmlschemas/GpxExtensions/v3 http://www8.garmin.com/xmlschemas/GpxExtensionsv3.xsd http://www.garmin.com/xmlschemas/ActivityExtension/v1 http://www8.garmin.com/xmlschemas/ActivityExtensionv1.xsd http://www.garmin.com/xmlschemas/AdventuresExtensions/v1 http://www8.garmin.com/xmlschemas/AdventuresExtensionv1.xsd http://www.garmin.com/xmlschemas/PressureExtension/v1 http://www.garmin.com/xmlschemas/PressureExtensionv1.xsd http://www.garmin.com/xmlschemas/TripExtensions/v1 http://www.garmin.com/xmlschemas/TripExtensionsv1.xsd http://www.garmin.com/xmlschemas/TripMetaDataExtensions/v1 http://www.garmin.com/xmlschemas/TripMetaDataExtensionsv1.xsd http://www.garmin.com/xmlschemas/ViaPointTransportationModeExtensions/v1 http://www.garmin.com/xmlschemas/ViaPointTransportationModeExtensionsv1.xsd http://www.garmin.com/xmlschemas/CreationTimeExtension/v1 http://www.garmin.com/xmlschemas/CreationTimeExtensionsv1.xsd http://www.garmin.com/xmlschemas/AccelerationExtension/v1 http://www.garmin.com/xmlschemas/AccelerationExtensionv1.xsd http://www.garmin.com/xmlschemas/PowerExtension/v1 http://www.garmin.com/xmlschemas/PowerExtensionv1.xsd http://www.garmin.com/xmlschemas/VideoExtension/v1 http://www.garmin.com/xmlschemas/VideoExtensionv1.xsd">

  <metadata>
    <link href="http://www.garmin.com">
      <text>Garmin International</text>
    </link>
    <time>2017-03-07T08:02:23Z</time>
    <bounds maxlat="46.882777791470289" maxlon="12.399722188711166" minlat="46.167855262756348" minlon="10.507626235485077"/>
  </metadata>

  <wpt lat="46.647400036454201" lon="11.00701667368412">
    <ele>524</ele>
    <time>2014-03-19T09:48:06Z</time>
    <name>Adler</name>
    <cmt>Lidostrasse  14
Naturns BZ
+39 047 366 7242
campingadler.com</cmt>
    <desc>Lidostrasse  14
Naturns BZ
+39 047 366 7242
campingadler.com</desc>
    <link href="http://www.campingadler.com"/>
    <sym>Campground</sym>
    <type>user</type>
    <extensions>
      <gpxx:WaypointExtension>
        <gpxx:DisplayMode>SymbolOnly</gpxx:DisplayMode>
        <gpxx:Categories>
          <gpxx:Category>Waypoints</gpxx:Category>
          <gpxx:Category>camping-sudtirol</gpxx:Category>
        </gpxx:Categories>
        <gpxx:Address>
          <gpxx:StreetAddress>Lidostrasse 14</gpxx:StreetAddress>
          <gpxx:City>Naturns</gpxx:City>
          <gpxx:State>BZ</gpxx:State>
        </gpxx:Address>
        <gpxx:PhoneNumber>+39 047 366 7242</gpxx:PhoneNumber>
      </gpxx:WaypointExtension>
      <wptx1:WaypointExtension>
        <wptx1:DisplayMode>SymbolOnly</wptx1:DisplayMode>
        <wptx1:Categories>
          <wptx1:Category>Waypoints</wptx1:Category>
          <wptx1:Category>camping-sudtirol</wptx1:Category>
        </wptx1:Categories>
        <wptx1:Address>
          <wptx1:StreetAddress>Lidostrasse 14</wptx1:StreetAddress>
          <wptx1:City>Naturns</wptx1:City>
          <wptx1:State>BZ</wptx1:State>
        </wptx1:Address>
        <wptx1:PhoneNumber>+39 047 366 7242</wptx1:PhoneNumber>
      </wptx1:WaypointExtension>
      <ctx:CreationTimeExtension>
        <ctx:CreationTime>2014-03-19T09:48:06Z</ctx:CreationTime>
      </ctx:CreationTimeExtension>
    </extensions>
  </wpt>

  <wpt lat="46.695000026375055" lon="11.937779998406768">
    <ele>1240</ele>
    <time>2014-03-19T09:48:06Z</time>
    <name>Al Plan</name>
    <cmt>0474 501694
campingalplan.com</cmt>
    <desc>0474 501694
campingalplan.com</desc>
    <link href="http://www.campingalplan.com"/>
    <sym>Campground</sym>
    <type>user</type>
    <extensions>
      <gpxx:WaypointExtension>
        <gpxx:DisplayMode>SymbolOnly</gpxx:DisplayMode>
      </gpxx:WaypointExtension>
      <wptx1:WaypointExtension>
        <wptx1:DisplayMode>SymbolOnly</wptx1:DisplayMode>
      </wptx1:WaypointExtension>
      <ctx:CreationTimeExtension>
        <ctx:CreationTime>2014-03-19T09:48:06Z</ctx:CreationTime>
      </ctx:CreationTimeExtension>
    </extensions>
  </wpt>

  <wpt lat="46.533329961821437" lon="11.533609991893172">
    <ele>891</ele>
    <time>2014-03-19T09:48:06Z</time>
    <name>Alpe di Siusi / Seiser Alm</name>
    <cmt>0471 706459
camping-seiseralm.com</cmt>
    <desc>0471 706459
camping-seiseralm.com</desc>
    <link href="http://www.camping-seiseralm.com"/>
    <sym>Campground</sym>
    <type>user</type>
    <extensions>
      <gpxx:WaypointExtension>
        <gpxx:DisplayMode>SymbolOnly</gpxx:DisplayMode>
        <gpxx:PhoneNumber>0471 706459</gpxx:PhoneNumber>
      </gpxx:WaypointExtension>
      <wptx1:WaypointExtension>
        <wptx1:DisplayMode>SymbolOnly</wptx1:DisplayMode>
        <wptx1:PhoneNumber>0471 706459</wptx1:PhoneNumber>
      </wptx1:WaypointExtension>
      <ctx:CreationTimeExtension>
        <ctx:CreationTime>2014-03-19T09:48:06Z</ctx:CreationTime>
      </ctx:CreationTimeExtension>
    </extensions>
  </wpt>

  <wpt lat="46.598055521026254" lon="11.149444403126836">
    <ele>635</ele>
    <time>2014-03-19T09:48:06Z</time>
    <name>Alpin Fitness Waldcamping Völlan</name>
    <cmt>Feldweg 12
Völlan BZ	
+39 0473 568 138
alpinfitness-waldcamping.it</cmt>
    <desc>Feldweg 12
Völlan BZ	
+39 0473 568 138
alpinfitness-waldcamping.it</desc>
    <link href="http://www.alpinfitness-waldcamping.it"/>
    <sym>Campground</sym>
    <type>user</type>
    <extensions>
      <gpxx:WaypointExtension>
        <gpxx:DisplayMode>SymbolOnly</gpxx:DisplayMode>
        <gpxx:Categories>
          <gpxx:Category>Waypoints</gpxx:Category>
          <gpxx:Category>camping-sudtirol</gpxx:Category>
        </gpxx:Categories>
        <gpxx:Address>
          <gpxx:StreetAddress>Feldweg 12</gpxx:StreetAddress>
          <gpxx:City>Völlan</gpxx:City>
          <gpxx:State>BZ</gpxx:State>
        </gpxx:Address>
        <gpxx:PhoneNumber>+39 0473 568 138</gpxx:PhoneNumber>
      </gpxx:WaypointExtension>
      <wptx1:WaypointExtension>
        <wptx1:DisplayMode>SymbolOnly</wptx1:DisplayMode>
        <wptx1:Categories>
          <wptx1:Category>Waypoints</wptx1:Category>
          <wptx1:Category>camping-sudtirol</wptx1:Category>
        </wptx1:Categories>
        <wptx1:Address>
          <wptx1:StreetAddress>Feldweg 12</wptx1:StreetAddress>
          <wptx1:City>Völlan</wptx1:City>
          <wptx1:State>BZ</wptx1:State>
        </wptx1:Address>
        <wptx1:PhoneNumber>+39 0473 568 138</wptx1:PhoneNumber>
      </wptx1:WaypointExtension>
      <ctx:CreationTimeExtension>
        <ctx:CreationTime>2014-03-19T09:48:06Z</ctx:CreationTime>
      </ctx:CreationTimeExtension>
    </extensions>
  </wpt>

  <wpt lat="46.864800537005067" lon="12.109336936846375">
    <ele>1271</ele>
    <time>2014-03-19T09:48:06Z</time>
    <name>Antholz</name>
    <cmt>0474 492204
camping-antholz.it</cmt>
    <desc>0474 492204
camping-antholz.it</desc>
    <link href="http://www.camping-antholz.it"/>
    <sym>Campground</sym>
    <type>user</type>
    <extensions>
      <gpxx:WaypointExtension>
        <gpxx:DisplayMode>SymbolOnly</gpxx:DisplayMode>
        <gpxx:PhoneNumber>0474 492204</gpxx:PhoneNumber>
      </gpxx:WaypointExtension>
      <wptx1:WaypointExtension>
        <wptx1:DisplayMode>SymbolOnly</wptx1:DisplayMode>
        <wptx1:PhoneNumber>0474 492204</wptx1:PhoneNumber>
      </wptx1:WaypointExtension>
      <ctx:CreationTimeExtension>
        <ctx:CreationTime>2014-03-19T09:48:06Z</ctx:CreationTime>
      </ctx:CreationTimeExtension>
    </extensions>
  </wpt>

  <wpt lat="46.611111089587212" lon="11.174444435164332">
    <ele>263</ele>
    <time>2014-03-19T09:48:06Z</time>
    <name>Arquin</name>
    <cmt>Feldgatterweg 25
Lana	 BZ
+39 0473 561 187
camping-arquin.it</cmt>
    <desc>Feldgatterweg 25
Lana	 BZ
+39 0473 561 187
camping-arquin.it</desc>
    <link href="http://www.camping-arquin.it/"/>
    <sym>Campground</sym>
    <type>user</type>
    <extensions>
      <gpxx:WaypointExtension>
        <gpxx:DisplayMode>SymbolOnly</gpxx:DisplayMode>
        <gpxx:Address>
          <gpxx:StreetAddress>Feldgatterweg 25</gpxx:StreetAddress>
          <gpxx:City>Lana</gpxx:City>
          <gpxx:State>BZ</gpxx:State>
        </gpxx:Address>
        <gpxx:PhoneNumber>+39 0473 561 187</gpxx:PhoneNumber>
      </gpxx:WaypointExtension>
      <wptx1:WaypointExtension>
        <wptx1:DisplayMode>SymbolOnly</wptx1:DisplayMode>
        <wptx1:Address>
          <wptx1:StreetAddress>Feldgatterweg 25</wptx1:StreetAddress>
          <wptx1:City>Lana</wptx1:City>
          <wptx1:State>BZ</wptx1:State>
        </wptx1:Address>
        <wptx1:PhoneNumber>+39 0473 561 187</wptx1:PhoneNumber>
      </wptx1:WaypointExtension>
      <ctx:CreationTimeExtension>
        <ctx:CreationTime>2014-03-19T09:48:06Z</ctx:CreationTime>
      </ctx:CreationTimeExtension>
    </extensions>
  </wpt>

  <wpt lat="46.615912914276123" lon="10.698645114898682">
    <time>2016-06-30T18:37:49Z</time>
    <name>Badlerhof</name>
    <cmt>Kugelgasse 4
Laas, Bozen
+39 473 628 011
camping-badlerhof.it</cmt>
    <desc>Kugelgasse 4
Laas, Bozen
+39 473 628 011
camping-badlerhof.it</desc>
    <link href="http://www.camping-badlerhof.it/"/>
    <sym>Campground</sym>
    <type>user</type>
    <extensions>
      <gpxx:WaypointExtension>
        <gpxx:DisplayMode>SymbolOnly</gpxx:DisplayMode>
        <gpxx:PhoneNumber>+39 0473 628011</gpxx:PhoneNumber>
      </gpxx:WaypointExtension>
      <wptx1:WaypointExtension>
        <wptx1:DisplayMode>SymbolOnly</wptx1:DisplayMode>
        <wptx1:PhoneNumber>+39 0473 628011</wptx1:PhoneNumber>
      </wptx1:WaypointExtension>
      <ctx:CreationTimeExtension>
        <ctx:CreationTime>2016-06-30T18:37:49Z</ctx:CreationTime>
      </ctx:CreationTimeExtension>
    </extensions>
  </wpt>

  <wpt lat="46.667722212150693" lon="12.399722188711166">
    <ele>1530</ele>
    <time>2014-03-19T09:48:06Z</time>
    <name>Caravan Park Sexten Dolomiten</name>
    <cmt>0474 710444
caravanparksexten.it</cmt>
    <desc>0474 710444
caravanparksexten.it</desc>
    <link href="http://www.caravanparksexten.it"/>
    <sym>Campground</sym>
    <type>user</type>
    <extensions>
      <gpxx:WaypointExtension>
        <gpxx:DisplayMode>SymbolOnly</gpxx:DisplayMode>
        <gpxx:PhoneNumber>0474 710444</gpxx:PhoneNumber>
      </gpxx:WaypointExtension>
      <wptx1:WaypointExtension>
        <wptx1:DisplayMode>SymbolOnly</wptx1:DisplayMode>
        <wptx1:PhoneNumber>0474 710444</wptx1:PhoneNumber>
      </wptx1:WaypointExtension>
      <ctx:CreationTimeExtension>
        <ctx:CreationTime>2014-03-19T09:48:06Z</ctx:CreationTime>
      </ctx:CreationTimeExtension>
    </extensions>
  </wpt>

  <wpt lat="46.617897665128112" lon="10.818121181800961">
    <time>2012-12-14T11:49:19Z</time>
    <name>Cevedale (Coldrano)</name>
    <cmt>0473 742 132</cmt>
    <desc>0473 742 132</desc>
    <link href="http://www.camping-cevedale.com"/>
    <sym>Campground</sym>
    <type>user</type>
    <extensions>
      <gpxx:WaypointExtension>
        <gpxx:DisplayMode>SymbolOnly</gpxx:DisplayMode>
        <gpxx:Categories>
          <gpxx:Category>Waypoints</gpxx:Category>
          <gpxx:Category>camping-sudtirol</gpxx:Category>
        </gpxx:Categories>
        <gpxx:Address>
          <gpxx:StreetAddress>Vinschgauerstrasse 59</gpxx:StreetAddress>
          <gpxx:City>Goldrain (Coldrano)</gpxx:City>
          <gpxx:State>BZ</gpxx:State>
        </gpxx:Address>
        <gpxx:PhoneNumber>0473 742 132</gpxx:PhoneNumber>
      </gpxx:WaypointExtension>
      <wptx1:WaypointExtension>
        <wptx1:DisplayMode>SymbolOnly</wptx1:DisplayMode>
        <wptx1:Categories>
          <wptx1:Category>Waypoints</wptx1:Category>
          <wptx1:Category>camping-sudtirol</wptx1:Category>
        </wptx1:Categories>
        <wptx1:Address>
          <wptx1:StreetAddress>Vinschgauerstrasse 59</wptx1:StreetAddress>
          <wptx1:City>Goldrain (Coldrano)</wptx1:City>
          <wptx1:State>BZ</wptx1:State>
        </wptx1:Address>
        <wptx1:PhoneNumber>0473 742 132</wptx1:PhoneNumber>
      </wptx1:WaypointExtension>
      <ctx:CreationTimeExtension>
        <ctx:CreationTime>2012-12-14T11:49:19Z</ctx:CreationTime>
      </ctx:CreationTimeExtension>
    </extensions>
  </wpt>

  <wpt lat="46.550527783110738" lon="11.860055532306433">
    <ele>1556</ele>
    <time>2014-03-19T09:48:06Z</time>
    <name>Colfosco</name>
    <cmt>0471 836515
campingcolfosco.org</cmt>
    <desc>0471 836515
campingcolfosco.org</desc>
    <link href="http://www.campingcolfosco.org"/>
    <sym>Campground</sym>
    <type>user</type>
    <extensions>
      <gpxx:WaypointExtension>
        <gpxx:DisplayMode>SymbolOnly</gpxx:DisplayMode>
        <gpxx:PhoneNumber>0471 836515</gpxx:PhoneNumber>
      </gpxx:WaypointExtension>
      <wptx1:WaypointExtension>
        <wptx1:DisplayMode>SymbolOnly</wptx1:DisplayMode>
        <wptx1:PhoneNumber>0471 836515</wptx1:PhoneNumber>
      </wptx1:WaypointExtension>
      <ctx:CreationTimeExtension>
        <ctx:CreationTime>2014-03-19T09:48:06Z</ctx:CreationTime>
      </ctx:CreationTimeExtension>
    </extensions>
  </wpt>

  <wpt lat="46.775833340361714" lon="12.036944534629583">
    <ele>1006</ele>
    <time>2014-03-19T09:48:06Z</time>
    <name>Corones</name>
    <cmt>Gepaiden 13
Rasun - Anterselva (BZ)
+39 0474 496 490
corones.com</cmt>
    <desc>Gepaiden 13
Rasun - Anterselva (BZ)
+39 0474 496 490
corones.com</desc>
    <link href="http://www.corones.com"/>
    <sym>Campground</sym>
    <type>user</type>
    <extensions>
      <gpxx:WaypointExtension>
        <gpxx:DisplayMode>SymbolOnly</gpxx:DisplayMode>
        <gpxx:Address>
          <gpxx:StreetAddress>Gepaiden 13</gpxx:StreetAddress>
          <gpxx:City>Rasun - Anterselva</gpxx:City>
          <gpxx:State>BZ</gpxx:State>
        </gpxx:Address>
        <gpxx:PhoneNumber>+39 0474 496 490</gpxx:PhoneNumber>
      </gpxx:WaypointExtension>
      <wptx1:WaypointExtension>
        <wptx1:DisplayMode>SymbolOnly</wptx1:DisplayMode>
        <wptx1:Address>
          <wptx1:StreetAddress>Gepaiden 13</wptx1:StreetAddress>
          <wptx1:City>Rasun - Anterselva</wptx1:City>
          <wptx1:State>BZ</wptx1:State>
        </wptx1:Address>
        <wptx1:PhoneNumber>+39 0474 496 490</wptx1:PhoneNumber>
      </wptx1:WaypointExtension>
      <ctx:CreationTimeExtension>
        <ctx:CreationTime>2014-03-19T09:48:06Z</ctx:CreationTime>
      </ctx:CreationTimeExtension>
    </extensions>
  </wpt>

  <wpt lat="46.670865509659052" lon="11.203801380470395">
    <time>2012-12-14T09:11:22Z</time>
    <name>Eremita (Einsiedler)</name>
    <cmt>Naif Weg (Via Val di Nova) 29
Meran BZ
+39 0473 232191
einsiedler.com</cmt>
    <desc>Naif Weg (Via Val di Nova) 29
Meran BZ
+39 0473 232191
einsiedler.com</desc>
    <link href="http://www.einsiedler.com"/>
    <sym>Campground</sym>
    <type>user</type>
    <extensions>
      <gpxx:WaypointExtension>
        <gpxx:DisplayMode>SymbolOnly</gpxx:DisplayMode>
        <gpxx:Categories>
          <gpxx:Category>Waypoints</gpxx:Category>
          <gpxx:Category>camping-sudtirol</gpxx:Category>
        </gpxx:Categories>
        <gpxx:Address>
          <gpxx:StreetAddress>Naif Weg (Via Val di Nova) 29</gpxx:StreetAddress>
          <gpxx:City>Merano</gpxx:City>
          <gpxx:State>BZ</gpxx:State>
        </gpxx:Address>
        <gpxx:PhoneNumber>+39 0473 232191</gpxx:PhoneNumber>
        <gpxx:PhoneNumber>0473 256407</gpxx:PhoneNumber>
      </gpxx:WaypointExtension>
      <wptx1:WaypointExtension>
        <wptx1:DisplayMode>SymbolOnly</wptx1:DisplayMode>
        <wptx1:Categories>
          <wptx1:Category>Waypoints</wptx1:Category>
          <wptx1:Category>camping-sudtirol</wptx1:Category>
        </wptx1:Categories>
        <wptx1:Address>
          <wptx1:StreetAddress>Naif Weg (Via Val di Nova) 29</wptx1:StreetAddress>
          <wptx1:City>Merano</wptx1:City>
          <wptx1:State>BZ</wptx1:State>
        </wptx1:Address>
        <wptx1:PhoneNumber>+39 0473 232191</wptx1:PhoneNumber>
        <wptx1:PhoneNumber>0473 256407</wptx1:PhoneNumber>
      </wptx1:WaypointExtension>
      <ctx:CreationTimeExtension>
        <ctx:CreationTime>2012-12-14T09:11:22Z</ctx:CreationTime>
      </ctx:CreationTimeExtension>
    </extensions>
  </wpt>

  <wpt lat="46.642112731933594" lon="11.574997901916504">
    <ele>546</ele>
    <time>2014-03-19T09:48:06Z</time>
    <name>Gamp</name>
    <cmt>0472 847425
camping-gamp.com</cmt>
    <desc>0472 847425
camping-gamp.com</desc>
    <link href="http://www.camping-gamp.com"/>
    <sym>Campground</sym>
    <type>user</type>
    <extensions>
      <gpxx:WaypointExtension>
        <gpxx:DisplayMode>SymbolOnly</gpxx:DisplayMode>
        <gpxx:PhoneNumber>0472 847425</gpxx:PhoneNumber>
      </gpxx:WaypointExtension>
      <wptx1:WaypointExtension>
        <wptx1:DisplayMode>SymbolOnly</wptx1:DisplayMode>
        <wptx1:PhoneNumber>0472 847425</wptx1:PhoneNumber>
      </wptx1:WaypointExtension>
      <ctx:CreationTimeExtension>
        <ctx:CreationTime>2014-03-19T09:48:06Z</ctx:CreationTime>
      </ctx:CreationTimeExtension>
    </extensions>
  </wpt>

  <wpt lat="46.567653520032763" lon="11.223979974165559">
    <ele>259</ele>
    <time>2014-03-19T09:48:06Z</time>
    <name>Ganthaler</name>
    <cmt>Meranerstraße 50
Vilpian BZ	
+39 0471 678 716
campingganthaler.com</cmt>
    <desc>Meranerstraße 50
Vilpian BZ	
+39 0471 678 716
campingganthaler.com</desc>
    <link href="http://www.campingganthaler.com"/>
    <sym>Campground</sym>
    <type>user</type>
    <extensions>
      <gpxx:WaypointExtension>
        <gpxx:DisplayMode>SymbolOnly</gpxx:DisplayMode>
        <gpxx:Address>
          <gpxx:StreetAddress>Meranerstraße 50</gpxx:StreetAddress>
          <gpxx:City>Vilpian</gpxx:City>
          <gpxx:State>BZ</gpxx:State>
        </gpxx:Address>
        <gpxx:PhoneNumber>+39 0471 678 716</gpxx:PhoneNumber>
      </gpxx:WaypointExtension>
      <wptx1:WaypointExtension>
        <wptx1:DisplayMode>SymbolOnly</wptx1:DisplayMode>
        <wptx1:Address>
          <wptx1:StreetAddress>Meranerstraße 50</wptx1:StreetAddress>
          <wptx1:City>Vilpian</wptx1:City>
          <wptx1:State>BZ</wptx1:State>
        </wptx1:Address>
        <wptx1:PhoneNumber>+39 0471 678 716</wptx1:PhoneNumber>
      </wptx1:WaypointExtension>
      <ctx:CreationTimeExtension>
        <ctx:CreationTime>2014-03-19T09:48:06Z</ctx:CreationTime>
      </ctx:CreationTimeExtension>
    </extensions>
  </wpt>

  <wpt lat="46.882777791470289" lon="11.408055536448956">
    <ele>966</ele>
    <time>2014-03-19T09:48:06Z</time>
    <name>Gilfenklamm</name>
    <cmt>0472 779132
camping-gilfenklamm.com</cmt>
    <desc>0472 779132
camping-gilfenklamm.com</desc>
    <link href="http://www.camping-gilfenklamm.com"/>
    <sym>Campground</sym>
    <type>user</type>
    <extensions>
      <gpxx:WaypointExtension>
        <gpxx:DisplayMode>SymbolOnly</gpxx:DisplayMode>
        <gpxx:PhoneNumber>0472 779132</gpxx:PhoneNumber>
      </gpxx:WaypointExtension>
      <wptx1:WaypointExtension>
        <wptx1:DisplayMode>SymbolOnly</wptx1:DisplayMode>
        <wptx1:PhoneNumber>0472 779132</wptx1:PhoneNumber>
      </wptx1:WaypointExtension>
      <ctx:CreationTimeExtension>
        <ctx:CreationTime>2014-03-19T09:48:06Z</ctx:CreationTime>
      </ctx:CreationTimeExtension>
    </extensions>
  </wpt>

  <wpt lat="46.807779958471656" lon="11.812499966472387">
    <ele>785</ele>
    <time>2014-03-19T09:48:06Z</time>
    <name>Gisser</name>
    <cmt>Pustertaler Straße 26
St. Sigmund - Kiens
+39 0474 569 605
hotelgisser.it</cmt>
    <desc>Pustertaler Straße 26
St. Sigmund - Kiens
+39 0474 569 605
hotelgisser.it</desc>
    <link href="http://www.hotelgisser.it"/>
    <sym>Campground</sym>
    <type>user</type>
    <extensions>
      <gpxx:WaypointExtension>
        <gpxx:DisplayMode>SymbolOnly</gpxx:DisplayMode>
        <gpxx:Address>
          <gpxx:StreetAddress>Pustertaler Straße 26</gpxx:StreetAddress>
          <gpxx:City>St. Sigmund - Kiens</gpxx:City>
          <gpxx:State>BZ</gpxx:State>
        </gpxx:Address>
        <gpxx:PhoneNumber>+39 0474 569 605</gpxx:PhoneNumber>
      </gpxx:WaypointExtension>
      <wptx1:WaypointExtension>
        <wptx1:DisplayMode>SymbolOnly</wptx1:DisplayMode>
        <wptx1:Address>
          <wptx1:StreetAddress>Pustertaler Straße 26</wptx1:StreetAddress>
          <wptx1:City>St. Sigmund - Kiens</wptx1:City>
          <wptx1:State>BZ</wptx1:State>
        </wptx1:Address>
        <wptx1:PhoneNumber>+39 0474 569 605</wptx1:PhoneNumber>
      </wptx1:WaypointExtension>
      <ctx:CreationTimeExtension>
        <ctx:CreationTime>2014-03-19T09:48:06Z</ctx:CreationTime>
      </ctx:CreationTimeExtension>
    </extensions>
  </wpt>

  <wpt lat="46.673969998955727" lon="10.56982004083693">
    <ele>1689</ele>
    <time>2014-03-19T09:48:06Z</time>
    <name>Gloria Vallis</name>
    <cmt>Wiesenweg 5
Glurns
+39 0473 835 160
gloriavallis.com</cmt>
    <desc>Wiesenweg 5
Glurns
+39 0473 835 160
gloriavallis.com</desc>
    <link href="http://www.gloriavallis.com"/>
    <sym>Campground</sym>
    <type>user</type>
    <extensions>
      <gpxx:WaypointExtension>
        <gpxx:DisplayMode>SymbolOnly</gpxx:DisplayMode>
        <gpxx:Address>
          <gpxx:StreetAddress>Wiesenweg 5</gpxx:StreetAddress>
          <gpxx:City>Glurns</gpxx:City>
          <gpxx:State>BZ</gpxx:State>
        </gpxx:Address>
        <gpxx:PhoneNumber>+39 0473 835160</gpxx:PhoneNumber>
      </gpxx:WaypointExtension>
      <wptx1:WaypointExtension>
        <wptx1:DisplayMode>SymbolOnly</wptx1:DisplayMode>
        <wptx1:Address>
          <wptx1:StreetAddress>Wiesenweg 5</wptx1:StreetAddress>
          <wptx1:City>Glurns</wptx1:City>
          <wptx1:State>BZ</wptx1:State>
        </wptx1:Address>
        <wptx1:PhoneNumber>+39 0473 835160</wptx1:PhoneNumber>
      </wptx1:WaypointExtension>
      <ctx:CreationTimeExtension>
        <ctx:CreationTime>2014-03-19T09:48:06Z</ctx:CreationTime>
      </ctx:CreationTimeExtension>
    </extensions>
  </wpt>

  <wpt lat="46.38277773745358" lon="11.25749995931983">
    <ele>217</ele>
    <time>2014-03-19T09:48:07Z</time>
    <name>Gretl Am See</name>
    <cmt>St. Josef am See 18
Sankt Josef am See BZ
0471 960244
camping-gretl.it</cmt>
    <desc>St. Josef am See 18
Sankt Josef am See BZ
0471 960244
camping-gretl.it</desc>
    <link href="http://www.camping-gretl.it"/>
    <sym>Campground</sym>
    <type>user</type>
    <extensions>
      <gpxx:WaypointExtension>
        <gpxx:DisplayMode>SymbolOnly</gpxx:DisplayMode>
        <gpxx:Categories>
          <gpxx:Category>Waypoints</gpxx:Category>
          <gpxx:Category>camping-sudtirol</gpxx:Category>
        </gpxx:Categories>
      </gpxx:WaypointExtension>
      <wptx1:WaypointExtension>
        <wptx1:DisplayMode>SymbolOnly</wptx1:DisplayMode>
        <wptx1:Categories>
          <wptx1:Category>Waypoints</wptx1:Category>
          <wptx1:Category>camping-sudtirol</wptx1:Category>
        </wptx1:Categories>
      </wptx1:WaypointExtension>
      <ctx:CreationTimeExtension>
        <ctx:CreationTime>2014-03-19T09:48:07Z</ctx:CreationTime>
      </ctx:CreationTimeExtension>
    </extensions>
  </wpt>

  <wpt lat="46.670500980690122" lon="10.54558795876801">
    <time>2016-06-29T16:40:22Z</time>
    <name>IM Park</name>
    <cmt>Via del Parco 1 
Glurns
+39 0473 424 017</cmt>
    <desc>Via del Parco 1 
Glurns
+39 0473 424 017</desc>
    <link href="http://www.glurns.eu/en/the-town-of-glorenza/accommodation-more/campsite/23-0.html"/>
    <sym>Campground</sym>
    <type>user</type>
    <extensions>
      <gpxx:WaypointExtension>
        <gpxx:DisplayMode>SymbolOnly</gpxx:DisplayMode>
        <gpxx:Address>
          <gpxx:StreetAddress>Via del Parco 1</gpxx:StreetAddress>
          <gpxx:City>Glurns</gpxx:City>
          <gpxx:State>BZ</gpxx:State>
        </gpxx:Address>
        <gpxx:PhoneNumber>+39 0473 424 017</gpxx:PhoneNumber>
      </gpxx:WaypointExtension>
      <wptx1:WaypointExtension>
        <wptx1:DisplayMode>SymbolOnly</wptx1:DisplayMode>
        <wptx1:Address>
          <wptx1:StreetAddress>Via del Parco 1</wptx1:StreetAddress>
          <wptx1:City>Glurns</wptx1:City>
          <wptx1:State>BZ</wptx1:State>
        </wptx1:Address>
        <wptx1:PhoneNumber>+39 0473 424 017</wptx1:PhoneNumber>
      </wptx1:WaypointExtension>
      <ctx:CreationTimeExtension>
        <ctx:CreationTime>2016-06-29T16:40:22Z</ctx:CreationTime>
      </ctx:CreationTimeExtension>
    </extensions>
  </wpt>

  <wpt lat="46.624722210690379" lon="10.593055514618754">
    <ele>901</ele>
    <time>2014-03-19T09:48:07Z</time>
    <name>Kiefernhain</name>
    <cmt>Kiefernhainweg 37
Prad am Stilfserjoch BZ
+39 0473 616 422
camping-kiefernhain.it</cmt>
    <desc>Kiefernhainweg 37
Prad am Stilfserjoch BZ
+39 0473 616 422
camping-kiefernhain.it</desc>
    <link href="http://www.camping-kiefernhain.it"/>
    <sym>Campground</sym>
    <type>user</type>
    <extensions>
      <gpxx:WaypointExtension>
        <gpxx:DisplayMode>SymbolOnly</gpxx:DisplayMode>
        <gpxx:Categories>
          <gpxx:Category>Waypoints</gpxx:Category>
          <gpxx:Category>camping-sudtirol</gpxx:Category>
          <gpxx:Category>campsites in Italy - complete list (unverified).GPX</gpxx:Category>
        </gpxx:Categories>
        <gpxx:Address>
          <gpxx:StreetAddress>Kiefernhainweg 37</gpxx:StreetAddress>
          <gpxx:City>Prad am Stilfserjoch</gpxx:City>
          <gpxx:State>BZ</gpxx:State>
        </gpxx:Address>
        <gpxx:PhoneNumber>+39 0473 616 422</gpxx:PhoneNumber>
      </gpxx:WaypointExtension>
      <wptx1:WaypointExtension>
        <wptx1:DisplayMode>SymbolOnly</wptx1:DisplayMode>
        <wptx1:Categories>
          <wptx1:Category>Waypoints</wptx1:Category>
          <wptx1:Category>camping-sudtirol</wptx1:Category>
          <wptx1:Category>campsites in Italy - complete list (unverified).GPX</wptx1:Category>
        </wptx1:Categories>
        <wptx1:Address>
          <wptx1:StreetAddress>Kiefernhainweg 37</wptx1:StreetAddress>
          <wptx1:City>Prad am Stilfserjoch</wptx1:City>
          <wptx1:State>BZ</wptx1:State>
        </wptx1:Address>
        <wptx1:PhoneNumber>+39 0473 616 422</wptx1:PhoneNumber>
      </wptx1:WaypointExtension>
      <ctx:CreationTimeExtension>
        <ctx:CreationTime>2014-03-19T09:48:07Z</ctx:CreationTime>
      </ctx:CreationTimeExtension>
    </extensions>
  </wpt>

  <wpt lat="46.621920978650451" lon="10.86350399069488">
    <time>2016-07-01T11:42:54Z</time>
    <name>Latsch (camping)</name>
    <cmt>Via Nazionale 4
Latsch BZ
+39 0473 623 217
camping-latsch.com</cmt>
    <desc>Via Nazionale 4
Latsch BZ
+39 0473 623 217
camping-latsch.com</desc>
    <link href="http://www.camping-latsch.com/"/>
    <sym>Campground</sym>
    <type>user</type>
    <extensions>
      <gpxx:WaypointExtension>
        <gpxx:DisplayMode>SymbolOnly</gpxx:DisplayMode>
      </gpxx:WaypointExtension>
      <wptx1:WaypointExtension>
        <wptx1:DisplayMode>SymbolOnly</wptx1:DisplayMode>
      </wptx1:WaypointExtension>
      <ctx:CreationTimeExtension>
        <ctx:CreationTime>2016-07-01T11:42:54Z</ctx:CreationTime>
      </ctx:CreationTimeExtension>
    </extensions>
  </wpt>

  <wpt lat="46.734222220256925" lon="11.645833365619183">
    <ele>590</ele>
    <time>2014-03-19T09:48:07Z</time>
    <name>Lowenhof-Leone</name>
    <cmt>0472 836216
loewenhof.it</cmt>
    <desc>0472 836216
loewenhof.it</desc>
    <link href="http://www.loewenhof.it"/>
    <sym>Campground</sym>
    <type>user</type>
    <extensions>
      <gpxx:WaypointExtension>
        <gpxx:DisplayMode>SymbolOnly</gpxx:DisplayMode>
        <gpxx:PhoneNumber>0472 836216</gpxx:PhoneNumber>
      </gpxx:WaypointExtension>
      <wptx1:WaypointExtension>
        <wptx1:DisplayMode>SymbolOnly</wptx1:DisplayMode>
        <wptx1:PhoneNumber>0472 836216</wptx1:PhoneNumber>
      </wptx1:WaypointExtension>
      <ctx:CreationTimeExtension>
        <ctx:CreationTime>2014-03-19T09:48:07Z</ctx:CreationTime>
      </ctx:CreationTimeExtension>
    </extensions>
  </wpt>

  <wpt lat="46.684273118153214" lon="10.551319168880582">
    <ele>1009</ele>
    <time>2014-03-19T09:48:07Z</time>
    <name>Mals (camping)</name>
    <cmt>Bahnhofstraße 51
Mals im Vinschgau BZ 
+39 0473 835 179
campingmals.it</cmt>
    <desc>Bahnhofstraße 51
Mals im Vinschgau BZ 
+39 0473 835 179
campingmals.it</desc>
    <link href="http://www.campingmals.it"/>
    <sym>Campground</sym>
    <type>user</type>
    <extensions>
      <gpxx:WaypointExtension>
        <gpxx:DisplayMode>SymbolOnly</gpxx:DisplayMode>
        <gpxx:Categories>
          <gpxx:Category>Waypoints</gpxx:Category>
          <gpxx:Category>camping-sudtirol</gpxx:Category>
        </gpxx:Categories>
      </gpxx:WaypointExtension>
      <wptx1:WaypointExtension>
        <wptx1:DisplayMode>SymbolOnly</wptx1:DisplayMode>
        <wptx1:Categories>
          <wptx1:Category>Waypoints</wptx1:Category>
          <wptx1:Category>camping-sudtirol</wptx1:Category>
        </wptx1:Categories>
      </wptx1:WaypointExtension>
      <ctx:CreationTimeExtension>
        <ctx:CreationTime>2014-03-19T09:48:07Z</ctx:CreationTime>
      </ctx:CreationTimeExtension>
    </extensions>
  </wpt>

  <wpt lat="46.348284110426903" lon="11.300975885242224">
    <time>2012-12-13T18:51:23Z</time>
    <name>Markushof</name>
    <cmt>Truidn 1
Auer BZ
+39 0471 810 025
hotelmarkushof.it</cmt>
    <desc>Truidn 1
Auer BZ
+39 0471 810 025
hotelmarkushof.it</desc>
    <link href="http://www.hotelmarkushof.com"/>
    <sym>Campground</sym>
    <type>user</type>
    <extensions>
      <gpxx:WaypointExtension>
        <gpxx:DisplayMode>SymbolOnly</gpxx:DisplayMode>
        <gpxx:Categories>
          <gpxx:Category>Waypoints</gpxx:Category>
          <gpxx:Category>camping-sudtirol</gpxx:Category>
        </gpxx:Categories>
        <gpxx:Address>
          <gpxx:StreetAddress>Truidn 1</gpxx:StreetAddress>
          <gpxx:City>Auer</gpxx:City>
          <gpxx:State>BZ</gpxx:State>
        </gpxx:Address>
        <gpxx:PhoneNumber>0471 810025</gpxx:PhoneNumber>
      </gpxx:WaypointExtension>
      <wptx1:WaypointExtension>
        <wptx1:DisplayMode>SymbolOnly</wptx1:DisplayMode>
        <wptx1:Categories>
          <wptx1:Category>Waypoints</wptx1:Category>
          <wptx1:Category>camping-sudtirol</wptx1:Category>
        </wptx1:Categories>
        <wptx1:Address>
          <wptx1:StreetAddress>Truidn 1</wptx1:StreetAddress>
          <wptx1:City>Auer</wptx1:City>
          <wptx1:State>BZ</wptx1:State>
        </wptx1:Address>
        <wptx1:PhoneNumber>0471 810025</wptx1:PhoneNumber>
      </wptx1:WaypointExtension>
      <ctx:CreationTimeExtension>
        <ctx:CreationTime>2012-12-13T18:51:23Z</ctx:CreationTime>
      </ctx:CreationTimeExtension>
    </extensions>
  </wpt>

  <wpt lat="46.66390391997993" lon="11.158617390319705">
    <ele>298</ele>
    <time>2014-03-19T09:48:07Z</time>
    <name>Meran (camping)</name>
    <cmt>Via Piave 44
Meran BZ
+39 0473 231249
camping-merano.it</cmt>
    <desc>Via Piave 44
Meran BZ
+39 0473 231249
camping-merano.it</desc>
    <link href="http://www.camping-merano.it"/>
    <link href="https://www.merano-suedtirol.it/en/merano/camping-merano/"/>
    <sym>Campground</sym>
    <type>user</type>
    <extensions>
      <gpxx:WaypointExtension>
        <gpxx:DisplayMode>SymbolOnly</gpxx:DisplayMode>
        <gpxx:Categories>
          <gpxx:Category>Waypoints</gpxx:Category>
          <gpxx:Category>camping-sudtirol</gpxx:Category>
        </gpxx:Categories>
        <gpxx:Address>
          <gpxx:StreetAddress>Via Piave 44</gpxx:StreetAddress>
        </gpxx:Address>
        <gpxx:PhoneNumber>+39 0473 231249</gpxx:PhoneNumber>
      </gpxx:WaypointExtension>
      <wptx1:WaypointExtension>
        <wptx1:DisplayMode>SymbolOnly</wptx1:DisplayMode>
        <wptx1:Categories>
          <wptx1:Category>Waypoints</wptx1:Category>
          <wptx1:Category>camping-sudtirol</wptx1:Category>
        </wptx1:Categories>
        <wptx1:Address>
          <wptx1:StreetAddress>Via Piave 44</wptx1:StreetAddress>
        </wptx1:Address>
        <wptx1:PhoneNumber>+39 0473 231249</wptx1:PhoneNumber>
      </wptx1:WaypointExtension>
      <ctx:CreationTimeExtension>
        <ctx:CreationTime>2014-03-19T09:48:07Z</ctx:CreationTime>
      </ctx:CreationTimeExtension>
    </extensions>
  </wpt>

  <wpt lat="46.503333309665322" lon="11.299444427713752">
    <time>2012-12-13T18:48:02Z</time>
    <name>Moosbauer (Bozen)</name>
    <cmt>Moritzinger Weg 83
Bozen
+39 0471 918 492 
moosbauer.com</cmt>
    <desc>Moritzinger Weg 83
Bozen
+39 0471 918 492 
moosbauer.com</desc>
    <link href="http://www.moosbauer.com"/>
    <sym>Campground</sym>
    <type>user</type>
    <extensions>
      <gpxx:WaypointExtension>
        <gpxx:DisplayMode>SymbolOnly</gpxx:DisplayMode>
        <gpxx:Categories>
          <gpxx:Category>Waypoints</gpxx:Category>
          <gpxx:Category>camping-sudtirol</gpxx:Category>
        </gpxx:Categories>
        <gpxx:Address>
          <gpxx:StreetAddress>Via Merano 101</gpxx:StreetAddress>
          <gpxx:City>Bozen (Bolzano)</gpxx:City>
          <gpxx:State>BZ</gpxx:State>
        </gpxx:Address>
        <gpxx:PhoneNumber>0471 918492</gpxx:PhoneNumber>
      </gpxx:WaypointExtension>
      <wptx1:WaypointExtension>
        <wptx1:DisplayMode>SymbolOnly</wptx1:DisplayMode>
        <wptx1:Categories>
          <wptx1:Category>Waypoints</wptx1:Category>
          <wptx1:Category>camping-sudtirol</wptx1:Category>
        </wptx1:Categories>
        <wptx1:Address>
          <wptx1:StreetAddress>Via Merano 101</wptx1:StreetAddress>
          <wptx1:City>Bozen (Bolzano)</wptx1:City>
          <wptx1:State>BZ</wptx1:State>
        </wptx1:Address>
        <wptx1:PhoneNumber>0471 918492</wptx1:PhoneNumber>
      </wptx1:WaypointExtension>
      <ctx:CreationTimeExtension>
        <ctx:CreationTime>2012-12-13T18:48:02Z</ctx:CreationTime>
      </ctx:CreationTimeExtension>
    </extensions>
  </wpt>

  <wpt lat="46.167855262756348" lon="11.114044189453125">
    <time>2014-03-18T10:51:53Z</time>
    <name>Moser Albergo Camping</name>
    <cmt>Via Nazionale 64
Nave San Felice - Lavis TN
+39 0461 870 248

</cmt>
    <desc>Via Nazionale 64
Nave San Felice - Lavis TN
+39 0461 870 248

</desc>
    <sym>Campground</sym>
    <type>user</type>
    <extensions>
      <gpxx:WaypointExtension>
        <gpxx:DisplayMode>SymbolOnly</gpxx:DisplayMode>
        <gpxx:Address>
          <gpxx:StreetAddress>Via Nazionale 64</gpxx:StreetAddress>
          <gpxx:City>Nave San Felice - Lavis</gpxx:City>
          <gpxx:State>TN</gpxx:State>
        </gpxx:Address>
        <gpxx:PhoneNumber>+39 0461 870 248</gpxx:PhoneNumber>
      </gpxx:WaypointExtension>
      <wptx1:WaypointExtension>
        <wptx1:DisplayMode>SymbolOnly</wptx1:DisplayMode>
        <wptx1:Address>
          <wptx1:StreetAddress>Via Nazionale 64</wptx1:StreetAddress>
          <wptx1:City>Nave San Felice - Lavis</wptx1:City>
          <wptx1:State>TN</wptx1:State>
        </wptx1:Address>
        <wptx1:PhoneNumber>+39 0461 870 248</wptx1:PhoneNumber>
      </wptx1:WaypointExtension>
      <ctx:CreationTimeExtension>
        <ctx:CreationTime>2014-03-18T10:51:53Z</ctx:CreationTime>
      </ctx:CreationTimeExtension>
    </extensions>
  </wpt>

  <wpt lat="46.304444409906864" lon="11.22305553406477">
    <ele>211</ele>
    <time>2014-03-19T09:48:07Z</time>
    <name>Obstgarten</name>
    <cmt>Breitbach 9
Kurtatsch BZ
+39 0471 880 709
camping-obstgarten.it</cmt>
    <desc>Breitbach 9
Kurtatsch BZ
+39 0471 880 709
camping-obstgarten.it</desc>
    <link href="http://www.camping-obstgarten.it"/>
    <sym>Campground</sym>
    <type>user</type>
    <extensions>
      <gpxx:WaypointExtension>
        <gpxx:DisplayMode>SymbolOnly</gpxx:DisplayMode>
        <gpxx:Categories>
          <gpxx:Category>Waypoints</gpxx:Category>
          <gpxx:Category>camping-sudtirol</gpxx:Category>
          <gpxx:Category>campsites in Italy - complete list (unverified).GPX</gpxx:Category>
        </gpxx:Categories>
      </gpxx:WaypointExtension>
      <wptx1:WaypointExtension>
        <wptx1:DisplayMode>SymbolOnly</wptx1:DisplayMode>
        <wptx1:Categories>
          <wptx1:Category>Waypoints</wptx1:Category>
          <wptx1:Category>camping-sudtirol</wptx1:Category>
          <wptx1:Category>campsites in Italy - complete list (unverified).GPX</wptx1:Category>
        </wptx1:Categories>
      </wptx1:WaypointExtension>
      <ctx:CreationTimeExtension>
        <ctx:CreationTime>2014-03-19T09:48:07Z</ctx:CreationTime>
      </ctx:CreationTimeExtension>
    </extensions>
  </wpt>

  <wpt lat="46.734720021486282" lon="12.193059995770454">
    <ele>1177</ele>
    <time>2014-03-19T09:48:07Z</time>
    <name>Olympia</name>
    <cmt>0474 972147
camping-olympia.com</cmt>
    <desc>0474 972147
camping-olympia.com</desc>
    <link href="http://www.camping-olympia.com"/>
    <sym>Campground</sym>
    <type>user</type>
    <extensions>
      <gpxx:WaypointExtension>
        <gpxx:DisplayMode>SymbolOnly</gpxx:DisplayMode>
        <gpxx:PhoneNumber>0474 972147</gpxx:PhoneNumber>
      </gpxx:WaypointExtension>
      <wptx1:WaypointExtension>
        <wptx1:DisplayMode>SymbolOnly</wptx1:DisplayMode>
        <wptx1:PhoneNumber>0474 972147</wptx1:PhoneNumber>
      </wptx1:WaypointExtension>
      <ctx:CreationTimeExtension>
        <ctx:CreationTime>2014-03-19T09:48:07Z</ctx:CreationTime>
      </ctx:CreationTimeExtension>
    </extensions>
  </wpt>

  <wpt lat="46.727991532534361" lon="11.202078647911549">
    <ele>502</ele>
    <time>2014-03-19T09:48:07Z</time>
    <name>Passeier-Meran</name>
    <cmt>0473 645 454
338 794 2472
campingpasseiermeran.com</cmt>
    <desc>0473 645 454
338 794 2472
campingpasseiermeran.com</desc>
    <link href="http://www.campingpasseiermeran.com"/>
    <sym>Campground</sym>
    <type>user</type>
    <extensions>
      <gpxx:WaypointExtension>
        <gpxx:DisplayMode>SymbolOnly</gpxx:DisplayMode>
        <gpxx:PhoneNumber>0473 645 454</gpxx:PhoneNumber>
        <gpxx:PhoneNumber>338 794 2472</gpxx:PhoneNumber>
      </gpxx:WaypointExtension>
      <wptx1:WaypointExtension>
        <wptx1:DisplayMode>SymbolOnly</wptx1:DisplayMode>
        <wptx1:PhoneNumber>0473 645 454</wptx1:PhoneNumber>
        <wptx1:PhoneNumber>338 794 2472</wptx1:PhoneNumber>
      </wptx1:WaypointExtension>
      <ctx:CreationTimeExtension>
        <ctx:CreationTime>2014-03-19T09:48:07Z</ctx:CreationTime>
      </ctx:CreationTimeExtension>
    </extensions>
  </wpt>

  <wpt lat="46.372500015422702" lon="11.252499986439943">
    <ele>217</ele>
    <time>2014-03-19T09:48:07Z</time>
    <name>Sankt Josef Am See</name>
    <cmt>Weinstraße 75
Kaltern, BZ
+39 0471 960 170
camping-kalterersee.com</cmt>
    <desc>Weinstraße 75
Kaltern, BZ
+39 0471 960 170
camping-kalterersee.com</desc>
    <link href="http://www.camping-kalterersee.com"/>
    <sym>Campground</sym>
    <type>user</type>
    <extensions>
      <gpxx:WaypointExtension>
        <gpxx:DisplayMode>SymbolOnly</gpxx:DisplayMode>
        <gpxx:Categories>
          <gpxx:Category>Waypoints</gpxx:Category>
          <gpxx:Category>camping-sudtirol</gpxx:Category>
        </gpxx:Categories>
      </gpxx:WaypointExtension>
      <wptx1:WaypointExtension>
        <wptx1:DisplayMode>SymbolOnly</wptx1:DisplayMode>
        <wptx1:Categories>
          <wptx1:Category>Waypoints</wptx1:Category>
          <wptx1:Category>camping-sudtirol</wptx1:Category>
        </wptx1:Categories>
      </wptx1:WaypointExtension>
      <ctx:CreationTimeExtension>
        <ctx:CreationTime>2014-03-19T09:48:07Z</ctx:CreationTime>
      </ctx:CreationTimeExtension>
    </extensions>
  </wpt>

  <wpt lat="46.554278014227748" lon="11.969786966219544">
    <ele>1663</ele>
    <time>2014-03-19T09:48:07Z</time>
    <name>Sass Dlacia</name>
    <cmt>0471 849527
campingsassdlacia.it</cmt>
    <desc>0471 849527
campingsassdlacia.it</desc>
    <link href="http://campingsassdlacia.it"/>
    <sym>Campground</sym>
    <type>user</type>
    <extensions>
      <gpxx:WaypointExtension>
        <gpxx:DisplayMode>SymbolOnly</gpxx:DisplayMode>
        <gpxx:PhoneNumber>0471 849527</gpxx:PhoneNumber>
      </gpxx:WaypointExtension>
      <wptx1:WaypointExtension>
        <wptx1:DisplayMode>SymbolOnly</wptx1:DisplayMode>
        <wptx1:PhoneNumber>0471 849527</wptx1:PhoneNumber>
      </wptx1:WaypointExtension>
      <ctx:CreationTimeExtension>
        <ctx:CreationTime>2014-03-19T09:48:07Z</ctx:CreationTime>
      </ctx:CreationTimeExtension>
    </extensions>
  </wpt>

  <wpt lat="46.611944418400526" lon="11.168333441019058">
    <ele>268</ele>
    <time>2014-03-19T09:48:07Z</time>
    <name>Schlosshof</name>
    <cmt>Jaufenstraße 10 (Einfahrt Feldgatterweg)
Lana bei Meran BZ
+39 0473 561 469
schlosshof.it</cmt>
    <desc>Jaufenstraße 10 (Einfahrt Feldgatterweg)
Lana bei Meran BZ
+39 0473 561 469
schlosshof.it</desc>
    <link href="http://www.schlosshof.it"/>
    <sym>Campground</sym>
    <type>user</type>
    <extensions>
      <gpxx:WaypointExtension>
        <gpxx:DisplayMode>SymbolOnly</gpxx:DisplayMode>
        <gpxx:Categories>
          <gpxx:Category>Waypoints</gpxx:Category>
          <gpxx:Category>camping-sudtirol</gpxx:Category>
          <gpxx:Category>campsites in Italy - complete list (unverified).GPX</gpxx:Category>
        </gpxx:Categories>
        <gpxx:Address>
          <gpxx:StreetAddress>Jaufenstraße 10 (Einfahrt Feldgatterweg)</gpxx:StreetAddress>
          <gpxx:City>Lana bei Meran</gpxx:City>
          <gpxx:State>BZ</gpxx:State>
        </gpxx:Address>
        <gpxx:PhoneNumber>+39 0473 561 469</gpxx:PhoneNumber>
      </gpxx:WaypointExtension>
      <wptx1:WaypointExtension>
        <wptx1:DisplayMode>SymbolOnly</wptx1:DisplayMode>
        <wptx1:Categories>
          <wptx1:Category>Waypoints</wptx1:Category>
          <wptx1:Category>camping-sudtirol</wptx1:Category>
          <wptx1:Category>campsites in Italy - complete list (unverified).GPX</wptx1:Category>
        </wptx1:Categories>
        <wptx1:Address>
          <wptx1:StreetAddress>Jaufenstraße 10 (Einfahrt Feldgatterweg)</wptx1:StreetAddress>
          <wptx1:City>Lana bei Meran</wptx1:City>
          <wptx1:State>BZ</wptx1:State>
        </wptx1:Address>
        <wptx1:PhoneNumber>+39 0473 561 469</wptx1:PhoneNumber>
      </wptx1:WaypointExtension>
      <ctx:CreationTimeExtension>
        <ctx:CreationTime>2014-03-19T09:48:07Z</ctx:CreationTime>
      </ctx:CreationTimeExtension>
    </extensions>
  </wpt>

  <wpt lat="46.430000038817525" lon="11.3436100166291">
    <ele>239</ele>
    <time>2014-03-19T09:48:07Z</time>
    <name>Steiner</name>
    <cmt>Kennedystraße 32/34
Leifers BZ
+39 0471 950 105
campingsteiner.com</cmt>
    <desc>Kennedystraße 32/34
Leifers BZ
+39 0471 950 105
campingsteiner.com</desc>
    <link href="http://www.campingsteiner.com"/>
    <sym>Campground</sym>
    <type>user</type>
    <extensions>
      <gpxx:WaypointExtension>
        <gpxx:DisplayMode>SymbolOnly</gpxx:DisplayMode>
        <gpxx:Categories>
          <gpxx:Category>Waypoints</gpxx:Category>
          <gpxx:Category>camping-sudtirol</gpxx:Category>
          <gpxx:Category>campsites in Italy - complete list (unverified).GPX</gpxx:Category>
        </gpxx:Categories>
        <gpxx:Address>
          <gpxx:StreetAddress>Kennedystraße 32/34</gpxx:StreetAddress>
          <gpxx:City>Leifers</gpxx:City>
          <gpxx:State>BZ</gpxx:State>
        </gpxx:Address>
        <gpxx:PhoneNumber>+39 0471 950 105</gpxx:PhoneNumber>
      </gpxx:WaypointExtension>
      <wptx1:WaypointExtension>
        <wptx1:DisplayMode>SymbolOnly</wptx1:DisplayMode>
        <wptx1:Categories>
          <wptx1:Category>Waypoints</wptx1:Category>
          <wptx1:Category>camping-sudtirol</wptx1:Category>
          <wptx1:Category>campsites in Italy - complete list (unverified).GPX</wptx1:Category>
        </wptx1:Categories>
        <wptx1:Address>
          <wptx1:StreetAddress>Kennedystraße 32/34</wptx1:StreetAddress>
          <wptx1:City>Leifers</wptx1:City>
          <wptx1:State>BZ</wptx1:State>
        </wptx1:Address>
        <wptx1:PhoneNumber>+39 0471 950 105</wptx1:PhoneNumber>
      </wptx1:WaypointExtension>
      <ctx:CreationTimeExtension>
        <ctx:CreationTime>2014-03-19T09:48:07Z</ctx:CreationTime>
      </ctx:CreationTimeExtension>
    </extensions>
  </wpt>

  <wpt lat="46.617416460067034" lon="10.597400106489658">
    <time>2012-12-13T19:16:27Z</time>
    <name>Sägemühle</name>
    <cmt>Dornweg 12
Prad am Stilfserjoch
+39 0473 616 078
saegemuehle.it</cmt>
    <desc>Dornweg 12
Prad am Stilfserjoch
+39 0473 616 078
saegemuehle.it</desc>
    <link href="http://www.saegemuehle.it/"/>
    <sym>Campground</sym>
    <type>user</type>
    <extensions>
      <gpxx:WaypointExtension>
        <gpxx:DisplayMode>SymbolOnly</gpxx:DisplayMode>
        <gpxx:Categories>
          <gpxx:Category>Waypoints</gpxx:Category>
          <gpxx:Category>camping-sudtirol</gpxx:Category>
        </gpxx:Categories>
        <gpxx:Address>
          <gpxx:StreetAddress>Dornweg 12</gpxx:StreetAddress>
          <gpxx:City>Prad am Stilfserjoch - Vinschgau</gpxx:City>
          <gpxx:State>BZ</gpxx:State>
        </gpxx:Address>
        <gpxx:PhoneNumber>+39 0473 616 078</gpxx:PhoneNumber>
      </gpxx:WaypointExtension>
      <wptx1:WaypointExtension>
        <wptx1:DisplayMode>SymbolOnly</wptx1:DisplayMode>
        <wptx1:Categories>
          <wptx1:Category>Waypoints</wptx1:Category>
          <wptx1:Category>camping-sudtirol</wptx1:Category>
        </wptx1:Categories>
        <wptx1:Address>
          <wptx1:StreetAddress>Dornweg 12</wptx1:StreetAddress>
          <wptx1:City>Prad am Stilfserjoch - Vinschgau</wptx1:City>
          <wptx1:State>BZ</wptx1:State>
        </wptx1:Address>
        <wptx1:PhoneNumber>+39 0473 616 078</wptx1:PhoneNumber>
      </wptx1:WaypointExtension>
      <ctx:CreationTimeExtension>
        <ctx:CreationTime>2012-12-13T19:16:27Z</ctx:CreationTime>
      </ctx:CreationTimeExtension>
    </extensions>
  </wpt>

  <wpt lat="46.769764171913266" lon="10.532291159033775">
    <time>2012-12-14T11:56:41Z</time>
    <name>Thoeni</name>
    <cmt>0473 634 020
camping-thoeni.it</cmt>
    <desc>0473 634 020
camping-thoeni.it</desc>
    <link href="http://www.camping-thoeni.it"/>
    <sym>Campground</sym>
    <type>user</type>
    <extensions>
      <gpxx:WaypointExtension>
        <gpxx:DisplayMode>SymbolOnly</gpxx:DisplayMode>
        <gpxx:PhoneNumber>0473 634020</gpxx:PhoneNumber>
      </gpxx:WaypointExtension>
      <wptx1:WaypointExtension>
        <wptx1:DisplayMode>SymbolOnly</wptx1:DisplayMode>
        <wptx1:PhoneNumber>0473 634020</wptx1:PhoneNumber>
      </wptx1:WaypointExtension>
      <ctx:CreationTimeExtension>
        <ctx:CreationTime>2012-12-14T11:56:41Z</ctx:CreationTime>
      </ctx:CreationTimeExtension>
    </extensions>
  </wpt>

  <wpt lat="46.769871711730957" lon="10.531704425811768">
    <time>2016-01-09T19:41:23Z</time>
    <name>Thöni</name>
    <cmt>Landstraße (Via dei Campi) 83
St. Valentin auf der Haide
Graun - Südtirol 
+39 0473 634020
camping-thoeni.it</cmt>
    <desc>Landstraße (Via dei Campi) 83
St. Valentin auf der Haide
Graun - Südtirol 
+39 0473 634020
camping-thoeni.it</desc>
    <link href="http://www.camping-thoeni.it/"/>
    <sym>Campground</sym>
    <type>user</type>
    <extensions>
      <gpxx:WaypointExtension>
        <gpxx:DisplayMode>SymbolOnly</gpxx:DisplayMode>
        <gpxx:PhoneNumber>+39 0473 634020</gpxx:PhoneNumber>
      </gpxx:WaypointExtension>
      <wptx1:WaypointExtension>
        <wptx1:DisplayMode>SymbolOnly</wptx1:DisplayMode>
        <wptx1:PhoneNumber>+39 0473 634020</wptx1:PhoneNumber>
      </wptx1:WaypointExtension>
      <ctx:CreationTimeExtension>
        <ctx:CreationTime>2016-01-09T19:41:23Z</ctx:CreationTime>
      </ctx:CreationTimeExtension>
    </extensions>
  </wpt>

  <wpt lat="46.562065724283457" lon="11.176557848230004">
    <ele>618</ele>
    <time>2014-03-19T09:48:07Z</time>
    <name>Tisens</name>
    <cmt>Tisens bei Lana BZ
+39 0473 927 131
naturcaravanpark-tisens.com</cmt>
    <desc>Tisens bei Lana BZ
+39 0473 927 131
naturcaravanpark-tisens.com</desc>
    <link href="http://www.naturcaravanpark-tisens.com"/>
    <sym>Campground</sym>
    <type>user</type>
    <extensions>
      <gpxx:WaypointExtension>
        <gpxx:DisplayMode>SymbolOnly</gpxx:DisplayMode>
        <gpxx:Address>
          <gpxx:City>Tisens bei Lana</gpxx:City>
          <gpxx:State>BZ</gpxx:State>
        </gpxx:Address>
        <gpxx:PhoneNumber>+39 0473 927 131</gpxx:PhoneNumber>
      </gpxx:WaypointExtension>
      <wptx1:WaypointExtension>
        <wptx1:DisplayMode>SymbolOnly</wptx1:DisplayMode>
        <wptx1:Address>
          <wptx1:City>Tisens bei Lana</wptx1:City>
          <wptx1:State>BZ</wptx1:State>
        </wptx1:Address>
        <wptx1:PhoneNumber>+39 0473 927 131</wptx1:PhoneNumber>
      </wptx1:WaypointExtension>
      <ctx:CreationTimeExtension>
        <ctx:CreationTime>2014-03-19T09:48:07Z</ctx:CreationTime>
      </ctx:CreationTimeExtension>
    </extensions>
  </wpt>

  <wpt lat="46.706333365291357" lon="12.21822221763432">
    <ele>1262</ele>
    <time>2014-03-19T09:48:07Z</time>
    <name>Toblacher See</name>
    <cmt>0474 972294
toblachersee.com</cmt>
    <desc>0474 972294
toblachersee.com</desc>
    <link href="http://www.toblachersee.com"/>
    <sym>Campground</sym>
    <type>user</type>
    <extensions>
      <gpxx:WaypointExtension>
        <gpxx:DisplayMode>SymbolOnly</gpxx:DisplayMode>
        <gpxx:PhoneNumber>0474 972294</gpxx:PhoneNumber>
      </gpxx:WaypointExtension>
      <wptx1:WaypointExtension>
        <wptx1:DisplayMode>SymbolOnly</wptx1:DisplayMode>
        <wptx1:PhoneNumber>0474 972294</wptx1:PhoneNumber>
      </wptx1:WaypointExtension>
      <ctx:CreationTimeExtension>
        <ctx:CreationTime>2014-03-19T09:48:07Z</ctx:CreationTime>
      </ctx:CreationTimeExtension>
    </extensions>
  </wpt>

  <wpt lat="46.5431197732687" lon="10.507626235485077">
    <ele>1561</ele>
    <time>2014-03-19T09:48:07Z</time>
    <name>Trafoi</name>
    <cmt>0473 611533
camping-trafoi.com</cmt>
    <desc>0473 611533
camping-trafoi.com</desc>
    <link href="http://www.camping-trafoi.com"/>
    <sym>Campground</sym>
    <type>user</type>
    <extensions>
      <gpxx:WaypointExtension>
        <gpxx:DisplayMode>SymbolOnly</gpxx:DisplayMode>
        <gpxx:PhoneNumber>0473 611533</gpxx:PhoneNumber>
      </gpxx:WaypointExtension>
      <wptx1:WaypointExtension>
        <wptx1:DisplayMode>SymbolOnly</wptx1:DisplayMode>
        <wptx1:PhoneNumber>0473 611533</wptx1:PhoneNumber>
      </wptx1:WaypointExtension>
      <ctx:CreationTimeExtension>
        <ctx:CreationTime>2014-03-19T09:48:07Z</ctx:CreationTime>
      </ctx:CreationTimeExtension>
    </extensions>
  </wpt>

  <wpt lat="46.761366510763764" lon="11.634257370606065">
    <time>2012-12-13T18:41:58Z</time>
    <name>Vahrner See (Lago Di Varna)</name>
    <cmt>0472 832169
camping-vahrner-see.com</cmt>
    <desc>0472 832169
camping-vahrner-see.com</desc>
    <link href="http://camping-vahrner-see.com"/>
    <sym>Campground</sym>
    <type>user</type>
    <extensions>
      <gpxx:WaypointExtension>
        <gpxx:DisplayMode>SymbolOnly</gpxx:DisplayMode>
        <gpxx:PhoneNumber>0472 832169</gpxx:PhoneNumber>
      </gpxx:WaypointExtension>
      <wptx1:WaypointExtension>
        <wptx1:DisplayMode>SymbolOnly</wptx1:DisplayMode>
        <wptx1:PhoneNumber>0472 832169</wptx1:PhoneNumber>
      </wptx1:WaypointExtension>
      <ctx:CreationTimeExtension>
        <ctx:CreationTime>2012-12-13T18:41:58Z</ctx:CreationTime>
      </ctx:CreationTimeExtension>
    </extensions>
  </wpt>

  <wpt lat="46.681388905271888" lon="11.117472220212221">
    <ele>354</ele>
    <time>2014-03-19T09:48:07Z</time>
    <name>Via Claudia Augusta</name>
    <cmt>Markt Street 14
Algund BZ
+39 0473 223 060
campalgund.com</cmt>
    <desc>Markt Street 14
Algund BZ
+39 0473 223 060
campalgund.com</desc>
    <link href="http://www.campalgund.com"/>
    <sym>Campground</sym>
    <type>user</type>
    <extensions>
      <gpxx:WaypointExtension>
        <gpxx:DisplayMode>SymbolOnly</gpxx:DisplayMode>
        <gpxx:Categories>
          <gpxx:Category>Waypoints</gpxx:Category>
          <gpxx:Category>camping-sudtirol</gpxx:Category>
        </gpxx:Categories>
        <gpxx:Address>
          <gpxx:StreetAddress>Markt Street 14</gpxx:StreetAddress>
          <gpxx:City>Algund</gpxx:City>
          <gpxx:State>BZ</gpxx:State>
        </gpxx:Address>
        <gpxx:PhoneNumber>+39 0473 223 060</gpxx:PhoneNumber>
      </gpxx:WaypointExtension>
      <wptx1:WaypointExtension>
        <wptx1:DisplayMode>SymbolOnly</wptx1:DisplayMode>
        <wptx1:Categories>
          <wptx1:Category>Waypoints</wptx1:Category>
          <wptx1:Category>camping-sudtirol</wptx1:Category>
        </wptx1:Categories>
        <wptx1:Address>
          <wptx1:StreetAddress>Markt Street 14</wptx1:StreetAddress>
          <wptx1:City>Algund</wptx1:City>
          <wptx1:State>BZ</wptx1:State>
        </wptx1:Address>
        <wptx1:PhoneNumber>+39 0473 223 060</wptx1:PhoneNumber>
      </wptx1:WaypointExtension>
      <ctx:CreationTimeExtension>
        <ctx:CreationTime>2014-03-19T09:48:07Z</ctx:CreationTime>
      </ctx:CreationTimeExtension>
    </extensions>
  </wpt>

  <wpt lat="46.598888766020536" lon="11.145555535331368">
    <ele>636</ele>
    <time>2014-03-19T09:48:07Z</time>
    <name>Völlan</name>
    <cmt>Zehentweg 6
Völlan/Lana BZ
+39 0473 568 056
camping-voellan.com</cmt>
    <desc>Zehentweg 6
Völlan/Lana BZ
+39 0473 568 056
camping-voellan.com</desc>
    <link href="http://www.camping-voellan.com"/>
    <sym>Campground</sym>
    <type>user</type>
    <extensions>
      <gpxx:WaypointExtension>
        <gpxx:DisplayMode>SymbolOnly</gpxx:DisplayMode>
        <gpxx:Categories>
          <gpxx:Category>Waypoints</gpxx:Category>
          <gpxx:Category>camping-sudtirol</gpxx:Category>
        </gpxx:Categories>
        <gpxx:Address>
          <gpxx:StreetAddress>Zehentweg 6</gpxx:StreetAddress>
          <gpxx:City>Völlan/Lana</gpxx:City>
          <gpxx:State>BZ</gpxx:State>
        </gpxx:Address>
        <gpxx:PhoneNumber>+39 0473 568 056</gpxx:PhoneNumber>
      </gpxx:WaypointExtension>
      <wptx1:WaypointExtension>
        <wptx1:DisplayMode>SymbolOnly</wptx1:DisplayMode>
        <wptx1:Categories>
          <wptx1:Category>Waypoints</wptx1:Category>
          <wptx1:Category>camping-sudtirol</wptx1:Category>
        </wptx1:Categories>
        <wptx1:Address>
          <wptx1:StreetAddress>Zehentweg 6</wptx1:StreetAddress>
          <wptx1:City>Völlan/Lana</wptx1:City>
          <wptx1:State>BZ</wptx1:State>
        </wptx1:Address>
        <wptx1:PhoneNumber>+39 0473 568 056</wptx1:PhoneNumber>
      </wptx1:WaypointExtension>
      <ctx:CreationTimeExtension>
        <ctx:CreationTime>2014-03-19T09:48:07Z</ctx:CreationTime>
      </ctx:CreationTimeExtension>
    </extensions>
  </wpt>

  <wpt lat="46.643055528402328" lon="11.008333303034306">
    <ele>532</ele>
    <time>2014-03-19T09:48:07Z</time>
    <name>Waldcamping</name>
    <cmt>Dornsbergerweg 8
Naturns BZ
+39 0473 667 298
waldcamping.com</cmt>
    <desc>Dornsbergerweg 8
Naturns BZ
+39 0473 667 298
waldcamping.com</desc>
    <link href="http://www.waldcamping.com"/>
    <sym>Campground</sym>
    <type>user</type>
    <extensions>
      <gpxx:WaypointExtension>
        <gpxx:DisplayMode>SymbolOnly</gpxx:DisplayMode>
        <gpxx:Categories>
          <gpxx:Category>Waypoints</gpxx:Category>
          <gpxx:Category>camping-sudtirol</gpxx:Category>
        </gpxx:Categories>
        <gpxx:Address>
          <gpxx:StreetAddress>Dornsbergerweg 8</gpxx:StreetAddress>
          <gpxx:City>Naturns</gpxx:City>
          <gpxx:State>BZ</gpxx:State>
        </gpxx:Address>
        <gpxx:PhoneNumber>+39 0473 667 298</gpxx:PhoneNumber>
      </gpxx:WaypointExtension>
      <wptx1:WaypointExtension>
        <wptx1:DisplayMode>SymbolOnly</wptx1:DisplayMode>
        <wptx1:Categories>
          <wptx1:Category>Waypoints</wptx1:Category>
          <wptx1:Category>camping-sudtirol</wptx1:Category>
        </wptx1:Categories>
        <wptx1:Address>
          <wptx1:StreetAddress>Dornsbergerweg 8</wptx1:StreetAddress>
          <wptx1:City>Naturns</wptx1:City>
          <wptx1:State>BZ</wptx1:State>
        </wptx1:Address>
        <wptx1:PhoneNumber>+39 0473 667 298</wptx1:PhoneNumber>
      </wptx1:WaypointExtension>
      <ctx:CreationTimeExtension>
        <ctx:CreationTime>2014-03-19T09:48:07Z</ctx:CreationTime>
      </ctx:CreationTimeExtension>
    </extensions>
  </wpt>

  <wpt lat="46.781266741454601" lon="11.898550009354949">
    <ele>813</ele>
    <time>2014-03-19T09:48:07Z</time>
    <name>Wildberg</name>
    <cmt>Familie Steinkasserer
Dorfstraße 9
St. Lorenzen 
+39 0474 474 080
campingwildberg.com</cmt>
    <desc>Familie Steinkasserer
Dorfstraße 9
St. Lorenzen 
+39 0474 474 080
campingwildberg.com</desc>
    <link href="http://www.campingwildberg.com"/>
    <sym>Campground</sym>
    <type>user</type>
    <extensions>
      <gpxx:WaypointExtension>
        <gpxx:DisplayMode>SymbolOnly</gpxx:DisplayMode>
        <gpxx:Address>
          <gpxx:StreetAddress>Dorfstraße 9</gpxx:StreetAddress>
          <gpxx:City>St. Lorenzen</gpxx:City>
          <gpxx:State>BZ</gpxx:State>
        </gpxx:Address>
        <gpxx:PhoneNumber>+39 0474 474 080</gpxx:PhoneNumber>
      </gpxx:WaypointExtension>
      <wptx1:WaypointExtension>
        <wptx1:DisplayMode>SymbolOnly</wptx1:DisplayMode>
        <wptx1:Address>
          <wptx1:StreetAddress>Dorfstraße 9</wptx1:StreetAddress>
          <wptx1:City>St. Lorenzen</wptx1:City>
          <wptx1:State>BZ</wptx1:State>
        </wptx1:Address>
        <wptx1:PhoneNumber>+39 0474 474 080</wptx1:PhoneNumber>
      </wptx1:WaypointExtension>
      <ctx:CreationTimeExtension>
        <ctx:CreationTime>2014-03-19T09:48:07Z</ctx:CreationTime>
      </ctx:CreationTimeExtension>
    </extensions>
  </wpt>

  <wpt lat="46.545352041721344" lon="11.202380983158946">
    <ele>307</ele>
    <time>2016-07-02T09:27:09Z</time>
    <name>Zum Guten Tropfen</name>
    <cmt>Mühlgasse 14
Nals
+39 0471 67 80 46
camping-nals.com</cmt>
    <desc>Mühlgasse 14
Nals
+39 0471 67 80 46
camping-nals.com</desc>
    <link href="http://www.camping-nals.com"/>
    <sym>Campground</sym>
    <type>user</type>
    <extensions>
      <gpxx:WaypointExtension>
        <gpxx:DisplayMode>SymbolOnly</gpxx:DisplayMode>
      </gpxx:WaypointExtension>
      <wptx1:WaypointExtension>
        <wptx1:DisplayMode>SymbolOnly</wptx1:DisplayMode>
      </wptx1:WaypointExtension>
      <ctx:CreationTimeExtension>
        <ctx:CreationTime>2016-07-02T09:27:09Z</ctx:CreationTime>
      </ctx:CreationTimeExtension>
    </extensions>
  </wpt>

  <wpt lat="46.763842105865479" lon="10.531554222106934">
    <time>2016-01-09T19:41:31Z</time>
    <name>Zum See</name>
    <cmt>Kirchgasse 26
Graun - Curon Venosta
+39 0473 634576
zumsee.it</cmt>
    <desc>Kirchgasse 26
Graun - Curon Venosta
+39 0473 634576
zumsee.it</desc>
    <link href="http://www.zumsee.it/"/>
    <sym>Campground</sym>
    <type>user</type>
    <extensions>
      <gpxx:WaypointExtension>
        <gpxx:DisplayMode>SymbolOnly</gpxx:DisplayMode>
        <gpxx:PhoneNumber>+39 0473 634576</gpxx:PhoneNumber>
      </gpxx:WaypointExtension>
      <wptx1:WaypointExtension>
        <wptx1:DisplayMode>SymbolOnly</wptx1:DisplayMode>
        <wptx1:PhoneNumber>+39 0473 634576</wptx1:PhoneNumber>
      </wptx1:WaypointExtension>
      <ctx:CreationTimeExtension>
        <ctx:CreationTime>2016-01-09T19:41:31Z</ctx:CreationTime>
      </ctx:CreationTimeExtension>
    </extensions>
  </wpt>

</gpx>
