<?xml version="1.0"?>
<gpx xmlns="http://www.topografix.com/GPX/1/1" xmlns:xsi="http://www.w3.org/2001/XMLSchema-instance" xmlns:wptx1="http://www.garmin.com/xmlschemas/WaypointExtension/v1" xmlns:gpxtrx="http://www.garmin.com/xmlschemas/GpxExtensions/v3" xmlns:gpxtpx="http://www.garmin.com/xmlschemas/TrackPointExtension/v1" xmlns:gpxx="http://www.garmin.com/xmlschemas/GpxExtensions/v3" xmlns:trp="http://www.garmin.com/xmlschemas/TripExtensions/v1" xmlns:adv="http://www.garmin.com/xmlschemas/AdventuresExtensions/v1" xmlns:prs="http://www.garmin.com/xmlschemas/PressureExtension/v1" xmlns:tmd="http://www.garmin.com/xmlschemas/TripMetaDataExtensions/v1" xmlns:vptm="http://www.garmin.com/xmlschemas/ViaPointTransportationModeExtensions/v1" xmlns:ctx="http://www.garmin.com/xmlschemas/CreationTimeExtension/v1" creator="Garmin Desktop App" version="1.1" xsi:schemaLocation="http://www.topografix.com/GPX/1/1 http://www.topografix.com/GPX/1/1/gpx.xsd http://www.garmin.com/xmlschemas/WaypointExtension/v1 http://www8.garmin.com/xmlschemas/WaypointExtensionv1.xsd http://www.garmin.com/xmlschemas/TrackPointExtension/v1 http://www.garmin.com/xmlschemas/TrackPointExtensionv1.xsd http://www.garmin.com/xmlschemas/GpxExtensions/v3 http://www8.garmin.com/xmlschemas/GpxExtensionsv3.xsd http://www.garmin.com/xmlschemas/ActivityExtension/v1 http://www8.garmin.com/xmlschemas/ActivityExtensionv1.xsd http://www.garmin.com/xmlschemas/AdventuresExtensions/v1 http://www8.garmin.com/xmlschemas/AdventuresExtensionv1.xsd http://www.garmin.com/xmlschemas/PressureExtension/v1 http://www.garmin.com/xmlschemas/PressureExtensionv1.xsd http://www.garmin.com/xmlschemas/TripExtensions/v1 http://www.garmin.com/xmlschemas/TripExtensionsv1.xsd http://www.garmin.com/xmlschemas/TripMetaDataExtensions/v1 http://www.garmin.com/xmlschemas/TripMetaDataExtensionsv1.xsd http://www.garmin.com/xmlschemas/ViaPointTransportationModeExtensions/v1 http://www.garmin.com/xmlschemas/ViaPointTransportationModeExtensionsv1.xsd http://www.garmin.com/xmlschemas/CreationTimeExtensions/v1 http://www.garmin.com/xmlschemas/CreationTimeExtensionsv1.xsd">

  <metadata>
    <link href="http://www.garmin.com">
      <text>Garmin International</text>
    </link>
    <time>2014-02-15T08:57:37Z</time>
    <bounds maxlat="43.892097473144531" maxlon="8.039159774780273" minlat="43.778328895568848" minlon="7.650439040735364"/>
  </metadata>

  <wpt lat="43.845184966921806" lon="7.934771971777081">
    <ele>16.165465999999999</ele>
    <time>2013-09-27T11:51:53Z</time>
    <name>1037</name>
    <sym>Drinking Water</sym>
    <type>user</type>
    <extensions>
      <gpxx:WaypointExtension>
        <gpxx:DisplayMode>SymbolOnly</gpxx:DisplayMode>
        <gpxx:Categories>
          <gpxx:Category>acqua</gpxx:Category>
          <gpxx:Category>WaypointsJuly2013</gpxx:Category>
          <gpxx:Category>San Lorenzo - Ventimiglia (waypoints)</gpxx:Category>
          <gpxx:Category>Liguria coast waypoints</gpxx:Category>
          <gpxx:Category>Cycling Riviera Waypoints</gpxx:Category>
        </gpxx:Categories>
      </gpxx:WaypointExtension>
      <wptx1:WaypointExtension>
        <wptx1:DisplayMode>SymbolOnly</wptx1:DisplayMode>
        <wptx1:Categories>
          <wptx1:Category>acqua</wptx1:Category>
          <wptx1:Category>WaypointsJuly2013</wptx1:Category>
          <wptx1:Category>San Lorenzo - Ventimiglia (waypoints)</wptx1:Category>
          <wptx1:Category>Liguria coast waypoints</wptx1:Category>
          <wptx1:Category>Cycling Riviera Waypoints</wptx1:Category>
        </wptx1:Categories>
      </wptx1:WaypointExtension>
      <ctx:CreationTimeExtension>
        <ctx:CreationTime>2013-09-27T11:51:53Z</ctx:CreationTime>
      </ctx:CreationTimeExtension>
    </extensions>
  </wpt>

  <wpt lat="43.844776013866067" lon="7.930375998839736">
    <ele>16.184559</ele>
    <time>2013-09-27T11:51:53Z</time>
    <name>1038</name>
    <sym>Drinking Water</sym>
    <type>user</type>
    <extensions>
      <gpxx:WaypointExtension>
        <gpxx:DisplayMode>SymbolOnly</gpxx:DisplayMode>
        <gpxx:Categories>
          <gpxx:Category>acqua</gpxx:Category>
          <gpxx:Category>WaypointsJuly2013</gpxx:Category>
          <gpxx:Category>San Lorenzo - Ventimiglia (waypoints)</gpxx:Category>
          <gpxx:Category>Liguria coast waypoints</gpxx:Category>
          <gpxx:Category>Cycling Riviera Waypoints</gpxx:Category>
        </gpxx:Categories>
      </gpxx:WaypointExtension>
      <wptx1:WaypointExtension>
        <wptx1:DisplayMode>SymbolOnly</wptx1:DisplayMode>
        <wptx1:Categories>
          <wptx1:Category>acqua</wptx1:Category>
          <wptx1:Category>WaypointsJuly2013</wptx1:Category>
          <wptx1:Category>San Lorenzo - Ventimiglia (waypoints)</wptx1:Category>
          <wptx1:Category>Liguria coast waypoints</wptx1:Category>
          <wptx1:Category>Cycling Riviera Waypoints</wptx1:Category>
        </wptx1:Categories>
      </wptx1:WaypointExtension>
      <ctx:CreationTimeExtension>
        <ctx:CreationTime>2013-09-27T11:51:53Z</ctx:CreationTime>
      </ctx:CreationTimeExtension>
    </extensions>
  </wpt>

  <wpt lat="43.838742971420288" lon="7.891258997842669">
    <ele>16.881744000000001</ele>
    <time>2013-09-27T11:51:53Z</time>
    <name>1039</name>
    <sym>Drinking Water</sym>
    <type>user</type>
    <extensions>
      <gpxx:WaypointExtension>
        <gpxx:DisplayMode>SymbolOnly</gpxx:DisplayMode>
        <gpxx:Categories>
          <gpxx:Category>acqua</gpxx:Category>
          <gpxx:Category>WaypointsJuly2013</gpxx:Category>
          <gpxx:Category>San Lorenzo - Ventimiglia (waypoints)</gpxx:Category>
          <gpxx:Category>Liguria coast waypoints</gpxx:Category>
          <gpxx:Category>Cycling Riviera Waypoints</gpxx:Category>
        </gpxx:Categories>
      </gpxx:WaypointExtension>
      <wptx1:WaypointExtension>
        <wptx1:DisplayMode>SymbolOnly</wptx1:DisplayMode>
        <wptx1:Categories>
          <wptx1:Category>acqua</wptx1:Category>
          <wptx1:Category>WaypointsJuly2013</wptx1:Category>
          <wptx1:Category>San Lorenzo - Ventimiglia (waypoints)</wptx1:Category>
          <wptx1:Category>Liguria coast waypoints</wptx1:Category>
          <wptx1:Category>Cycling Riviera Waypoints</wptx1:Category>
        </wptx1:Categories>
      </wptx1:WaypointExtension>
      <ctx:CreationTimeExtension>
        <ctx:CreationTime>2013-09-27T11:51:53Z</ctx:CreationTime>
      </ctx:CreationTimeExtension>
    </extensions>
  </wpt>

  <wpt lat="43.83793001063168" lon="7.877996983006597">
    <ele>13.680474</ele>
    <time>2013-09-27T11:51:53Z</time>
    <name>1040</name>
    <sym>Drinking Water</sym>
    <type>user</type>
    <extensions>
      <gpxx:WaypointExtension>
        <gpxx:DisplayMode>SymbolOnly</gpxx:DisplayMode>
        <gpxx:Categories>
          <gpxx:Category>acqua</gpxx:Category>
          <gpxx:Category>WaypointsJuly2013</gpxx:Category>
          <gpxx:Category>San Lorenzo - Ventimiglia (waypoints)</gpxx:Category>
          <gpxx:Category>Liguria coast waypoints</gpxx:Category>
          <gpxx:Category>Cycling Riviera Waypoints</gpxx:Category>
        </gpxx:Categories>
      </gpxx:WaypointExtension>
      <wptx1:WaypointExtension>
        <wptx1:DisplayMode>SymbolOnly</wptx1:DisplayMode>
        <wptx1:Categories>
          <wptx1:Category>acqua</wptx1:Category>
          <wptx1:Category>WaypointsJuly2013</wptx1:Category>
          <wptx1:Category>San Lorenzo - Ventimiglia (waypoints)</wptx1:Category>
          <wptx1:Category>Liguria coast waypoints</wptx1:Category>
          <wptx1:Category>Cycling Riviera Waypoints</wptx1:Category>
        </wptx1:Categories>
      </wptx1:WaypointExtension>
      <ctx:CreationTimeExtension>
        <ctx:CreationTime>2013-09-27T11:51:53Z</ctx:CreationTime>
      </ctx:CreationTimeExtension>
    </extensions>
  </wpt>

  <wpt lat="43.833603020757437" lon="7.860315022990108">
    <ele>10.913485</ele>
    <time>2013-09-27T11:51:53Z</time>
    <name>1041</name>
    <sym>Drinking Water</sym>
    <type>user</type>
    <extensions>
      <gpxx:WaypointExtension>
        <gpxx:DisplayMode>SymbolOnly</gpxx:DisplayMode>
        <gpxx:Categories>
          <gpxx:Category>acqua</gpxx:Category>
          <gpxx:Category>WaypointsJuly2013</gpxx:Category>
          <gpxx:Category>San Lorenzo - Ventimiglia (waypoints)</gpxx:Category>
          <gpxx:Category>Liguria coast waypoints</gpxx:Category>
          <gpxx:Category>Cycling Riviera Waypoints</gpxx:Category>
        </gpxx:Categories>
      </gpxx:WaypointExtension>
      <wptx1:WaypointExtension>
        <wptx1:DisplayMode>SymbolOnly</wptx1:DisplayMode>
        <wptx1:Categories>
          <wptx1:Category>acqua</wptx1:Category>
          <wptx1:Category>WaypointsJuly2013</wptx1:Category>
          <wptx1:Category>San Lorenzo - Ventimiglia (waypoints)</wptx1:Category>
          <wptx1:Category>Liguria coast waypoints</wptx1:Category>
          <wptx1:Category>Cycling Riviera Waypoints</wptx1:Category>
        </wptx1:Categories>
      </wptx1:WaypointExtension>
      <ctx:CreationTimeExtension>
        <ctx:CreationTime>2013-09-27T11:51:53Z</ctx:CreationTime>
      </ctx:CreationTimeExtension>
    </extensions>
  </wpt>

  <wpt lat="43.8174759875983" lon="7.8275550249964">
    <ele>17.813396000000001</ele>
    <time>2013-09-27T11:51:53Z</time>
    <name>1042</name>
    <sym>Drinking Water</sym>
    <type>user</type>
    <extensions>
      <gpxx:WaypointExtension>
        <gpxx:DisplayMode>SymbolOnly</gpxx:DisplayMode>
        <gpxx:Categories>
          <gpxx:Category>acqua</gpxx:Category>
          <gpxx:Category>WaypointsJuly2013</gpxx:Category>
          <gpxx:Category>San Lorenzo - Ventimiglia (waypoints)</gpxx:Category>
          <gpxx:Category>Liguria coast waypoints</gpxx:Category>
          <gpxx:Category>Cycling Riviera Waypoints</gpxx:Category>
        </gpxx:Categories>
      </gpxx:WaypointExtension>
      <wptx1:WaypointExtension>
        <wptx1:DisplayMode>SymbolOnly</wptx1:DisplayMode>
        <wptx1:Categories>
          <wptx1:Category>acqua</wptx1:Category>
          <wptx1:Category>WaypointsJuly2013</wptx1:Category>
          <wptx1:Category>San Lorenzo - Ventimiglia (waypoints)</wptx1:Category>
          <wptx1:Category>Liguria coast waypoints</wptx1:Category>
          <wptx1:Category>Cycling Riviera Waypoints</wptx1:Category>
        </wptx1:Categories>
      </wptx1:WaypointExtension>
      <ctx:CreationTimeExtension>
        <ctx:CreationTime>2013-09-27T11:51:53Z</ctx:CreationTime>
      </ctx:CreationTimeExtension>
    </extensions>
  </wpt>

  <wpt lat="43.820595983415842" lon="7.820146009325981">
    <ele>16.472963</ele>
    <time>2013-09-27T11:51:53Z</time>
    <name>1044</name>
    <sym>Drinking Water</sym>
    <type>user</type>
    <extensions>
      <gpxx:WaypointExtension>
        <gpxx:DisplayMode>SymbolOnly</gpxx:DisplayMode>
        <gpxx:Categories>
          <gpxx:Category>acqua</gpxx:Category>
          <gpxx:Category>WaypointsJuly2013</gpxx:Category>
          <gpxx:Category>San Lorenzo - Ventimiglia (waypoints)</gpxx:Category>
          <gpxx:Category>Liguria coast waypoints</gpxx:Category>
          <gpxx:Category>Cycling Riviera Waypoints</gpxx:Category>
        </gpxx:Categories>
      </gpxx:WaypointExtension>
      <wptx1:WaypointExtension>
        <wptx1:DisplayMode>SymbolOnly</wptx1:DisplayMode>
        <wptx1:Categories>
          <wptx1:Category>acqua</wptx1:Category>
          <wptx1:Category>WaypointsJuly2013</wptx1:Category>
          <wptx1:Category>San Lorenzo - Ventimiglia (waypoints)</wptx1:Category>
          <wptx1:Category>Liguria coast waypoints</wptx1:Category>
          <wptx1:Category>Cycling Riviera Waypoints</wptx1:Category>
        </wptx1:Categories>
      </wptx1:WaypointExtension>
      <ctx:CreationTimeExtension>
        <ctx:CreationTime>2013-09-27T11:51:53Z</ctx:CreationTime>
      </ctx:CreationTimeExtension>
    </extensions>
  </wpt>

  <wpt lat="43.822387028485537" lon="7.801170973107219">
    <ele>13.091763</ele>
    <time>2013-09-27T11:51:53Z</time>
    <name>1046</name>
    <sym>Drinking Water</sym>
    <type>user</type>
    <extensions>
      <gpxx:WaypointExtension>
        <gpxx:DisplayMode>SymbolOnly</gpxx:DisplayMode>
        <gpxx:Categories>
          <gpxx:Category>acqua</gpxx:Category>
          <gpxx:Category>WaypointsJuly2013</gpxx:Category>
          <gpxx:Category>San Lorenzo - Ventimiglia (waypoints)</gpxx:Category>
          <gpxx:Category>Liguria coast waypoints</gpxx:Category>
          <gpxx:Category>Cycling Riviera Waypoints</gpxx:Category>
        </gpxx:Categories>
      </gpxx:WaypointExtension>
      <wptx1:WaypointExtension>
        <wptx1:DisplayMode>SymbolOnly</wptx1:DisplayMode>
        <wptx1:Categories>
          <wptx1:Category>acqua</wptx1:Category>
          <wptx1:Category>WaypointsJuly2013</wptx1:Category>
          <wptx1:Category>San Lorenzo - Ventimiglia (waypoints)</wptx1:Category>
          <wptx1:Category>Liguria coast waypoints</wptx1:Category>
          <wptx1:Category>Cycling Riviera Waypoints</wptx1:Category>
        </wptx1:Categories>
      </wptx1:WaypointExtension>
      <ctx:CreationTimeExtension>
        <ctx:CreationTime>2013-09-27T11:51:53Z</ctx:CreationTime>
      </ctx:CreationTimeExtension>
    </extensions>
  </wpt>

  <wpt lat="43.820649962872267" lon="7.797791976481676">
    <ele>12.355088</ele>
    <time>2013-09-27T11:51:53Z</time>
    <name>1047</name>
    <sym>Drinking Water</sym>
    <type>user</type>
    <extensions>
      <gpxx:WaypointExtension>
        <gpxx:DisplayMode>SymbolOnly</gpxx:DisplayMode>
        <gpxx:Categories>
          <gpxx:Category>acqua</gpxx:Category>
          <gpxx:Category>WaypointsJuly2013</gpxx:Category>
          <gpxx:Category>San Lorenzo - Ventimiglia (waypoints)</gpxx:Category>
          <gpxx:Category>Liguria coast waypoints</gpxx:Category>
          <gpxx:Category>Cycling Riviera Waypoints</gpxx:Category>
        </gpxx:Categories>
      </gpxx:WaypointExtension>
      <wptx1:WaypointExtension>
        <wptx1:DisplayMode>SymbolOnly</wptx1:DisplayMode>
        <wptx1:Categories>
          <wptx1:Category>acqua</wptx1:Category>
          <wptx1:Category>WaypointsJuly2013</wptx1:Category>
          <wptx1:Category>San Lorenzo - Ventimiglia (waypoints)</wptx1:Category>
          <wptx1:Category>Liguria coast waypoints</wptx1:Category>
          <wptx1:Category>Cycling Riviera Waypoints</wptx1:Category>
        </wptx1:Categories>
      </wptx1:WaypointExtension>
      <ctx:CreationTimeExtension>
        <ctx:CreationTime>2013-09-27T11:51:53Z</ctx:CreationTime>
      </ctx:CreationTimeExtension>
    </extensions>
  </wpt>

  <wpt lat="43.82078499533236" lon="7.790384972468019">
    <ele>8.685157999999999</ele>
    <time>2013-09-27T11:51:53Z</time>
    <name>1048</name>
    <sym>Bar</sym>
    <type>user</type>
    <extensions>
      <gpxx:WaypointExtension>
        <gpxx:DisplayMode>SymbolOnly</gpxx:DisplayMode>
        <gpxx:Categories>
          <gpxx:Category>WaypointsJuly2013</gpxx:Category>
          <gpxx:Category>San Lorenzo - Ventimiglia (waypoints)</gpxx:Category>
          <gpxx:Category>Liguria coast waypoints</gpxx:Category>
          <gpxx:Category>Cycling Riviera Waypoints</gpxx:Category>
        </gpxx:Categories>
      </gpxx:WaypointExtension>
      <wptx1:WaypointExtension>
        <wptx1:DisplayMode>SymbolOnly</wptx1:DisplayMode>
        <wptx1:Categories>
          <wptx1:Category>WaypointsJuly2013</wptx1:Category>
          <wptx1:Category>San Lorenzo - Ventimiglia (waypoints)</wptx1:Category>
          <wptx1:Category>Liguria coast waypoints</wptx1:Category>
          <wptx1:Category>Cycling Riviera Waypoints</wptx1:Category>
        </wptx1:Categories>
      </wptx1:WaypointExtension>
      <ctx:CreationTimeExtension>
        <ctx:CreationTime>2013-09-27T11:51:53Z</ctx:CreationTime>
      </ctx:CreationTimeExtension>
    </extensions>
  </wpt>

  <wpt lat="43.82015903480351" lon="7.786729959771037">
    <ele>14.214345</ele>
    <time>2013-09-27T11:51:53Z</time>
    <name>1049</name>
    <sym>Bar</sym>
    <type>user</type>
    <extensions>
      <gpxx:WaypointExtension>
        <gpxx:DisplayMode>SymbolOnly</gpxx:DisplayMode>
        <gpxx:Categories>
          <gpxx:Category>WaypointsJuly2013</gpxx:Category>
          <gpxx:Category>San Lorenzo - Ventimiglia (waypoints)</gpxx:Category>
          <gpxx:Category>Liguria coast waypoints</gpxx:Category>
          <gpxx:Category>Cycling Riviera Waypoints</gpxx:Category>
        </gpxx:Categories>
      </gpxx:WaypointExtension>
      <wptx1:WaypointExtension>
        <wptx1:DisplayMode>SymbolOnly</wptx1:DisplayMode>
        <wptx1:Categories>
          <wptx1:Category>WaypointsJuly2013</wptx1:Category>
          <wptx1:Category>San Lorenzo - Ventimiglia (waypoints)</wptx1:Category>
          <wptx1:Category>Liguria coast waypoints</wptx1:Category>
          <wptx1:Category>Cycling Riviera Waypoints</wptx1:Category>
        </wptx1:Categories>
      </wptx1:WaypointExtension>
      <ctx:CreationTimeExtension>
        <ctx:CreationTime>2013-09-27T11:51:53Z</ctx:CreationTime>
      </ctx:CreationTimeExtension>
    </extensions>
  </wpt>

  <wpt lat="43.819211041554809" lon="7.782254023477435">
    <ele>17.741472000000002</ele>
    <time>2013-09-27T11:51:53Z</time>
    <name>1050</name>
    <sym>Bar</sym>
    <type>user</type>
    <extensions>
      <gpxx:WaypointExtension>
        <gpxx:DisplayMode>SymbolOnly</gpxx:DisplayMode>
        <gpxx:Categories>
          <gpxx:Category>WaypointsJuly2013</gpxx:Category>
          <gpxx:Category>San Lorenzo - Ventimiglia (waypoints)</gpxx:Category>
          <gpxx:Category>Liguria coast waypoints</gpxx:Category>
          <gpxx:Category>Cycling Riviera Waypoints</gpxx:Category>
        </gpxx:Categories>
      </gpxx:WaypointExtension>
      <wptx1:WaypointExtension>
        <wptx1:DisplayMode>SymbolOnly</wptx1:DisplayMode>
        <wptx1:Categories>
          <wptx1:Category>WaypointsJuly2013</wptx1:Category>
          <wptx1:Category>San Lorenzo - Ventimiglia (waypoints)</wptx1:Category>
          <wptx1:Category>Liguria coast waypoints</wptx1:Category>
          <wptx1:Category>Cycling Riviera Waypoints</wptx1:Category>
        </wptx1:Categories>
      </wptx1:WaypointExtension>
      <ctx:CreationTimeExtension>
        <ctx:CreationTime>2013-09-27T11:51:53Z</ctx:CreationTime>
      </ctx:CreationTimeExtension>
    </extensions>
  </wpt>

  <wpt lat="43.816262036561966" lon="7.77893596328795">
    <ele>16.885453999999999</ele>
    <time>2013-09-27T11:51:53Z</time>
    <name>1051</name>
    <sym>Bar</sym>
    <type>user</type>
    <extensions>
      <gpxx:WaypointExtension>
        <gpxx:DisplayMode>SymbolOnly</gpxx:DisplayMode>
        <gpxx:Categories>
          <gpxx:Category>WaypointsJuly2013</gpxx:Category>
          <gpxx:Category>San Lorenzo - Ventimiglia (waypoints)</gpxx:Category>
          <gpxx:Category>Liguria coast waypoints</gpxx:Category>
          <gpxx:Category>Cycling Riviera Waypoints</gpxx:Category>
        </gpxx:Categories>
      </gpxx:WaypointExtension>
      <wptx1:WaypointExtension>
        <wptx1:DisplayMode>SymbolOnly</wptx1:DisplayMode>
        <wptx1:Categories>
          <wptx1:Category>WaypointsJuly2013</wptx1:Category>
          <wptx1:Category>San Lorenzo - Ventimiglia (waypoints)</wptx1:Category>
          <wptx1:Category>Liguria coast waypoints</wptx1:Category>
          <wptx1:Category>Cycling Riviera Waypoints</wptx1:Category>
        </wptx1:Categories>
      </wptx1:WaypointExtension>
      <ctx:CreationTimeExtension>
        <ctx:CreationTime>2013-09-27T11:51:53Z</ctx:CreationTime>
      </ctx:CreationTimeExtension>
    </extensions>
  </wpt>

  <wpt lat="43.814019961282611" lon="7.774528004229069">
    <ele>10.700623</ele>
    <time>2013-09-27T11:51:53Z</time>
    <name>1052</name>
    <sym>Drinking Water</sym>
    <type>user</type>
    <extensions>
      <gpxx:WaypointExtension>
        <gpxx:DisplayMode>SymbolOnly</gpxx:DisplayMode>
        <gpxx:Categories>
          <gpxx:Category>acqua</gpxx:Category>
          <gpxx:Category>WaypointsJuly2013</gpxx:Category>
          <gpxx:Category>San Lorenzo - Ventimiglia (waypoints)</gpxx:Category>
          <gpxx:Category>Liguria coast waypoints</gpxx:Category>
          <gpxx:Category>Cycling Riviera Waypoints</gpxx:Category>
        </gpxx:Categories>
      </gpxx:WaypointExtension>
      <wptx1:WaypointExtension>
        <wptx1:DisplayMode>SymbolOnly</wptx1:DisplayMode>
        <wptx1:Categories>
          <wptx1:Category>acqua</wptx1:Category>
          <wptx1:Category>WaypointsJuly2013</wptx1:Category>
          <wptx1:Category>San Lorenzo - Ventimiglia (waypoints)</wptx1:Category>
          <wptx1:Category>Liguria coast waypoints</wptx1:Category>
          <wptx1:Category>Cycling Riviera Waypoints</wptx1:Category>
        </wptx1:Categories>
      </wptx1:WaypointExtension>
      <ctx:CreationTimeExtension>
        <ctx:CreationTime>2013-09-27T11:51:53Z</ctx:CreationTime>
      </ctx:CreationTimeExtension>
    </extensions>
  </wpt>

  <wpt lat="43.814019039273262" lon="7.772233039140701">
    <ele>12.284316</ele>
    <time>2013-09-27T11:51:53Z</time>
    <name>1053</name>
    <sym>Restroom</sym>
    <type>user</type>
    <extensions>
      <gpxx:WaypointExtension>
        <gpxx:DisplayMode>SymbolOnly</gpxx:DisplayMode>
        <gpxx:Categories>
          <gpxx:Category>WaypointsJuly2013</gpxx:Category>
          <gpxx:Category>San Lorenzo - Ventimiglia (waypoints)</gpxx:Category>
          <gpxx:Category>Liguria coast waypoints</gpxx:Category>
          <gpxx:Category>Cycling Riviera Waypoints</gpxx:Category>
        </gpxx:Categories>
      </gpxx:WaypointExtension>
      <wptx1:WaypointExtension>
        <wptx1:DisplayMode>SymbolOnly</wptx1:DisplayMode>
        <wptx1:Categories>
          <wptx1:Category>WaypointsJuly2013</wptx1:Category>
          <wptx1:Category>San Lorenzo - Ventimiglia (waypoints)</wptx1:Category>
          <wptx1:Category>Liguria coast waypoints</wptx1:Category>
          <wptx1:Category>Cycling Riviera Waypoints</wptx1:Category>
        </wptx1:Categories>
      </wptx1:WaypointExtension>
      <ctx:CreationTimeExtension>
        <ctx:CreationTime>2013-09-27T11:51:53Z</ctx:CreationTime>
      </ctx:CreationTimeExtension>
    </extensions>
  </wpt>

  <wpt lat="43.809133982285857" lon="7.761600008234382">
    <ele>5.916523</ele>
    <time>2013-09-27T11:51:53Z</time>
    <name>1055</name>
    <sym>Bar</sym>
    <type>user</type>
    <extensions>
      <gpxx:WaypointExtension>
        <gpxx:DisplayMode>SymbolOnly</gpxx:DisplayMode>
        <gpxx:Categories>
          <gpxx:Category>WaypointsJuly2013</gpxx:Category>
          <gpxx:Category>San Lorenzo - Ventimiglia (waypoints)</gpxx:Category>
          <gpxx:Category>Liguria coast waypoints</gpxx:Category>
          <gpxx:Category>Cycling Riviera Waypoints</gpxx:Category>
        </gpxx:Categories>
      </gpxx:WaypointExtension>
      <wptx1:WaypointExtension>
        <wptx1:DisplayMode>SymbolOnly</wptx1:DisplayMode>
        <wptx1:Categories>
          <wptx1:Category>WaypointsJuly2013</wptx1:Category>
          <wptx1:Category>San Lorenzo - Ventimiglia (waypoints)</wptx1:Category>
          <wptx1:Category>Liguria coast waypoints</wptx1:Category>
          <wptx1:Category>Cycling Riviera Waypoints</wptx1:Category>
        </wptx1:Categories>
      </wptx1:WaypointExtension>
      <ctx:CreationTimeExtension>
        <ctx:CreationTime>2013-09-27T11:51:53Z</ctx:CreationTime>
      </ctx:CreationTimeExtension>
    </extensions>
  </wpt>

  <wpt lat="43.853575000539422" lon="7.964705005288124">
    <ele>8.613213</ele>
    <time>2013-07-10T07:51:37Z</time>
    <name>Bike Hospital</name>
    <sym>Bike Trail</sym>
    <type>user</type>
    <extensions>
      <gpxx:WaypointExtension>
        <gpxx:DisplayMode>SymbolOnly</gpxx:DisplayMode>
        <gpxx:Categories>
          <gpxx:Category>WaypointsJuly2013</gpxx:Category>
          <gpxx:Category>San Lorenzo - Ventimiglia (waypoints)</gpxx:Category>
          <gpxx:Category>Liguria coast waypoints</gpxx:Category>
          <gpxx:Category>Cycling Riviera Waypoints</gpxx:Category>
          <gpxx:Category>Bike shop</gpxx:Category>
        </gpxx:Categories>
      </gpxx:WaypointExtension>
      <wptx1:WaypointExtension>
        <wptx1:DisplayMode>SymbolOnly</wptx1:DisplayMode>
        <wptx1:Categories>
          <wptx1:Category>WaypointsJuly2013</wptx1:Category>
          <wptx1:Category>San Lorenzo - Ventimiglia (waypoints)</wptx1:Category>
          <wptx1:Category>Liguria coast waypoints</wptx1:Category>
          <wptx1:Category>Cycling Riviera Waypoints</wptx1:Category>
          <wptx1:Category>Bike shop</wptx1:Category>
        </wptx1:Categories>
      </wptx1:WaypointExtension>
      <ctx:CreationTimeExtension>
        <ctx:CreationTime>2013-07-10T07:51:37Z</ctx:CreationTime>
      </ctx:CreationTimeExtension>
    </extensions>
  </wpt>

  <wpt lat="43.825000002980232" lon="7.840830031782389">
    <time>2013-04-22T09:08:15Z</time>
    <name>Blue Beach</name>
    <cmt>0184 513200</cmt>
    <desc>0184 513200</desc>
    <link href="http://www.bluebeach.it/"/>
    <sym>Campground</sym>
    <type>user</type>
    <extensions>
      <gpxx:WaypointExtension>
        <gpxx:DisplayMode>SymbolOnly</gpxx:DisplayMode>
        <gpxx:Categories>
          <gpxx:Category>San Lorenzo - Ventimiglia (waypoints)</gpxx:Category>
          <gpxx:Category>Cycling Riviera Waypoints</gpxx:Category>
          <gpxx:Category>camping-liguria</gpxx:Category>
        </gpxx:Categories>
        <gpxx:Address>
          <gpxx:StreetAddress>Via al Mare 183</gpxx:StreetAddress>
          <gpxx:City>Bussana di Sanremo</gpxx:City>
          <gpxx:State>IM</gpxx:State>
        </gpxx:Address>
        <gpxx:PhoneNumber>0184 513200</gpxx:PhoneNumber>
      </gpxx:WaypointExtension>
      <wptx1:WaypointExtension>
        <wptx1:DisplayMode>SymbolOnly</wptx1:DisplayMode>
        <wptx1:Categories>
          <wptx1:Category>San Lorenzo - Ventimiglia (waypoints)</wptx1:Category>
          <wptx1:Category>Cycling Riviera Waypoints</wptx1:Category>
          <wptx1:Category>camping-liguria</wptx1:Category>
        </wptx1:Categories>
        <wptx1:Address>
          <wptx1:StreetAddress>Via al Mare 183</wptx1:StreetAddress>
          <wptx1:City>Bussana di Sanremo</wptx1:City>
          <wptx1:State>IM</wptx1:State>
        </wptx1:Address>
        <wptx1:PhoneNumber>0184 513200</wptx1:PhoneNumber>
      </wptx1:WaypointExtension>
      <ctx:CreationTimeExtension>
        <ctx:CreationTime>2013-04-22T09:08:15Z</ctx:CreationTime>
      </ctx:CreationTimeExtension>
    </extensions>
  </wpt>

  <wpt lat="43.782342988997698" lon="7.650439040735364">
    <ele>6.122547</ele>
    <time>2013-07-10T12:45:10Z</time>
    <name>Cicli Olmo</name>
    <sym>Bike Trail</sym>
    <type>user</type>
    <extensions>
      <gpxx:WaypointExtension>
        <gpxx:DisplayMode>SymbolOnly</gpxx:DisplayMode>
        <gpxx:Categories>
          <gpxx:Category>WaypointsJuly2013</gpxx:Category>
          <gpxx:Category>San Lorenzo - Ventimiglia (waypoints)</gpxx:Category>
          <gpxx:Category>Liguria coast waypoints</gpxx:Category>
          <gpxx:Category>Cycling Riviera Waypoints</gpxx:Category>
          <gpxx:Category>Bike shop</gpxx:Category>
        </gpxx:Categories>
      </gpxx:WaypointExtension>
      <wptx1:WaypointExtension>
        <wptx1:DisplayMode>SymbolOnly</wptx1:DisplayMode>
        <wptx1:Categories>
          <wptx1:Category>WaypointsJuly2013</wptx1:Category>
          <wptx1:Category>San Lorenzo - Ventimiglia (waypoints)</wptx1:Category>
          <wptx1:Category>Liguria coast waypoints</wptx1:Category>
          <wptx1:Category>Cycling Riviera Waypoints</wptx1:Category>
          <wptx1:Category>Bike shop</wptx1:Category>
        </wptx1:Categories>
      </wptx1:WaypointExtension>
      <ctx:CreationTimeExtension>
        <ctx:CreationTime>2013-07-10T12:45:10Z</ctx:CreationTime>
      </ctx:CreationTimeExtension>
    </extensions>
  </wpt>

  <wpt lat="43.868444412946701" lon="7.998388856649399">
    <time>2013-04-22T09:08:15Z</time>
    <name>De Wijnstok</name>
    <cmt>0183 64986</cmt>
    <desc>0183 64986</desc>
    <link href="http://www.campingdewijnstok.com"/>
    <sym>Campground</sym>
    <type>user</type>
    <extensions>
      <gpxx:WaypointExtension>
        <gpxx:DisplayMode>SymbolOnly</gpxx:DisplayMode>
        <gpxx:Categories>
          <gpxx:Category>San Lorenzo - Ventimiglia (waypoints)</gpxx:Category>
          <gpxx:Category>Cycling Riviera Waypoints</gpxx:Category>
          <gpxx:Category>camping-liguria</gpxx:Category>
        </gpxx:Categories>
        <gpxx:Address>
          <gpxx:StreetAddress>Via Poggi 2</gpxx:StreetAddress>
          <gpxx:City>Imperia</gpxx:City>
          <gpxx:State>IM</gpxx:State>
        </gpxx:Address>
        <gpxx:PhoneNumber>0183 64986</gpxx:PhoneNumber>
      </gpxx:WaypointExtension>
      <wptx1:WaypointExtension>
        <wptx1:DisplayMode>SymbolOnly</wptx1:DisplayMode>
        <wptx1:Categories>
          <wptx1:Category>San Lorenzo - Ventimiglia (waypoints)</wptx1:Category>
          <wptx1:Category>Cycling Riviera Waypoints</wptx1:Category>
          <wptx1:Category>camping-liguria</wptx1:Category>
        </wptx1:Categories>
        <wptx1:Address>
          <wptx1:StreetAddress>Via Poggi 2</wptx1:StreetAddress>
          <wptx1:City>Imperia</wptx1:City>
          <wptx1:State>IM</wptx1:State>
        </wptx1:Address>
        <wptx1:PhoneNumber>0183 64986</wptx1:PhoneNumber>
      </wptx1:WaypointExtension>
      <ctx:CreationTimeExtension>
        <ctx:CreationTime>2013-04-22T09:08:15Z</ctx:CreationTime>
      </ctx:CreationTimeExtension>
    </extensions>
  </wpt>

  <wpt lat="43.870829986408353" lon="8.004170022904873">
    <time>2013-04-22T09:08:15Z</time>
    <name>Eucalyptus</name>
    <cmt>0183 61534</cmt>
    <desc>0183 61534</desc>
    <link href="http://www.campingeucalyptus.com"/>
    <sym>Campground</sym>
    <type>user</type>
    <extensions>
      <gpxx:WaypointExtension>
        <gpxx:DisplayMode>SymbolOnly</gpxx:DisplayMode>
        <gpxx:Categories>
          <gpxx:Category>San Lorenzo - Ventimiglia (waypoints)</gpxx:Category>
          <gpxx:Category>Cycling Riviera Waypoints</gpxx:Category>
          <gpxx:Category>camping-liguria</gpxx:Category>
        </gpxx:Categories>
        <gpxx:Address>
          <gpxx:StreetAddress>Via d'Annunzio 32</gpxx:StreetAddress>
          <gpxx:City>Imperia</gpxx:City>
          <gpxx:State>IM</gpxx:State>
        </gpxx:Address>
        <gpxx:PhoneNumber>0183 61534</gpxx:PhoneNumber>
      </gpxx:WaypointExtension>
      <wptx1:WaypointExtension>
        <wptx1:DisplayMode>SymbolOnly</wptx1:DisplayMode>
        <wptx1:Categories>
          <wptx1:Category>San Lorenzo - Ventimiglia (waypoints)</wptx1:Category>
          <wptx1:Category>Cycling Riviera Waypoints</wptx1:Category>
          <wptx1:Category>camping-liguria</wptx1:Category>
        </wptx1:Categories>
        <wptx1:Address>
          <wptx1:StreetAddress>Via d'Annunzio 32</wptx1:StreetAddress>
          <wptx1:City>Imperia</wptx1:City>
          <wptx1:State>IM</wptx1:State>
        </wptx1:Address>
        <wptx1:PhoneNumber>0183 61534</wptx1:PhoneNumber>
      </wptx1:WaypointExtension>
      <ctx:CreationTimeExtension>
        <ctx:CreationTime>2013-04-22T09:08:15Z</ctx:CreationTime>
      </ctx:CreationTimeExtension>
    </extensions>
  </wpt>

  <wpt lat="43.892097473144531" lon="8.039159774780273">
    <time>2013-08-03T10:22:43Z</time>
    <name>Imperia-Oneglia</name>
    <cmt>Imperia-Oneglia
Piazza Dell'unità Nazionale
18100, Imperia, Imperia, Italia</cmt>
    <desc>Imperia-Oneglia
Piazza Dell'unità Nazionale
18100, Imperia, Imperia, Italia</desc>
    <sym>Ground Transportation</sym>
    <type>user</type>
    <extensions>
      <gpxx:WaypointExtension>
        <gpxx:DisplayMode>SymbolOnly</gpxx:DisplayMode>
        <gpxx:Categories>
          <gpxx:Category>Cycling Riviera Waypoints</gpxx:Category>
          <gpxx:Category>trains</gpxx:Category>
        </gpxx:Categories>
      </gpxx:WaypointExtension>
      <wptx1:WaypointExtension>
        <wptx1:DisplayMode>SymbolOnly</wptx1:DisplayMode>
        <wptx1:Categories>
          <wptx1:Category>Cycling Riviera Waypoints</wptx1:Category>
          <wptx1:Category>trains</wptx1:Category>
        </wptx1:Categories>
      </wptx1:WaypointExtension>
      <ctx:CreationTimeExtension>
        <ctx:CreationTime>2013-08-03T10:22:43Z</ctx:CreationTime>
      </ctx:CreationTimeExtension>
    </extensions>
  </wpt>

  <wpt lat="43.879609107971191" lon="8.017487525939941">
    <time>2013-08-03T10:22:43Z</time>
    <name>Imperia-Porto Maurizio</name>
    <cmt>Imperia-Porto Maurizio
Piazza Caduti Sul Lavoro
18100, Imperia, Imperia, Italia</cmt>
    <desc>Imperia-Porto Maurizio
Piazza Caduti Sul Lavoro
18100, Imperia, Imperia, Italia</desc>
    <sym>Ground Transportation</sym>
    <type>user</type>
    <extensions>
      <gpxx:WaypointExtension>
        <gpxx:DisplayMode>SymbolOnly</gpxx:DisplayMode>
        <gpxx:Categories>
          <gpxx:Category>Cycling Riviera Waypoints</gpxx:Category>
          <gpxx:Category>trains</gpxx:Category>
        </gpxx:Categories>
      </gpxx:WaypointExtension>
      <wptx1:WaypointExtension>
        <wptx1:DisplayMode>SymbolOnly</wptx1:DisplayMode>
        <wptx1:Categories>
          <wptx1:Category>Cycling Riviera Waypoints</wptx1:Category>
          <wptx1:Category>trains</wptx1:Category>
        </wptx1:Categories>
      </wptx1:WaypointExtension>
      <ctx:CreationTimeExtension>
        <ctx:CreationTime>2013-08-03T10:22:43Z</ctx:CreationTime>
      </ctx:CreationTimeExtension>
    </extensions>
  </wpt>

  <wpt lat="43.831937033683062" lon="7.852323967963457">
    <ele>15.547523999999999</ele>
    <time>2013-07-10T08:48:33Z</time>
    <name>Misterbike</name>
    <sym>Bike Trail</sym>
    <type>user</type>
    <extensions>
      <gpxx:WaypointExtension>
        <gpxx:DisplayMode>SymbolOnly</gpxx:DisplayMode>
        <gpxx:Categories>
          <gpxx:Category>WaypointsJuly2013</gpxx:Category>
          <gpxx:Category>San Lorenzo - Ventimiglia (waypoints)</gpxx:Category>
          <gpxx:Category>Liguria coast waypoints</gpxx:Category>
          <gpxx:Category>Cycling Riviera Waypoints</gpxx:Category>
          <gpxx:Category>Bike shop</gpxx:Category>
        </gpxx:Categories>
      </gpxx:WaypointExtension>
      <wptx1:WaypointExtension>
        <wptx1:DisplayMode>SymbolOnly</wptx1:DisplayMode>
        <wptx1:Categories>
          <wptx1:Category>WaypointsJuly2013</wptx1:Category>
          <wptx1:Category>San Lorenzo - Ventimiglia (waypoints)</wptx1:Category>
          <wptx1:Category>Liguria coast waypoints</wptx1:Category>
          <wptx1:Category>Cycling Riviera Waypoints</wptx1:Category>
          <wptx1:Category>Bike shop</wptx1:Category>
        </wptx1:Categories>
      </wptx1:WaypointExtension>
      <ctx:CreationTimeExtension>
        <ctx:CreationTime>2013-07-10T08:48:33Z</ctx:CreationTime>
      </ctx:CreationTimeExtension>
    </extensions>
  </wpt>

  <wpt lat="43.778328895568848" lon="7.663543224334717">
    <time>2013-10-10T17:35:26Z</time>
    <name>Stazione Bordighera FFSS</name>
    <cmt>

</cmt>    <desc>

</desc>    <sym>Ground Transportation</sym>
    <type>user</type>
    <extensions>
      <gpxx:WaypointExtension>
        <gpxx:DisplayMode>SymbolOnly</gpxx:DisplayMode>
        <gpxx:Categories>
          <gpxx:Category>San Lorenzo - Ventimiglia (waypoints)</gpxx:Category>
          <gpxx:Category>Cycling Riviera Waypoints</gpxx:Category>
          <gpxx:Category>trains</gpxx:Category>
          <gpxx:Category>SanLorenzo - Ventimiglia</gpxx:Category>
        </gpxx:Categories>
      </gpxx:WaypointExtension>
      <wptx1:WaypointExtension>
        <wptx1:DisplayMode>SymbolOnly</wptx1:DisplayMode>
        <wptx1:Categories>
          <wptx1:Category>San Lorenzo - Ventimiglia (waypoints)</wptx1:Category>
          <wptx1:Category>Cycling Riviera Waypoints</wptx1:Category>
          <wptx1:Category>trains</wptx1:Category>
          <wptx1:Category>SanLorenzo - Ventimiglia</wptx1:Category>
        </wptx1:Categories>
      </wptx1:WaypointExtension>
      <ctx:CreationTimeExtension>
        <ctx:CreationTime>2013-10-10T17:35:26Z</ctx:CreationTime>
      </ctx:CreationTimeExtension>
    </extensions>
  </wpt>

  <wpt lat="43.822274208068848" lon="7.784328460693359">
    <time>2014-02-15T07:22:57Z</time>
    <name>Stazione Sanremo</name>
    <cmt>

</cmt>    <desc>

</desc>    <sym>Ground Transportation</sym>
    <type>user</type>
    <extensions>
      <gpxx:WaypointExtension>
        <gpxx:DisplayMode>SymbolOnly</gpxx:DisplayMode>
        <gpxx:Categories>
          <gpxx:Category>Cycling Riviera Waypoints</gpxx:Category>
        </gpxx:Categories>
      </gpxx:WaypointExtension>
      <wptx1:WaypointExtension>
        <wptx1:DisplayMode>SymbolOnly</wptx1:DisplayMode>
        <wptx1:Categories>
          <wptx1:Category>Cycling Riviera Waypoints</wptx1:Category>
        </wptx1:Categories>
      </wptx1:WaypointExtension>
      <ctx:CreationTimeExtension>
        <ctx:CreationTime>2014-02-15T07:22:57Z</ctx:CreationTime>
      </ctx:CreationTimeExtension>
    </extensions>
  </wpt>

  <wpt lat="43.844203948974609" lon="7.855739593505859">
    <time>2013-08-03T10:22:49Z</time>
    <name>Taggia</name>
    <cmt>Taggia
Piazza Nuova Stazione 1
18018, Taggia, Imperia, Italia</cmt>
    <desc>Taggia
Piazza Nuova Stazione 1
18018, Taggia, Imperia, Italia</desc>
    <sym>Ground Transportation</sym>
    <type>user</type>
    <extensions>
      <gpxx:WaypointExtension>
        <gpxx:DisplayMode>SymbolOnly</gpxx:DisplayMode>
        <gpxx:Categories>
          <gpxx:Category>San Lorenzo - Ventimiglia (waypoints)</gpxx:Category>
          <gpxx:Category>Cycling Riviera Waypoints</gpxx:Category>
          <gpxx:Category>trains</gpxx:Category>
          <gpxx:Category>SanLorenzo - Ventimiglia</gpxx:Category>
          <gpxx:Category>Liguria coast - Ventimiglia San Lorenzo</gpxx:Category>
        </gpxx:Categories>
      </gpxx:WaypointExtension>
      <wptx1:WaypointExtension>
        <wptx1:DisplayMode>SymbolOnly</wptx1:DisplayMode>
        <wptx1:Categories>
          <wptx1:Category>San Lorenzo - Ventimiglia (waypoints)</wptx1:Category>
          <wptx1:Category>Cycling Riviera Waypoints</wptx1:Category>
          <wptx1:Category>trains</wptx1:Category>
          <wptx1:Category>SanLorenzo - Ventimiglia</wptx1:Category>
          <wptx1:Category>Liguria coast - Ventimiglia San Lorenzo</wptx1:Category>
        </wptx1:Categories>
      </wptx1:WaypointExtension>
      <ctx:CreationTimeExtension>
        <ctx:CreationTime>2013-08-03T10:22:49Z</ctx:CreationTime>
      </ctx:CreationTimeExtension>
    </extensions>
  </wpt>

  <wpt lat="43.82059003226459" lon="7.793058967217803">
    <ele>10.947762000000001</ele>
    <time>2013-09-27T11:52:06Z</time>
    <name>Villa Nobel</name>
    <sym>Scenic Area</sym>
    <type>user</type>
    <extensions>
      <gpxx:WaypointExtension>
        <gpxx:DisplayMode>SymbolOnly</gpxx:DisplayMode>
        <gpxx:Categories>
          <gpxx:Category>WaypointsJuly2013</gpxx:Category>
          <gpxx:Category>San Lorenzo - Ventimiglia (waypoints)</gpxx:Category>
          <gpxx:Category>Cycling Riviera Waypoints</gpxx:Category>
          <gpxx:Category>POIs</gpxx:Category>
          <gpxx:Category>Liguria coast south-north)</gpxx:Category>
        </gpxx:Categories>
      </gpxx:WaypointExtension>
      <wptx1:WaypointExtension>
        <wptx1:DisplayMode>SymbolOnly</wptx1:DisplayMode>
        <wptx1:Categories>
          <wptx1:Category>WaypointsJuly2013</wptx1:Category>
          <wptx1:Category>San Lorenzo - Ventimiglia (waypoints)</wptx1:Category>
          <wptx1:Category>Cycling Riviera Waypoints</wptx1:Category>
          <wptx1:Category>POIs</wptx1:Category>
          <wptx1:Category>Liguria coast south-north)</wptx1:Category>
        </wptx1:Categories>
      </wptx1:WaypointExtension>
      <ctx:CreationTimeExtension>
        <ctx:CreationTime>2013-09-27T11:52:06Z</ctx:CreationTime>
      </ctx:CreationTimeExtension>
    </extensions>
  </wpt>

  <wpt lat="43.802342964336276" lon="7.745210034772754">
    <ele>20</ele>
    <time>2013-07-25T10:04:25Z</time>
    <name>Villaggio Dei Fiori</name>
    <cmt>0184 660635 
info@villaggiodeifiori.it</cmt>
    <desc>0184 660635 
info@villaggiodeifiori.it</desc>
    <link href="http://www.villaggiodeifiori.it/"/>
    <sym>Campground</sym>
    <type>user</type>
    <extensions>
      <gpxx:WaypointExtension>
        <gpxx:DisplayMode>SymbolOnly</gpxx:DisplayMode>
        <gpxx:Categories>
          <gpxx:Category>WaypointsJuly2013</gpxx:Category>
          <gpxx:Category>San Lorenzo - Ventimiglia (waypoints)</gpxx:Category>
          <gpxx:Category>Cycling Riviera Waypoints</gpxx:Category>
          <gpxx:Category>camping-liguria</gpxx:Category>
          <gpxx:Category>Liguria coast south-north)</gpxx:Category>
        </gpxx:Categories>
        <gpxx:Address>
          <gpxx:StreetAddress>Via Tiro a Volo 3</gpxx:StreetAddress>
          <gpxx:City>San Remo</gpxx:City>
          <gpxx:State>IM</gpxx:State>
        </gpxx:Address>
        <gpxx:PhoneNumber>0184 660635</gpxx:PhoneNumber>
      </gpxx:WaypointExtension>
      <wptx1:WaypointExtension>
        <wptx1:DisplayMode>SymbolOnly</wptx1:DisplayMode>
        <wptx1:Categories>
          <wptx1:Category>WaypointsJuly2013</wptx1:Category>
          <wptx1:Category>San Lorenzo - Ventimiglia (waypoints)</wptx1:Category>
          <wptx1:Category>Cycling Riviera Waypoints</wptx1:Category>
          <wptx1:Category>camping-liguria</wptx1:Category>
          <wptx1:Category>Liguria coast south-north)</wptx1:Category>
        </wptx1:Categories>
        <wptx1:Address>
          <wptx1:StreetAddress>Via Tiro a Volo 3</wptx1:StreetAddress>
          <wptx1:City>San Remo</wptx1:City>
          <wptx1:State>IM</wptx1:State>
        </wptx1:Address>
        <wptx1:PhoneNumber>0184 660635</wptx1:PhoneNumber>
      </wptx1:WaypointExtension>
      <ctx:CreationTimeExtension>
        <ctx:CreationTime>2013-07-25T10:04:25Z</ctx:CreationTime>
      </ctx:CreationTimeExtension>
    </extensions>
  </wpt>

</gpx>
