<?xml version="1.0" encoding="UTF-8"?>
<gpx xmlns="http://www.topografix.com/GPX/1/1" xmlns:gpsies="http://www.gpsies.com/GPX/1/0" creator="GPSies http://www.gpsies.com - Canazei - Bolzano" version="1.1" xmlns:xsi="http://www.w3.org/2001/XMLSchema-instance" xsi:schemaLocation="http://www.topografix.com/GPX/1/1 http://www.topografix.com/GPX/1/1/gpx.xsd http://www.gpsies.com/GPX/1/0 http://www.gpsies.com/gpsies.xsd">

  <trk>
    <name>Dolomites-EW04-Canazei - Bolzano</name>
<desc>From: http://italy-cycling-guide.info</desc>
    <trkseg>
      <trkpt lat="46.47664239" lon="11.77042675">
        <ele>1439.0000</ele>
              </trkpt>
      <trkpt lat="46.47638113" lon="11.76801712">
        <ele>1429.0000</ele>
              </trkpt>
      <trkpt lat="46.47639303" lon="11.76723282">
        <ele>1427.0000</ele>
              </trkpt>
      <trkpt lat="46.47585650" lon="11.76718924">
        <ele>1424.0000</ele>
              </trkpt>
      <trkpt lat="46.47560153" lon="11.76696703">
        <ele>1425.0000</ele>
              </trkpt>
      <trkpt lat="46.47538720" lon="11.76667652">
        <ele>1427.0000</ele>
              </trkpt>
      <trkpt lat="46.47514186" lon="11.76648742">
        <ele>1429.0000</ele>
              </trkpt>
      <trkpt lat="46.47525058" lon="11.76576540">
        <ele>1427.0000</ele>
              </trkpt>
      <trkpt lat="46.47523934" lon="11.76493610">
        <ele>1424.0000</ele>
              </trkpt>
      <trkpt lat="46.47521277" lon="11.76452756">
        <ele>1423.0000</ele>
              </trkpt>
      <trkpt lat="46.47494279" lon="11.76379247">
        <ele>1424.0000</ele>
              </trkpt>
      <trkpt lat="46.47499308" lon="11.76273618">
        <ele>1421.0000</ele>
              </trkpt>
      <trkpt lat="46.47535795" lon="11.76124462">
        <ele>1422.0000</ele>
              </trkpt>
      <trkpt lat="46.47541042" lon="11.76077046">
        <ele>1421.0000</ele>
              </trkpt>
      <trkpt lat="46.47554495" lon="11.76024056">
        <ele>1419.0000</ele>
              </trkpt>
      <trkpt lat="46.47572156" lon="11.75985306">
        <ele>1417.0000</ele>
              </trkpt>
      <trkpt lat="46.47568057" lon="11.75946548">
        <ele>1417.0000</ele>
              </trkpt>
      <trkpt lat="46.47551008" lon="11.75914621">
        <ele>1418.0000</ele>
              </trkpt>
      <trkpt lat="46.47540464" lon="11.75833988">
        <ele>1419.0000</ele>
              </trkpt>
      <trkpt lat="46.47521395" lon="11.75748676">
        <ele>1423.0000</ele>
              </trkpt>
      <trkpt lat="46.47555216" lon="11.75449769">
        <ele>1418.0000</ele>
              </trkpt>
      <trkpt lat="46.47527170" lon="11.75285509">
        <ele>1421.0000</ele>
              </trkpt>
      <trkpt lat="46.47523364" lon="11.75204054">
        <ele>1420.0000</ele>
              </trkpt>
      <trkpt lat="46.47510750" lon="11.75123998">
        <ele>1419.0000</ele>
              </trkpt>
      <trkpt lat="46.47508126" lon="11.75040129">
        <ele>1416.0000</ele>
              </trkpt>
      <trkpt lat="46.47431801" lon="11.74773157">
        <ele>1432.0000</ele>
              </trkpt>
      <trkpt lat="46.47431591" lon="11.74731340">
        <ele>1427.0000</ele>
              </trkpt>
      <trkpt lat="46.47443971" lon="11.74687310">
        <ele>1418.0000</ele>
              </trkpt>
      <trkpt lat="46.47447793" lon="11.74644637">
        <ele>1413.0000</ele>
              </trkpt>
      <trkpt lat="46.47449394" lon="11.74603960">
        <ele>1409.0000</ele>
              </trkpt>
      <trkpt lat="46.47441381" lon="11.74566979">
        <ele>1407.0000</ele>
              </trkpt>
      <trkpt lat="46.47399924" lon="11.74456346">
        <ele>1407.0000</ele>
              </trkpt>
      <trkpt lat="46.47362289" lon="11.74393381">
        <ele>1411.0000</ele>
              </trkpt>
      <trkpt lat="46.47337806" lon="11.74316243">
        <ele>1406.0000</ele>
              </trkpt>
      <trkpt lat="46.47331025" lon="11.74273814">
        <ele>1404.0000</ele>
              </trkpt>
      <trkpt lat="46.47285520" lon="11.74158420">
        <ele>1411.0000</ele>
              </trkpt>
      <trkpt lat="46.47241842" lon="11.74102052">
        <ele>1411.0000</ele>
              </trkpt>
      <trkpt lat="46.47232093" lon="11.74063637">
        <ele>1411.0000</ele>
              </trkpt>
      <trkpt lat="46.47241397" lon="11.74025642">
        <ele>1404.0000</ele>
              </trkpt>
      <trkpt lat="46.47242043" lon="11.73983288">
        <ele>1402.0000</ele>
              </trkpt>
      <trkpt lat="46.47222278" lon="11.73949241">
        <ele>1405.0000</ele>
              </trkpt>
      <trkpt lat="46.47173269" lon="11.73901196">
        <ele>1404.0000</ele>
              </trkpt>
      <trkpt lat="46.47122332" lon="11.73866805">
        <ele>1412.0000</ele>
              </trkpt>
      <trkpt lat="46.47076684" lon="11.73812407">
        <ele>1411.0000</ele>
              </trkpt>
      <trkpt lat="46.47009780" lon="11.73630964">
        <ele>1416.0000</ele>
              </trkpt>
      <trkpt lat="46.46992631" lon="11.73535083">
        <ele>1405.0000</ele>
              </trkpt>
      <trkpt lat="46.46978926" lon="11.73492830">
        <ele>1401.0000</ele>
              </trkpt>
      <trkpt lat="46.46930831" lon="11.73435430">
        <ele>1400.0000</ele>
              </trkpt>
      <trkpt lat="46.46899206" lon="11.73361519">
        <ele>1398.0000</ele>
              </trkpt>
      <trkpt lat="46.46878226" lon="11.73333347">
        <ele>1397.0000</ele>
              </trkpt>
      <trkpt lat="46.46849719" lon="11.73259042">
        <ele>1395.0000</ele>
              </trkpt>
      <trkpt lat="46.46808095" lon="11.73201215">
        <ele>1395.0000</ele>
              </trkpt>
      <trkpt lat="46.46756890" lon="11.73114923">
        <ele>1392.0000</ele>
              </trkpt>
      <trkpt lat="46.46786394" lon="11.73117882">
        <ele>1392.0000</ele>
              </trkpt>
      <trkpt lat="46.46823199" lon="11.73090230">
        <ele>1390.0000</ele>
              </trkpt>
      <trkpt lat="46.46831707" lon="11.73076878">
        <ele>1390.0000</ele>
              </trkpt>
      <trkpt lat="46.46833450" lon="11.73056074">
        <ele>1389.0000</ele>
              </trkpt>
      <trkpt lat="46.46798992" lon="11.72960244">
        <ele>1385.0000</ele>
              </trkpt>
      <trkpt lat="46.46762263" lon="11.72899936">
        <ele>1380.0000</ele>
              </trkpt>
      <trkpt lat="46.46742037" lon="11.72823426">
        <ele>1376.0000</ele>
              </trkpt>
      <trkpt lat="46.46707898" lon="11.72757360">
        <ele>1376.0000</ele>
              </trkpt>
      <trkpt lat="46.46672400" lon="11.72647096">
        <ele>1375.0000</ele>
              </trkpt>
      <trkpt lat="46.46622343" lon="11.72549497">
        <ele>1375.0000</ele>
              </trkpt>
      <trkpt lat="46.46560141" lon="11.72468611">
        <ele>1375.0000</ele>
              </trkpt>
      <trkpt lat="46.46488484" lon="11.72340243">
        <ele>1375.0000</ele>
              </trkpt>
      <trkpt lat="46.46473263" lon="11.72303102">
        <ele>1375.0000</ele>
              </trkpt>
      <trkpt lat="46.46425235" lon="11.72012024">
        <ele>1375.0000</ele>
              </trkpt>
      <trkpt lat="46.46392721" lon="11.71900796">
        <ele>1375.0000</ele>
              </trkpt>
      <trkpt lat="46.46342388" lon="11.71802795">
        <ele>1375.0000</ele>
              </trkpt>
      <trkpt lat="46.46199803" lon="11.71599031">
        <ele>1375.0000</ele>
              </trkpt>
      <trkpt lat="46.46145522" lon="11.71506495">
        <ele>1375.0000</ele>
              </trkpt>
      <trkpt lat="46.46171397" lon="11.71515958">
        <ele>1375.0000</ele>
              </trkpt>
      <trkpt lat="46.46194355" lon="11.71538170">
        <ele>1375.0000</ele>
              </trkpt>
      <trkpt lat="46.46219710" lon="11.71546116">
        <ele>1375.0000</ele>
              </trkpt>
      <trkpt lat="46.46217891" lon="11.71461643">
        <ele>1375.0000</ele>
              </trkpt>
      <trkpt lat="46.46227011" lon="11.71419977">
        <ele>1375.0000</ele>
              </trkpt>
      <trkpt lat="46.46224094" lon="11.71383482">
        <ele>1375.0000</ele>
              </trkpt>
      <trkpt lat="46.46098231" lon="11.71013538">
        <ele>1375.0000</ele>
              </trkpt>
      <trkpt lat="46.46023373" lon="11.70828726">
        <ele>1375.0000</ele>
              </trkpt>
      <trkpt lat="46.45960592" lon="11.70634601">
        <ele>1374.0000</ele>
              </trkpt>
      <trkpt lat="46.45942152" lon="11.70350245">
        <ele>1377.0000</ele>
              </trkpt>
      <trkpt lat="46.45924625" lon="11.70270835">
        <ele>1376.0000</ele>
              </trkpt>
      <trkpt lat="46.45908004" lon="11.70236988">
        <ele>1374.0000</ele>
              </trkpt>
      <trkpt lat="46.45869774" lon="11.70178583">
        <ele>1376.0000</ele>
              </trkpt>
      <trkpt lat="46.45845768" lon="11.70156430">
        <ele>1375.0000</ele>
              </trkpt>
      <trkpt lat="46.45819818" lon="11.70141904">
        <ele>1372.0000</ele>
              </trkpt>
      <trkpt lat="46.45717743" lon="11.70115543">
        <ele>1357.0000</ele>
              </trkpt>
      <trkpt lat="46.45697065" lon="11.70088226">
        <ele>1356.0000</ele>
              </trkpt>
      <trkpt lat="46.45663185" lon="11.70019679">
        <ele>1358.0000</ele>
              </trkpt>
      <trkpt lat="46.45641594" lon="11.69994760">
        <ele>1358.0000</ele>
              </trkpt>
      <trkpt lat="46.45588821" lon="11.69965524">
        <ele>1357.0000</ele>
              </trkpt>
      <trkpt lat="46.45271273" lon="11.69894194">
        <ele>1350.0000</ele>
              </trkpt>
      <trkpt lat="46.45180681" lon="11.69861965">
        <ele>1350.0000</ele>
              </trkpt>
      <trkpt lat="46.45005667" lon="11.69779487">
        <ele>1350.0000</ele>
              </trkpt>
      <trkpt lat="46.44825138" lon="11.69727327">
        <ele>1350.0000</ele>
              </trkpt>
      <trkpt lat="46.44745225" lon="11.69697219">
        <ele>1350.0000</ele>
              </trkpt>
      <trkpt lat="46.44743330" lon="11.69709834">
        <ele>1350.0000</ele>
              </trkpt>
      <trkpt lat="46.44692393" lon="11.69726287">
        <ele>1350.0000</ele>
              </trkpt>
      <trkpt lat="46.44551267" lon="11.69757854">
        <ele>1348.0000</ele>
              </trkpt>
      <trkpt lat="46.44494363" lon="11.69764207">
        <ele>1346.0000</ele>
              </trkpt>
      <trkpt lat="46.44303758" lon="11.69707453">
        <ele>1332.0000</ele>
              </trkpt>
      <trkpt lat="46.44247591" lon="11.69704704">
        <ele>1327.0000</ele>
              </trkpt>
      <trkpt lat="46.44226913" lon="11.69681360">
        <ele>1326.0000</ele>
              </trkpt>
      <trkpt lat="46.44227064" lon="11.69639434">
        <ele>1327.0000</ele>
              </trkpt>
      <trkpt lat="46.44205908" lon="11.69621648">
        <ele>1327.0000</ele>
              </trkpt>
      <trkpt lat="46.44189689" lon="11.69640323">
        <ele>1326.0000</ele>
              </trkpt>
      <trkpt lat="46.44185414" lon="11.69680338">
        <ele>1326.0000</ele>
              </trkpt>
      <trkpt lat="46.44167795" lon="11.69710789">
        <ele>1326.0000</ele>
              </trkpt>
      <trkpt lat="46.44141552" lon="11.69707839">
        <ele>1326.0000</ele>
              </trkpt>
      <trkpt lat="46.44008154" lon="11.69648244">
        <ele>1325.0000</ele>
              </trkpt>
      <trkpt lat="46.43691192" lon="11.69465015">
        <ele>1325.0000</ele>
              </trkpt>
      <trkpt lat="46.43664831" lon="11.69458452">
        <ele>1325.0000</ele>
              </trkpt>
      <trkpt lat="46.43653607" lon="11.69497051">
        <ele>1325.0000</ele>
              </trkpt>
      <trkpt lat="46.43622754" lon="11.69493195">
        <ele>1325.0000</ele>
              </trkpt>
      <trkpt lat="46.43573175" lon="11.69448050">
        <ele>1325.0000</ele>
              </trkpt>
      <trkpt lat="46.43522850" lon="11.69412679">
        <ele>1325.0000</ele>
              </trkpt>
      <trkpt lat="46.43499112" lon="11.69385848">
        <ele>1325.0000</ele>
              </trkpt>
      <trkpt lat="46.43462056" lon="11.69325289">
        <ele>1325.0000</ele>
              </trkpt>
      <trkpt lat="46.43433339" lon="11.69251092">
        <ele>1325.0000</ele>
              </trkpt>
      <trkpt lat="46.43314492" lon="11.69062164">
        <ele>1325.0000</ele>
              </trkpt>
      <trkpt lat="46.43305683" lon="11.69017581">
        <ele>1325.0000</ele>
              </trkpt>
      <trkpt lat="46.43314367" lon="11.68979854">
        <ele>1325.0000</ele>
              </trkpt>
      <trkpt lat="46.43351951" lon="11.68935396">
        <ele>1325.0000</ele>
              </trkpt>
      <trkpt lat="46.43269113" lon="11.68768789">
        <ele>1325.0000</ele>
              </trkpt>
      <trkpt lat="46.43231294" lon="11.68710895">
        <ele>1325.0000</ele>
              </trkpt>
      <trkpt lat="46.43204128" lon="11.68698758">
        <ele>1324.0000</ele>
              </trkpt>
      <trkpt lat="46.43195905" lon="11.68739109">
        <ele>1324.0000</ele>
              </trkpt>
      <trkpt lat="46.43173551" lon="11.68760935">
        <ele>1324.0000</ele>
              </trkpt>
      <trkpt lat="46.43149981" lon="11.68749645">
        <ele>1322.0000</ele>
              </trkpt>
      <trkpt lat="46.43148162" lon="11.68707375">
        <ele>1321.0000</ele>
              </trkpt>
      <trkpt lat="46.43137961" lon="11.68668173">
        <ele>1319.0000</ele>
              </trkpt>
      <trkpt lat="46.43114718" lon="11.68642943">
        <ele>1315.0000</ele>
              </trkpt>
      <trkpt lat="46.43062683" lon="11.68610690">
        <ele>1308.0000</ele>
              </trkpt>
      <trkpt lat="46.43036414" lon="11.68618837">
        <ele>1304.0000</ele>
              </trkpt>
      <trkpt lat="46.43025442" lon="11.68612576">
        <ele>1303.0000</ele>
              </trkpt>
      <trkpt lat="46.42993172" lon="11.68572527">
        <ele>1301.0000</ele>
              </trkpt>
      <trkpt lat="46.42894148" lon="11.68519922">
        <ele>1302.0000</ele>
              </trkpt>
      <trkpt lat="46.42859690" lon="11.68469664">
        <ele>1303.0000</ele>
              </trkpt>
      <trkpt lat="46.42766475" lon="11.68297290">
        <ele>1309.0000</ele>
              </trkpt>
      <trkpt lat="46.42693519" lon="11.68220043">
        <ele>1312.0000</ele>
              </trkpt>
      <trkpt lat="46.42672061" lon="11.68215751">
        <ele>1311.0000</ele>
              </trkpt>
      <trkpt lat="46.42659187" lon="11.68164253">
        <ele>1315.0000</ele>
              </trkpt>
      <trkpt lat="46.42629146" lon="11.68129920">
        <ele>1318.0000</ele>
              </trkpt>
      <trkpt lat="46.42581939" lon="11.68095588">
        <ele>1321.0000</ele>
              </trkpt>
      <trkpt lat="46.42560482" lon="11.68061256">
        <ele>1325.0000</ele>
              </trkpt>
      <trkpt lat="46.42474651" lon="11.67979717">
        <ele>1338.0000</ele>
              </trkpt>
      <trkpt lat="46.42414569" lon="11.67911052">
        <ele>1347.0000</ele>
              </trkpt>
      <trkpt lat="46.42444610" lon="11.67846679">
        <ele>1352.0000</ele>
              </trkpt>
      <trkpt lat="46.42440319" lon="11.67816638">
        <ele>1355.0000</ele>
              </trkpt>
      <trkpt lat="46.42418861" lon="11.67786598">
        <ele>1360.0000</ele>
              </trkpt>
      <trkpt lat="46.42405986" lon="11.67790889">
        <ele>1361.0000</ele>
              </trkpt>
      <trkpt lat="46.42324447" lon="11.67760848">
        <ele>1369.0000</ele>
              </trkpt>
      <trkpt lat="46.42272949" lon="11.67730808">
        <ele>1372.0000</ele>
              </trkpt>
      <trkpt lat="46.42212867" lon="11.67679309">
        <ele>1375.0000</ele>
              </trkpt>
      <trkpt lat="46.42199993" lon="11.67653560">
        <ele>1376.0000</ele>
              </trkpt>
      <trkpt lat="46.42195701" lon="11.67610645">
        <ele>1380.0000</ele>
              </trkpt>
      <trkpt lat="46.42182826" lon="11.67589187">
        <ele>1381.0000</ele>
              </trkpt>
      <trkpt lat="46.42118453" lon="11.67541980">
        <ele>1381.0000</ele>
              </trkpt>
      <trkpt lat="46.42054080" lon="11.67438983">
        <ele>1383.0000</ele>
              </trkpt>
      <trkpt lat="46.42041206" lon="11.67370319">
        <ele>1385.0000</ele>
              </trkpt>
      <trkpt lat="46.42041206" lon="11.67335987">
        <ele>1387.0000</ele>
              </trkpt>
      <trkpt lat="46.42011165" lon="11.67288780">
        <ele>1386.0000</ele>
              </trkpt>
      <trkpt lat="46.41959667" lon="11.67052745">
        <ele>1394.0000</ele>
              </trkpt>
      <trkpt lat="46.41942501" lon="11.67014122">
        <ele>1395.0000</ele>
              </trkpt>
      <trkpt lat="46.41938209" lon="11.66988372">
        <ele>1397.0000</ele>
              </trkpt>
      <trkpt lat="46.41951084" lon="11.66915416">
        <ele>1403.0000</ele>
              </trkpt>
      <trkpt lat="46.41925334" lon="11.66889667">
        <ele>1402.0000</ele>
              </trkpt>
      <trkpt lat="46.41865253" lon="11.66863918">
        <ele>1408.0000</ele>
              </trkpt>
      <trkpt lat="46.41848087" lon="11.66863918">
        <ele>1410.0000</ele>
              </trkpt>
      <trkpt lat="46.41736507" lon="11.66984081">
        <ele>1405.0000</ele>
              </trkpt>
      <trkpt lat="46.41723632" lon="11.66988372">
        <ele>1405.0000</ele>
              </trkpt>
      <trkpt lat="46.41672134" lon="11.66971206">
        <ele>1412.0000</ele>
              </trkpt>
      <trkpt lat="46.41612052" lon="11.66945457">
        <ele>1416.0000</ele>
              </trkpt>
      <trkpt lat="46.41551971" lon="11.66893959">
        <ele>1422.0000</ele>
              </trkpt>
      <trkpt lat="46.41517639" lon="11.66876792">
        <ele>1423.0000</ele>
              </trkpt>
      <trkpt lat="46.41298770" lon="11.66645050">
        <ele>1447.0000</ele>
              </trkpt>
      <trkpt lat="46.41208648" lon="11.66494846">
        <ele>1450.0000</ele>
              </trkpt>
      <trkpt lat="46.41187191" lon="11.66447639">
        <ele>1447.0000</ele>
              </trkpt>
      <trkpt lat="46.41187191" lon="11.66426181">
        <ele>1449.0000</ele>
              </trkpt>
      <trkpt lat="46.41260147" lon="11.66297435">
        <ele>1473.0000</ele>
              </trkpt>
      <trkpt lat="46.41264438" lon="11.66233062">
        <ele>1479.0000</ele>
              </trkpt>
      <trkpt lat="46.41247272" lon="11.66130065">
        <ele>1484.0000</ele>
              </trkpt>
      <trkpt lat="46.41234397" lon="11.66078567">
        <ele>1488.0000</ele>
              </trkpt>
      <trkpt lat="46.41165733" lon="11.66001319">
        <ele>1487.0000</ele>
              </trkpt>
      <trkpt lat="46.41139984" lon="11.65962696">
        <ele>1484.0000</ele>
              </trkpt>
      <trkpt lat="46.41139984" lon="11.65941238">
        <ele>1487.0000</ele>
              </trkpt>
      <trkpt lat="46.41174316" lon="11.65881156">
        <ele>1501.0000</ele>
              </trkpt>
      <trkpt lat="46.41174316" lon="11.65863990">
        <ele>1502.0000</ele>
              </trkpt>
      <trkpt lat="46.41157150" lon="11.65812492">
        <ele>1499.0000</ele>
              </trkpt>
      <trkpt lat="46.41174316" lon="11.65778160">
        <ele>1501.0000</ele>
              </trkpt>
      <trkpt lat="46.41212940" lon="11.65726661">
        <ele>1511.0000</ele>
              </trkpt>
      <trkpt lat="46.41225814" lon="11.65632247">
        <ele>1517.0000</ele>
              </trkpt>
      <trkpt lat="46.41268730" lon="11.65529251">
        <ele>1535.0000</ele>
              </trkpt>
      <trkpt lat="46.41247272" lon="11.65426254">
        <ele>1534.0000</ele>
              </trkpt>
      <trkpt lat="46.41285896" lon="11.65383338">
        <ele>1551.0000</ele>
              </trkpt>
      <trkpt lat="46.41285896" lon="11.65370464">
        <ele>1552.0000</ele>
              </trkpt>
      <trkpt lat="46.41268730" lon="11.65344715">
        <ele>1552.0000</ele>
              </trkpt>
      <trkpt lat="46.41204357" lon="11.65306091">
        <ele>1550.0000</ele>
              </trkpt>
      <trkpt lat="46.41187191" lon="11.65288925">
        <ele>1551.0000</ele>
              </trkpt>
      <trkpt lat="46.41200065" lon="11.65181636">
        <ele>1569.0000</ele>
              </trkpt>
      <trkpt lat="46.41178607" lon="11.65160179">
        <ele>1573.0000</ele>
              </trkpt>
      <trkpt lat="46.41105651" lon="11.65258884">
        <ele>1572.0000</ele>
              </trkpt>
      <trkpt lat="46.41054153" lon="11.65314674">
        <ele>1572.0000</ele>
              </trkpt>
      <trkpt lat="46.41019821" lon="11.65344715">
        <ele>1572.0000</ele>
              </trkpt>
      <trkpt lat="46.40985488" lon="11.65353298">
        <ele>1574.0000</ele>
              </trkpt>
      <trkpt lat="46.40899658" lon="11.65288925">
        <ele>1590.0000</ele>
              </trkpt>
      <trkpt lat="46.40809535" lon="11.65117263">
        <ele>1597.0000</ele>
              </trkpt>
      <trkpt lat="46.40826702" lon="11.65009975">
        <ele>1614.0000</ele>
              </trkpt>
      <trkpt lat="46.40818119" lon="11.64997100">
        <ele>1614.0000</ele>
              </trkpt>
      <trkpt lat="46.40736579" lon="11.64958477">
        <ele>1616.0000</ele>
              </trkpt>
      <trkpt lat="46.40689373" lon="11.65022850">
        <ele>1614.0000</ele>
              </trkpt>
      <trkpt lat="46.40659332" lon="11.65035724">
        <ele>1619.0000</ele>
              </trkpt>
      <trkpt lat="46.40594959" lon="11.64984226">
        <ele>1625.0000</ele>
              </trkpt>
      <trkpt lat="46.40586376" lon="11.64967060">
        <ele>1626.0000</ele>
              </trkpt>
      <trkpt lat="46.40564918" lon="11.64786815">
        <ele>1627.0000</ele>
              </trkpt>
      <trkpt lat="46.40612125" lon="11.64688110">
        <ele>1651.0000</ele>
              </trkpt>
      <trkpt lat="46.40616416" lon="11.64490699">
        <ele>1662.0000</ele>
              </trkpt>
      <trkpt lat="46.40642166" lon="11.64417743">
        <ele>1681.0000</ele>
              </trkpt>
      <trkpt lat="46.40629291" lon="11.64357662">
        <ele>1681.0000</ele>
              </trkpt>
      <trkpt lat="46.40646457" lon="11.64297580">
        <ele>1690.0000</ele>
              </trkpt>
      <trkpt lat="46.40642166" lon="11.64267539">
        <ele>1692.0000</ele>
              </trkpt>
      <trkpt lat="46.40625000" lon="11.64246082">
        <ele>1694.0000</ele>
              </trkpt>
      <trkpt lat="46.40603542" lon="11.64246082">
        <ele>1693.0000</ele>
              </trkpt>
      <trkpt lat="46.40582084" lon="11.64258956">
        <ele>1691.0000</ele>
              </trkpt>
      <trkpt lat="46.40509128" lon="11.64353370">
        <ele>1682.0000</ele>
              </trkpt>
      <trkpt lat="46.40474796" lon="11.64349079">
        <ele>1686.0000</ele>
              </trkpt>
      <trkpt lat="46.40380382" lon="11.64301872">
        <ele>1691.0000</ele>
              </trkpt>
      <trkpt lat="46.40363216" lon="11.64276123">
        <ele>1692.0000</ele>
              </trkpt>
      <trkpt lat="46.40397548" lon="11.64151668">
        <ele>1706.0000</ele>
              </trkpt>
      <trkpt lat="46.40461921" lon="11.64095878">
        <ele>1710.0000</ele>
              </trkpt>
      <trkpt lat="46.40513420" lon="11.64083003">
        <ele>1712.0000</ele>
              </trkpt>
      <trkpt lat="46.40530586" lon="11.64091587">
        <ele>1712.0000</ele>
              </trkpt>
      <trkpt lat="46.40552043" lon="11.64113044">
        <ele>1713.0000</ele>
              </trkpt>
      <trkpt lat="46.40590667" lon="11.64113044">
        <ele>1710.0000</ele>
              </trkpt>
      <trkpt lat="46.40719413" lon="11.64151668">
        <ele>1721.0000</ele>
              </trkpt>
      <trkpt lat="46.40732288" lon="11.64138793">
        <ele>1727.0000</ele>
              </trkpt>
      <trkpt lat="46.40715122" lon="11.64044380">
        <ele>1722.0000</ele>
              </trkpt>
      <trkpt lat="46.40719413" lon="11.64005756">
        <ele>1723.0000</ele>
              </trkpt>
      <trkpt lat="46.40775203" lon="11.63851261">
        <ele>1737.0000</ele>
              </trkpt>
      <trkpt lat="46.40779495" lon="11.63816928">
        <ele>1739.0000</ele>
              </trkpt>
      <trkpt lat="46.40766620" lon="11.63761138">
        <ele>1744.0000</ele>
              </trkpt>
      <trkpt lat="46.40672206" lon="11.63739681">
        <ele>1734.0000</ele>
              </trkpt>
      <trkpt lat="46.40659332" lon="11.63726806">
        <ele>1731.0000</ele>
              </trkpt>
      <trkpt lat="46.40655040" lon="11.63709640">
        <ele>1731.0000</ele>
              </trkpt>
      <trkpt lat="46.40676498" lon="11.63632392">
        <ele>1743.0000</ele>
              </trkpt>
      <trkpt lat="46.40672206" lon="11.63602352">
        <ele>1745.0000</ele>
              </trkpt>
      <trkpt lat="46.40629291" lon="11.63585186">
        <ele>1743.0000</ele>
              </trkpt>
      <trkpt lat="46.40556335" lon="11.63593769">
        <ele>1738.0000</ele>
              </trkpt>
      <trkpt lat="46.40491962" lon="11.63615226">
        <ele>1732.0000</ele>
              </trkpt>
      <trkpt lat="46.40470504" lon="11.63610935">
        <ele>1730.0000</ele>
              </trkpt>
      <trkpt lat="46.40380382" lon="11.63559436">
        <ele>1731.0000</ele>
              </trkpt>
      <trkpt lat="46.40341758" lon="11.63507938">
        <ele>1732.0000</ele>
              </trkpt>
      <trkpt lat="46.40337467" lon="11.63486480">
        <ele>1734.0000</ele>
              </trkpt>
      <trkpt lat="46.40346050" lon="11.63319110">
        <ele>1746.0000</ele>
              </trkpt>
      <trkpt lat="46.40208721" lon="11.63113117">
        <ele>1732.0000</ele>
              </trkpt>
      <trkpt lat="46.40200138" lon="11.63031578">
        <ele>1735.0000</ele>
              </trkpt>
      <trkpt lat="46.40260219" lon="11.62868499">
        <ele>1743.0000</ele>
              </trkpt>
      <trkpt lat="46.40298843" lon="11.62808418">
        <ele>1750.0000</ele>
              </trkpt>
      <trkpt lat="46.40303134" lon="11.62696838">
        <ele>1743.0000</ele>
              </trkpt>
      <trkpt lat="46.40294551" lon="11.62666797">
        <ele>1743.0000</ele>
              </trkpt>
      <trkpt lat="46.40285968" lon="11.62658214">
        <ele>1743.0000</ele>
              </trkpt>
      <trkpt lat="46.40217304" lon="11.62662506">
        <ele>1731.0000</ele>
              </trkpt>
      <trkpt lat="46.40200138" lon="11.62649631">
        <ele>1730.0000</ele>
              </trkpt>
      <trkpt lat="46.40187263" lon="11.62628173">
        <ele>1730.0000</ele>
              </trkpt>
      <trkpt lat="46.40225887" lon="11.62387847">
        <ele>1734.0000</ele>
              </trkpt>
      <trkpt lat="46.40324592" lon="11.62284851">
        <ele>1743.0000</ele>
              </trkpt>
      <trkpt lat="46.40376091" lon="11.62246227">
        <ele>1747.0000</ele>
              </trkpt>
      <trkpt lat="46.40393257" lon="11.62216186">
        <ele>1748.0000</ele>
              </trkpt>
      <trkpt lat="46.40388965" lon="11.62138938">
        <ele>1744.0000</ele>
              </trkpt>
      <trkpt lat="46.40354633" lon="11.62074565">
        <ele>1745.0000</ele>
              </trkpt>
      <trkpt lat="46.40316009" lon="11.62044525">
        <ele>1746.0000</ele>
              </trkpt>
      <trkpt lat="46.40251636" lon="11.62040233">
        <ele>1734.0000</ele>
              </trkpt>
      <trkpt lat="46.40247344" lon="11.62031650">
        <ele>1734.0000</ele>
              </trkpt>
      <trkpt lat="46.40273094" lon="11.61709785">
        <ele>1742.0000</ele>
              </trkpt>
      <trkpt lat="46.40281677" lon="11.61679744">
        <ele>1742.0000</ele>
              </trkpt>
      <trkpt lat="46.40303134" lon="11.61653995">
        <ele>1745.0000</ele>
              </trkpt>
      <trkpt lat="46.40384674" lon="11.61593914">
        <ele>1755.0000</ele>
              </trkpt>
      <trkpt lat="46.40449047" lon="11.61520957">
        <ele>1757.0000</ele>
              </trkpt>
      <trkpt lat="46.40461921" lon="11.61473751">
        <ele>1756.0000</ele>
              </trkpt>
      <trkpt lat="46.40457630" lon="11.61422252">
        <ele>1753.0000</ele>
              </trkpt>
      <trkpt lat="46.40397548" lon="11.61259174">
        <ele>1750.0000</ele>
              </trkpt>
      <trkpt lat="46.40419006" lon="11.60928726">
        <ele>1750.0000</ele>
              </trkpt>
      <trkpt lat="46.40461921" lon="11.60808563">
        <ele>1749.0000</ele>
              </trkpt>
      <trkpt lat="46.40504837" lon="11.60735607">
        <ele>1748.0000</ele>
              </trkpt>
      <trkpt lat="46.40552043" lon="11.60701274">
        <ele>1743.0000</ele>
              </trkpt>
      <trkpt lat="46.40612125" lon="11.60593986">
        <ele>1733.0000</ele>
              </trkpt>
      <trkpt lat="46.40680789" lon="11.60542488">
        <ele>1731.0000</ele>
              </trkpt>
      <trkpt lat="46.40693664" lon="11.60521030">
        <ele>1731.0000</ele>
              </trkpt>
      <trkpt lat="46.40689373" lon="11.60482406">
        <ele>1727.0000</ele>
              </trkpt>
      <trkpt lat="46.40637874" lon="11.60435199">
        <ele>1721.0000</ele>
              </trkpt>
      <trkpt lat="46.40625000" lon="11.60409450">
        <ele>1720.0000</ele>
              </trkpt>
      <trkpt lat="46.40629291" lon="11.60392284">
        <ele>1719.0000</ele>
              </trkpt>
      <trkpt lat="46.40642166" lon="11.60375118">
        <ele>1717.0000</ele>
              </trkpt>
      <trkpt lat="46.40749454" lon="11.60293579">
        <ele>1713.0000</ele>
              </trkpt>
      <trkpt lat="46.40749454" lon="11.60203456">
        <ele>1705.0000</ele>
              </trkpt>
      <trkpt lat="46.40736579" lon="11.59971714">
        <ele>1683.0000</ele>
              </trkpt>
      <trkpt lat="46.40770912" lon="11.59735679">
        <ele>1667.0000</ele>
              </trkpt>
      <trkpt lat="46.40758037" lon="11.59611225">
        <ele>1660.0000</ele>
              </trkpt>
      <trkpt lat="46.40719413" lon="11.59366607">
        <ele>1646.0000</ele>
              </trkpt>
      <trkpt lat="46.40715122" lon="11.59109115">
        <ele>1629.0000</ele>
              </trkpt>
      <trkpt lat="46.40706539" lon="11.59014701">
        <ele>1625.0000</ele>
              </trkpt>
      <trkpt lat="46.40672206" lon="11.58800125">
        <ele>1624.0000</ele>
              </trkpt>
      <trkpt lat="46.40612125" lon="11.58671379">
        <ele>1624.0000</ele>
              </trkpt>
      <trkpt lat="46.40616416" lon="11.58499717">
        <ele>1624.0000</ele>
              </trkpt>
      <trkpt lat="46.40650749" lon="11.58405303">
        <ele>1625.0000</ele>
              </trkpt>
      <trkpt lat="46.40685081" lon="11.58332347">
        <ele>1624.0000</ele>
              </trkpt>
      <trkpt lat="46.40775203" lon="11.58267974">
        <ele>1621.0000</ele>
              </trkpt>
      <trkpt lat="46.40856742" lon="11.58177852">
        <ele>1618.0000</ele>
              </trkpt>
      <trkpt lat="46.40933990" lon="11.58134937">
        <ele>1611.0000</ele>
              </trkpt>
      <trkpt lat="46.40998363" lon="11.58083438">
        <ele>1605.0000</ele>
              </trkpt>
      <trkpt lat="46.41139984" lon="11.57838821">
        <ele>1589.0000</ele>
              </trkpt>
      <trkpt lat="46.41139984" lon="11.57804489">
        <ele>1584.0000</ele>
              </trkpt>
      <trkpt lat="46.41122817" lon="11.57795906">
        <ele>1584.0000</ele>
              </trkpt>
      <trkpt lat="46.41067028" lon="11.57821655">
        <ele>1588.0000</ele>
              </trkpt>
      <trkpt lat="46.41015529" lon="11.57830238">
        <ele>1588.0000</ele>
              </trkpt>
      <trkpt lat="46.40968322" lon="11.57847404">
        <ele>1588.0000</ele>
              </trkpt>
      <trkpt lat="46.40955448" lon="11.57843112">
        <ele>1585.0000</ele>
              </trkpt>
      <trkpt lat="46.40959739" lon="11.57821655">
        <ele>1580.0000</ele>
              </trkpt>
      <trkpt lat="46.41002655" lon="11.57795906">
        <ele>1580.0000</ele>
              </trkpt>
      <trkpt lat="46.41045570" lon="11.57697200">
        <ele>1567.0000</ele>
              </trkpt>
      <trkpt lat="46.41049861" lon="11.57564163">
        <ele>1549.0000</ele>
              </trkpt>
      <trkpt lat="46.41024112" lon="11.57495498">
        <ele>1538.0000</ele>
              </trkpt>
      <trkpt lat="46.40989780" lon="11.57431125">
        <ele>1538.0000</ele>
              </trkpt>
      <trkpt lat="46.40929698" lon="11.57353878">
        <ele>1527.0000</ele>
              </trkpt>
      <trkpt lat="46.40916824" lon="11.57328128">
        <ele>1524.0000</ele>
              </trkpt>
      <trkpt lat="46.40916824" lon="11.57289505">
        <ele>1526.0000</ele>
              </trkpt>
      <trkpt lat="46.40933990" lon="11.57250881">
        <ele>1530.0000</ele>
              </trkpt>
      <trkpt lat="46.41079902" lon="11.57053470">
        <ele>1504.0000</ele>
              </trkpt>
      <trkpt lat="46.41101360" lon="11.57014846">
        <ele>1504.0000</ele>
              </trkpt>
      <trkpt lat="46.41221523" lon="11.56877517">
        <ele>1485.0000</ele>
              </trkpt>
      <trkpt lat="46.41221523" lon="11.56868934">
        <ele>1485.0000</ele>
              </trkpt>
      <trkpt lat="46.41191482" lon="11.56843185">
        <ele>1492.0000</ele>
              </trkpt>
      <trkpt lat="46.41191482" lon="11.56830310">
        <ele>1492.0000</ele>
              </trkpt>
      <trkpt lat="46.41225814" lon="11.56667232">
        <ele>1474.0000</ele>
              </trkpt>
      <trkpt lat="46.41208648" lon="11.56654357">
        <ele>1474.0000</ele>
              </trkpt>
      <trkpt lat="46.41139984" lon="11.56662940">
        <ele>1479.0000</ele>
              </trkpt>
      <trkpt lat="46.41105651" lon="11.56697273">
        <ele>1485.0000</ele>
              </trkpt>
      <trkpt lat="46.41097068" lon="11.56697273">
        <ele>1485.0000</ele>
              </trkpt>
      <trkpt lat="46.41097068" lon="11.56680107">
        <ele>1481.0000</ele>
              </trkpt>
      <trkpt lat="46.41191482" lon="11.56585693">
        <ele>1467.0000</ele>
              </trkpt>
      <trkpt lat="46.41251564" lon="11.56542778">
        <ele>1458.0000</ele>
              </trkpt>
      <trkpt lat="46.41363143" lon="11.56405448">
        <ele>1434.0000</ele>
              </trkpt>
      <trkpt lat="46.41393184" lon="11.56383991">
        <ele>1428.0000</ele>
              </trkpt>
      <trkpt lat="46.41414642" lon="11.56392574">
        <ele>1426.0000</ele>
              </trkpt>
      <trkpt lat="46.41457557" lon="11.56456947">
        <ele>1415.0000</ele>
              </trkpt>
      <trkpt lat="46.41466140" lon="11.56486988">
        <ele>1413.0000</ele>
              </trkpt>
      <trkpt lat="46.41453266" lon="11.56542778">
        <ele>1416.0000</ele>
              </trkpt>
      <trkpt lat="46.41474723" lon="11.56615734">
        <ele>1413.0000</ele>
              </trkpt>
      <trkpt lat="46.41483306" lon="11.56714439">
        <ele>1421.0000</ele>
              </trkpt>
      <trkpt lat="46.41491889" lon="11.56731605">
        <ele>1422.0000</ele>
              </trkpt>
      <trkpt lat="46.41509056" lon="11.56727313">
        <ele>1418.0000</ele>
              </trkpt>
      <trkpt lat="46.41526222" lon="11.56692981">
        <ele>1412.0000</ele>
              </trkpt>
      <trkpt lat="46.41594886" lon="11.56650066">
        <ele>1396.0000</ele>
              </trkpt>
      <trkpt lat="46.41633510" lon="11.56611442">
        <ele>1382.0000</ele>
              </trkpt>
      <trkpt lat="46.41650676" lon="11.56615734">
        <ele>1378.0000</ele>
              </trkpt>
      <trkpt lat="46.41659259" lon="11.56628608">
        <ele>1377.0000</ele>
              </trkpt>
      <trkpt lat="46.41650676" lon="11.56697273">
        <ele>1380.0000</ele>
              </trkpt>
      <trkpt lat="46.41607761" lon="11.56894683">
        <ele>1395.0000</ele>
              </trkpt>
      <trkpt lat="46.41607761" lon="11.56916141">
        <ele>1396.0000</ele>
              </trkpt>
      <trkpt lat="46.41616344" lon="11.56937599">
        <ele>1399.0000</ele>
              </trkpt>
      <trkpt lat="46.41633510" lon="11.56946182">
        <ele>1401.0000</ele>
              </trkpt>
      <trkpt lat="46.41650676" lon="11.56946182">
        <ele>1403.0000</ele>
              </trkpt>
      <trkpt lat="46.41667842" lon="11.56920433">
        <ele>1399.0000</ele>
              </trkpt>
      <trkpt lat="46.41757965" lon="11.56684398">
        <ele>1377.0000</ele>
              </trkpt>
      <trkpt lat="46.41805171" lon="11.56607151">
        <ele>1373.0000</ele>
              </trkpt>
      <trkpt lat="46.41865253" lon="11.56529903">
        <ele>1365.0000</ele>
              </trkpt>
      <trkpt lat="46.41899585" lon="11.56465530">
        <ele>1353.0000</ele>
              </trkpt>
      <trkpt lat="46.41942501" lon="11.56422615">
        <ele>1355.0000</ele>
              </trkpt>
      <trkpt lat="46.41963958" lon="11.56341075">
        <ele>1342.0000</ele>
              </trkpt>
      <trkpt lat="46.42006874" lon="11.56250953">
        <ele>1332.0000</ele>
              </trkpt>
      <trkpt lat="46.42032623" lon="11.56169414">
        <ele>1314.0000</ele>
              </trkpt>
      <trkpt lat="46.42096996" lon="11.56057834">
        <ele>1315.0000</ele>
              </trkpt>
      <trkpt lat="46.42101287" lon="11.56036376">
        <ele>1313.0000</ele>
              </trkpt>
      <trkpt lat="46.42084121" lon="11.55967712">
        <ele>1303.0000</ele>
              </trkpt>
      <trkpt lat="46.42032623" lon="11.55830383">
        <ele>1280.0000</ele>
              </trkpt>
      <trkpt lat="46.42032623" lon="11.55813217">
        <ele>1278.0000</ele>
              </trkpt>
      <trkpt lat="46.42041206" lon="11.55791759">
        <ele>1277.0000</ele>
              </trkpt>
      <trkpt lat="46.42062664" lon="11.55787467">
        <ele>1281.0000</ele>
              </trkpt>
      <trkpt lat="46.42114162" lon="11.55851840">
        <ele>1288.0000</ele>
              </trkpt>
      <trkpt lat="46.42135620" lon="11.55856132">
        <ele>1287.0000</ele>
              </trkpt>
      <trkpt lat="46.42152786" lon="11.55843257">
        <ele>1283.0000</ele>
              </trkpt>
      <trkpt lat="46.42204284" lon="11.55658721">
        <ele>1259.0000</ele>
              </trkpt>
      <trkpt lat="46.42221450" lon="11.55615806">
        <ele>1258.0000</ele>
              </trkpt>
      <trkpt lat="46.42281532" lon="11.55560016">
        <ele>1259.0000</ele>
              </trkpt>
      <trkpt lat="46.42363071" lon="11.55495643">
        <ele>1253.0000</ele>
              </trkpt>
      <trkpt lat="46.42418861" lon="11.55371189">
        <ele>1237.0000</ele>
              </trkpt>
      <trkpt lat="46.42466068" lon="11.55238151">
        <ele>1224.0000</ele>
              </trkpt>
      <trkpt lat="46.42508983" lon="11.55165195">
        <ele>1222.0000</ele>
              </trkpt>
      <trkpt lat="46.42547607" lon="11.55062198">
        <ele>1218.0000</ele>
              </trkpt>
      <trkpt lat="46.42611980" lon="11.54950618">
        <ele>1213.0000</ele>
              </trkpt>
      <trkpt lat="46.42667770" lon="11.54821872">
        <ele>1197.0000</ele>
              </trkpt>
      <trkpt lat="46.42745018" lon="11.54688835">
        <ele>1190.0000</ele>
              </trkpt>
      <trkpt lat="46.42860889" lon="11.54431343">
        <ele>1175.0000</ele>
              </trkpt>
      <trkpt lat="46.42951011" lon="11.54259681">
        <ele>1159.0000</ele>
              </trkpt>
      <trkpt lat="46.42963886" lon="11.54255390">
        <ele>1158.0000</ele>
              </trkpt>
      <trkpt lat="46.42976760" lon="11.54263973">
        <ele>1159.0000</ele>
              </trkpt>
      <trkpt lat="46.43075466" lon="11.54362678">
        <ele>1168.0000</ele>
              </trkpt>
      <trkpt lat="46.43092632" lon="11.54358386">
        <ele>1167.0000</ele>
              </trkpt>
      <trkpt lat="46.43105506" lon="11.54345512">
        <ele>1167.0000</ele>
              </trkpt>
      <trkpt lat="46.43109798" lon="11.54319763">
        <ele>1165.0000</ele>
              </trkpt>
      <trkpt lat="46.43105506" lon="11.54272556">
        <ele>1161.0000</ele>
              </trkpt>
      <trkpt lat="46.43079757" lon="11.54199600">
        <ele>1157.0000</ele>
              </trkpt>
      <trkpt lat="46.42959594" lon="11.54126644">
        <ele>1141.0000</ele>
              </trkpt>
      <trkpt lat="46.42946720" lon="11.54109477">
        <ele>1136.0000</ele>
              </trkpt>
      <trkpt lat="46.42920970" lon="11.54036521">
        <ele>1129.0000</ele>
              </trkpt>
      <trkpt lat="46.42757892" lon="11.53851985">
        <ele>1113.0000</ele>
              </trkpt>
      <trkpt lat="46.42740726" lon="11.53813362">
        <ele>1112.0000</ele>
              </trkpt>
      <trkpt lat="46.42745018" lon="11.53731822">
        <ele>1104.0000</ele>
              </trkpt>
      <trkpt lat="46.42766475" lon="11.53620243">
        <ele>1099.0000</ele>
              </trkpt>
      <trkpt lat="46.42770767" lon="11.53547286">
        <ele>1097.0000</ele>
              </trkpt>
      <trkpt lat="46.42800807" lon="11.53461456">
        <ele>1099.0000</ele>
              </trkpt>
      <trkpt lat="46.42852306" lon="11.53397083">
        <ele>1113.0000</ele>
              </trkpt>
      <trkpt lat="46.42848014" lon="11.53332710">
        <ele>1111.0000</ele>
              </trkpt>
      <trkpt lat="46.42852306" lon="11.53285503">
        <ele>1115.0000</ele>
              </trkpt>
      <trkpt lat="46.42839431" lon="11.53203964">
        <ele>1111.0000</ele>
              </trkpt>
      <trkpt lat="46.42835140" lon="11.53083801">
        <ele>1112.0000</ele>
              </trkpt>
      <trkpt lat="46.42848014" lon="11.52967929">
        <ele>1120.0000</ele>
              </trkpt>
      <trkpt lat="46.42865180" lon="11.52894973">
        <ele>1124.0000</ele>
              </trkpt>
      <trkpt lat="46.42908096" lon="11.52800559">
        <ele>1134.0000</ele>
              </trkpt>
      <trkpt lat="46.42929553" lon="11.52779102">
        <ele>1142.0000</ele>
              </trkpt>
      <trkpt lat="46.42951011" lon="11.52723312">
        <ele>1148.0000</ele>
              </trkpt>
      <trkpt lat="46.42981052" lon="11.52611732">
        <ele>1150.0000</ele>
              </trkpt>
      <trkpt lat="46.42989635" lon="11.52525901">
        <ele>1146.0000</ele>
              </trkpt>
      <trkpt lat="46.43019676" lon="11.52470111">
        <ele>1154.0000</ele>
              </trkpt>
      <trkpt lat="46.43036842" lon="11.52388572">
        <ele>1158.0000</ele>
              </trkpt>
      <trkpt lat="46.43062591" lon="11.52118206">
        <ele>1177.0000</ele>
              </trkpt>
      <trkpt lat="46.43084049" lon="11.52036666">
        <ele>1181.0000</ele>
              </trkpt>
      <trkpt lat="46.43088340" lon="11.51946544">
        <ele>1173.0000</ele>
              </trkpt>
      <trkpt lat="46.43096923" lon="11.51925086">
        <ele>1171.0000</ele>
              </trkpt>
      <trkpt lat="46.43139839" lon="11.51916503">
        <ele>1177.0000</ele>
              </trkpt>
      <trkpt lat="46.43148422" lon="11.51907920">
        <ele>1178.0000</ele>
              </trkpt>
      <trkpt lat="46.43152713" lon="11.51886463">
        <ele>1178.0000</ele>
              </trkpt>
      <trkpt lat="46.43088340" lon="11.51749134">
        <ele>1171.0000</ele>
              </trkpt>
      <trkpt lat="46.43036842" lon="11.51689052">
        <ele>1167.0000</ele>
              </trkpt>
      <trkpt lat="46.42993927" lon="11.51594638">
        <ele>1165.0000</ele>
              </trkpt>
      <trkpt lat="46.42985343" lon="11.51547431">
        <ele>1159.0000</ele>
              </trkpt>
      <trkpt lat="46.42976760" lon="11.51388645">
        <ele>1151.0000</ele>
              </trkpt>
      <trkpt lat="46.42981052" lon="11.51350021">
        <ele>1153.0000</ele>
              </trkpt>
      <trkpt lat="46.43006801" lon="11.51294231">
        <ele>1162.0000</ele>
              </trkpt>
      <trkpt lat="46.43006801" lon="11.51277065">
        <ele>1161.0000</ele>
              </trkpt>
      <trkpt lat="46.42959594" lon="11.51225566">
        <ele>1142.0000</ele>
              </trkpt>
      <trkpt lat="46.42951011" lon="11.51208400">
        <ele>1139.0000</ele>
              </trkpt>
      <trkpt lat="46.42946720" lon="11.51161193">
        <ele>1139.0000</ele>
              </trkpt>
      <trkpt lat="46.42920970" lon="11.51109695">
        <ele>1128.0000</ele>
              </trkpt>
      <trkpt lat="46.42908096" lon="11.51045322">
        <ele>1122.0000</ele>
              </trkpt>
      <trkpt lat="46.42895221" lon="11.50873661">
        <ele>1112.0000</ele>
              </trkpt>
      <trkpt lat="46.42908096" lon="11.50320053">
        <ele>1081.0000</ele>
              </trkpt>
      <trkpt lat="46.42890930" lon="11.50229930">
        <ele>1079.0000</ele>
              </trkpt>
      <trkpt lat="46.42899513" lon="11.50015354">
        <ele>1080.0000</ele>
              </trkpt>
      <trkpt lat="46.42916679" lon="11.49976730">
        <ele>1084.0000</ele>
              </trkpt>
      <trkpt lat="46.42912387" lon="11.49916648">
        <ele>1079.0000</ele>
              </trkpt>
      <trkpt lat="46.42933845" lon="11.49727821">
        <ele>1079.0000</ele>
              </trkpt>
      <trkpt lat="46.42951011" lon="11.49641990">
        <ele>1081.0000</ele>
              </trkpt>
      <trkpt lat="46.42925262" lon="11.49556159">
        <ele>1071.0000</ele>
              </trkpt>
      <trkpt lat="46.42920970" lon="11.49517536">
        <ele>1074.0000</ele>
              </trkpt>
      <trkpt lat="46.42938137" lon="11.49435997">
        <ele>1083.0000</ele>
              </trkpt>
      <trkpt lat="46.42920970" lon="11.49358749">
        <ele>1078.0000</ele>
              </trkpt>
      <trkpt lat="46.42916679" lon="11.49174213">
        <ele>1091.0000</ele>
              </trkpt>
      <trkpt lat="46.42925262" lon="11.49144172">
        <ele>1096.0000</ele>
              </trkpt>
      <trkpt lat="46.42968177" lon="11.49118423">
        <ele>1120.0000</ele>
              </trkpt>
      <trkpt lat="46.42972469" lon="11.49075508">
        <ele>1120.0000</ele>
              </trkpt>
      <trkpt lat="46.42963886" lon="11.48998260">
        <ele>1116.0000</ele>
              </trkpt>
      <trkpt lat="46.42968177" lon="11.48981094">
        <ele>1118.0000</ele>
              </trkpt>
      <trkpt lat="46.42993927" lon="11.48938179">
        <ele>1128.0000</ele>
              </trkpt>
      <trkpt lat="46.43015384" lon="11.48852348">
        <ele>1134.0000</ele>
              </trkpt>
      <trkpt lat="46.43032550" lon="11.48633480">
        <ele>1146.0000</ele>
              </trkpt>
      <trkpt lat="46.43041133" lon="11.48594856">
        <ele>1150.0000</ele>
              </trkpt>
      <trkpt lat="46.43105506" lon="11.48410320">
        <ele>1163.0000</ele>
              </trkpt>
      <trkpt lat="46.43131256" lon="11.48380279">
        <ele>1162.0000</ele>
              </trkpt>
      <trkpt lat="46.43144130" lon="11.48380279">
        <ele>1166.0000</ele>
              </trkpt>
      <trkpt lat="46.43191337" lon="11.48401737">
        <ele>1188.0000</ele>
              </trkpt>
      <trkpt lat="46.43229961" lon="11.48384571">
        <ele>1187.0000</ele>
              </trkpt>
      <trkpt lat="46.43290042" lon="11.48401737">
        <ele>1202.0000</ele>
              </trkpt>
      <trkpt lat="46.43345832" lon="11.48401737">
        <ele>1202.0000</ele>
              </trkpt>
      <trkpt lat="46.43405914" lon="11.48436069">
        <ele>1212.0000</ele>
              </trkpt>
      <trkpt lat="46.43423080" lon="11.48436069">
        <ele>1212.0000</ele>
              </trkpt>
      <trkpt lat="46.43440246" lon="11.48418903">
        <ele>1211.0000</ele>
              </trkpt>
      <trkpt lat="46.43440246" lon="11.48375988">
        <ele>1196.0000</ele>
              </trkpt>
      <trkpt lat="46.43457412" lon="11.48324489">
        <ele>1186.0000</ele>
              </trkpt>
      <trkpt lat="46.43504619" lon="11.48290157">
        <ele>1194.0000</ele>
              </trkpt>
      <trkpt lat="46.43599033" lon="11.48281574">
        <ele>1215.0000</ele>
              </trkpt>
      <trkpt lat="46.43659114" lon="11.48217201">
        <ele>1206.0000</ele>
              </trkpt>
      <trkpt lat="46.43689155" lon="11.48208618">
        <ele>1212.0000</ele>
              </trkpt>
      <trkpt lat="46.43706321" lon="11.48195743">
        <ele>1211.0000</ele>
              </trkpt>
      <trkpt lat="46.43714904" lon="11.48174285">
        <ele>1203.0000</ele>
              </trkpt>
      <trkpt lat="46.43809318" lon="11.48062705">
        <ele>1198.0000</ele>
              </trkpt>
      <trkpt lat="46.43839359" lon="11.48015499">
        <ele>1192.0000</ele>
              </trkpt>
      <trkpt lat="46.43886566" lon="11.47964000">
        <ele>1189.0000</ele>
              </trkpt>
      <trkpt lat="46.43929481" lon="11.47951126">
        <ele>1191.0000</ele>
              </trkpt>
      <trkpt lat="46.43946647" lon="11.47955417">
        <ele>1189.0000</ele>
              </trkpt>
      <trkpt lat="46.43963813" lon="11.47981166">
        <ele>1192.0000</ele>
              </trkpt>
      <trkpt lat="46.43963813" lon="11.48045539">
        <ele>1213.0000</ele>
              </trkpt>
      <trkpt lat="46.43980979" lon="11.48058414">
        <ele>1215.0000</ele>
              </trkpt>
      <trkpt lat="46.44028186" lon="11.48024082">
        <ele>1200.0000</ele>
              </trkpt>
      <trkpt lat="46.44053936" lon="11.47989749">
        <ele>1190.0000</ele>
              </trkpt>
      <trkpt lat="46.44071102" lon="11.47985458">
        <ele>1189.0000</ele>
              </trkpt>
      <trkpt lat="46.44088268" lon="11.47989749">
        <ele>1190.0000</ele>
              </trkpt>
      <trkpt lat="46.44131183" lon="11.48028373">
        <ele>1194.0000</ele>
              </trkpt>
      <trkpt lat="46.44191265" lon="11.48088455">
        <ele>1193.0000</ele>
              </trkpt>
      <trkpt lat="46.44204139" lon="11.48217201">
        <ele>1219.0000</ele>
              </trkpt>
      <trkpt lat="46.44212722" lon="11.48217201">
        <ele>1218.0000</ele>
              </trkpt>
      <trkpt lat="46.44242763" lon="11.48187160">
        <ele>1202.0000</ele>
              </trkpt>
      <trkpt lat="46.44289970" lon="11.48191452">
        <ele>1201.0000</ele>
              </trkpt>
      <trkpt lat="46.44457340" lon="11.48298740">
        <ele>1216.0000</ele>
              </trkpt>
      <trkpt lat="46.44491672" lon="11.48311614">
        <ele>1210.0000</ele>
              </trkpt>
      <trkpt lat="46.44547462" lon="11.48375988">
        <ele>1219.0000</ele>
              </trkpt>
      <trkpt lat="46.44573211" lon="11.48427486">
        <ele>1220.0000</ele>
              </trkpt>
      <trkpt lat="46.44586086" lon="11.48436069">
        <ele>1219.0000</ele>
              </trkpt>
      <trkpt lat="46.44607543" lon="11.48423194">
        <ele>1222.0000</ele>
              </trkpt>
      <trkpt lat="46.44616127" lon="11.48406028">
        <ele>1223.0000</ele>
              </trkpt>
      <trkpt lat="46.44616127" lon="11.48358821">
        <ele>1222.0000</ele>
              </trkpt>
      <trkpt lat="46.44607543" lon="11.48320198">
        <ele>1220.0000</ele>
              </trkpt>
      <trkpt lat="46.44543170" lon="11.48148536">
        <ele>1224.0000</ele>
              </trkpt>
      <trkpt lat="46.44534587" lon="11.48101329">
        <ele>1231.0000</ele>
              </trkpt>
      <trkpt lat="46.44530296" lon="11.48028373">
        <ele>1239.0000</ele>
              </trkpt>
      <trkpt lat="46.44534587" lon="11.47968292">
        <ele>1242.0000</ele>
              </trkpt>
      <trkpt lat="46.44564628" lon="11.47869586">
        <ele>1246.0000</ele>
              </trkpt>
      <trkpt lat="46.44586086" lon="11.47843837">
        <ele>1249.0000</ele>
              </trkpt>
      <trkpt lat="46.44650459" lon="11.47809505">
        <ele>1256.0000</ele>
              </trkpt>
      <trkpt lat="46.44693374" lon="11.47775173">
        <ele>1260.0000</ele>
              </trkpt>
      <trkpt lat="46.44749164" lon="11.47749423">
        <ele>1275.0000</ele>
              </trkpt>
      <trkpt lat="46.44809246" lon="11.47762298">
        <ele>1283.0000</ele>
              </trkpt>
      <trkpt lat="46.44843578" lon="11.47745132">
        <ele>1283.0000</ele>
              </trkpt>
      <trkpt lat="46.44852161" lon="11.47732257">
        <ele>1283.0000</ele>
              </trkpt>
      <trkpt lat="46.44852161" lon="11.47685050">
        <ele>1281.0000</ele>
              </trkpt>
      <trkpt lat="46.44839286" lon="11.47659301">
        <ele>1279.0000</ele>
              </trkpt>
      <trkpt lat="46.44817829" lon="11.47487640">
        <ele>1275.0000</ele>
              </trkpt>
      <trkpt lat="46.44817829" lon="11.47444725">
        <ele>1272.0000</ele>
              </trkpt>
      <trkpt lat="46.44852161" lon="11.47333145">
        <ele>1277.0000</ele>
              </trkpt>
      <trkpt lat="46.44860744" lon="11.47221565">
        <ele>1269.0000</ele>
              </trkpt>
      <trkpt lat="46.44916534" lon="11.46891117">
        <ele>1264.0000</ele>
              </trkpt>
      <trkpt lat="46.44946575" lon="11.46839618">
        <ele>1259.0000</ele>
              </trkpt>
      <trkpt lat="46.44989490" lon="11.46818161">
        <ele>1259.0000</ele>
              </trkpt>
      <trkpt lat="46.45083904" lon="11.46749496">
        <ele>1257.0000</ele>
              </trkpt>
      <trkpt lat="46.45165443" lon="11.46603584">
        <ele>1255.0000</ele>
              </trkpt>
      <trkpt lat="46.45229816" lon="11.46530628">
        <ele>1250.0000</ele>
              </trkpt>
      <trkpt lat="46.45255565" lon="11.46483421">
        <ele>1248.0000</ele>
              </trkpt>
      <trkpt lat="46.45268440" lon="11.46470546">
        <ele>1253.0000</ele>
              </trkpt>
      <trkpt lat="46.45251274" lon="11.46406173">
        <ele>1245.0000</ele>
              </trkpt>
      <trkpt lat="46.45199775" lon="11.46346092">
        <ele>1248.0000</ele>
              </trkpt>
      <trkpt lat="46.45169734" lon="11.46328926">
        <ele>1242.0000</ele>
              </trkpt>
      <trkpt lat="46.45156860" lon="11.46311759">
        <ele>1242.0000</ele>
              </trkpt>
      <trkpt lat="46.45131111" lon="11.46230220">
        <ele>1239.0000</ele>
              </trkpt>
      <trkpt lat="46.45131111" lon="11.46140098">
        <ele>1229.0000</ele>
              </trkpt>
      <trkpt lat="46.45143985" lon="11.46097183">
        <ele>1231.0000</ele>
              </trkpt>
      <trkpt lat="46.45186901" lon="11.46002769">
        <ele>1233.0000</ele>
              </trkpt>
      <trkpt lat="46.45238399" lon="11.45925521">
        <ele>1235.0000</ele>
              </trkpt>
      <trkpt lat="46.45242691" lon="11.45848274">
        <ele>1224.0000</ele>
              </trkpt>
      <trkpt lat="46.45259857" lon="11.45809650">
        <ele>1219.0000</ele>
              </trkpt>
      <trkpt lat="46.45285606" lon="11.45779609">
        <ele>1214.0000</ele>
              </trkpt>
      <trkpt lat="46.45380020" lon="11.45749568">
        <ele>1219.0000</ele>
              </trkpt>
      <trkpt lat="46.45461559" lon="11.45702362">
        <ele>1214.0000</ele>
              </trkpt>
      <trkpt lat="46.45487308" lon="11.45637989">
        <ele>1206.0000</ele>
              </trkpt>
      <trkpt lat="46.45500183" lon="11.45556449">
        <ele>1198.0000</ele>
              </trkpt>
      <trkpt lat="46.45543098" lon="11.45462036">
        <ele>1198.0000</ele>
              </trkpt>
      <trkpt lat="46.45555973" lon="11.45290374">
        <ele>1181.0000</ele>
              </trkpt>
      <trkpt lat="46.45603179" lon="11.45221710">
        <ele>1175.0000</ele>
              </trkpt>
      <trkpt lat="46.45650386" lon="11.45174503">
        <ele>1176.0000</ele>
              </trkpt>
      <trkpt lat="46.45671844" lon="11.45114421">
        <ele>1165.0000</ele>
              </trkpt>
      <trkpt lat="46.45719051" lon="11.45020008">
        <ele>1162.0000</ele>
              </trkpt>
      <trkpt lat="46.45826339" lon="11.44912719">
        <ele>1176.0000</ele>
              </trkpt>
      <trkpt lat="46.45856380" lon="11.44796848">
        <ele>1165.0000</ele>
              </trkpt>
      <trkpt lat="46.45886421" lon="11.44758224">
        <ele>1168.0000</ele>
              </trkpt>
      <trkpt lat="46.45907878" lon="11.44741058">
        <ele>1172.0000</ele>
              </trkpt>
      <trkpt lat="46.45972251" lon="11.44715309">
        <ele>1183.0000</ele>
              </trkpt>
      <trkpt lat="46.46045207" lon="11.44633769">
        <ele>1187.0000</ele>
              </trkpt>
      <trkpt lat="46.46075248" lon="11.44535064">
        <ele>1194.0000</ele>
              </trkpt>
      <trkpt lat="46.46075248" lon="11.44462108">
        <ele>1193.0000</ele>
              </trkpt>
      <trkpt lat="46.46083831" lon="11.44427776">
        <ele>1195.0000</ele>
              </trkpt>
      <trkpt lat="46.46092414" lon="11.44406318">
        <ele>1193.0000</ele>
              </trkpt>
      <trkpt lat="46.46118164" lon="11.44384860">
        <ele>1192.0000</ele>
              </trkpt>
      <trkpt lat="46.46165370" lon="11.44397735">
        <ele>1203.0000</ele>
              </trkpt>
      <trkpt lat="46.46191120" lon="11.44389152">
        <ele>1204.0000</ele>
              </trkpt>
      <trkpt lat="46.46221160" lon="11.44414901">
        <ele>1215.0000</ele>
              </trkpt>
      <trkpt lat="46.46251201" lon="11.44414901">
        <ele>1220.0000</ele>
              </trkpt>
      <trkpt lat="46.46285533" lon="11.44363403">
        <ele>1216.0000</ele>
              </trkpt>
      <trkpt lat="46.46302700" lon="11.44350528">
        <ele>1218.0000</ele>
              </trkpt>
      <trkpt lat="46.46362781" lon="11.44346237">
        <ele>1229.0000</ele>
              </trkpt>
      <trkpt lat="46.46367073" lon="11.44363403">
        <ele>1233.0000</ele>
              </trkpt>
      <trkpt lat="46.46345615" lon="11.44363403">
        <ele>1232.0000</ele>
              </trkpt>
      <trkpt lat="46.46311283" lon="11.44384860">
        <ele>1230.0000</ele>
              </trkpt>
      <trkpt lat="46.46298408" lon="11.44474983">
        <ele>1242.0000</ele>
              </trkpt>
      <trkpt lat="46.46276950" lon="11.44517898">
        <ele>1242.0000</ele>
              </trkpt>
      <trkpt lat="46.46276950" lon="11.44535064">
        <ele>1244.0000</ele>
              </trkpt>
      <trkpt lat="46.46306991" lon="11.44663810">
        <ele>1260.0000</ele>
              </trkpt>
      <trkpt lat="46.46306991" lon="11.44719600">
        <ele>1265.0000</ele>
              </trkpt>
      <trkpt lat="46.46315574" lon="11.44749641">
        <ele>1269.0000</ele>
              </trkpt>
      <trkpt lat="46.46367073" lon="11.44852638">
        <ele>1281.0000</ele>
              </trkpt>
      <trkpt lat="46.46379947" lon="11.44861221">
        <ele>1281.0000</ele>
              </trkpt>
      <trkpt lat="46.46422863" lon="11.44805431">
        <ele>1276.0000</ele>
              </trkpt>
      <trkpt lat="46.46435737" lon="11.44796848">
        <ele>1275.0000</ele>
              </trkpt>
      <trkpt lat="46.46482944" lon="11.44826889">
        <ele>1275.0000</ele>
              </trkpt>
      <trkpt lat="46.46555900" lon="11.44818305">
        <ele>1273.0000</ele>
              </trkpt>
      <trkpt lat="46.46590232" lon="11.44792556">
        <ele>1272.0000</ele>
              </trkpt>
      <trkpt lat="46.46603107" lon="11.44792556">
        <ele>1272.0000</ele>
              </trkpt>
      <trkpt lat="46.46641731" lon="11.44814014">
        <ele>1270.0000</ele>
              </trkpt>
      <trkpt lat="46.46658897" lon="11.44805431">
        <ele>1270.0000</ele>
              </trkpt>
      <trkpt lat="46.46676063" lon="11.44783973">
        <ele>1271.0000</ele>
              </trkpt>
      <trkpt lat="46.46710395" lon="11.44693851">
        <ele>1276.0000</ele>
              </trkpt>
      <trkpt lat="46.46723270" lon="11.44573688">
        <ele>1279.0000</ele>
              </trkpt>
      <trkpt lat="46.46710395" lon="11.44376277">
        <ele>1277.0000</ele>
              </trkpt>
      <trkpt lat="46.46706104" lon="11.44359111">
        <ele>1277.0000</ele>
              </trkpt>
      <trkpt lat="46.46688938" lon="11.44341945">
        <ele>1277.0000</ele>
              </trkpt>
      <trkpt lat="46.46620273" lon="11.44294738">
        <ele>1275.0000</ele>
              </trkpt>
      <trkpt lat="46.46594524" lon="11.44264698">
        <ele>1273.0000</ele>
              </trkpt>
      <trkpt lat="46.46560192" lon="11.44062995">
        <ele>1264.0000</ele>
              </trkpt>
      <trkpt lat="46.46568775" lon="11.43990039">
        <ele>1262.0000</ele>
              </trkpt>
      <trkpt lat="46.46560192" lon="11.43844127">
        <ele>1246.0000</ele>
              </trkpt>
      <trkpt lat="46.46585941" lon="11.43706798">
        <ele>1248.0000</ele>
              </trkpt>
      <trkpt lat="46.46577358" lon="11.43655300">
        <ele>1242.0000</ele>
              </trkpt>
      <trkpt lat="46.46581649" lon="11.43552303">
        <ele>1243.0000</ele>
              </trkpt>
      <trkpt lat="46.46594524" lon="11.43475055">
        <ele>1245.0000</ele>
              </trkpt>
      <trkpt lat="46.46615982" lon="11.43432140">
        <ele>1252.0000</ele>
              </trkpt>
      <trkpt lat="46.46620273" lon="11.43406391">
        <ele>1252.0000</ele>
              </trkpt>
      <trkpt lat="46.46615982" lon="11.43316268">
        <ele>1245.0000</ele>
              </trkpt>
      <trkpt lat="46.46624565" lon="11.43221855">
        <ele>1241.0000</ele>
              </trkpt>
      <trkpt lat="46.46633148" lon="11.43187522">
        <ele>1241.0000</ele>
              </trkpt>
      <trkpt lat="46.46701812" lon="11.43058776">
        <ele>1256.0000</ele>
              </trkpt>
      <trkpt lat="46.46718978" lon="11.42839908">
        <ele>1239.0000</ele>
              </trkpt>
      <trkpt lat="46.46791934" lon="11.42702579">
        <ele>1247.0000</ele>
              </trkpt>
      <trkpt lat="46.46821975" lon="11.42681121">
        <ele>1254.0000</ele>
              </trkpt>
      <trkpt lat="46.46980762" lon="11.42638206">
        <ele>1253.0000</ele>
              </trkpt>
      <trkpt lat="46.47032260" lon="11.42586708">
        <ele>1237.0000</ele>
              </trkpt>
      <trkpt lat="46.47088050" lon="11.42573833">
        <ele>1238.0000</ele>
              </trkpt>
      <trkpt lat="46.47096633" lon="11.42539501">
        <ele>1227.0000</ele>
              </trkpt>
      <trkpt lat="46.47178173" lon="11.42475128">
        <ele>1223.0000</ele>
              </trkpt>
      <trkpt lat="46.47212505" lon="11.42393589">
        <ele>1207.0000</ele>
              </trkpt>
      <trkpt lat="46.47259712" lon="11.42367839">
        <ele>1210.0000</ele>
              </trkpt>
      <trkpt lat="46.47268295" lon="11.42350673">
        <ele>1206.0000</ele>
              </trkpt>
      <trkpt lat="46.47246837" lon="11.42354965">
        <ele>1205.0000</ele>
              </trkpt>
      <trkpt lat="46.47208213" lon="11.42342090">
        <ele>1196.0000</ele>
              </trkpt>
      <trkpt lat="46.47173881" lon="11.42312049">
        <ele>1189.0000</ele>
              </trkpt>
      <trkpt lat="46.47130966" lon="11.42312049">
        <ele>1184.0000</ele>
              </trkpt>
      <trkpt lat="46.47113800" lon="11.42303466">
        <ele>1180.0000</ele>
              </trkpt>
      <trkpt lat="46.47109508" lon="11.42290592">
        <ele>1178.0000</ele>
              </trkpt>
      <trkpt lat="46.47152423" lon="11.42243385">
        <ele>1179.0000</ele>
              </trkpt>
      <trkpt lat="46.47191047" lon="11.42153263">
        <ele>1176.0000</ele>
              </trkpt>
      <trkpt lat="46.47182464" lon="11.42148971">
        <ele>1175.0000</ele>
              </trkpt>
      <trkpt lat="46.47143840" lon="11.42174720">
        <ele>1170.0000</ele>
              </trkpt>
      <trkpt lat="46.47109508" lon="11.42187595">
        <ele>1164.0000</ele>
              </trkpt>
      <trkpt lat="46.47053718" lon="11.42196178">
        <ele>1152.0000</ele>
              </trkpt>
      <trkpt lat="46.47027969" lon="11.42209053">
        <ele>1148.0000</ele>
              </trkpt>
      <trkpt lat="46.47023677" lon="11.42200469">
        <ele>1145.0000</ele>
              </trkpt>
      <trkpt lat="46.47045135" lon="11.42157554">
        <ele>1142.0000</ele>
              </trkpt>
      <trkpt lat="46.47066593" lon="11.42131805">
        <ele>1143.0000</ele>
              </trkpt>
      <trkpt lat="46.47126674" lon="11.42033100">
        <ele>1137.0000</ele>
              </trkpt>
      <trkpt lat="46.47182464" lon="11.41964435">
        <ele>1132.0000</ele>
              </trkpt>
      <trkpt lat="46.47233963" lon="11.41917228">
        <ele>1131.0000</ele>
              </trkpt>
      <trkpt lat="46.47272586" lon="11.41904354">
        <ele>1131.0000</ele>
              </trkpt>
      <trkpt lat="46.47302627" lon="11.41904354">
        <ele>1132.0000</ele>
              </trkpt>
      <trkpt lat="46.47367000" lon="11.41917228">
        <ele>1131.0000</ele>
              </trkpt>
      <trkpt lat="46.47397041" lon="11.41908645">
        <ele>1122.0000</ele>
              </trkpt>
      <trkpt lat="46.47435665" lon="11.41921520">
        <ele>1118.0000</ele>
              </trkpt>
      <trkpt lat="46.47465705" lon="11.41951560">
        <ele>1119.0000</ele>
              </trkpt>
      <trkpt lat="46.47508621" lon="11.41973018">
        <ele>1115.0000</ele>
              </trkpt>
      <trkpt lat="46.47577285" lon="11.42067432">
        <ele>1119.0000</ele>
              </trkpt>
      <trkpt lat="46.47594451" lon="11.42071723">
        <ele>1116.0000</ele>
              </trkpt>
      <trkpt lat="46.47697448" lon="11.42067432">
        <ele>1096.0000</ele>
              </trkpt>
      <trkpt lat="46.47718906" lon="11.42076015">
        <ele>1095.0000</ele>
              </trkpt>
      <trkpt lat="46.47766113" lon="11.42076015">
        <ele>1086.0000</ele>
              </trkpt>
      <trkpt lat="46.47830486" lon="11.42110347">
        <ele>1079.0000</ele>
              </trkpt>
      <trkpt lat="46.47860527" lon="11.42118930">
        <ele>1073.0000</ele>
              </trkpt>
      <trkpt lat="46.47894859" lon="11.42148971">
        <ele>1071.0000</ele>
              </trkpt>
      <trkpt lat="46.47899150" lon="11.42136096">
        <ele>1066.0000</ele>
              </trkpt>
      <trkpt lat="46.47890567" lon="11.42084598">
        <ele>1056.0000</ele>
              </trkpt>
      <trkpt lat="46.47881984" lon="11.42071723">
        <ele>1054.0000</ele>
              </trkpt>
      <trkpt lat="46.47809028" lon="11.42015933">
        <ele>1054.0000</ele>
              </trkpt>
      <trkpt lat="46.47778987" lon="11.41973018">
        <ele>1048.0000</ele>
              </trkpt>
      <trkpt lat="46.47753238" lon="11.41947269">
        <ele>1048.0000</ele>
              </trkpt>
      <trkpt lat="46.47753238" lon="11.41934394">
        <ele>1045.0000</ele>
              </trkpt>
      <trkpt lat="46.47761821" lon="11.41930103">
        <ele>1042.0000</ele>
              </trkpt>
      <trkpt lat="46.47830486" lon="11.41977310">
        <ele>1039.0000</ele>
              </trkpt>
      <trkpt lat="46.47881984" lon="11.41981601">
        <ele>1029.0000</ele>
              </trkpt>
      <trkpt lat="46.47950649" lon="11.42003059">
        <ele>1023.0000</ele>
              </trkpt>
      <trkpt lat="46.47967815" lon="11.41994476">
        <ele>1018.0000</ele>
              </trkpt>
      <trkpt lat="46.48027896" lon="11.42007350">
        <ele>1008.0000</ele>
              </trkpt>
      <trkpt lat="46.48036479" lon="11.42003059">
        <ele>1005.0000</ele>
              </trkpt>
      <trkpt lat="46.48040771" lon="11.41990184">
        <ele>1000.0000</ele>
              </trkpt>
      <trkpt lat="46.48032188" lon="11.41981601">
        <ele>1000.0000</ele>
              </trkpt>
      <trkpt lat="46.47997856" lon="11.41968727">
        <ele>1005.0000</ele>
              </trkpt>
      <trkpt lat="46.47963523" lon="11.41938686">
        <ele>1000.0000</ele>
              </trkpt>
      <trkpt lat="46.47924900" lon="11.41930103">
        <ele>1003.0000</ele>
              </trkpt>
      <trkpt lat="46.47912025" lon="11.41921520">
        <ele>1003.0000</ele>
              </trkpt>
      <trkpt lat="46.47903442" lon="11.41904354">
        <ele>1001.0000</ele>
              </trkpt>
      <trkpt lat="46.47877693" lon="11.41784191">
        <ele>982.00000</ele>
              </trkpt>
      <trkpt lat="46.47839069" lon="11.41698360">
        <ele>971.00000</ele>
              </trkpt>
      <trkpt lat="46.47778987" lon="11.41633987">
        <ele>965.00000</ele>
              </trkpt>
      <trkpt lat="46.47748947" lon="11.41612529">
        <ele>964.00000</ele>
              </trkpt>
      <trkpt lat="46.47706031" lon="11.41595363">
        <ele>964.00000</ele>
              </trkpt>
      <trkpt lat="46.47701740" lon="11.41586780">
        <ele>961.00000</ele>
              </trkpt>
      <trkpt lat="46.47706031" lon="11.41578197">
        <ele>956.00000</ele>
              </trkpt>
      <trkpt lat="46.47736072" lon="11.41582489">
        <ele>955.00000</ele>
              </trkpt>
      <trkpt lat="46.47791862" lon="11.41569614">
        <ele>938.00000</ele>
              </trkpt>
      <trkpt lat="46.47869110" lon="11.41578197">
        <ele>932.00000</ele>
              </trkpt>
      <trkpt lat="46.47873401" lon="11.41573905">
        <ele>930.00000</ele>
              </trkpt>
      <trkpt lat="46.47869110" lon="11.41561031">
        <ele>927.00000</ele>
              </trkpt>
      <trkpt lat="46.47766113" lon="11.41518115">
        <ele>916.00000</ele>
              </trkpt>
      <trkpt lat="46.47551536" lon="11.41440868">
        <ele>896.00000</ele>
              </trkpt>
      <trkpt lat="46.47495746" lon="11.41397953">
        <ele>882.00000</ele>
              </trkpt>
      <trkpt lat="46.47444248" lon="11.41372203">
        <ele>870.00000</ele>
              </trkpt>
      <trkpt lat="46.47427082" lon="11.41350746">
        <ele>862.00000</ele>
              </trkpt>
      <trkpt lat="46.47392749" lon="11.41380786">
        <ele>866.00000</ele>
              </trkpt>
      <trkpt lat="46.47379875" lon="11.41380786">
        <ele>862.00000</ele>
              </trkpt>
      <trkpt lat="46.47427082" lon="11.41324996">
        <ele>852.00000</ele>
              </trkpt>
      <trkpt lat="46.47444248" lon="11.41329288">
        <ele>853.00000</ele>
              </trkpt>
      <trkpt lat="46.47478580" lon="11.41320705">
        <ele>850.00000</ele>
              </trkpt>
      <trkpt lat="46.47542953" lon="11.41350746">
        <ele>856.00000</ele>
              </trkpt>
      <trkpt lat="46.47650241" lon="11.41359329">
        <ele>849.00000</ele>
              </trkpt>
      <trkpt lat="46.47757530" lon="11.41324996">
        <ele>838.00000</ele>
              </trkpt>
      <trkpt lat="46.47873401" lon="11.41252040">
        <ele>819.00000</ele>
              </trkpt>
      <trkpt lat="46.47954940" lon="11.41234874">
        <ele>813.00000</ele>
              </trkpt>
      <trkpt lat="46.48019313" lon="11.41230583">
        <ele>807.00000</ele>
              </trkpt>
      <trkpt lat="46.48135185" lon="11.41179084">
        <ele>779.00000</ele>
              </trkpt>
      <trkpt lat="46.48160934" lon="11.41191959">
        <ele>780.00000</ele>
              </trkpt>
      <trkpt lat="46.48160934" lon="11.41217708">
        <ele>789.00000</ele>
              </trkpt>
      <trkpt lat="46.48169517" lon="11.41252040">
        <ele>798.00000</ele>
              </trkpt>
      <trkpt lat="46.48195266" lon="11.41286373">
        <ele>798.00000</ele>
              </trkpt>
      <trkpt lat="46.48212432" lon="11.41299247">
        <ele>797.00000</ele>
              </trkpt>
      <trkpt lat="46.48461341" lon="11.41294956">
        <ele>763.00000</ele>
              </trkpt>
      <trkpt lat="46.48469924" lon="11.41277790">
        <ele>759.00000</ele>
              </trkpt>
      <trkpt lat="46.48478507" lon="11.41196250">
        <ele>761.00000</ele>
              </trkpt>
      <trkpt lat="46.48491382" lon="11.41161918">
        <ele>760.00000</ele>
              </trkpt>
      <trkpt lat="46.48504257" lon="11.41041755">
        <ele>751.00000</ele>
              </trkpt>
      <trkpt lat="46.48590087" lon="11.40891551">
        <ele>730.00000</ele>
              </trkpt>
      <trkpt lat="46.48602962" lon="11.40840053">
        <ele>732.00000</ele>
              </trkpt>
      <trkpt lat="46.48650169" lon="11.40741348">
        <ele>717.00000</ele>
              </trkpt>
      <trkpt lat="46.48654460" lon="11.40672683">
        <ele>712.00000</ele>
              </trkpt>
      <trkpt lat="46.48650169" lon="11.40646934">
        <ele>710.00000</ele>
              </trkpt>
      <trkpt lat="46.48624420" lon="11.40599727">
        <ele>713.00000</ele>
              </trkpt>
      <trkpt lat="46.48620128" lon="11.40565395">
        <ele>708.00000</ele>
              </trkpt>
      <trkpt lat="46.48607254" lon="11.40539646">
        <ele>706.00000</ele>
              </trkpt>
      <trkpt lat="46.48581504" lon="11.40513896">
        <ele>703.00000</ele>
              </trkpt>
      <trkpt lat="46.48542881" lon="11.40513896">
        <ele>695.00000</ele>
              </trkpt>
      <trkpt lat="46.48512840" lon="11.40501022">
        <ele>686.00000</ele>
              </trkpt>
      <trkpt lat="46.48457050" lon="11.40625476">
        <ele>680.00000</ele>
              </trkpt>
      <trkpt lat="46.48448467" lon="11.40668392">
        <ele>682.00000</ele>
              </trkpt>
      <trkpt lat="46.48431301" lon="11.40707015">
        <ele>679.00000</ele>
              </trkpt>
      <trkpt lat="46.48409843" lon="11.40737056">
        <ele>675.00000</ele>
              </trkpt>
      <trkpt lat="46.48388385" lon="11.40749931">
        <ele>673.00000</ele>
              </trkpt>
      <trkpt lat="46.48315429" lon="11.40745639">
        <ele>655.00000</ele>
              </trkpt>
      <trkpt lat="46.48319721" lon="11.40724182">
        <ele>648.00000</ele>
              </trkpt>
      <trkpt lat="46.48345470" lon="11.40672683">
        <ele>639.00000</ele>
              </trkpt>
      <trkpt lat="46.48396968" lon="11.40625476">
        <ele>648.00000</ele>
              </trkpt>
      <trkpt lat="46.48414134" lon="11.40440940">
        <ele>629.00000</ele>
              </trkpt>
      <trkpt lat="46.48465633" lon="11.40282154">
        <ele>615.00000</ele>
              </trkpt>
      <trkpt lat="46.48499965" lon="11.40243530">
        <ele>616.00000</ele>
              </trkpt>
      <trkpt lat="46.48530006" lon="11.40222072">
        <ele>615.00000</ele>
              </trkpt>
      <trkpt lat="46.48560047" lon="11.40174865">
        <ele>608.00000</ele>
              </trkpt>
      <trkpt lat="46.48611545" lon="11.40127658">
        <ele>598.00000</ele>
              </trkpt>
      <trkpt lat="46.48675918" lon="11.40101909">
        <ele>582.00000</ele>
              </trkpt>
      <trkpt lat="46.48688793" lon="11.40101909">
        <ele>576.00000</ele>
              </trkpt>
      <trkpt lat="46.48705959" lon="11.40114784">
        <ele>572.00000</ele>
              </trkpt>
      <trkpt lat="46.48757457" lon="11.40209197">
        <ele>569.00000</ele>
              </trkpt>
      <trkpt lat="46.48838996" lon="11.40239238">
        <ele>535.00000</ele>
              </trkpt>
      <trkpt lat="46.48920536" lon="11.40376567">
        <ele>508.00000</ele>
              </trkpt>
      <trkpt lat="46.48924827" lon="11.40337944">
        <ele>500.00000</ele>
              </trkpt>
      <trkpt lat="46.48920536" lon="11.40174865">
        <ele>495.00000</ele>
              </trkpt>
      <trkpt lat="46.48941993" lon="11.40119075">
        <ele>480.00000</ele>
              </trkpt>
      <trkpt lat="46.48924827" lon="11.40054702">
        <ele>488.00000</ele>
              </trkpt>
      <trkpt lat="46.48929119" lon="11.40046119">
        <ele>485.00000</ele>
              </trkpt>
      <trkpt lat="46.48937702" lon="11.40046119">
        <ele>480.00000</ele>
              </trkpt>
      <trkpt lat="46.48959159" lon="11.40187740">
        <ele>470.00000</ele>
              </trkpt>
      <trkpt lat="46.48954868" lon="11.40204906">
        <ele>474.00000</ele>
              </trkpt>
      <trkpt lat="46.48967742" lon="11.40239238">
        <ele>468.00000</ele>
              </trkpt>
      <trkpt lat="46.48963451" lon="11.40273571">
        <ele>474.00000</ele>
              </trkpt>
      <trkpt lat="46.48972034" lon="11.40295028">
        <ele>472.00000</ele>
              </trkpt>
      <trkpt lat="46.49032115" lon="11.40359401">
        <ele>452.00000</ele>
              </trkpt>
      <trkpt lat="46.49036407" lon="11.40423774">
        <ele>458.00000</ele>
              </trkpt>
      <trkpt lat="46.49053573" lon="11.40440940">
        <ele>452.00000</ele>
              </trkpt>
      <trkpt lat="46.49066448" lon="11.40475273">
        <ele>452.00000</ele>
              </trkpt>
      <trkpt lat="46.49066448" lon="11.40509605">
        <ele>457.00000</ele>
              </trkpt>
      <trkpt lat="46.49075031" lon="11.40531063">
        <ele>458.00000</ele>
              </trkpt>
      <trkpt lat="46.49083614" lon="11.40535354">
        <ele>455.00000</ele>
              </trkpt>
      <trkpt lat="46.49087905" lon="11.40522480">
        <ele>451.00000</ele>
              </trkpt>
      <trkpt lat="46.49079322" lon="11.40470981">
        <ele>446.00000</ele>
              </trkpt>
      <trkpt lat="46.49083614" lon="11.40432357">
        <ele>437.00000</ele>
              </trkpt>
      <trkpt lat="46.49066448" lon="11.40389442">
        <ele>439.00000</ele>
              </trkpt>
      <trkpt lat="46.49066448" lon="11.40337944">
        <ele>431.00000</ele>
              </trkpt>
      <trkpt lat="46.49057865" lon="11.40307903">
        <ele>431.00000</ele>
              </trkpt>
      <trkpt lat="46.49032115" lon="11.40256404">
        <ele>435.00000</ele>
              </trkpt>
      <trkpt lat="46.49014949" lon="11.40041828">
        <ele>429.00000</ele>
              </trkpt>
      <trkpt lat="46.49062156" lon="11.39883041">
        <ele>388.00000</ele>
              </trkpt>
      <trkpt lat="46.49066448" lon="11.39745712">
        <ele>384.00000</ele>
              </trkpt>
      <trkpt lat="46.49075031" lon="11.39741420">
        <ele>379.00000</ele>
              </trkpt>
      <trkpt lat="46.49083614" lon="11.39792919">
        <ele>375.00000</ele>
              </trkpt>
      <trkpt lat="46.49083614" lon="11.39857292">
        <ele>375.00000</ele>
              </trkpt>
      <trkpt lat="46.49087905" lon="11.39874458">
        <ele>372.00000</ele>
              </trkpt>
      <trkpt lat="46.49092197" lon="11.39874458">
        <ele>368.00000</ele>
              </trkpt>
      <trkpt lat="46.49096488" lon="11.39865875">
        <ele>365.00000</ele>
              </trkpt>
      <trkpt lat="46.49096488" lon="11.39814376">
        <ele>366.00000</ele>
              </trkpt>
      <trkpt lat="46.49126529" lon="11.39745712">
        <ele>346.00000</ele>
              </trkpt>
      <trkpt lat="46.49126529" lon="11.39732837">
        <ele>347.00000</ele>
              </trkpt>
      <trkpt lat="46.49105072" lon="11.39672756">
        <ele>359.00000</ele>
              </trkpt>
      <trkpt lat="46.49105072" lon="11.39647006">
        <ele>355.00000</ele>
              </trkpt>
      <trkpt lat="46.49113655" lon="11.39625549">
        <ele>348.00000</ele>
              </trkpt>
      <trkpt lat="46.49126529" lon="11.39612674">
        <ele>343.00000</ele>
              </trkpt>
      <trkpt lat="46.49220943" lon="11.39561176">
        <ele>310.00000</ele>
              </trkpt>
      <trkpt lat="46.49255468" lon="11.39478396">
        <ele>304.00000</ele>
              </trkpt>
      <trkpt lat="46.49274964" lon="11.39462848">
        <ele>301.00000</ele>
              </trkpt>
      <trkpt lat="46.49286087" lon="11.39441650">
        <ele>300.00000</ele>
              </trkpt>
      <trkpt lat="46.49279876" lon="11.39430225">
        <ele>300.00000</ele>
              </trkpt>
      <trkpt lat="46.49260707" lon="11.39445656">
        <ele>302.00000</ele>
              </trkpt>
      <trkpt lat="46.49236232" lon="11.39474038">
        <ele>305.00000</ele>
              </trkpt>
      <trkpt lat="46.49213265" lon="11.39521739">
        <ele>310.00000</ele>
              </trkpt>
      <trkpt lat="46.49168246" lon="11.39542702">
        <ele>321.00000</ele>
              </trkpt>
      <trkpt lat="46.49127602" lon="11.39549299">
        <ele>328.00000</ele>
              </trkpt>
      <trkpt lat="46.49110067" lon="11.39552249">
        <ele>331.00000</ele>
              </trkpt>
      <trkpt lat="46.49109539" lon="11.39535519">
        <ele>324.00000</ele>
              </trkpt>
      <trkpt lat="46.49117980" lon="11.39530456">
        <ele>322.00000</ele>
              </trkpt>
      <trkpt lat="46.49139513" lon="11.39535636">
        <ele>322.00000</ele>
              </trkpt>
      <trkpt lat="46.49182043" lon="11.39515025">
        <ele>313.00000</ele>
              </trkpt>
      <trkpt lat="46.49228562" lon="11.39333766">
        <ele>295.00000</ele>
              </trkpt>
      <trkpt lat="46.49275911" lon="11.39295419">
        <ele>294.00000</ele>
              </trkpt>
      <trkpt lat="46.49421782" lon="11.39142307">
        <ele>282.00000</ele>
              </trkpt>
      <trkpt lat="46.49458117" lon="11.39062746">
        <ele>278.00000</ele>
              </trkpt>
      <trkpt lat="46.49509574" lon="11.38841682">
        <ele>279.00000</ele>
              </trkpt>
      <trkpt lat="46.49510839" lon="11.38813502">
        <ele>281.00000</ele>
              </trkpt>
      <trkpt lat="46.49498007" lon="11.38754292">
        <ele>278.00000</ele>
              </trkpt>
      <trkpt lat="46.49458880" lon="11.38400324">
        <ele>276.00000</ele>
              </trkpt>
      <trkpt lat="46.49463180" lon="11.38224271">
        <ele>276.00000</ele>
              </trkpt>
      <trkpt lat="46.49454664" lon="11.37960819">
        <ele>275.00000</ele>
              </trkpt>
      <trkpt lat="46.49433768" lon="11.37835266">
        <ele>272.00000</ele>
              </trkpt>
      <trkpt lat="46.49424481" lon="11.37623095">
        <ele>270.00000</ele>
              </trkpt>
      <trkpt lat="46.49375346" lon="11.37304055">
        <ele>268.00000</ele>
              </trkpt>
      <trkpt lat="46.49342590" lon="11.36997696">
        <ele>267.00000</ele>
              </trkpt>
      <trkpt lat="46.49331551" lon="11.36939643">
        <ele>267.00000</ele>
              </trkpt>
      <trkpt lat="46.49316178" lon="11.36887407">
        <ele>267.00000</ele>
              </trkpt>
      <trkpt lat="46.49305324" lon="11.36872261">
        <ele>267.00000</ele>
              </trkpt>
      <trkpt lat="46.49294176" lon="11.36814066">
        <ele>267.00000</ele>
              </trkpt>
      <trkpt lat="46.49289750" lon="11.36727992">
        <ele>266.00000</ele>
              </trkpt>
      <trkpt lat="46.49229157" lon="11.36387092">
        <ele>264.00000</ele>
              </trkpt>
      <trkpt lat="46.49233952" lon="11.36289442">
        <ele>264.00000</ele>
              </trkpt>
      <trkpt lat="46.49266012" lon="11.36055738">
        <ele>261.00000</ele>
              </trkpt>
      <trkpt lat="46.49295307" lon="11.35944276">
        <ele>261.00000</ele>
              </trkpt>
      <trkpt lat="46.49311685" lon="11.35846492">
        <ele>260.00000</ele>
              </trkpt>
      <trkpt lat="46.49353578" lon="11.35688091">
        <ele>259.00000</ele>
              </trkpt>
      <trkpt lat="46.49397407" lon="11.35556738">
        <ele>260.00000</ele>
              </trkpt>
      <trkpt lat="46.49444371" lon="11.35454999">
        <ele>260.00000</ele>
              </trkpt>
      <trkpt lat="46.49455276" lon="11.35403802">
        <ele>260.00000</ele>
              </trkpt>
    </trkseg>
  </trk>
</gpx>

