<?xml version="1.0"?>
<gpx creator="GPS Visualizer http://www.gpsvisualizer.com/" version="1.1" xmlns="http://www.topografix.com/GPX/1/1" xmlns:xsi="http://www.w3.org/2001/XMLSchema-instance" xsi:schemaLocation="http://www.topografix.com/GPX/1/1 http://www.topografix.com/GPX/1/1/gpx.xsd">


  <trk>
    <name>DR&amp;CAAR002-Oberdrauburg-Spittal-An-Der-Drau</name>
    <desc>From http://italy-cycling-guide.info</desc>
 
    <trkseg>
      <trkpt lat="46.747792437672615" lon="12.9704275354743">
        <ele>646.217689999999948</ele>
      </trkpt>
      <trkpt lat="46.747800065204501" lon="12.970844367519021">
        <ele>641.785999999999945</ele>
      </trkpt>
      <trkpt lat="46.747855385765433" lon="12.972090505063534">
        <ele>638.134660000000054</ele>
      </trkpt>
      <trkpt lat="46.747982371598482" lon="12.972489902749658">
        <ele>636.852660000000014</ele>
      </trkpt>
      <trkpt lat="46.747912969440222" lon="12.972481856122613">
        <ele>636.17933000000005</ele>
      </trkpt>
      <trkpt lat="46.747853457927704" lon="12.972589395940304">
        <ele>635.474000000000046</ele>
      </trkpt>
      <trkpt lat="46.748348912224174" lon="12.973703853785992">
        <ele>632.876660000000015</ele>
      </trkpt>
      <trkpt lat="46.748429797589779" lon="12.974361665546894">
        <ele>633.324659999999994</ele>
      </trkpt>
      <trkpt lat="46.748332064598799" lon="12.976818569004536">
        <ele>632.041990000000055</ele>
      </trkpt>
      <trkpt lat="46.748366011306643" lon="12.978851515799761">
        <ele>630.47199999999998</ele>
      </trkpt>
      <trkpt lat="46.748309517279267" lon="12.97938259318471">
        <ele>630.120000000000005</ele>
      </trkpt>
      <trkpt lat="46.748146153986454" lon="12.98002858646214">
        <ele>629.927999999999997</ele>
      </trkpt>
      <trkpt lat="46.747749857604504" lon="12.980940537527204">
        <ele>629.223989999999958</ele>
      </trkpt>
      <trkpt lat="46.747442912310362" lon="12.981479074805975">
        <ele>628.967999999999961</ele>
      </trkpt>
      <trkpt lat="46.746806390583515" lon="12.982279127463698">
        <ele>628.359990000000039</ele>
      </trkpt>
      <trkpt lat="46.746128126978874" lon="12.982806013897061">
        <ele>627.782659999999964</ele>
      </trkpt>
      <trkpt lat="46.745847165584564" lon="12.982965353876352">
        <ele>626.724659999999972</ele>
      </trkpt>
      <trkpt lat="46.745530078187585" lon="12.983041713014245">
        <ele>625.250660000000039</ele>
      </trkpt>
      <trkpt lat="46.745334276929498" lon="12.983240028843284">
        <ele>624.161330000000021</ele>
      </trkpt>
      <trkpt lat="46.744404723867774" lon="12.983713774010539">
        <ele>621.629999999999995</ele>
      </trkpt>
      <trkpt lat="46.743661668151617" lon="12.984187351539731">
        <ele>622.974000000000046</ele>
      </trkpt>
      <trkpt lat="46.743104690685868" lon="12.984685320407152">
        <ele>624.192000000000007</ele>
      </trkpt>
      <trkpt lat="46.742574283853173" lon="12.985259816050529">
        <ele>625.53932999999995</ele>
      </trkpt>
      <trkpt lat="46.742199277505279" lon="12.985837580636144">
        <ele>627.046659999999974</ele>
      </trkpt>
      <trkpt lat="46.741484804078937" lon="12.987380772829056">
        <ele>629.575990000000047</ele>
      </trkpt>
      <trkpt lat="46.741114910691977" lon="12.988820448517799">
        <ele>632.876660000000015</ele>
      </trkpt>
      <trkpt lat="46.740925647318363" lon="12.989888805896044">
        <ele>634.673329999999964</ele>
      </trkpt>
      <trkpt lat="46.740714926272631" lon="12.993327230215073">
        <ele>628.360000000000014</ele>
      </trkpt>
      <trkpt lat="46.740702772513032" lon="12.994598764926195">
        <ele>625.50798999999995</ele>
      </trkpt>
      <trkpt lat="46.740609481930733" lon="12.995179463177919">
        <ele>624.546000000000049</ele>
      </trkpt>
      <trkpt lat="46.740566985681653" lon="12.996488381177187">
        <ele>624.160660000000007</ele>
      </trkpt>
      <trkpt lat="46.740423403680325" lon="12.998580168932676">
        <ele>603.717329999999947</ele>
      </trkpt>
      <trkpt lat="46.740261381492019" lon="13.000835487619042">
        <ele>598.942000000000007</ele>
      </trkpt>
      <trkpt lat="46.740403538569808" lon="13.001258941367269">
        <ele>600.127989999999954</ele>
      </trkpt>
      <trkpt lat="46.74040898680687" lon="13.001761520281434">
        <ele>602.82000000000005</ele>
      </trkpt>
      <trkpt lat="46.740332040935755" lon="13.002741616219282">
        <ele>606.600659999999948</ele>
      </trkpt>
      <trkpt lat="46.74038358964026" lon="13.003787929192185">
        <ele>610.318660000000023</ele>
      </trkpt>
      <trkpt lat="46.740798410028219" lon="13.005175050348043">
        <ele>615.059999999999945</ele>
      </trkpt>
      <trkpt lat="46.74109747633338" lon="13.006465695798397">
        <ele>616.853330000000028</ele>
      </trkpt>
      <trkpt lat="46.741156401112676" lon="13.007210344076157">
        <ele>618.008659999999963</ele>
      </trkpt>
      <trkpt lat="46.74111507833004" lon="13.007844099774957">
        <ele>619.38733000000002</ele>
      </trkpt>
      <trkpt lat="46.740893879905343" lon="13.008788488805294">
        <ele>620.95799999999997</ele>
      </trkpt>
      <trkpt lat="46.73989157192409" lon="13.010912630707026">
        <ele>622.71866</ele>
      </trkpt>
      <trkpt lat="46.739681689068675" lon="13.011525515466928">
        <ele>624.320659999999975</ele>
      </trkpt>
      <trkpt lat="46.73949527554214" lon="13.012247197329998">
        <ele>625.152659999999969</ele>
      </trkpt>
      <trkpt lat="46.739491587504745" lon="13.012521369382739">
        <ele>625.248659999999973</ele>
      </trkpt>
      <trkpt lat="46.739083137363195" lon="13.013863228261471">
        <ele>624.125999999999976</ele>
      </trkpt>
      <trkpt lat="46.73911758698523" lon="13.015213469043374">
        <ele>623.134000000000015</ele>
      </trkpt>
      <trkpt lat="46.73921674489975" lon="13.01620714366436">
        <ele>622.39799000000005</ele>
      </trkpt>
      <trkpt lat="46.739133847877383" lon="13.016946176066995">
        <ele>621.725999999999999</ele>
      </trkpt>
      <trkpt lat="46.739168297499418" lon="13.018116289749742">
        <ele>621.149999999999977</ele>
      </trkpt>
      <trkpt lat="46.738957995548844" lon="13.020166670903563">
        <ele>620.893990000000031</ele>
      </trkpt>
      <trkpt lat="46.738582905381918" lon="13.022315120324492">
        <ele>619.485990000000015</ele>
      </trkpt>
      <trkpt lat="46.738176215440035" lon="13.023605346679688">
        <ele>618.489329999999995</ele>
      </trkpt>
      <trkpt lat="46.737997764721513" lon="13.023924110457301">
        <ele>618.263990000000035</ele>
      </trkpt>
      <trkpt lat="46.737852673977613" lon="13.02451922558248">
        <ele>617.589330000000018</ele>
      </trkpt>
      <trkpt lat="46.73751194961369" lon="13.024651911109686">
        <ele>617.203999999999951</ele>
      </trkpt>
      <trkpt lat="46.737277843058109" lon="13.02498048171401">
        <ele>616.947999999999979</ele>
      </trkpt>
      <trkpt lat="46.736334124580026" lon="13.026005420833826">
        <ele>616.5</ele>
      </trkpt>
      <trkpt lat="46.736387852579355" lon="13.02608672529459">
        <ele>616.467999999999961</ele>
      </trkpt>
      <trkpt lat="46.736474018543959" lon="13.026094017550349">
        <ele>616.403999999999996</ele>
      </trkpt>
      <trkpt lat="46.736810300499201" lon="13.026011791080236">
        <ele>616.14799000000005</ele>
      </trkpt>
      <trkpt lat="46.736892778426409" lon="13.026048168540001">
        <ele>616.115999999999985</ele>
      </trkpt>
      <trkpt lat="46.737080868333578" lon="13.027034718543291">
        <ele>616.14799000000005</ele>
      </trkpt>
      <trkpt lat="46.736994702368975" lon="13.027630504220724">
        <ele>616.403999999999996</ele>
      </trkpt>
      <trkpt lat="46.737081706523895" lon="13.027732595801353">
        <ele>616.403999999999996</ele>
      </trkpt>
      <trkpt lat="46.737846890464425" lon="13.027737122029066">
        <ele>616.884000000000015</ele>
      </trkpt>
      <trkpt lat="46.737929284572601" lon="13.027800321578979">
        <ele>617.076000000000022</ele>
      </trkpt>
      <trkpt lat="46.737982258200645" lon="13.028064351528883">
        <ele>617.331999999999994</ele>
      </trkpt>
      <trkpt lat="46.737997597083449" lon="13.028937075287104">
        <ele>617.395999999999958</ele>
      </trkpt>
      <trkpt lat="46.738064317032695" lon="13.03597217425704">
        <ele>615.123990000000049</ele>
      </trkpt>
      <trkpt lat="46.737986616790295" lon="13.036806425079703">
        <ele>615.027990000000045</ele>
      </trkpt>
      <trkpt lat="46.738067921251059" lon="13.037674119696021">
        <ele>614.835990000000038</ele>
      </trkpt>
      <trkpt lat="46.738167414441705" lon="13.043693248182535">
        <ele>613.299999999999955</ele>
      </trkpt>
      <trkpt lat="46.738108908757567" lon="13.044023914262652">
        <ele>613.203999999999951</ele>
      </trkpt>
      <trkpt lat="46.737961554899812" lon="13.044202784076333">
        <ele>613.139990000000012</ele>
      </trkpt>
      <trkpt lat="46.737841526046395" lon="13.044477794319391">
        <ele>613.075990000000047</ele>
      </trkpt>
      <trkpt lat="46.73780363984406" lon="13.044760096818209">
        <ele>612.979990000000043</ele>
      </trkpt>
      <trkpt lat="46.737951412796974" lon="13.045786041766405">
        <ele>612.563999999999965</ele>
      </trkpt>
      <trkpt lat="46.737888297066092" lon="13.047220269218087">
        <ele>611.247989999999959</ele>
      </trkpt>
      <trkpt lat="46.738249137997627" lon="13.048781733959913">
        <ele>610.089989999999943</ele>
      </trkpt>
      <trkpt lat="46.738224662840366" lon="13.051130091771483">
        <ele>610.217999999999961</ele>
      </trkpt>
      <trkpt lat="46.7381642293185" lon="13.051952607929707">
        <ele>610.153999999999996</ele>
      </trkpt>
      <trkpt lat="46.738255508244038" lon="13.053066898137331">
        <ele>610.378659999999968</ele>
      </trkpt>
      <trkpt lat="46.738325161859393" lon="13.056208183988929">
        <ele>611.76400000000001</ele>
      </trkpt>
      <trkpt lat="46.738320803269744" lon="13.057135138660669">
        <ele>611.860000000000014</ele>
      </trkpt>
      <trkpt lat="46.738221477717161" lon="13.057803008705378">
        <ele>611.53866000000005</ele>
      </trkpt>
      <trkpt lat="46.738239079713821" lon="13.060115994885564">
        <ele>611.12333000000001</ele>
      </trkpt>
      <trkpt lat="46.738062892109156" lon="13.062456557527184">
        <ele>609.578660000000013</ele>
      </trkpt>
      <trkpt lat="46.737694591283798" lon="13.06520976126194">
        <ele>607.466000000000008</ele>
      </trkpt>
      <trkpt lat="46.736932760104537" lon="13.069173563271761">
        <ele>607.594000000000051</ele>
      </trkpt>
      <trkpt lat="46.736448872834444" lon="13.07126727886498">
        <ele>607.274000000000001</ele>
      </trkpt>
      <trkpt lat="46.736004212871194" lon="13.073537182062864">
        <ele>609.737989999999968</ele>
      </trkpt>
      <trkpt lat="46.735891308635473" lon="13.073797356337309">
        <ele>609.610000000000014</ele>
      </trkpt>
      <trkpt lat="46.735777985304594" lon="13.073825100436807">
        <ele>609.385999999999967</ele>
      </trkpt>
      <trkpt lat="46.735559301450849" lon="13.073768019676208">
        <ele>608.745999999999981</ele>
      </trkpt>
      <trkpt lat="46.735451845452189" lon="13.07381696999073">
        <ele>608.426000000000045</ele>
      </trkpt>
      <trkpt lat="46.735020680353045" lon="13.074855906888843">
        <ele>606.185989999999947</ele>
      </trkpt>
      <trkpt lat="46.734850527718663" lon="13.075540624558926">
        <ele>606.025999999999954</ele>
      </trkpt>
      <trkpt lat="46.734661934897304" lon="13.077489249408245">
        <ele>608.265999999999963</ele>
      </trkpt>
      <trkpt lat="46.734730582684278" lon="13.07852734811604">
        <ele>609.997330000000034</ele>
      </trkpt>
      <trkpt lat="46.734703425318003" lon="13.078917525708675">
        <ele>611.054660000000013</ele>
      </trkpt>
      <trkpt lat="46.734642656520009" lon="13.078920543193817">
        <ele>611.695330000000013</ele>
      </trkpt>
      <trkpt lat="46.733941426500678" lon="13.07880587875843">
        <ele>615.475999999999999</ele>
      </trkpt>
      <trkpt lat="46.733342120423913" lon="13.078619716688991">
        <ele>615.700000000000045</ele>
      </trkpt>
      <trkpt lat="46.733150174841285" lon="13.078392064198852">
        <ele>614.964000000000055</ele>
      </trkpt>
      <trkpt lat="46.733061159029603" lon="13.078532125800848">
        <ele>612.529999999999973</ele>
      </trkpt>
      <trkpt lat="46.73246587626636" lon="13.080026283860207">
        <ele>609.899329999999964</ele>
      </trkpt>
      <trkpt lat="46.731746289879084" lon="13.081457745283842">
        <ele>609.033990000000017</ele>
      </trkpt>
      <trkpt lat="46.731658028438687" lon="13.081561345607042">
        <ele>609.033999999999992</ele>
      </trkpt>
      <trkpt lat="46.731367511674762" lon="13.08165698312223">
        <ele>609.19399999999996</ele>
      </trkpt>
      <trkpt lat="46.731298277154565" lon="13.081777431070805">
        <ele>609.25798999999995</ele>
      </trkpt>
      <trkpt lat="46.73125896602869" lon="13.082094099372625">
        <ele>609.450000000000045</ele>
      </trkpt>
      <trkpt lat="46.730980686843395" lon="13.082761717960238">
        <ele>609.673999999999978</ele>
      </trkpt>
      <trkpt lat="46.730914134532213" lon="13.083684565499425">
        <ele>608.745990000000006</ele>
      </trkpt>
      <trkpt lat="46.73061984591186" lon="13.085001697763801">
        <ele>604.902659999999969</ele>
      </trkpt>
      <trkpt lat="46.730648595839739" lon="13.085531517863274">
        <ele>603.685330000000022</ele>
      </trkpt>
      <trkpt lat="46.730788070708513" lon="13.085912223905325">
        <ele>602.851999999999975</ele>
      </trkpt>
      <trkpt lat="46.730750603601336" lon="13.08724788017571">
        <ele>602.243330000000014</ele>
      </trkpt>
      <trkpt lat="46.730780946090817" lon="13.088050279766321">
        <ele>603.076659999999947</ele>
      </trkpt>
      <trkpt lat="46.730867950245738" lon="13.08840055949986">
        <ele>604.07000000000005</ele>
      </trkpt>
      <trkpt lat="46.731274221092463" lon="13.088967259973288">
        <ele>605.736660000000029</ele>
      </trkpt>
      <trkpt lat="46.731488713994622" lon="13.089384846389294">
        <ele>605.993330000000014</ele>
      </trkpt>
      <trkpt lat="46.731662219390273" lon="13.089957498013973">
        <ele>604.871329999999944</ele>
      </trkpt>
      <trkpt lat="46.731609748676419" lon="13.090406097471714">
        <ele>603.813999999999965</ele>
      </trkpt>
      <trkpt lat="46.731252428144217" lon="13.091776873916388">
        <ele>588.432000000000016</ele>
      </trkpt>
      <trkpt lat="46.731190318241715" lon="13.092460501939058">
        <ele>578.30600000000004</ele>
      </trkpt>
      <trkpt lat="46.731027038767934" lon="13.094050297513604">
        <ele>581.83132999999998</ele>
      </trkpt>
      <trkpt lat="46.731190150603652" lon="13.095236923545599">
        <ele>587.34199000000001</ele>
      </trkpt>
      <trkpt lat="46.731315208598971" lon="13.095500618219376">
        <ele>594.839989999999943</ele>
      </trkpt>
      <trkpt lat="46.731285620480776" lon="13.095968663692474">
        <ele>597.724000000000046</ele>
      </trkpt>
      <trkpt lat="46.731306742876768" lon="13.097004750743508">
        <ele>601.120000000000005</ele>
      </trkpt>
      <trkpt lat="46.731621650978923" lon="13.098021056503057">
        <ele>602.082660000000033</ele>
      </trkpt>
      <trkpt lat="46.731830947101116" lon="13.098481893539429">
        <ele>603.203999999999951</ele>
      </trkpt>
      <trkpt lat="46.732102353125811" lon="13.098869388923049">
        <ele>604.806659999999965</ele>
      </trkpt>
      <trkpt lat="46.732234451919794" lon="13.09917876496911">
        <ele>604.45465999999999</ele>
      </trkpt>
      <trkpt lat="46.731984252110124" lon="13.100224239751697">
        <ele>602.531989999999951</ele>
      </trkpt>
      <trkpt lat="46.731847291812301" lon="13.100935947149992">
        <ele>601.538000000000011</ele>
      </trkpt>
      <trkpt lat="46.732141748070717" lon="13.101582359522581">
        <ele>602.69065999999998</ele>
      </trkpt>
      <trkpt lat="46.732485154643655" lon="13.103192020207644">
        <ele>614.80332999999996</ele>
      </trkpt>
      <trkpt lat="46.732580373063684" lon="13.104092068970203">
        <ele>617.334659999999985</ele>
      </trkpt>
      <trkpt lat="46.732519352808595" lon="13.104512924328446">
        <ele>617.94399999999996</ele>
      </trkpt>
      <trkpt lat="46.731898421421647" lon="13.10522454790771">
        <ele>618.039999999999964</ele>
      </trkpt>
      <trkpt lat="46.731746038421988" lon="13.105575833469629">
        <ele>620.026659999999993</ele>
      </trkpt>
      <trkpt lat="46.731509501114488" lon="13.106640921905637">
        <ele>621.692660000000046</ele>
      </trkpt>
      <trkpt lat="46.731077497825027" lon="13.106685932725668">
        <ele>623.583330000000046</ele>
      </trkpt>
      <trkpt lat="46.730972556397319" lon="13.106769500300288">
        <ele>624.512659999999983</ele>
      </trkpt>
      <trkpt lat="46.730869123712182" lon="13.107080636546016">
        <ele>625.409999999999968</ele>
      </trkpt>
      <trkpt lat="46.730972053483129" lon="13.10729487799108">
        <ele>626.27466000000004</ele>
      </trkpt>
      <trkpt lat="46.731332475319505" lon="13.107649851590395">
        <ele>628.452660000000037</ele>
      </trkpt>
      <trkpt lat="46.731884172186255" lon="13.10766083188355">
        <ele>630.823999999999955</ele>
      </trkpt>
      <trkpt lat="46.732176700606942" lon="13.108013039454818">
        <ele>631.208660000000009</ele>
      </trkpt>
      <trkpt lat="46.732419524341822" lon="13.108744947239757">
        <ele>624.705330000000004</ele>
      </trkpt>
      <trkpt lat="46.732690511271358" lon="13.109640218317509">
        <ele>621.181330000000003</ele>
      </trkpt>
      <trkpt lat="46.732944818213582" lon="13.111709374934435">
        <ele>615.699989999999957</ele>
      </trkpt>
      <trkpt lat="46.73315922729671" lon="13.112649573013186">
        <ele>616.275989999999979</ele>
      </trkpt>
      <trkpt lat="46.733193760737777" lon="13.113397154957056">
        <ele>615.316000000000031</ele>
      </trkpt>
      <trkpt lat="46.733239693567157" lon="13.11344912275672">
        <ele>614.932000000000016</ele>
      </trkpt>
      <trkpt lat="46.733197951689363" lon="13.114186814054847">
        <ele>613.23599999999999</ele>
      </trkpt>
      <trkpt lat="46.733323512598872" lon="13.114749575033784">
        <ele>612.851999999999975</ele>
      </trkpt>
      <trkpt lat="46.733327032998204" lon="13.115489948540926">
        <ele>614.323999999999955</ele>
      </trkpt>
      <trkpt lat="46.733519146218896" lon="13.117920700460672">
        <ele>620.158000000000015</ele>
      </trkpt>
      <trkpt lat="46.73343482427299" lon="13.118847738951445">
        <ele>621.437990000000013</ele>
      </trkpt>
      <trkpt lat="46.733119748532772" lon="13.119827583432198">
        <ele>623.261999999999944</ele>
      </trkpt>
      <trkpt lat="46.733090244233608" lon="13.120331838726997">
        <ele>623.613989999999944</ele>
      </trkpt>
      <trkpt lat="46.733154868707061" lon="13.120601400732994">
        <ele>623.902000000000044</ele>
      </trkpt>
      <trkpt lat="46.733292415738106" lon="13.120801812037826">
        <ele>624.094000000000051</ele>
      </trkpt>
      <trkpt lat="46.734198248013854" lon="13.121375720947981">
        <ele>624.38399000000004</ele>
      </trkpt>
      <trkpt lat="46.734274188056588" lon="13.12150614336133">
        <ele>624.415989999999965</ele>
      </trkpt>
      <trkpt lat="46.734290784224868" lon="13.121807305142283">
        <ele>624.543990000000008</ele>
      </trkpt>
      <trkpt lat="46.733940588310361" lon="13.122644238173962">
        <ele>625.121329999999944</ele>
      </trkpt>
      <trkpt lat="46.734045278280973" lon="13.124549780040979">
        <ele>632.20465999999999</ele>
      </trkpt>
      <trkpt lat="46.733954083174467" lon="13.125457623973489">
        <ele>640.152000000000044</ele>
      </trkpt>
      <trkpt lat="46.733953999355435" lon="13.126406371593475">
        <ele>642.138659999999959</ele>
      </trkpt>
      <trkpt lat="46.7338349763304" lon="13.126774756237864">
        <ele>646.177329999999984</ele>
      </trkpt>
      <trkpt lat="46.733380928635597" lon="13.127256045117974">
        <ele>649.702660000000037</ele>
      </trkpt>
      <trkpt lat="46.732961162924767" lon="13.128485502675176">
        <ele>651.655999999999949</ele>
      </trkpt>
      <trkpt lat="46.733054537326097" lon="13.129213554784656">
        <ele>649.476660000000038</ele>
      </trkpt>
      <trkpt lat="46.733012543991208" lon="13.130405461415648">
        <ele>644.958660000000009</ele>
      </trkpt>
      <trkpt lat="46.733108852058649" lon="13.131083557382226">
        <ele>642.778659999999945</ele>
      </trkpt>
      <trkpt lat="46.732985470443964" lon="13.131983270868659">
        <ele>639.638659999999959</ele>
      </trkpt>
      <trkpt lat="46.733223767951131" lon="13.133745733648539">
        <ele>634.19065999999998</ele>
      </trkpt>
      <trkpt lat="46.733175320550799" lon="13.135300576686859">
        <ele>631.114659999999958</ele>
      </trkpt>
      <trkpt lat="46.732956888154149" lon="13.13574330881238">
        <ele>629.960659999999962</ele>
      </trkpt>
      <trkpt lat="46.732908692210913" lon="13.136558029800653">
        <ele>629.031989999999951</ele>
      </trkpt>
      <trkpt lat="46.733069708570838" lon="13.137583052739501">
        <ele>627.975999999999999</ele>
      </trkpt>
      <trkpt lat="46.732974154874682" lon="13.13813466578722">
        <ele>627.463989999999967</ele>
      </trkpt>
      <trkpt lat="46.733168447390199" lon="13.138990122824907">
        <ele>626.759999999999991</ele>
      </trkpt>
      <trkpt lat="46.7331010568887" lon="13.140261573716998">
        <ele>626.759999999999991</ele>
      </trkpt>
      <trkpt lat="46.732848342508078" lon="13.141378713771701">
        <ele>627.367989999999963</ele>
      </trkpt>
      <trkpt lat="46.732332520186901" lon="13.141853380948305">
        <ele>628.135999999999967</ele>
      </trkpt>
      <trkpt lat="46.732100257650018" lon="13.142821826040745">
        <ele>629.416000000000054</ele>
      </trkpt>
      <trkpt lat="46.731955502182245" lon="13.143227342516184">
        <ele>629.639999999999986</ele>
      </trkpt>
      <trkpt lat="46.731957262381911" lon="13.14364836551249">
        <ele>629.607999999999947</ele>
      </trkpt>
      <trkpt lat="46.732311313971877" lon="13.144732899963856">
        <ele>628.455990000000043</ele>
      </trkpt>
      <trkpt lat="46.732202097773552" lon="13.146591084077954">
        <ele>629.511999999999944</ele>
      </trkpt>
      <trkpt lat="46.732113668695092" lon="13.147132052108645">
        <ele>630.247989999999959</ele>
      </trkpt>
      <trkpt lat="46.731733130291104" lon="13.148208456113935">
        <ele>630.248000000000047</ele>
      </trkpt>
      <trkpt lat="46.731548057869077" lon="13.149440260604024">
        <ele>627.652659999999969</ele>
      </trkpt>
      <trkpt lat="46.731488378718495" lon="13.149778973311186">
        <ele>626.531330000000025</ele>
      </trkpt>
      <trkpt lat="46.731619471684098" lon="13.150147022679448">
        <ele>624.769329999999968</ele>
      </trkpt>
      <trkpt lat="46.731474297121167" lon="13.150866022333503">
        <ele>622.654660000000035</ele>
      </trkpt>
      <trkpt lat="46.731476141139865" lon="13.151012538000941">
        <ele>622.237989999999968</ele>
      </trkpt>
      <trkpt lat="46.731547974050045" lon="13.151100212708116">
        <ele>621.822000000000003</ele>
      </trkpt>
      <trkpt lat="46.731753833591938" lon="13.151213955134153">
        <ele>621.086000000000013</ele>
      </trkpt>
      <trkpt lat="46.731827342882752" lon="13.151340102776885">
        <ele>620.733330000000024</ele>
      </trkpt>
      <trkpt lat="46.732034543529153" lon="13.151484942063689">
        <ele>619.964000000000055</ele>
      </trkpt>
      <trkpt lat="46.732658995315433" lon="13.151532132178545">
        <ele>616.919329999999945</ele>
      </trkpt>
      <trkpt lat="46.733305156230927" lon="13.15188467502594">
        <ele>612.687329999999974</ele>
      </trkpt>
      <trkpt lat="46.733923405408859" lon="13.152028676122427">
        <ele>607.529329999999959</ele>
      </trkpt>
      <trkpt lat="46.734766624867916" lon="13.15258976072073">
        <ele>601.923329999999964</ele>
      </trkpt>
      <trkpt lat="46.735000647604465" lon="13.152879271656275">
        <ele>600.481999999999971</ele>
      </trkpt>
      <trkpt lat="46.735119838267565" lon="13.153250506147742">
        <ele>599.199330000000032</ele>
      </trkpt>
      <trkpt lat="46.735085975378752" lon="13.15468548797071">
        <ele>596.34532999999999</ele>
      </trkpt>
      <trkpt lat="46.735278004780412" lon="13.157498454675078">
        <ele>596.988659999999982</ele>
      </trkpt>
      <trkpt lat="46.735004587098956" lon="13.158424235880375">
        <ele>597.887989999999945</ele>
      </trkpt>
      <trkpt lat="46.734829321503639" lon="13.159491000697017">
        <ele>598.495990000000006</ele>
      </trkpt>
      <trkpt lat="46.734532853588462" lon="13.160205977037549">
        <ele>599.039999999999964</ele>
      </trkpt>
      <trkpt lat="46.734475437551737" lon="13.160711824893951">
        <ele>599.360000000000014</ele>
      </trkpt>
      <trkpt lat="46.734524639323354" lon="13.161042658612132">
        <ele>599.551990000000046</ele>
      </trkpt>
      <trkpt lat="46.735121766105294" lon="13.16299949772656">
        <ele>599.519999999999982</ele>
      </trkpt>
      <trkpt lat="46.735444804653525" lon="13.164698760956526">
        <ele>598.94399999999996</ele>
      </trkpt>
      <trkpt lat="46.735345227643847" lon="13.165332935750484">
        <ele>598.303989999999999</ele>
      </trkpt>
      <trkpt lat="46.734629664570093" lon="13.16682399250567">
        <ele>594.809330000000045</ele>
      </trkpt>
      <trkpt lat="46.734478874132037" lon="13.167681377381086">
        <ele>592.981999999999971</ele>
      </trkpt>
      <trkpt lat="46.734763775020838" lon="13.170023029670119">
        <ele>593.109990000000039</ele>
      </trkpt>
      <trkpt lat="46.734861508011818" lon="13.170318743214011">
        <ele>593.494000000000028</ele>
      </trkpt>
      <trkpt lat="46.735402392223477" lon="13.170875469222665">
        <ele>594.005999999999972</ele>
      </trkpt>
      <trkpt lat="46.735667511820793" lon="13.171525485813618">
        <ele>593.974000000000046</ele>
      </trkpt>
      <trkpt lat="46.735691819339991" lon="13.172033345326781">
        <ele>593.461999999999989</ele>
      </trkpt>
      <trkpt lat="46.735659716650844" lon="13.172671878710389">
        <ele>592.950000000000045</ele>
      </trkpt>
      <trkpt lat="46.735321842133999" lon="13.174336021766067">
        <ele>593.173999999999978</ele>
      </trkpt>
      <trkpt lat="46.735192174091935" lon="13.174881683662534">
        <ele>593.365999999999985</ele>
      </trkpt>
      <trkpt lat="46.735215056687593" lon="13.175236824899912">
        <ele>593.333999999999946</ele>
      </trkpt>
      <trkpt lat="46.735568270087242" lon="13.177078329026699">
        <ele>592.693989999999985</ele>
      </trkpt>
      <trkpt lat="46.735707828775048" lon="13.178948247805238">
        <ele>591.285999999999945</ele>
      </trkpt>
      <trkpt lat="46.735915197059512" lon="13.180601326748729">
        <ele>588.303999999999974</ele>
      </trkpt>
      <trkpt lat="46.736079817637801" lon="13.181729782372713">
        <ele>585.548000000000002</ele>
      </trkpt>
      <trkpt lat="46.73634803853929" lon="13.183154789730906">
        <ele>581.862660000000005</ele>
      </trkpt>
      <trkpt lat="46.736619779840112" lon="13.184509640559554">
        <ele>580.162000000000035</ele>
      </trkpt>
      <trkpt lat="46.736781215295196" lon="13.184951199218631">
        <ele>580.322000000000003</ele>
      </trkpt>
      <trkpt lat="46.737042814493179" lon="13.185410695150495">
        <ele>581.02800000000002</ele>
      </trkpt>
      <trkpt lat="46.737372223287821" lon="13.185736164450645">
        <ele>584.618000000000052</ele>
      </trkpt>
      <trkpt lat="46.737509099766612" lon="13.185945125296712">
        <ele>585.483330000000024</ele>
      </trkpt>
      <trkpt lat="46.737810680642724" lon="13.187087662518024">
        <ele>587.598659999999995</ele>
      </trkpt>
      <trkpt lat="46.73843982629478" lon="13.188941488042474">
        <ele>589.74666000000002</ele>
      </trkpt>
      <trkpt lat="46.738495314493775" lon="13.189564514905214">
        <ele>593.591999999999985</ele>
      </trkpt>
      <trkpt lat="46.738633364439011" lon="13.18972997367382">
        <ele>595.290660000000003</ele>
      </trkpt>
      <trkpt lat="46.73851216211915" lon="13.190130880102515">
        <ele>595.611329999999953</ele>
      </trkpt>
      <trkpt lat="46.738379308953881" lon="13.191056493669748">
        <ele>597.086660000000052</ele>
      </trkpt>
      <trkpt lat="46.738498918712139" lon="13.19117434322834">
        <ele>597.086660000000052</ele>
      </trkpt>
      <trkpt lat="46.738689271733165" lon="13.192232139408588">
        <ele>597.248000000000047</ele>
      </trkpt>
      <trkpt lat="46.739480942487717" lon="13.193877004086971">
        <ele>597.663999999999987</ele>
      </trkpt>
      <trkpt lat="46.740199020132422" lon="13.194640930742025">
        <ele>597.152000000000044</ele>
      </trkpt>
      <trkpt lat="46.740746358409524" lon="13.195758573710918">
        <ele>596.895329999999944</ele>
      </trkpt>
      <trkpt lat="46.741426633670926" lon="13.196966154500842">
        <ele>595.897330000000011</ele>
      </trkpt>
      <trkpt lat="46.741785714402795" lon="13.198188990354538">
        <ele>594.933989999999994</ele>
      </trkpt>
      <trkpt lat="46.742073129862547" lon="13.19885216653347">
        <ele>594.741999999999962</ele>
      </trkpt>
      <trkpt lat="46.742191649973392" lon="13.199320463463664">
        <ele>594.710000000000036</ele>
      </trkpt>
      <trkpt lat="46.742376051843166" lon="13.200728707015514">
        <ele>594.710000000000036</ele>
      </trkpt>
      <trkpt lat="46.742633376270533" lon="13.201921870931983">
        <ele>594.710000000000036</ele>
      </trkpt>
      <trkpt lat="46.742654079571366" lon="13.202426377683878">
        <ele>594.613989999999944</ele>
      </trkpt>
      <trkpt lat="46.742341853678226" lon="13.205155776813626">
        <ele>594.518000000000029</ele>
      </trkpt>
      <trkpt lat="46.742194751277566" lon="13.206364447250962">
        <ele>594.837999999999965</ele>
      </trkpt>
      <trkpt lat="46.742003140971065" lon="13.208111068233848">
        <ele>595.801330000000007</ele>
      </trkpt>
      <trkpt lat="46.741980258375406" lon="13.209418896585703">
        <ele>594.617330000000038</ele>
      </trkpt>
      <trkpt lat="46.741650765761733" lon="13.21101020090282">
        <ele>592.408000000000015</ele>
      </trkpt>
      <trkpt lat="46.741495868191123" lon="13.212185427546501">
        <ele>590.645999999999958</ele>
      </trkpt>
      <trkpt lat="46.741630062460899" lon="13.212743159383535">
        <ele>591.158000000000015</ele>
      </trkpt>
      <trkpt lat="46.741941617801785" lon="13.213192513212562">
        <ele>593.048660000000041</ele>
      </trkpt>
      <trkpt lat="46.742265997454524" lon="13.213531728833914">
        <ele>594.552659999999946</ele>
      </trkpt>
      <trkpt lat="46.742352498695254" lon="13.213570369407535">
        <ele>594.904660000000035</ele>
      </trkpt>
      <trkpt lat="46.742969322949648" lon="13.213492501527071">
        <ele>596.507330000000024</ele>
      </trkpt>
      <trkpt lat="46.743090860545635" lon="13.213541032746434">
        <ele>596.731999999999971</ele>
      </trkpt>
      <trkpt lat="46.743216924369335" lon="13.213815791532397">
        <ele>597.083999999999946</ele>
      </trkpt>
      <trkpt lat="46.743385987356305" lon="13.214898314327002">
        <ele>600.128000000000043</ele>
      </trkpt>
      <trkpt lat="46.743245758116245" lon="13.217088924720883">
        <ele>606.185330000000022</ele>
      </trkpt>
      <trkpt lat="46.743537113070488" lon="13.218809310346842">
        <ele>609.161989999999946</ele>
      </trkpt>
      <trkpt lat="46.743660494685173" lon="13.219799716025591">
        <ele>608.77800000000002</ele>
      </trkpt>
      <trkpt lat="46.74389929510653" lon="13.220373541116714">
        <ele>607.240660000000048</ele>
      </trkpt>
      <trkpt lat="46.743934247642756" lon="13.221132019534707">
        <ele>605.125999999999976</ele>
      </trkpt>
      <trkpt lat="46.743954364210367" lon="13.221531081944704">
        <ele>604.58132999999998</ele>
      </trkpt>
      <trkpt lat="46.744175478816032" lon="13.221737863495946">
        <ele>603.268000000000029</ele>
      </trkpt>
      <trkpt lat="46.744627682492137" lon="13.221943723037839">
        <ele>600.577329999999961</ele>
      </trkpt>
      <trkpt lat="46.745207794010639" lon="13.222426855936646">
        <ele>596.700659999999971</ele>
      </trkpt>
      <trkpt lat="46.746007846668363" lon="13.22391539812088">
        <ele>594.169999999999959</ele>
      </trkpt>
      <trkpt lat="46.747735692188144" lon="13.226366937160492">
        <ele>590.741999999999962</ele>
      </trkpt>
      <trkpt lat="46.747945407405496" lon="13.226451259106398">
        <ele>590.710000000000036</ele>
      </trkpt>
      <trkpt lat="46.748082786798477" lon="13.226445307955146">
        <ele>590.710000000000036</ele>
      </trkpt>
      <trkpt lat="46.749021643772721" lon="13.226275993511081">
        <ele>591.509990000000016</ele>
      </trkpt>
      <trkpt lat="46.749111078679562" lon="13.226366685703397">
        <ele>591.637989999999945</ele>
      </trkpt>
      <trkpt lat="46.749334707856178" lon="13.227439569309354">
        <ele>591.798000000000002</ele>
      </trkpt>
      <trkpt lat="46.749432608485222" lon="13.229819275438786">
        <ele>588.817990000000009</ele>
      </trkpt>
      <trkpt lat="46.749379131942987" lon="13.230945384129882">
        <ele>588.399329999999964</ele>
      </trkpt>
      <trkpt lat="46.748986020684242" lon="13.233345290645957">
        <ele>587.019999999999982</ele>
      </trkpt>
      <trkpt lat="46.748706065118313" lon="13.234716150909662">
        <ele>585.995999999999981</ele>
      </trkpt>
      <trkpt lat="46.748240618035197" lon="13.234810279682279">
        <ele>585.964000000000055</ele>
      </trkpt>
      <trkpt lat="46.74643574282527" lon="13.235030137002468">
        <ele>589.009999999999991</ele>
      </trkpt>
      <trkpt lat="46.746000805869699" lon="13.235592227429152">
        <ele>591.191329999999994</ele>
      </trkpt>
      <trkpt lat="46.745721688494086" lon="13.235945273190737">
        <ele>592.376660000000015</ele>
      </trkpt>
      <trkpt lat="46.745722526684403" lon="13.23628549464047">
        <ele>592.921330000000012</ele>
      </trkpt>
      <trkpt lat="46.745913214981556" lon="13.236920591443777">
        <ele>594.843330000000037</ele>
      </trkpt>
      <trkpt lat="46.746026873588562" lon="13.237247820943594">
        <ele>595.643329999999992</ele>
      </trkpt>
      <trkpt lat="46.746274894103408" lon="13.237711675465107">
        <ele>596.475329999999985</ele>
      </trkpt>
      <trkpt lat="46.746283359825611" lon="13.238813141360879">
        <ele>595.993330000000014</ele>
      </trkpt>
      <trkpt lat="46.746431551873684" lon="13.239599950611591">
        <ele>595.831999999999994</ele>
      </trkpt>
      <trkpt lat="46.746816784143448" lon="13.240374019369483">
        <ele>595.415989999999965</ele>
      </trkpt>
      <trkpt lat="46.747103864327073" lon="13.240727065131068">
        <ele>594.806659999999965</ele>
      </trkpt>
      <trkpt lat="46.747423550114036" lon="13.24149920605123">
        <ele>594.197999999999979</ele>
      </trkpt>
      <trkpt lat="46.747614154592156" lon="13.242086693644524">
        <ele>592.405999999999949</ele>
      </trkpt>
      <trkpt lat="46.747983964160085" lon="13.243648745119572">
        <ele>592.085990000000038</ele>
      </trkpt>
      <trkpt lat="46.747968206182122" lon="13.244439661502838">
        <ele>592.149999999999977</ele>
      </trkpt>
      <trkpt lat="46.748019503429532" lon="13.244814667850733">
        <ele>592.27800000000002</ele>
      </trkpt>
      <trkpt lat="46.748180435970426" lon="13.245215658098459">
        <ele>592.501999999999953</ele>
      </trkpt>
      <trkpt lat="46.74835117533803" lon="13.245979752391577">
        <ele>592.566000000000031</ele>
      </trkpt>
      <trkpt lat="46.748608248308301" lon="13.246602695435286">
        <ele>591.701999999999998</ele>
      </trkpt>
      <trkpt lat="46.748802708461881" lon="13.24855986982584">
        <ele>588.305330000000026</ele>
      </trkpt>
      <trkpt lat="46.749002868309617" lon="13.249395461753011">
        <ele>588.080000000000041</ele>
      </trkpt>
      <trkpt lat="46.749252481386065" lon="13.249462936073542">
        <ele>587.630660000000034</ele>
      </trkpt>
      <trkpt lat="46.749546099454165" lon="13.250479158014059">
        <ele>587.278659999999945</ele>
      </trkpt>
      <trkpt lat="46.749591529369354" lon="13.251488339155912">
        <ele>585.644000000000005</ele>
      </trkpt>
      <trkpt lat="46.749678868800402" lon="13.252460220828652">
        <ele>585.739990000000034</ele>
      </trkpt>
      <trkpt lat="46.749360859394073" lon="13.25378330424428">
        <ele>586.347999999999956</ele>
      </trkpt>
      <trkpt lat="46.749411066994071" lon="13.254383029416203">
        <ele>585.932000000000016</ele>
      </trkpt>
      <trkpt lat="46.749507877975702" lon="13.255673171952367">
        <ele>583.947999999999979</ele>
      </trkpt>
      <trkpt lat="46.749691944569349" lon="13.256631391122937">
        <ele>585.131999999999948</ele>
      </trkpt>
      <trkpt lat="46.750312121585011" lon="13.258330067619681">
        <ele>587.855329999999981</ele>
      </trkpt>
      <trkpt lat="46.750409016385674" lon="13.258912861347198">
        <ele>588.850000000000023</ele>
      </trkpt>
      <trkpt lat="46.750387893989682" lon="13.259219555184245">
        <ele>589.106660000000034</ele>
      </trkpt>
      <trkpt lat="46.750563578680158" lon="13.259780136868358">
        <ele>590.356660000000034</ele>
      </trkpt>
      <trkpt lat="46.750497110188007" lon="13.260901216417551">
        <ele>592.374659999999949</ele>
      </trkpt>
      <trkpt lat="46.750961467623711" lon="13.262604419142008">
        <ele>592.822660000000042</ele>
      </trkpt>
      <trkpt lat="46.751227173954248" lon="13.263185452669859">
        <ele>593.078660000000013</ele>
      </trkpt>
      <trkpt lat="46.75131518393755" lon="13.263803366571665">
        <ele>594.486660000000029</ele>
      </trkpt>
      <trkpt lat="46.751267993822694" lon="13.264240985736251">
        <ele>595.030660000000012</ele>
      </trkpt>
      <trkpt lat="46.751106390729547" lon="13.264915393665433">
        <ele>594.581999999999994</ele>
      </trkpt>
      <trkpt lat="46.750765163451433" lon="13.265745621174574">
        <ele>590.739329999999995</ele>
      </trkpt>
      <trkpt lat="46.750439191237092" lon="13.266244595870376">
        <ele>587.56732999999997</ele>
      </trkpt>
      <trkpt lat="46.750211119651794" lon="13.267149087041616">
        <ele>587.183329999999955</ele>
      </trkpt>
      <trkpt lat="46.75000517629087" lon="13.268742570653558">
        <ele>588.305330000000026</ele>
      </trkpt>
      <trkpt lat="46.750009534880519" lon="13.269591657444835">
        <ele>591.573999999999955</ele>
      </trkpt>
      <trkpt lat="46.749972067773342" lon="13.270622380077839">
        <ele>595.033329999999978</ele>
      </trkpt>
      <trkpt lat="46.74975254572928" lon="13.271701214835048">
        <ele>600.189989999999966</ele>
      </trkpt>
      <trkpt lat="46.749823959544301" lon="13.272635461762547">
        <ele>602.753330000000005</ele>
      </trkpt>
      <trkpt lat="46.749647855758667" lon="13.273297464475036">
        <ele>602.913329999999974</ele>
      </trkpt>
      <trkpt lat="46.749224737286568" lon="13.274768320843577">
        <ele>602.465329999999994</ele>
      </trkpt>
      <trkpt lat="46.749200094491243" lon="13.275401992723346">
        <ele>600.126660000000015</ele>
      </trkpt>
      <trkpt lat="46.749434201046824" lon="13.27749939635396">
        <ele>591.158000000000015</ele>
      </trkpt>
      <trkpt lat="46.749977180734277" lon="13.280146066099405">
        <ele>591.639329999999973</ele>
      </trkpt>
      <trkpt lat="46.750401891767979" lon="13.281786320731044">
        <ele>594.903329999999983</ele>
      </trkpt>
      <trkpt lat="46.750425361096859" lon="13.282358469441533">
        <ele>595.673329999999964</ele>
      </trkpt>
      <trkpt lat="46.750436928123236" lon="13.283223817124963">
        <ele>598.173329999999964</ele>
      </trkpt>
      <trkpt lat="46.75037213601172" lon="13.284215563908219">
        <ele>601.023990000000026</ele>
      </trkpt>
      <trkpt lat="46.750265350565314" lon="13.285455331206322">
        <ele>602.367989999999963</ele>
      </trkpt>
      <trkpt lat="46.750156469643116" lon="13.286488903686404">
        <ele>602.015989999999988</ele>
      </trkpt>
      <trkpt lat="46.750200223177671" lon="13.286861730739474">
        <ele>601.663999999999987</ele>
      </trkpt>
      <trkpt lat="46.750390408560634" lon="13.287523481994867">
        <ele>600.38399000000004</ele>
      </trkpt>
      <trkpt lat="46.750418907031417" lon="13.288077358156443">
        <ele>600.063999999999965</ele>
      </trkpt>
      <trkpt lat="46.750167366117239" lon="13.289288124069571">
        <ele>597.277330000000006</ele>
      </trkpt>
      <trkpt lat="46.750318827107549" lon="13.289686599746346">
        <ele>595.931330000000003</ele>
      </trkpt>
      <trkpt lat="46.750704059377313" lon="13.289910731837153">
        <ele>593.30332999999996</ele>
      </trkpt>
      <trkpt lat="46.750955265015364" lon="13.290415992960334">
        <ele>589.938660000000027</ele>
      </trkpt>
      <trkpt lat="46.751050818711519" lon="13.290803236886859">
        <ele>588.304660000000013</ele>
      </trkpt>
      <trkpt lat="46.751185180619359" lon="13.292056163772941">
        <ele>584.685330000000022</ele>
      </trkpt>
      <trkpt lat="46.751533281058073" lon="13.292995691299438">
        <ele>583.083999999999946</ele>
      </trkpt>
      <trkpt lat="46.751599833369255" lon="13.293603714555502">
        <ele>583.083999999999946</ele>
      </trkpt>
      <trkpt lat="46.751539399847388" lon="13.294221041724086">
        <ele>583.275999999999954</ele>
      </trkpt>
      <trkpt lat="46.751201106235385" lon="13.295594668015838">
        <ele>583.563999999999965</ele>
      </trkpt>
      <trkpt lat="46.750536169856787" lon="13.297578748315573">
        <ele>584.55600000000004</ele>
      </trkpt>
      <trkpt lat="46.750111542642117" lon="13.299754858016968">
        <ele>586.091999999999985</ele>
      </trkpt>
      <trkpt lat="46.749966954812407" lon="13.301021531224251">
        <ele>586.539999999999964</ele>
      </trkpt>
      <trkpt lat="46.75013761036098" lon="13.302072454243898">
        <ele>588.719330000000014</ele>
      </trkpt>
      <trkpt lat="46.750348582863808" lon="13.302708137780428">
        <ele>592.917329999999993</ele>
      </trkpt>
      <trkpt lat="46.751324236392975" lon="13.304294245317578">
        <ele>608.362660000000005</ele>
      </trkpt>
      <trkpt lat="46.75173788331449" lon="13.305207202211022">
        <ele>607.722660000000019</ele>
      </trkpt>
      <trkpt lat="46.752094365656376" lon="13.306481083855033">
        <ele>600.09532999999999</ele>
      </trkpt>
      <trkpt lat="46.752217831090093" lon="13.307265546172857">
        <ele>595.960659999999962</ele>
      </trkpt>
      <trkpt lat="46.75230760127306" lon="13.309330511838198">
        <ele>590.706660000000056</ele>
      </trkpt>
      <trkpt lat="46.752682942897081" lon="13.310847049579024">
        <ele>586.253330000000005</ele>
      </trkpt>
      <trkpt lat="46.753360284492373" lon="13.314448585733771">
        <ele>582.82799</ele>
      </trkpt>
      <trkpt lat="46.753386771306396" lon="13.315327512100339">
        <ele>582.956000000000017</ele>
      </trkpt>
      <trkpt lat="46.753267496824265" lon="13.316091187298298">
        <ele>583.019999999999982</ele>
      </trkpt>
      <trkpt lat="46.75274153240025" lon="13.318091696128249">
        <ele>582.120660000000044</ele>
      </trkpt>
      <trkpt lat="46.752275414764881" lon="13.319398015737534">
        <ele>582.212660000000028</ele>
      </trkpt>
      <trkpt lat="46.752296034246683" lon="13.321007173508406">
        <ele>588.944659999999999</ele>
      </trkpt>
      <trkpt lat="46.752433413639665" lon="13.32199296914041">
        <ele>592.277990000000045</ele>
      </trkpt>
      <trkpt lat="46.753087621182203" lon="13.323030397295952">
        <ele>592.629990000000021</ele>
      </trkpt>
      <trkpt lat="46.753246625885367" lon="13.323377994820476">
        <ele>593.494659999999953</ele>
      </trkpt>
      <trkpt lat="46.753296414390206" lon="13.32365870475769">
        <ele>594.168000000000006</ele>
      </trkpt>
      <trkpt lat="46.753272274509072" lon="13.324591442942619">
        <ele>595.576659999999947</ele>
      </trkpt>
      <trkpt lat="46.754054054617882" lon="13.32578812725842">
        <ele>595.446000000000026</ele>
      </trkpt>
      <trkpt lat="46.754226218909025" lon="13.326255334541202">
        <ele>594.80600000000004</ele>
      </trkpt>
      <trkpt lat="46.754539282992482" lon="13.326852126047015">
        <ele>593.39799000000005</ele>
      </trkpt>
      <trkpt lat="46.754735335707664" lon="13.327422263100743">
        <ele>591.44399999999996</ele>
      </trkpt>
      <trkpt lat="46.754812113940716" lon="13.328360030427575">
        <ele>589.200659999999971</ele>
      </trkpt>
      <trkpt lat="46.755028953775764" lon="13.329339120537043">
        <ele>586.860660000000053</ele>
      </trkpt>
      <trkpt lat="46.755067426711321" lon="13.32974748685956">
        <ele>586.220000000000027</ele>
      </trkpt>
      <trkpt lat="46.75499215722084" lon="13.330296417698264">
        <ele>585.131999999999948</ele>
      </trkpt>
      <trkpt lat="46.754566188901663" lon="13.331656465306878">
        <ele>582.15133000000003</ele>
      </trkpt>
      <trkpt lat="46.754421349614859" lon="13.332916349172592">
        <ele>579.874659999999949</ele>
      </trkpt>
      <trkpt lat="46.754408944398165" lon="13.33363501355052">
        <ele>579.425989999999956</ele>
      </trkpt>
      <trkpt lat="46.754544815048575" lon="13.334082188084722">
        <ele>579.553999999999974</ele>
      </trkpt>
      <trkpt lat="46.75473022274673" lon="13.334414782002568">
        <ele>579.969990000000053</ele>
      </trkpt>
      <trkpt lat="46.755595905706286" lon="13.335334528237581">
        <ele>579.04200000000003</ele>
      </trkpt>
      <trkpt lat="46.755854487419128" lon="13.335719425231218">
        <ele>578.049999999999955</ele>
      </trkpt>
      <trkpt lat="46.756643811240792" lon="13.337697051465511">
        <ele>575.809999999999945</ele>
      </trkpt>
      <trkpt lat="46.757483342662454" lon="13.338328460231423">
        <ele>578.211999999999989</ele>
      </trkpt>
      <trkpt lat="46.758461007848382" lon="13.339459681883454">
        <ele>586.349330000000009</ele>
      </trkpt>
      <trkpt lat="46.758997114375234" lon="13.33999696187675">
        <ele>588.368659999999977</ele>
      </trkpt>
      <trkpt lat="46.760073686018586" lon="13.34092098288238">
        <ele>593.750660000000039</ele>
      </trkpt>
      <trkpt lat="46.760198911651969" lon="13.341054590418935">
        <ele>594.615999999999985</ele>
      </trkpt>
      <trkpt lat="46.760136131197214" lon="13.341625398024917">
        <ele>595.60933</ele>
      </trkpt>
      <trkpt lat="46.760196480900049" lon="13.34204189479351">
        <ele>597.051330000000007</ele>
      </trkpt>
      <trkpt lat="46.760133365169168" lon="13.342524021863937">
        <ele>598.397330000000011</ele>
      </trkpt>
      <trkpt lat="46.760224224999547" lon="13.343566814437509">
        <ele>600.799999999999955</ele>
      </trkpt>
      <trkpt lat="46.760326232761145" lon="13.343956405296922">
        <ele>601.504000000000019</ele>
      </trkpt>
      <trkpt lat="46.760497726500034" lon="13.34430031478405">
        <ele>601.727989999999977</ele>
      </trkpt>
      <trkpt lat="46.760747423395514" lon="13.344558896496892">
        <ele>601.47199999999998</ele>
      </trkpt>
      <trkpt lat="46.761595588177443" lon="13.345216372981668">
        <ele>598.172659999999951</ele>
      </trkpt>
      <trkpt lat="46.761897504329681" lon="13.345625409856439">
        <ele>597.531989999999951</ele>
      </trkpt>
      <trkpt lat="46.762172011658549" lon="13.346229996532202">
        <ele>595.577999999999975</ele>
      </trkpt>
      <trkpt lat="46.762704011052847" lon="13.346611373126507">
        <ele>592.951329999999984</ele>
      </trkpt>
      <trkpt lat="46.762828649953008" lon="13.346775490790606">
        <ele>592.374000000000024</ele>
      </trkpt>
      <trkpt lat="46.7634541913867" lon="13.348222207278013">
        <ele>588.847999999999956</ele>
      </trkpt>
      <trkpt lat="46.764031033962965" lon="13.34880793467164">
        <ele>587.371999999999957</ele>
      </trkpt>
      <trkpt lat="46.765683777630329" lon="13.351784935221076">
        <ele>588.237330000000043</ele>
      </trkpt>
      <trkpt lat="46.766603691503406" lon="13.353409599512815">
        <ele>585.995990000000006</ele>
      </trkpt>
      <trkpt lat="46.767176426947117" lon="13.353966241702437">
        <ele>581.767330000000015</ele>
      </trkpt>
      <trkpt lat="46.767623266205192" lon="13.354058358818293">
        <ele>580.581999999999994</ele>
      </trkpt>
      <trkpt lat="46.767935324460268" lon="13.354029441252351">
        <ele>579.107999999999947</ele>
      </trkpt>
      <trkpt lat="46.768193235620856" lon="13.353925757110119">
        <ele>578.691329999999994</ele>
      </trkpt>
      <trkpt lat="46.768118301406503" lon="13.355070222169161">
        <ele>578.145999999999958</ele>
      </trkpt>
      <trkpt lat="46.768705537542701" lon="13.35652238689363">
        <ele>583.080000000000041</ele>
      </trkpt>
      <trkpt lat="46.768914917483926" lon="13.356543425470591">
        <ele>583.913329999999974</ele>
      </trkpt>
      <trkpt lat="46.769938934594393" lon="13.356992192566395">
        <ele>584.075990000000047</ele>
      </trkpt>
      <trkpt lat="46.770149068906903" lon="13.357046507298946">
        <ele>583.724000000000046</ele>
      </trkpt>
      <trkpt lat="46.770937722176313" lon="13.357004933059216">
        <ele>584.171990000000051</ele>
      </trkpt>
      <trkpt lat="46.771723609417677" lon="13.357342388480902">
        <ele>586.765329999999949</ele>
      </trkpt>
      <trkpt lat="46.773501075804234" lon="13.357718819752336">
        <ele>591.733989999999949</ele>
      </trkpt>
      <trkpt lat="46.776348659768701" lon="13.357679340988398">
        <ele>596.864000000000033</ele>
      </trkpt>
      <trkpt lat="46.777616422623396" lon="13.358001373708248">
        <ele>596.991999999999962</ele>
      </trkpt>
      <trkpt lat="46.778848059475422" lon="13.358538821339607">
        <ele>596.220659999999953</ele>
      </trkpt>
      <trkpt lat="46.780434921383858" lon="13.359061516821384">
        <ele>593.045989999999961</ele>
      </trkpt>
      <trkpt lat="46.781009500846267" lon="13.359153717756271">
        <ele>593.173990000000003</ele>
      </trkpt>
      <trkpt lat="46.781972581520677" lon="13.359071826562285">
        <ele>593.141989999999964</ele>
      </trkpt>
      <trkpt lat="46.782128317281604" lon="13.35918833501637">
        <ele>592.918000000000006</ele>
      </trkpt>
      <trkpt lat="46.782873049378395" lon="13.359413472935557">
        <ele>591.605999999999995</ele>
      </trkpt>
      <trkpt lat="46.78303842432797" lon="13.359721507877111">
        <ele>590.323999999999955</ele>
      </trkpt>
      <trkpt lat="46.78346062079072" lon="13.35986508987844">
        <ele>588.850000000000023</ele>
      </trkpt>
      <trkpt lat="46.784264864400029" lon="13.360326178371906">
        <ele>584.812000000000012</ele>
      </trkpt>
      <trkpt lat="46.788142416626215" lon="13.362751733511686">
        <ele>572.600000000000023</ele>
      </trkpt>
      <trkpt lat="46.790156001225114" lon="13.363825539126992">
        <ele>570.744000000000028</ele>
      </trkpt>
      <trkpt lat="46.790628489106894" lon="13.363928804174066">
        <ele>570.807990000000018</ele>
      </trkpt>
      <trkpt lat="46.791305243968964" lon="13.363683968782425">
        <ele>571.224000000000046</ele>
      </trkpt>
      <trkpt lat="46.792002869769931" lon="13.363331090658903">
        <ele>571.607999999999947</ele>
      </trkpt>
      <trkpt lat="46.792540736496449" lon="13.363299490883946">
        <ele>572.183999999999969</ele>
      </trkpt>
      <trkpt lat="46.792742321267724" lon="13.363391272723675">
        <ele>572.439989999999966</ele>
      </trkpt>
      <trkpt lat="46.793424356728792" lon="13.363944226875901">
        <ele>572.791990000000055</ele>
      </trkpt>
      <trkpt lat="46.793866753578186" lon="13.364581922069192">
        <ele>572.279999999999973</ele>
      </trkpt>
      <trkpt lat="46.794046545401216" lon="13.364740507677197">
        <ele>571.959989999999948</ele>
      </trkpt>
      <trkpt lat="46.794782225042582" lon="13.364854250103235">
        <ele>571.480000000000018</ele>
      </trkpt>
      <trkpt lat="46.795596946030855" lon="13.365150801837444">
        <ele>571.703999999999951</ele>
      </trkpt>
      <trkpt lat="46.796753481030464" lon="13.36541055701673">
        <ele>573.691990000000033</ele>
      </trkpt>
      <trkpt lat="46.797077944502234" lon="13.365572076290846">
        <ele>574.653999999999996</ele>
      </trkpt>
      <trkpt lat="46.797908926382661" lon="13.366141458973289">
        <ele>576.610000000000014</ele>
      </trkpt>
      <trkpt lat="46.79832911118865" lon="13.366308258846402">
        <ele>576.450000000000045</ele>
      </trkpt>
      <trkpt lat="46.799051379784942" lon="13.366808071732521">
        <ele>575.809989999999971</ele>
      </trkpt>
      <trkpt lat="46.800220990553498" lon="13.367102947086096">
        <ele>575.361989999999992</ele>
      </trkpt>
      <trkpt lat="46.800972260534763" lon="13.367076041176915">
        <ele>575.073999999999955</ele>
      </trkpt>
      <trkpt lat="46.80123545229435" lon="13.366923071444035">
        <ele>574.946000000000026</ele>
      </trkpt>
      <trkpt lat="46.801428236067295" lon="13.366682594642043">
        <ele>574.720659999999953</ele>
      </trkpt>
      <trkpt lat="46.80171238258481" lon="13.366456786170602">
        <ele>574.462660000000028</ele>
      </trkpt>
      <trkpt lat="46.80193031206727" lon="13.366138273850083">
        <ele>574.39799000000005</ele>
      </trkpt>
      <trkpt lat="46.802109936252236" lon="13.366051688790321">
        <ele>574.461999999999989</ele>
      </trkpt>
      <trkpt lat="46.803114339709282" lon="13.365952698513865">
        <ele>574.460659999999962</ele>
      </trkpt>
      <trkpt lat="46.803956888616085" lon="13.36575161665678">
        <ele>574.236660000000029</ele>
      </trkpt>
      <trkpt lat="46.804245812818408" lon="13.365459172055125">
        <ele>573.980659999999943</ele>
      </trkpt>
      <trkpt lat="46.805104622617364" lon="13.365068072453141">
        <ele>572.600659999999948</ele>
      </trkpt>
      <trkpt lat="46.805555988103151" lon="13.364393413066864">
        <ele>571.991999999999962</ele>
      </trkpt>
      <trkpt lat="46.805998720228672" lon="13.363955961540341">
        <ele>572.024000000000001</ele>
      </trkpt>
      <trkpt lat="46.807060204446316" lon="13.363772984594107">
        <ele>573.144660000000044</ele>
      </trkpt>
      <trkpt lat="46.807426158338785" lon="13.363566035404801">
        <ele>573.433329999999955</ele>
      </trkpt>
      <trkpt lat="46.807627826929092" lon="13.363408707082272">
        <ele>573.849330000000009</ele>
      </trkpt>
      <trkpt lat="46.808545561507344" lon="13.362403130158782">
        <ele>573.753330000000005</ele>
      </trkpt>
      <trkpt lat="46.809131288900971" lon="13.361707851290703">
        <ele>571.831999999999994</ele>
      </trkpt>
      <trkpt lat="46.809926480054855" lon="13.360914923250675">
        <ele>569.52800000000002</ele>
      </trkpt>
      <trkpt lat="46.810770537704229" lon="13.360523991286755">
        <ele>570.168000000000006</ele>
      </trkpt>
      <trkpt lat="46.812400314956903" lon="13.359368881210685">
        <ele>572.087999999999965</ele>
      </trkpt>
      <trkpt lat="46.813186118379235" lon="13.359043663367629">
        <ele>574.941990000000033</ele>
      </trkpt>
      <trkpt lat="46.815647212788463" lon="13.357355212792754">
        <ele>573.947329999999965</ele>
      </trkpt>
      <trkpt lat="46.817035591229796" lon="13.356152158230543">
        <ele>573.687999999999988</ele>
      </trkpt>
      <trkpt lat="46.818015351891518" lon="13.354875594377518">
        <ele>572.951999999999998</ele>
      </trkpt>
      <trkpt lat="46.818820768967271" lon="13.354084510356188">
        <ele>570.871999999999957</ele>
      </trkpt>
      <trkpt lat="46.819315133616328" lon="13.353792317211628">
        <ele>569.591999999999985</ele>
      </trkpt>
      <trkpt lat="46.819782508537173" lon="13.353619147092104">
        <ele>568.855999999999995</ele>
      </trkpt>
      <trkpt lat="46.820352897047997" lon="13.353224778547883">
        <ele>569.272000000000048</ele>
      </trkpt>
      <trkpt lat="46.82095798663795" lon="13.353183204308152">
        <ele>570.711999999999989</ele>
      </trkpt>
      <trkpt lat="46.821529464796185" lon="13.353006765246391">
        <ele>572.024000000000001</ele>
      </trkpt>
      <trkpt lat="46.821993570774794" lon="13.352828649803996">
        <ele>572.375999999999976</ele>
      </trkpt>
      <trkpt lat="46.823357222601771" lon="13.351434823125601">
        <ele>568.919329999999945</ele>
      </trkpt>
      <trkpt lat="46.825082134455442" lon="13.350028088316321">
        <ele>563.886660000000006</ele>
      </trkpt>
      <trkpt lat="46.825739946216345" lon="13.349628271535039">
        <ele>558.118659999999977</ele>
      </trkpt>
      <trkpt lat="46.826965464279056" lon="13.3490966912359">
        <ele>552.605329999999981</ele>
      </trkpt>
      <trkpt lat="46.827467624098063" lon="13.349100882187486">
        <ele>557.347999999999956</ele>
      </trkpt>
      <trkpt lat="46.827580779790878" lon="13.349226024001837">
        <ele>559.816000000000031</ele>
      </trkpt>
      <trkpt lat="46.827759481966496" lon="13.349344795569777">
        <ele>561.738659999999982</ele>
      </trkpt>
      <trkpt lat="46.828045640140772" lon="13.350699227303267">
        <ele>566.191329999999994</ele>
      </trkpt>
      <trkpt lat="46.830660291016102" lon="13.355861222371459">
        <ele>567.316000000000031</ele>
      </trkpt>
      <trkpt lat="46.830720724537969" lon="13.356339074671268">
        <ele>566.866660000000024</ele>
      </trkpt>
      <trkpt lat="46.830740673467517" lon="13.359426381066442">
        <ele>563.245999999999981</ele>
      </trkpt>
      <trkpt lat="46.830984754487872" lon="13.360486021265388">
        <ele>564.271330000000034</ele>
      </trkpt>
      <trkpt lat="46.831064969301224" lon="13.360616695135832">
        <ele>564.399329999999964</ele>
      </trkpt>
      <trkpt lat="46.83274956420064" lon="13.361522359773517">
        <ele>564.111329999999953</ele>
      </trkpt>
      <trkpt lat="46.832834975793958" lon="13.361674658954144">
        <ele>564.143329999999992</ele>
      </trkpt>
      <trkpt lat="46.83286682702601" lon="13.361913710832596">
        <ele>564.111329999999953</ele>
      </trkpt>
      <trkpt lat="46.831155577674508" lon="13.36842535994947">
        <ele>562.701999999999998</ele>
      </trkpt>
      <trkpt lat="46.830741846933961" lon="13.370798360556364">
        <ele>560.969990000000053</ele>
      </trkpt>
      <trkpt lat="46.830674707889557" lon="13.371885158121586">
        <ele>560.809999999999945</ele>
      </trkpt>
      <trkpt lat="46.830670433118939" lon="13.37298771366477">
        <ele>560.618000000000052</ele>
      </trkpt>
      <trkpt lat="46.83080974034965" lon="13.374568708240986">
        <ele>562.573999999999955</ele>
      </trkpt>
      <trkpt lat="46.831249371170998" lon="13.376897200942039">
        <ele>565.518000000000029</ele>
      </trkpt>
      <trkpt lat="46.831888994202018" lon="13.379612937569618">
        <ele>565.165989999999965</ele>
      </trkpt>
      <trkpt lat="46.831952109932899" lon="13.380251722410321">
        <ele>564.813999999999965</ele>
      </trkpt>
      <trkpt lat="46.831864435225725" lon="13.380257589742541">
        <ele>564.685989999999947</ele>
      </trkpt>
      <trkpt lat="46.831785477697849" lon="13.379714777693152">
        <ele>563.950000000000045</ele>
      </trkpt>
      <trkpt lat="46.831729738041759" lon="13.379697175696492">
        <ele>563.758000000000038</ele>
      </trkpt>
      <trkpt lat="46.831171670928597" lon="13.380453642457724">
        <ele>563.405999999999949</ele>
      </trkpt>
      <trkpt lat="46.830944940447807" lon="13.380503263324499">
        <ele>563.118000000000052</ele>
      </trkpt>
      <trkpt lat="46.830768082290888" lon="13.380652377381921">
        <ele>562.798000000000002</ele>
      </trkpt>
      <trkpt lat="46.830707313492894" lon="13.380946582183242">
        <ele>562.477989999999977</ele>
      </trkpt>
      <trkpt lat="46.830549398437142" lon="13.381045404821634">
        <ele>562.125329999999963</ele>
      </trkpt>
      <trkpt lat="46.830490222200751" lon="13.381222514435649">
        <ele>561.965329999999994</ele>
      </trkpt>
      <trkpt lat="46.830461891368032" lon="13.381595592945814">
        <ele>561.26066000000003</ele>
      </trkpt>
      <trkpt lat="46.829747166484594" lon="13.382756905630231">
        <ele>560.074659999999994</ele>
      </trkpt>
      <trkpt lat="46.828803615644574" lon="13.383994828909636">
        <ele>559.046659999999974</ele>
      </trkpt>
      <trkpt lat="46.828364990651608" lon="13.385035023093224">
        <ele>558.17999999999995</ele>
      </trkpt>
      <trkpt lat="46.827595112845302" lon="13.388391137123108">
        <ele>557.956000000000017</ele>
      </trkpt>
      <trkpt lat="46.827501403167844" lon="13.389078872278333">
        <ele>557.923999999999978</ele>
      </trkpt>
      <trkpt lat="46.827614726498723" lon="13.391200918704271">
        <ele>557.508000000000038</ele>
      </trkpt>
      <trkpt lat="46.827370813116431" lon="13.392946869134903">
        <ele>557.187999999999988</ele>
      </trkpt>
      <trkpt lat="46.826939396560192" lon="13.394875880330801">
        <ele>557.124000000000024</ele>
      </trkpt>
      <trkpt lat="46.824505459517241" lon="13.404451115056872">
        <ele>555.203999999999951</ele>
      </trkpt>
      <trkpt lat="46.823979914188385" lon="13.404297223314643">
        <ele>554.755999999999972</ele>
      </trkpt>
      <trkpt lat="46.823793752118945" lon="13.404362350702286">
        <ele>554.659999999999968</ele>
      </trkpt>
      <trkpt lat="46.823312463238835" lon="13.406890500336885">
        <ele>554.467999999999961</ele>
      </trkpt>
      <trkpt lat="46.82285581715405" lon="13.408826133236289">
        <ele>554.340000000000032</ele>
      </trkpt>
      <trkpt lat="46.826197262853384" lon="13.410483319312334">
        <ele>553.506660000000011</ele>
      </trkpt>
      <trkpt lat="46.826436230912805" lon="13.410676103085279">
        <ele>552.864659999999958</ele>
      </trkpt>
      <trkpt lat="46.826212015002966" lon="13.412134973332286">
        <ele>552.479330000000004</ele>
      </trkpt>
      <trkpt lat="46.825498547405005" lon="13.41567624360323">
        <ele>550.682000000000016</ele>
      </trkpt>
      <trkpt lat="46.825093030929565" lon="13.416551984846592">
        <ele>550.809999999999945</ele>
      </trkpt>
      <trkpt lat="46.823978824540973" lon="13.419449860230088">
        <ele>552.446000000000026</ele>
      </trkpt>
      <trkpt lat="46.824819864705205" lon="13.420099038630724">
        <ele>552.895329999999944</ele>
      </trkpt>
      <trkpt lat="46.82589995674789" lon="13.420490305870771">
        <ele>553.603330000000028</ele>
      </trkpt>
      <trkpt lat="46.825985871255398" lon="13.420721227303147">
        <ele>553.668000000000006</ele>
      </trkpt>
      <trkpt lat="46.827494781464338" lon="13.421185668557882">
        <ele>553.121329999999944</ele>
      </trkpt>
      <trkpt lat="46.827869871631265" lon="13.421394545584917">
        <ele>554.08132999999998</ele>
      </trkpt>
      <trkpt lat="46.828235657885671" lon="13.421697467565536">
        <ele>555.650660000000016</ele>
      </trkpt>
      <trkpt lat="46.828829851001501" lon="13.42250288464129">
        <ele>559.015329999999949</ele>
      </trkpt>
      <trkpt lat="46.829190105199814" lon="13.422841429710388">
        <ele>560.234000000000037</ele>
      </trkpt>
      <trkpt lat="46.829696958884597" lon="13.423195397481322">
        <ele>561.389329999999973</ele>
      </trkpt>
      <trkpt lat="46.829744316637516" lon="13.423302015289664">
        <ele>561.613989999999944</ele>
      </trkpt>
      <trkpt lat="46.829753620550036" lon="13.423940716311336">
        <ele>562.477999999999952</ele>
      </trkpt>
      <trkpt lat="46.829973729327321" lon="13.424039455130696">
        <ele>562.669999999999959</ele>
      </trkpt>
      <trkpt lat="46.830396931618452" lon="13.424085639417171">
        <ele>564.463330000000042</ele>
      </trkpt>
      <trkpt lat="46.831145100295544" lon="13.424552930518985">
        <ele>569.300659999999993</ele>
      </trkpt>
      <trkpt lat="46.831232775002718" lon="13.424574723467231">
        <ele>569.781330000000025</ele>
      </trkpt>
      <trkpt lat="46.831276193261147" lon="13.424473805353045">
        <ele>570.230000000000018</ele>
      </trkpt>
      <trkpt lat="46.830935049802065" lon="13.423935603350401">
        <ele>571.384660000000054</ele>
      </trkpt>
      <trkpt lat="46.830850644037127" lon="13.424130314961076">
        <ele>570.776659999999993</ele>
      </trkpt>
      <trkpt lat="46.830754335969687" lon="13.425421882420778">
        <ele>569.368000000000052</ele>
      </trkpt>
      <trkpt lat="46.830388465896249" lon="13.426936073228717">
        <ele>570.200000000000045</ele>
      </trkpt>
      <trkpt lat="46.830395422875881" lon="13.428174834698439">
        <ele>571.384000000000015</ele>
      </trkpt>
      <trkpt lat="46.830156873911619" lon="13.429684918373823">
        <ele>572.79200000000003</ele>
      </trkpt>
      <trkpt lat="46.830059643834829" lon="13.431117050349712">
        <ele>574.653329999999983</ele>
      </trkpt>
      <trkpt lat="46.830171709880233" lon="13.432429740205407">
        <ele>576.577999999999975</ele>
      </trkpt>
      <trkpt lat="46.830457700416446" lon="13.434073682874441">
        <ele>577.569989999999962</ele>
      </trkpt>
      <trkpt lat="46.830824408680201" lon="13.435745956376195">
        <ele>581.253330000000005</ele>
      </trkpt>
      <trkpt lat="46.83113956823945" lon="13.438455490395427">
        <ele>586.50798999999995</ele>
      </trkpt>
      <trkpt lat="46.831459002569318" lon="13.440517773851752">
        <ele>586.315990000000056</ele>
      </trkpt>
      <trkpt lat="46.831416506320238" lon="13.441034434363246">
        <ele>586.059999999999945</ele>
      </trkpt>
      <trkpt lat="46.831081984564662" lon="13.442522808909416">
        <ele>585.803989999999999</ele>
      </trkpt>
      <trkpt lat="46.830936726182699" lon="13.444276051595807">
        <ele>586.82799</ele>
      </trkpt>
      <trkpt lat="46.830940581858158" lon="13.445655880495906">
        <ele>586.316000000000031</ele>
      </trkpt>
      <trkpt lat="46.830253768712282" lon="13.445645486935973">
        <ele>584.328660000000013</ele>
      </trkpt>
      <trkpt lat="46.829129755496979" lon="13.446051003411412">
        <ele>577.791990000000055</ele>
      </trkpt>
      <trkpt lat="46.828981563448906" lon="13.44604404643178">
        <ele>577.15133000000003</ele>
      </trkpt>
      <trkpt lat="46.82864997535944" lon="13.445867272093892">
        <ele>575.389329999999973</ele>
      </trkpt>
      <trkpt lat="46.827419931069016" lon="13.44498910009861">
        <ele>574.876660000000015</ele>
      </trkpt>
      <trkpt lat="46.8266661465168" lon="13.444579560309649">
        <ele>570.711999999999989</ele>
      </trkpt>
      <trkpt lat="46.824926482513547" lon="13.444189298897982">
        <ele>569.591999999999985</ele>
      </trkpt>
      <trkpt lat="46.824632277712226" lon="13.444226263090968">
        <ele>569.048000000000002</ele>
      </trkpt>
      <trkpt lat="46.824470339342952" lon="13.444119896739721">
        <ele>568.439330000000041</ele>
      </trkpt>
      <trkpt lat="46.823746310546994" lon="13.443869948387146">
        <ele>567.314660000000003</ele>
      </trkpt>
      <trkpt lat="46.823641285300255" lon="13.443853100761771">
        <ele>567.121999999999957</ele>
      </trkpt>
      <trkpt lat="46.823472389951348" lon="13.444013865664601">
        <ele>566.736660000000029</ele>
      </trkpt>
      <trkpt lat="46.823060838505626" lon="13.444899246096611">
        <ele>565.709989999999948</ele>
      </trkpt>
      <trkpt lat="46.822771159932017" lon="13.446218892931938">
        <ele>564.781989999999951</ele>
      </trkpt>
      <trkpt lat="46.822708882391453" lon="13.447008887305856">
        <ele>564.621999999999957</ele>
      </trkpt>
      <trkpt lat="46.823238115757704" lon="13.448382094502449">
        <ele>563.950000000000045</ele>
      </trkpt>
      <trkpt lat="46.823306595906615" lon="13.448673700913787">
        <ele>563.789989999999989</ele>
      </trkpt>
      <trkpt lat="46.823205258697271" lon="13.448816947638988">
        <ele>563.661989999999946</ele>
      </trkpt>
      <trkpt lat="46.822459772229195" lon="13.450166517868638">
        <ele>561.581999999999994</ele>
      </trkpt>
      <trkpt lat="46.821827441453934" lon="13.451163126155734">
        <ele>559.560659999999984</ele>
      </trkpt>
      <trkpt lat="46.821042811498046" lon="13.451782632619143">
        <ele>557.795989999999961</ele>
      </trkpt>
      <trkpt lat="46.820255583152175" lon="13.452782090753317">
        <ele>556.740000000000009</ele>
      </trkpt>
      <trkpt lat="46.81995433755219" lon="13.45303731970489">
        <ele>556.100000000000023</ele>
      </trkpt>
      <trkpt lat="46.819676142185926" lon="13.453275365754962">
        <ele>555.587999999999965</ele>
      </trkpt>
      <trkpt lat="46.819136599078774" lon="13.453839551657438">
        <ele>554.788000000000011</ele>
      </trkpt>
      <trkpt lat="46.817769426852465" lon="13.454634072259068">
        <ele>552.83132999999998</ele>
      </trkpt>
      <trkpt lat="46.817345889285207" lon="13.454900365322828">
        <ele>553.473330000000033</ele>
      </trkpt>
      <trkpt lat="46.816788828000426" lon="13.455360028892756">
        <ele>555.043999999999983</ele>
      </trkpt>
      <trkpt lat="46.816228162497282" lon="13.455981714650989">
        <ele>557.605329999999981</ele>
      </trkpt>
      <trkpt lat="46.815808061510324" lon="13.456669617444277">
        <ele>560.041330000000016</ele>
      </trkpt>
      <trkpt lat="46.815457278862596" lon="13.457388868555427">
        <ele>562.477330000000052</ele>
      </trkpt>
      <trkpt lat="46.814925614744425" lon="13.458516485989094">
        <ele>563.69399999999996</ele>
      </trkpt>
      <trkpt lat="46.814753701910377" lon="13.459497503936291">
        <ele>564.975329999999985</ele>
      </trkpt>
      <trkpt lat="46.814421778544784" lon="13.461530450731516">
        <ele>569.591999999999985</ele>
      </trkpt>
      <trkpt lat="46.814075438305736" lon="13.462824448943138">
        <ele>570.296000000000049</ele>
      </trkpt>
      <trkpt lat="46.813680566847324" lon="13.464002525433898">
        <ele>570.296000000000049</ele>
      </trkpt>
      <trkpt lat="46.812967350706458" lon="13.465778902173042">
        <ele>567.091999999999985</ele>
      </trkpt>
      <trkpt lat="46.811325587332249" lon="13.468744922429323">
        <ele>561.706000000000017</ele>
      </trkpt>
      <trkpt lat="46.810294110327959" lon="13.470594892278314">
        <ele>567.605999999999995</ele>
      </trkpt>
      <trkpt lat="46.809645602479577" lon="13.47213733009994">
        <ele>567.316659999999956</ele>
      </trkpt>
      <trkpt lat="46.809063227847219" lon="13.474449478089809">
        <ele>561.837999999999965</ele>
      </trkpt>
      <trkpt lat="46.808801963925362" lon="13.475358579307795">
        <ele>559.755329999999958</ele>
      </trkpt>
      <trkpt lat="46.808526115491986" lon="13.475911030545831">
        <ele>556.741999999999962</ele>
      </trkpt>
      <trkpt lat="46.807760344818234" lon="13.477072594687343">
        <ele>554.337999999999965</ele>
      </trkpt>
      <trkpt lat="46.806966746225953" lon="13.479365967214108">
        <ele>551.325330000000008</ele>
      </trkpt>
      <trkpt lat="46.806710343807936" lon="13.479887992143631">
        <ele>547.41533000000004</ele>
      </trkpt>
      <trkpt lat="46.80661135353148" lon="13.47993778064847">
        <ele>546.549999999999955</ele>
      </trkpt>
      <trkpt lat="46.806383617222309" lon="13.479832587763667">
        <ele>545.428660000000036</ele>
      </trkpt>
      <trkpt lat="46.805869722738862" lon="13.480115896090865">
        <ele>543.473330000000033</ele>
      </trkpt>
      <trkpt lat="46.804475476965308" lon="13.482000818476081">
        <ele>543.151989999999955</ele>
      </trkpt>
      <trkpt lat="46.803517257794738" lon="13.482947302982211">
        <ele>542.575990000000047</ele>
      </trkpt>
      <trkpt lat="46.802685605362058" lon="13.483640821650624">
        <ele>542.511999999999944</ele>
      </trkpt>
      <trkpt lat="46.800819039344788" lon="13.484757458791137">
        <ele>544.913999999999987</ele>
      </trkpt>
      <trkpt lat="46.800672775134444" lon="13.484797608107328">
        <ele>545.234659999999963</ele>
      </trkpt>
      <trkpt lat="46.800777884200215" lon="13.485624399036169">
        <ele>547.09532999999999</ele>
      </trkpt>
      <trkpt lat="46.800627009943128" lon="13.486192356795073">
        <ele>549.660660000000007</ele>
      </trkpt>
      <trkpt lat="46.799944136291742" lon="13.486821670085192">
        <ele>555.843989999999962</ele>
      </trkpt>
      <trkpt lat="46.79816490970552" lon="13.488125978037715">
        <ele>563.950000000000045</ele>
      </trkpt>
      <trkpt lat="46.798009844496846" lon="13.488410962745547">
        <ele>563.309330000000045</ele>
      </trkpt>
      <trkpt lat="46.797791663557291" lon="13.489166256040335">
        <ele>560.937999999999988</ele>
      </trkpt>
      <trkpt lat="46.798086622729897" lon="13.48960286937654">
        <ele>559.49666000000002</ele>
      </trkpt>
      <trkpt lat="46.797316996380687" lon="13.49094221368432">
        <ele>556.804660000000013</ele>
      </trkpt>
      <trkpt lat="46.797173246741295" lon="13.490851521492004">
        <ele>556.291990000000055</ele>
      </trkpt>
      <trkpt lat="46.79661987349391" lon="13.490256406366825">
        <ele>555.202660000000037</ele>
      </trkpt>
      <trkpt lat="46.796273114159703" lon="13.489793976768851">
        <ele>552.895999999999958</ele>
      </trkpt>
      <trkpt lat="46.79566316306591" lon="13.488629730418324">
        <ele>549.337999999999965</ele>
      </trkpt>
      <trkpt lat="46.795079531148076" lon="13.489005323499441">
        <ele>550.587999999999965</ele>
      </trkpt>
      <trkpt lat="46.79455348290503" lon="13.489626506343484">
        <ele>552.38399000000004</ele>
      </trkpt>
      <trkpt lat="46.793575901538134" lon="13.49047458730638">
        <ele>554.17999999999995</ele>
      </trkpt>
      <trkpt lat="46.793373143300414" lon="13.490579780191183">
        <ele>554.17999999999995</ele>
      </trkpt>
      <trkpt lat="46.792962765321136" lon="13.490674244239926">
        <ele>554.051990000000046</ele>
      </trkpt>
      <trkpt lat="46.792426574975252" lon="13.49101647734642">
        <ele>553.923999999999978</ele>
      </trkpt>
      <trkpt lat="46.792232701554894" lon="13.491724999621511">
        <ele>554.5</ele>
      </trkpt>
      <trkpt lat="46.792146451771259" lon="13.492956971749663">
        <ele>556.484000000000037</ele>
      </trkpt>
      <trkpt lat="46.792245525866747" lon="13.496287269517779">
        <ele>553.730000000000018</ele>
      </trkpt>
      <trkpt lat="46.792237227782607" lon="13.496413165703416">
        <ele>553.697999999999979</ele>
      </trkpt>
      <trkpt lat="46.792146703228354" lon="13.496467228978872">
        <ele>553.730000000000018</ele>
      </trkpt>
      <trkpt lat="46.792104290798306" lon="13.496645176783204">
        <ele>553.652140000000031</ele>
      </trkpt>
      <trkpt lat="46.792141674086452" lon="13.497510021552444">
        <ele>554.03875000000005</ele>
      </trkpt>
    </trkseg>
  </trk>

</gpx>
