<?xml version="1.0"?>
<gpx creator="GPS Visualizer http://www.gpsvisualizer.com/" version="1.1" xmlns="http://www.topografix.com/GPX/1/1" xmlns:xsi="http://www.w3.org/2001/XMLSchema-instance" xsi:schemaLocation="http://www.topografix.com/GPX/1/1 http://www.topografix.com/GPX/1/1/gpx.xsd">
<trk>
  <name>Eroica Percorso Permanente part 001</name>
  <desc></desc>
  <trkseg>
    <trkpt lat="43.467786759" lon="11.434098696">
      <ele>375.0</ele>
    </trkpt>
    <trkpt lat="43.467681818" lon="11.434230125">
      <ele>368.0</ele>
    </trkpt>
    <trkpt lat="43.467470761" lon="11.434151838">
      <ele>360.0</ele>
    </trkpt>
    <trkpt lat="43.467073794" lon="11.43434152">
      <ele>360.0</ele>
    </trkpt>
    <trkpt lat="43.466455629" lon="11.434461884">
      <ele>356.0</ele>
    </trkpt>
    <trkpt lat="43.466110965" lon="11.434407989">
      <ele>354.0</ele>
    </trkpt>
    <trkpt lat="43.465584163" lon="11.434158627">
      <ele>349.0</ele>
    </trkpt>
    <trkpt lat="43.464880837" lon="11.433262182">
      <ele>346.0</ele>
    </trkpt>
    <trkpt lat="43.464212297" lon="11.432617363">
      <ele>344.0</ele>
    </trkpt>
    <trkpt lat="43.463507462" lon="11.431013737">
      <ele>350.0</ele>
    </trkpt>
    <trkpt lat="43.462800281" lon="11.42977749">
      <ele>347.0</ele>
    </trkpt>
    <trkpt lat="43.46178079" lon="11.428421633">
      <ele>340.0</ele>
    </trkpt>
    <trkpt lat="43.460898176" lon="11.427448662">
      <ele>337.0</ele>
    </trkpt>
    <trkpt lat="43.460457791" lon="11.427085642">
      <ele>335.0</ele>
    </trkpt>
    <trkpt lat="43.457264034" lon="11.425676728">
      <ele>330.0</ele>
    </trkpt>
    <trkpt lat="43.456134321" lon="11.425455026">
      <ele>331.0</ele>
    </trkpt>
    <trkpt lat="43.45592184" lon="11.425338099">
      <ele>333.0</ele>
    </trkpt>
    <trkpt lat="43.454308072" lon="11.423606984">
      <ele>333.0</ele>
    </trkpt>
    <trkpt lat="43.45396609" lon="11.423164085">
      <ele>330.0</ele>
    </trkpt>
    <trkpt lat="43.453027066" lon="11.421676297">
      <ele>329.0</ele>
    </trkpt>
    <trkpt lat="43.452459276" lon="11.421123426">
      <ele>330.0</ele>
    </trkpt>
    <trkpt lat="43.451563837" lon="11.419825573">
      <ele>340.0</ele>
    </trkpt>
    <trkpt lat="43.451107023" lon="11.419303128">
      <ele>335.0</ele>
    </trkpt>
    <trkpt lat="43.450720785" lon="11.419104896">
      <ele>329.0</ele>
    </trkpt>
    <trkpt lat="43.450084263" lon="11.418955866">
      <ele>326.0</ele>
    </trkpt>
    <trkpt lat="43.449318074" lon="11.418625116">
      <ele>326.0</ele>
    </trkpt>
    <trkpt lat="43.448447362" lon="11.418535681">
      <ele>336.0</ele>
    </trkpt>
    <trkpt lat="43.448021896" lon="11.4183087">
      <ele>341.0</ele>
    </trkpt>
    <trkpt lat="43.447449496" lon="11.417831518">
      <ele>341.0</ele>
    </trkpt>
    <trkpt lat="43.44721254" lon="11.417726576">
      <ele>341.0</ele>
    </trkpt>
    <trkpt lat="43.446724461" lon="11.417660862">
      <ele>348.0</ele>
    </trkpt>
    <trkpt lat="43.446403937" lon="11.417543935">
      <ele>348.0</ele>
    </trkpt>
    <trkpt lat="43.446124066" lon="11.417544018">
      <ele>351.0</ele>
    </trkpt>
    <trkpt lat="43.445951482" lon="11.417738227">
      <ele>353.0</ele>
    </trkpt>
    <trkpt lat="43.445906388" lon="11.417921288">
      <ele>355.0</ele>
    </trkpt>
    <trkpt lat="43.445788287" lon="11.418566359">
      <ele>356.0</ele>
    </trkpt>
    <trkpt lat="43.445749059" lon="11.419359623">
      <ele>348.0</ele>
    </trkpt>
    <trkpt lat="43.445611093" lon="11.419641338">
      <ele>345.0</ele>
    </trkpt>
    <trkpt lat="43.444667961" lon="11.42023243">
      <ele>339.0</ele>
    </trkpt>
    <trkpt lat="43.444273677" lon="11.420772979">
      <ele>338.0</ele>
    </trkpt>
    <trkpt lat="43.443943094" lon="11.421076488">
      <ele>338.0</ele>
    </trkpt>
    <trkpt lat="43.443207163" lon="11.421584934">
      <ele>339.0</ele>
    </trkpt>
    <trkpt lat="43.442351287" lon="11.421542522">
      <ele>333.0</ele>
    </trkpt>
    <trkpt lat="43.441249989" lon="11.421301961">
      <ele>327.0</ele>
    </trkpt>
    <trkpt lat="43.440862158" lon="11.421139268">
      <ele>327.0</ele>
    </trkpt>
    <trkpt lat="43.439436899" lon="11.419981141">
      <ele>324.0</ele>
    </trkpt>
    <trkpt lat="43.43900146" lon="11.41973949">
      <ele>324.0</ele>
    </trkpt>
    <trkpt lat="43.435433619" lon="11.419092659">
      <ele>316.0</ele>
    </trkpt>
    <trkpt lat="43.434982169" lon="11.419266164">
      <ele>313.0</ele>
    </trkpt>
    <trkpt lat="43.434345983" lon="11.419921797">
      <ele>311.0</ele>
    </trkpt>
    <trkpt lat="43.433635365" lon="11.420805417">
      <ele>311.0</ele>
    </trkpt>
    <trkpt lat="43.433378963" lon="11.420885464">
      <ele>309.0</ele>
    </trkpt>
    <trkpt lat="43.433211073" lon="11.420734338">
      <ele>308.0</ele>
    </trkpt>
    <trkpt lat="43.432575641" lon="11.419398766">
      <ele>303.0</ele>
    </trkpt>
    <trkpt lat="43.431116771" lon="11.417288873">
      <ele>301.0</ele>
    </trkpt>
    <trkpt lat="43.431315422" lon="11.41767025">
      <ele>305.0</ele>
    </trkpt>
    <trkpt lat="43.431401253" lon="11.417713165">
      <ele>305.0</ele>
    </trkpt>
    <trkpt lat="43.431186676" lon="11.4173913">
      <ele>307.0</ele>
    </trkpt>
    <trkpt lat="43.431036472" lon="11.417713165">
      <ele>303.0</ele>
    </trkpt>
    <trkpt lat="43.429963589" lon="11.418464184">
      <ele>303.0</ele>
    </trkpt>
    <trkpt lat="43.429534435" lon="11.418850422">
      <ele>307.0</ele>
    </trkpt>
    <trkpt lat="43.429276943" lon="11.419000626">
      <ele>309.0</ele>
    </trkpt>
    <trkpt lat="43.428504467" lon="11.419215202">
      <ele>311.0</ele>
    </trkpt>
    <trkpt lat="43.428075314" lon="11.41951561">
      <ele>316.0</ele>
    </trkpt>
    <trkpt lat="43.427860737" lon="11.419837475">
      <ele>316.0</ele>
    </trkpt>
    <trkpt lat="43.427731991" lon="11.420202255">
      <ele>316.0</ele>
    </trkpt>
    <trkpt lat="43.427839279" lon="11.421575546">
      <ele>319.0</ele>
    </trkpt>
    <trkpt lat="43.427774906" lon="11.421940327">
      <ele>320.0</ele>
    </trkpt>
    <trkpt lat="43.427581787" lon="11.422455311">
      <ele>320.0</ele>
    </trkpt>
    <trkpt lat="43.427453041" lon="11.42264843">
      <ele>322.0</ele>
    </trkpt>
    <trkpt lat="43.42728138" lon="11.422734261">
      <ele>323.0</ele>
    </trkpt>
    <trkpt lat="43.426530361" lon="11.422863007">
      <ele>320.0</ele>
    </trkpt>
    <trkpt lat="43.426380157" lon="11.42292738">
      <ele>320.0</ele>
    </trkpt>
    <trkpt lat="43.426208496" lon="11.423099041">
      <ele>320.0</ele>
    </trkpt>
    <trkpt lat="43.426165581" lon="11.423463821">
      <ele>321.0</ele>
    </trkpt>
    <trkpt lat="43.426465988" lon="11.424815655">
      <ele>328.0</ele>
    </trkpt>
    <trkpt lat="43.426551819" lon="11.425523758">
      <ele>330.0</ele>
    </trkpt>
    <trkpt lat="43.426530361" lon="11.426017284">
      <ele>332.0</ele>
    </trkpt>
    <trkpt lat="43.426272869" lon="11.426961422">
      <ele>335.0</ele>
    </trkpt>
    <trkpt lat="43.425951004" lon="11.427476406">
      <ele>330.0</ele>
    </trkpt>
    <trkpt lat="43.425886631" lon="11.427690983">
      <ele>328.0</ele>
    </trkpt>
    <trkpt lat="43.425908089" lon="11.430351734">
      <ele>335.0</ele>
    </trkpt>
    <trkpt lat="43.4258008" lon="11.430802345">
      <ele>335.0</ele>
    </trkpt>
    <trkpt lat="43.425350189" lon="11.43204689">
      <ele>342.0</ele>
    </trkpt>
    <trkpt lat="43.425006866" lon="11.43232584">
      <ele>341.0</ele>
    </trkpt>
    <trkpt lat="43.424856663" lon="11.432669163">
      <ele>345.0</ele>
    </trkpt>
    <trkpt lat="43.424341679" lon="11.434364319">
      <ele>348.0</ele>
    </trkpt>
    <trkpt lat="43.424470425" lon="11.434836388">
      <ele>347.0</ele>
    </trkpt>
    <trkpt lat="43.425350189" lon="11.435608864">
      <ele>345.0</ele>
    </trkpt>
    <trkpt lat="43.425350189" lon="11.435759068">
      <ele>346.0</ele>
    </trkpt>
    <trkpt lat="43.425006866" lon="11.436553001">
      <ele>354.0</ele>
    </trkpt>
    <trkpt lat="43.424942493" lon="11.437454224">
      <ele>357.0</ele>
    </trkpt>
    <trkpt lat="43.425221443" lon="11.438763142">
      <ele>361.0</ele>
    </trkpt>
    <trkpt lat="43.425371647" lon="11.439127922">
      <ele>362.0</ele>
    </trkpt>
    <trkpt lat="43.425500393" lon="11.43923521">
      <ele>361.0</ele>
    </trkpt>
    <trkpt lat="43.425951004" lon="11.439321041">
      <ele>355.0</ele>
    </trkpt>
    <trkpt lat="43.42607975" lon="11.439535618">
      <ele>355.0</ele>
    </trkpt>
    <trkpt lat="43.426144123" lon="11.439943314">
      <ele>357.0</ele>
    </trkpt>
    <trkpt lat="43.426165581" lon="11.441037655">
      <ele>361.0</ele>
    </trkpt>
    <trkpt lat="43.42607975" lon="11.441380978">
      <ele>361.0</ele>
    </trkpt>
    <trkpt lat="43.425371647" lon="11.441810131">
      <ele>368.0</ele>
    </trkpt>
    <trkpt lat="43.425114155" lon="11.442153454">
      <ele>369.0</ele>
    </trkpt>
    <trkpt lat="43.424921036" lon="11.442732811">
      <ele>371.0</ele>
    </trkpt>
    <trkpt lat="43.424813747" lon="11.443741322">
      <ele>371.0</ele>
    </trkpt>
    <trkpt lat="43.424341679" lon="11.444535255">
      <ele>378.0</ele>
    </trkpt>
    <trkpt lat="43.423891068" lon="11.445500851">
      <ele>385.0</ele>
    </trkpt>
    <trkpt lat="43.42386961" lon="11.445822716">
      <ele>385.0</ele>
    </trkpt>
    <trkpt lat="43.423976898" lon="11.445972919">
      <ele>384.0</ele>
    </trkpt>
    <trkpt lat="43.424363136" lon="11.446251869">
      <ele>380.0</ele>
    </trkpt>
    <trkpt lat="43.424491882" lon="11.446487904">
      <ele>380.0</ele>
    </trkpt>
    <trkpt lat="43.42451334" lon="11.446766853">
      <ele>381.0</ele>
    </trkpt>
    <trkpt lat="43.424406052" lon="11.447303295">
      <ele>387.0</ele>
    </trkpt>
    <trkpt lat="43.424212933" lon="11.447603703">
      <ele>393.0</ele>
    </trkpt>
    <trkpt lat="43.423976898" lon="11.447839737">
      <ele>397.0</ele>
    </trkpt>
    <trkpt lat="43.42386961" lon="11.448054314">
      <ele>399.0</ele>
    </trkpt>
    <trkpt lat="43.424041271" lon="11.44919157">
      <ele>395.0</ele>
    </trkpt>
    <trkpt lat="43.423955441" lon="11.449599266">
      <ele>394.0</ele>
    </trkpt>
    <trkpt lat="43.423719406" lon="11.450071335">
      <ele>398.0</ele>
    </trkpt>
    <trkpt lat="43.423161507" lon="11.450779438">
      <ele>403.0</ele>
    </trkpt>
    <trkpt lat="43.422517776" lon="11.451272964">
      <ele>407.0</ele>
    </trkpt>
    <trkpt lat="43.421959877" lon="11.451380253">
      <ele>422.0</ele>
    </trkpt>
    <trkpt lat="43.421852589" lon="11.451551914">
      <ele>423.0</ele>
    </trkpt>
    <trkpt lat="43.421809673" lon="11.452045441">
      <ele>419.0</ele>
    </trkpt>
    <trkpt lat="43.421573639" lon="11.452753544">
      <ele>421.0</ele>
    </trkpt>
    <trkpt lat="43.421616554" lon="11.452989578">
      <ele>418.0</ele>
    </trkpt>
    <trkpt lat="43.421831131" lon="11.453418732">
      <ele>411.0</ele>
    </trkpt>
    <trkpt lat="43.421809673" lon="11.453933716">
      <ele>409.0</ele>
    </trkpt>
    <trkpt lat="43.421680927" lon="11.454126835">
      <ele>413.0</ele>
    </trkpt>
    <trkpt lat="43.421037197" lon="11.454706192">
      <ele>419.0</ele>
    </trkpt>
    <trkpt lat="43.420779705" lon="11.455178261">
      <ele>420.0</ele>
    </trkpt>
    <trkpt lat="43.420135975" lon="11.456122398">
      <ele>423.0</ele>
    </trkpt>
    <trkpt lat="43.419728279" lon="11.456615925">
      <ele>428.0</ele>
    </trkpt>
    <trkpt lat="43.419578075" lon="11.456744671">
      <ele>429.0</ele>
    </trkpt>
    <trkpt lat="43.419234753" lon="11.456851959">
      <ele>434.0</ele>
    </trkpt>
    <trkpt lat="43.419127464" lon="11.456980705">
      <ele>435.0</ele>
    </trkpt>
    <trkpt lat="43.418934345" lon="11.457667351">
      <ele>434.0</ele>
    </trkpt>
    <trkpt lat="43.418161869" lon="11.458332539">
      <ele>434.0</ele>
    </trkpt>
    <trkpt lat="43.41796875" lon="11.458418369">
      <ele>434.0</ele>
    </trkpt>
    <trkpt lat="43.417711258" lon="11.458375454">
      <ele>437.0</ele>
    </trkpt>
    <trkpt lat="43.417367935" lon="11.458117962">
      <ele>442.0</ele>
    </trkpt>
    <trkpt lat="43.417174816" lon="11.458053589">
      <ele>443.0</ele>
    </trkpt>
    <trkpt lat="43.416488171" lon="11.457989216">
      <ele>445.0</ele>
    </trkpt>
    <trkpt lat="43.416166306" lon="11.458203793">
      <ele>444.0</ele>
    </trkpt>
    <trkpt lat="43.415930271" lon="11.458547115">
      <ele>446.0</ele>
    </trkpt>
    <trkpt lat="43.415822983" lon="11.459748745">
      <ele>455.0</ele>
    </trkpt>
    <trkpt lat="43.415994644" lon="11.460800171">
      <ele>467.0</ele>
    </trkpt>
    <trkpt lat="43.416101933" lon="11.461122036">
      <ele>466.0</ele>
    </trkpt>
    <trkpt lat="43.416059017" lon="11.461315155">
      <ele>469.0</ele>
    </trkpt>
    <trkpt lat="43.415908813" lon="11.461443901">
      <ele>473.0</ele>
    </trkpt>
    <trkpt lat="43.415780067" lon="11.461422443">
      <ele>476.0</ele>
    </trkpt>
    <trkpt lat="43.415694237" lon="11.461315155">
      <ele>476.0</ele>
    </trkpt>
    <trkpt lat="43.415522575" lon="11.460800171">
      <ele>474.0</ele>
    </trkpt>
    <trkpt lat="43.415350914" lon="11.46062851">
      <ele>472.0</ele>
    </trkpt>
    <trkpt lat="43.415286541" lon="11.46062851">
      <ele>473.0</ele>
    </trkpt>
    <trkpt lat="43.415157795" lon="11.460864544">
      <ele>479.0</ele>
    </trkpt>
    <trkpt lat="43.414685726" lon="11.462452412">
      <ele>502.0</ele>
    </trkpt>
    <trkpt lat="43.414621353" lon="11.463654041">
      <ele>515.0</ele>
    </trkpt>
    <trkpt lat="43.414320946" lon="11.464211941">
      <ele>519.0</ele>
    </trkpt>
    <trkpt lat="43.413763046" lon="11.464598179">
      <ele>519.0</ele>
    </trkpt>
    <trkpt lat="43.413591385" lon="11.464662552">
      <ele>519.0</ele>
    </trkpt>
    <trkpt lat="43.413312435" lon="11.464619637">
      <ele>523.0</ele>
    </trkpt>
    <trkpt lat="43.413054943" lon="11.464469433">
      <ele>522.0</ele>
    </trkpt>
    <trkpt lat="43.412969112" lon="11.464340687">
      <ele>522.0</ele>
    </trkpt>
    <trkpt lat="43.412604332" lon="11.464340687">
      <ele>515.0</ele>
    </trkpt>
    <trkpt lat="43.412153721" lon="11.464512348">
      <ele>508.0</ele>
    </trkpt>
    <trkpt lat="43.411853313" lon="11.464705467">
      <ele>504.0</ele>
    </trkpt>
    <trkpt lat="43.411595821" lon="11.464748383">
      <ele>501.0</ele>
    </trkpt>
    <trkpt lat="43.411102295" lon="11.464469433">
      <ele>497.0</ele>
    </trkpt>
    <trkpt lat="43.410801888" lon="11.464447975">
      <ele>495.0</ele>
    </trkpt>
    <trkpt lat="43.40865612" lon="11.464576721">
      <ele>488.0</ele>
    </trkpt>
    <trkpt lat="43.40773344" lon="11.464555264">
      <ele>482.0</ele>
    </trkpt>
    <trkpt lat="43.407025337" lon="11.464641094">
      <ele>478.0</ele>
    </trkpt>
    <trkpt lat="43.40672493" lon="11.464598179">
      <ele>476.0</ele>
    </trkpt>
    <trkpt lat="43.406209946" lon="11.464383602">
      <ele>471.0</ele>
    </trkpt>
    <trkpt lat="43.405759335" lon="11.464083195">
      <ele>466.0</ele>
    </trkpt>
    <trkpt lat="43.404922485" lon="11.463139057">
      <ele>451.0</ele>
    </trkpt>
    <trkpt lat="43.404643536" lon="11.462345123">
      <ele>450.0</ele>
    </trkpt>
    <trkpt lat="43.404557705" lon="11.461808681">
      <ele>450.0</ele>
    </trkpt>
    <trkpt lat="43.404085636" lon="11.460478306">
      <ele>457.0</ele>
    </trkpt>
    <trkpt lat="43.404150009" lon="11.459856033">
      <ele>456.0</ele>
    </trkpt>
    <trkpt lat="43.40423584" lon="11.459555626">
      <ele>455.0</ele>
    </trkpt>
    <trkpt lat="43.404729366" lon="11.458632946">
      <ele>451.0</ele>
    </trkpt>
    <trkpt lat="43.405008316" lon="11.457924843">
      <ele>447.0</ele>
    </trkpt>
    <trkpt lat="43.404943943" lon="11.457023621">
      <ele>439.0</ele>
    </trkpt>
    <trkpt lat="43.404750824" lon="11.456444263">
      <ele>434.0</ele>
    </trkpt>
    <trkpt lat="43.404943943" lon="11.456315517">
      <ele>434.0</ele>
    </trkpt>
    <trkpt lat="43.405458927" lon="11.456401348">
      <ele>430.0</ele>
    </trkpt>
    <trkpt lat="43.405652046" lon="11.456358433">
      <ele>428.0</ele>
    </trkpt>
    <trkpt lat="43.405952454" lon="11.456079483">
      <ele>424.0</ele>
    </trkpt>
    <trkpt lat="43.406231403" lon="11.454792023">
      <ele>417.0</ele>
    </trkpt>
    <trkpt lat="43.406467438" lon="11.454298496">
      <ele>414.0</ele>
    </trkpt>
    <trkpt lat="43.406553268" lon="11.453912258">
      <ele>413.0</ele>
    </trkpt>
    <trkpt lat="43.40644598" lon="11.453118324">
      <ele>412.0</ele>
    </trkpt>
    <trkpt lat="43.406531811" lon="11.452474594">
      <ele>409.0</ele>
    </trkpt>
    <trkpt lat="43.406488895" lon="11.451981068">
      <ele>406.0</ele>
    </trkpt>
    <trkpt lat="43.405952454" lon="11.450800896">
      <ele>409.0</ele>
    </trkpt>
    <trkpt lat="43.405737877" lon="11.450049877">
      <ele>408.0</ele>
    </trkpt>
    <trkpt lat="43.404986858" lon="11.448719501">
      <ele>400.0</ele>
    </trkpt>
    <trkpt lat="43.403871059" lon="11.447861195">
      <ele>400.0</ele>
    </trkpt>
    <trkpt lat="43.402132988" lon="11.447002888">
      <ele>391.0</ele>
    </trkpt>
    <trkpt lat="43.401639462" lon="11.446466446">
      <ele>388.0</ele>
    </trkpt>
    <trkpt lat="43.400223255" lon="11.444385052">
      <ele>377.0</ele>
    </trkpt>
    <trkpt lat="43.399708271" lon="11.443762779">
      <ele>375.0</ele>
    </trkpt>
    <trkpt lat="43.399343491" lon="11.44356966">
      <ele>375.0</ele>
    </trkpt>
    <trkpt lat="43.398807049" lon="11.443462372">
      <ele>375.0</ele>
    </trkpt>
    <trkpt lat="43.398163319" lon="11.443591118">
      <ele>374.0</ele>
    </trkpt>
    <trkpt lat="43.397712708" lon="11.443591118">
      <ele>373.0</ele>
    </trkpt>
    <trkpt lat="43.39584589" lon="11.442840099">
      <ele>367.0</ele>
    </trkpt>
    <trkpt lat="43.395416737" lon="11.442732811">
      <ele>367.0</ele>
    </trkpt>
    <trkpt lat="43.394451141" lon="11.442689896">
      <ele>367.0</ele>
    </trkpt>
    <trkpt lat="43.393807411" lon="11.442582607">
      <ele>367.0</ele>
    </trkpt>
    <trkpt lat="43.392798901" lon="11.442303658">
      <ele>369.0</ele>
    </trkpt>
    <trkpt lat="43.392477036" lon="11.442303658">
      <ele>369.0</ele>
    </trkpt>
    <trkpt lat="43.392198086" lon="11.442410946">
      <ele>368.0</ele>
    </trkpt>
    <trkpt lat="43.391489983" lon="11.442840099">
      <ele>366.0</ele>
    </trkpt>
    <trkpt lat="43.390245438" lon="11.442883015">
      <ele>365.0</ele>
    </trkpt>
    <trkpt lat="43.389880657" lon="11.442818642">
      <ele>363.0</ele>
    </trkpt>
    <trkpt lat="43.38958025" lon="11.442239285">
      <ele>360.0</ele>
    </trkpt>
    <trkpt lat="43.388915062" lon="11.441209316">
      <ele>354.0</ele>
    </trkpt>
    <trkpt lat="43.387906551" lon="11.439878941">
      <ele>345.0</ele>
    </trkpt>
    <trkpt lat="43.387112617" lon="11.43850565">
      <ele>339.0</ele>
    </trkpt>
    <trkpt lat="43.38681221" lon="11.437175274">
      <ele>338.0</ele>
    </trkpt>
    <trkpt lat="43.385760784" lon="11.435844898">
      <ele>336.0</ele>
    </trkpt>
    <trkpt lat="43.384988308" lon="11.435265541">
      <ele>330.0</ele>
    </trkpt>
    <trkpt lat="43.384001255" lon="11.435008049">
      <ele>325.0</ele>
    </trkpt>
    <trkpt lat="43.383529186" lon="11.43481493">
      <ele>323.0</ele>
    </trkpt>
    <trkpt lat="43.382649422" lon="11.434149742">
      <ele>326.0</ele>
    </trkpt>
    <trkpt lat="43.381640911" lon="11.433935165">
      <ele>323.0</ele>
    </trkpt>
    <trkpt lat="43.380954266" lon="11.433441639">
      <ele>318.0</ele>
    </trkpt>
    <trkpt lat="43.38054657" lon="11.432754993">
      <ele>318.0</ele>
    </trkpt>
    <trkpt lat="43.380065784" lon="11.432587774">
      <ele>322.0</ele>
    </trkpt>
    <trkpt lat="43.379926393" lon="11.432608562">
      <ele>321.0</ele>
    </trkpt>
    <trkpt lat="43.37908946" lon="11.432288121">
      <ele>322.0</ele>
    </trkpt>
    <trkpt lat="43.377382318" lon="11.4314273">
      <ele>318.0</ele>
    </trkpt>
    <trkpt lat="43.376079435" lon="11.43124273">
      <ele>311.0</ele>
    </trkpt>
    <trkpt lat="43.375701662" lon="11.431110464">
      <ele>308.0</ele>
    </trkpt>
    <trkpt lat="43.374833884" lon="11.430525659">
      <ele>304.0</ele>
    </trkpt>
    <trkpt lat="43.373734765" lon="11.430121064">
      <ele>300.0</ele>
    </trkpt>
    <trkpt lat="43.371544322" lon="11.42890309">
      <ele>292.0</ele>
    </trkpt>
    <trkpt lat="43.371070242" lon="11.428720364">
      <ele>292.0</ele>
    </trkpt>
    <trkpt lat="43.369940696" lon="11.428526575">
      <ele>286.0</ele>
    </trkpt>
    <trkpt lat="43.368817689" lon="11.428436469">
      <ele>282.0</ele>
    </trkpt>
    <trkpt lat="43.368537482" lon="11.428319626">
      <ele>281.0</ele>
    </trkpt>
    <trkpt lat="43.368191225" lon="11.427936573">
      <ele>281.0</ele>
    </trkpt>
    <trkpt lat="43.367884196" lon="11.427039877">
      <ele>281.0</ele>
    </trkpt>
    <trkpt lat="43.367682192" lon="11.426790766">
      <ele>282.0</ele>
    </trkpt>
    <trkpt lat="43.36671182" lon="11.42636396">
      <ele>284.0</ele>
    </trkpt>
    <trkpt lat="43.365892321" lon="11.426302185">
      <ele>286.0</ele>
    </trkpt>
    <trkpt lat="43.365138536" lon="11.42522159">
      <ele>279.0</ele>
    </trkpt>
    <trkpt lat="43.364784988" lon="11.424595797">
      <ele>273.0</ele>
    </trkpt>
    <trkpt lat="43.36461693" lon="11.424023816">
      <ele>269.0</ele>
    </trkpt>
    <trkpt lat="43.364461362" lon="11.421681829">
      <ele>255.0</ele>
    </trkpt>
    <trkpt lat="43.36413254" lon="11.420295965">
      <ele>252.0</ele>
    </trkpt>
    <trkpt lat="43.364019971" lon="11.418901635">
      <ele>249.0</ele>
    </trkpt>
    <trkpt lat="43.363906061" lon="11.418613717">
      <ele>248.0</ele>
    </trkpt>
    <trkpt lat="43.363652425" lon="11.418475499">
      <ele>246.0</ele>
    </trkpt>
    <trkpt lat="43.362936527" lon="11.418372737">
      <ele>242.0</ele>
    </trkpt>
    <trkpt lat="43.362455238" lon="11.41823167">
      <ele>240.0</ele>
    </trkpt>
    <trkpt lat="43.362062378" lon="11.418369133">
      <ele>239.0</ele>
    </trkpt>
    <trkpt lat="43.361450164" lon="11.419163989">
      <ele>235.0</ele>
    </trkpt>
    <trkpt lat="43.359296182" lon="11.419920623">
      <ele>227.0</ele>
    </trkpt>
    <trkpt lat="43.359010275" lon="11.419860274">
      <ele>227.0</ele>
    </trkpt>
    <trkpt lat="43.356448598" lon="11.415966293">
      <ele>224.0</ele>
    </trkpt>
    <trkpt lat="43.356242236" lon="11.415838972">
      <ele>223.0</ele>
    </trkpt>
    <trkpt lat="43.356041824" lon="11.415877026">
      <ele>223.0</ele>
    </trkpt>
    <trkpt lat="43.35554352" lon="11.416171566">
      <ele>223.0</ele>
    </trkpt>
    <trkpt lat="43.355290135" lon="11.416230323">
      <ele>224.0</ele>
    </trkpt>
    <trkpt lat="43.353963867" lon="11.416076431">
      <ele>224.0</ele>
    </trkpt>
    <trkpt lat="43.353494564" lon="11.415998479">
      <ele>223.0</ele>
    </trkpt>
    <trkpt lat="43.350179018" lon="11.41501436">
      <ele>223.0</ele>
    </trkpt>
    <trkpt lat="43.350043986" lon="11.414884441">
      <ele>224.0</ele>
    </trkpt>
    <trkpt lat="43.34955004" lon="11.413916331">
      <ele>229.0</ele>
    </trkpt>
    <trkpt lat="43.349225577" lon="11.413117535">
      <ele>231.0</ele>
    </trkpt>
    <trkpt lat="43.348712772" lon="11.412238861">
      <ele>231.0</ele>
    </trkpt>
    <trkpt lat="43.348578829" lon="11.411708789">
      <ele>233.0</ele>
    </trkpt>
    <trkpt lat="43.348445725" lon="11.410533059">
      <ele>238.0</ele>
    </trkpt>
    <trkpt lat="43.348092092" lon="11.40905139">
      <ele>246.0</ele>
    </trkpt>
    <trkpt lat="43.348045824" lon="11.407960067">
      <ele>252.0</ele>
    </trkpt>
    <trkpt lat="43.348145736" lon="11.406603958">
      <ele>264.0</ele>
    </trkpt>
    <trkpt lat="43.348363666" lon="11.405793764">
      <ele>270.0</ele>
    </trkpt>
    <trkpt lat="43.348549576" lon="11.404604791">
      <ele>269.0</ele>
    </trkpt>
    <trkpt lat="43.348685782" lon="11.4042468">
      <ele>272.0</ele>
    </trkpt>
    <trkpt lat="43.349099429" lon="11.403516065">
      <ele>274.0</ele>
    </trkpt>
    <trkpt lat="43.349314425" lon="11.401865669">
      <ele>286.0</ele>
    </trkpt>
    <trkpt lat="43.349474519" lon="11.40160122">
      <ele>286.0</ele>
    </trkpt>
    <trkpt lat="43.349645929" lon="11.401543468">
      <ele>284.0</ele>
    </trkpt>
    <trkpt lat="43.349888083" lon="11.401620666">
      <ele>286.0</ele>
    </trkpt>
    <trkpt lat="43.350099893" lon="11.401611697">
      <ele>287.0</ele>
    </trkpt>
    <trkpt lat="43.350210031" lon="11.401481861">
      <ele>289.0</ele>
    </trkpt>
    <trkpt lat="43.350236937" lon="11.401296789">
      <ele>290.0</ele>
    </trkpt>
    <trkpt lat="43.350158064" lon="11.40109336">
      <ele>291.0</ele>
    </trkpt>
    <trkpt lat="43.349918174" lon="11.400779793">
      <ele>294.0</ele>
    </trkpt>
    <trkpt lat="43.34967074" lon="11.400626739">
      <ele>295.0</ele>
    </trkpt>
    <trkpt lat="43.349442584" lon="11.400658591">
      <ele>295.0</ele>
    </trkpt>
    <trkpt lat="43.348807571" lon="11.401011888">
      <ele>299.0</ele>
    </trkpt>
    <trkpt lat="43.348621828" lon="11.401020018">
      <ele>300.0</ele>
    </trkpt>
    <trkpt lat="43.348182281" lon="11.400580723">
      <ele>303.0</ele>
    </trkpt>
    <trkpt lat="43.347557662" lon="11.400133297">
      <ele>307.0</ele>
    </trkpt>
    <trkpt lat="43.347449871" lon="11.399942441">
      <ele>308.0</ele>
    </trkpt>
    <trkpt lat="43.347431095" lon="11.399725685">
      <ele>309.0</ele>
    </trkpt>
    <trkpt lat="43.347497061" lon="11.39953793">
      <ele>310.0</ele>
    </trkpt>
    <trkpt lat="43.347846838" lon="11.399197541">
      <ele>313.0</ele>
    </trkpt>
    <trkpt lat="43.348303232" lon="11.399009535">
      <ele>314.0</ele>
    </trkpt>
    <trkpt lat="43.348421082" lon="11.398876766">
      <ele>314.0</ele>
    </trkpt>
    <trkpt lat="43.348194687" lon="11.398511399">
      <ele>311.0</ele>
    </trkpt>
    <trkpt lat="43.348114137" lon="11.398489187">
      <ele>311.0</ele>
    </trkpt>
    <trkpt lat="43.347777436" lon="11.398622962">
      <ele>308.0</ele>
    </trkpt>
    <trkpt lat="43.347061789" lon="11.398767298">
      <ele>304.0</ele>
    </trkpt>
    <trkpt lat="43.346789293" lon="11.398936277">
      <ele>303.0</ele>
    </trkpt>
    <trkpt lat="43.345348863" lon="11.40107777">
      <ele>301.0</ele>
    </trkpt>
    <trkpt lat="43.344977796" lon="11.401266782">
      <ele>299.0</ele>
    </trkpt>
    <trkpt lat="43.344160477" lon="11.401365018">
      <ele>295.0</ele>
    </trkpt>
    <trkpt lat="43.343871636" lon="11.401493261">
      <ele>296.0</ele>
    </trkpt>
    <trkpt lat="43.343368219" lon="11.401834823">
      <ele>295.0</ele>
    </trkpt>
    <trkpt lat="43.343172418" lon="11.402183427">
      <ele>296.0</ele>
    </trkpt>
    <trkpt lat="43.343080468" lon="11.402881639">
      <ele>293.0</ele>
    </trkpt>
    <trkpt lat="43.3429622" lon="11.403201241">
      <ele>292.0</ele>
    </trkpt>
    <trkpt lat="43.342819624" lon="11.403304087">
      <ele>292.0</ele>
    </trkpt>
    <trkpt lat="43.342545619" lon="11.403363096">
      <ele>289.0</ele>
    </trkpt>
    <trkpt lat="43.3422748" lon="11.403534841">
      <ele>287.0</ele>
    </trkpt>
    <trkpt lat="43.34143376" lon="11.404482834">
      <ele>285.0</ele>
    </trkpt>
    <trkpt lat="43.34095398" lon="11.405229662">
      <ele>289.0</ele>
    </trkpt>
    <trkpt lat="43.339734497" lon="11.40602787">
      <ele>294.0</ele>
    </trkpt>
    <trkpt lat="43.339359742" lon="11.406694483">
      <ele>295.0</ele>
    </trkpt>
    <trkpt lat="43.338735541" lon="11.407437623">
      <ele>295.0</ele>
    </trkpt>
    <trkpt lat="43.338281494" lon="11.407800391">
      <ele>296.0</ele>
    </trkpt>
    <trkpt lat="43.338019559" lon="11.407768624">
      <ele>296.0</ele>
    </trkpt>
    <trkpt lat="43.337182626" lon="11.407007463">
      <ele>297.0</ele>
    </trkpt>
    <trkpt lat="43.336375616" lon="11.406687023">
      <ele>295.0</ele>
    </trkpt>
    <trkpt lat="43.336060038" lon="11.406724323">
      <ele>295.0</ele>
    </trkpt>
    <trkpt lat="43.33585334" lon="11.406884165">
      <ele>295.0</ele>
    </trkpt>
    <trkpt lat="43.335561818" lon="11.407248192">
      <ele>295.0</ele>
    </trkpt>
    <trkpt lat="43.335331734" lon="11.407394372">
      <ele>297.0</ele>
    </trkpt>
    <trkpt lat="43.33444979" lon="11.407462936">
      <ele>291.0</ele>
    </trkpt>
    <trkpt lat="43.334277626" lon="11.407353636">
      <ele>289.0</ele>
    </trkpt>
    <trkpt lat="43.334097583" lon="11.406011861">
      <ele>284.0</ele>
    </trkpt>
    <trkpt lat="43.334214175" lon="11.404290888">
      <ele>282.0</ele>
    </trkpt>
    <trkpt lat="43.33414536" lon="11.404041024">
      <ele>282.0</ele>
    </trkpt>
    <trkpt lat="43.333998425" lon="11.404041359">
      <ele>282.0</ele>
    </trkpt>
    <trkpt lat="43.331997078" lon="11.405087924">
      <ele>276.0</ele>
    </trkpt>
    <trkpt lat="43.330347436" lon="11.405600477">
      <ele>267.0</ele>
    </trkpt>
    <trkpt lat="43.329655929" lon="11.406042539">
      <ele>264.0</ele>
    </trkpt>
    <trkpt lat="43.32708763" lon="11.409044098">
      <ele>258.0</ele>
    </trkpt>
    <trkpt lat="43.326738859" lon="11.409586072">
      <ele>256.0</ele>
    </trkpt>
    <trkpt lat="43.326174421" lon="11.410242794">
      <ele>252.0</ele>
    </trkpt>
    <trkpt lat="43.32600276" lon="11.410271879">
      <ele>249.0</ele>
    </trkpt>
    <trkpt lat="43.325893125" lon="11.410103235">
      <ele>246.0</ele>
    </trkpt>
    <trkpt lat="43.325825064" lon="11.40981297">
      <ele>241.0</ele>
    </trkpt>
    <trkpt lat="43.32584409" lon="11.409224393">
      <ele>236.0</ele>
    </trkpt>
    <trkpt lat="43.325633537" lon="11.407073177">
      <ele>221.0</ele>
    </trkpt>
    <trkpt lat="43.325130288" lon="11.405683877">
      <ele>214.0</ele>
    </trkpt>
    <trkpt lat="43.325000368" lon="11.405129163">
      <ele>213.0</ele>
    </trkpt>
    <trkpt lat="43.324946137" lon="11.404444864">
      <ele>212.0</ele>
    </trkpt>
    <trkpt lat="43.324992992" lon="11.403068136">
      <ele>214.0</ele>
    </trkpt>
    <trkpt lat="43.325109417" lon="11.402193736">
      <ele>224.0</ele>
    </trkpt>
    <trkpt lat="43.325088294" lon="11.4007378">
      <ele>233.0</ele>
    </trkpt>
    <trkpt lat="43.325168341" lon="11.400128938">
      <ele>241.0</ele>
    </trkpt>
    <trkpt lat="43.325073458" lon="11.398025667">
      <ele>254.0</ele>
    </trkpt>
    <trkpt lat="43.325117882" lon="11.397712771">
      <ele>256.0</ele>
    </trkpt>
    <trkpt lat="43.325653737" lon="11.396073941">
      <ele>259.0</ele>
    </trkpt>
    <trkpt lat="43.325713668" lon="11.394978594">
      <ele>264.0</ele>
    </trkpt>
    <trkpt lat="43.325588694" lon="11.394159766">
      <ele>264.0</ele>
    </trkpt>
    <trkpt lat="43.325103382" lon="11.392678767">
      <ele>265.0</ele>
    </trkpt>
    <trkpt lat="43.324943036" lon="11.392507441">
      <ele>266.0</ele>
    </trkpt>
    <trkpt lat="43.324490665" lon="11.392537616">
      <ele>268.0</ele>
    </trkpt>
    <trkpt lat="43.321605194" lon="11.39167076">
      <ele>255.0</ele>
    </trkpt>
    <trkpt lat="43.320612442" lon="11.391034992">
      <ele>251.0</ele>
    </trkpt>
    <trkpt lat="43.320235424" lon="11.390906833">
      <ele>252.0</ele>
    </trkpt>
    <trkpt lat="43.320060829" lon="11.390632074">
      <ele>250.0</ele>
    </trkpt>
    <trkpt lat="43.319484238" lon="11.38781257">
      <ele>234.0</ele>
    </trkpt>
    <trkpt lat="43.319304027" lon="11.387457177">
      <ele>232.0</ele>
    </trkpt>
    <trkpt lat="43.319055839" lon="11.387236565">
      <ele>229.0</ele>
    </trkpt>
    <trkpt lat="43.318991382" lon="11.38702157">
      <ele>228.0</ele>
    </trkpt>
    <trkpt lat="43.319046199" lon="11.38678696">
      <ele>227.0</ele>
    </trkpt>
    <trkpt lat="43.319237223" lon="11.386489738">
      <ele>225.0</ele>
    </trkpt>
    <trkpt lat="43.319794871" lon="11.386130741">
      <ele>222.0</ele>
    </trkpt>
    <trkpt lat="43.320072563" lon="11.385826059">
      <ele>218.0</ele>
    </trkpt>
    <trkpt lat="43.320241878" lon="11.384808663">
      <ele>212.0</ele>
    </trkpt>
    <trkpt lat="43.320594337" lon="11.384339193">
      <ele>209.0</ele>
    </trkpt>
    <trkpt lat="43.320783265" lon="11.383966366">
      <ele>206.0</ele>
    </trkpt>
    <trkpt lat="43.320330977" lon="11.380974278">
      <ele>197.0</ele>
    </trkpt>
    <trkpt lat="43.320591822" lon="11.37868694">
      <ele>202.0</ele>
    </trkpt>
    <trkpt lat="43.32045746" lon="11.377178365">
      <ele>200.0</ele>
    </trkpt>
    <trkpt lat="43.320508674" lon="11.375777582">
      <ele>204.0</ele>
    </trkpt>
    <trkpt lat="43.320264593" lon="11.375143239">
      <ele>209.0</ele>
    </trkpt>
    <trkpt lat="43.320241878" lon="11.374932937">
      <ele>210.0</ele>
    </trkpt>
    <trkpt lat="43.320503477" lon="11.373794088">
      <ele>226.0</ele>
    </trkpt>
    <trkpt lat="43.321001697" lon="11.3726974">
      <ele>233.0</ele>
    </trkpt>
    <trkpt lat="43.321254076" lon="11.371025462">
      <ele>249.0</ele>
    </trkpt>
    <trkpt lat="43.32201004" lon="11.369318236">
      <ele>256.0</ele>
    </trkpt>
    <trkpt lat="43.32194156" lon="11.369187981">
      <ele>258.0</ele>
    </trkpt>
    <trkpt lat="43.321498996" lon="11.369409682">
      <ele>261.0</ele>
    </trkpt>
    <trkpt lat="43.321339069" lon="11.369333491">
      <ele>262.0</ele>
    </trkpt>
    <trkpt lat="43.320989041" lon="11.368942978">
      <ele>260.0</ele>
    </trkpt>
    <trkpt lat="43.320922488" lon="11.368771819">
      <ele>262.0</ele>
    </trkpt>
    <trkpt lat="43.321037823" lon="11.368229259">
      <ele>267.0</ele>
    </trkpt>
    <trkpt lat="43.321116529" lon="11.366933836">
      <ele>275.0</ele>
    </trkpt>
    <trkpt lat="43.320947634" lon="11.365713431">
      <ele>273.0</ele>
    </trkpt>
    <trkpt lat="43.320741272" lon="11.365118064">
      <ele>272.0</ele>
    </trkpt>
    <trkpt lat="43.3201335" lon="11.36400654">
      <ele>274.0</ele>
    </trkpt>
    <trkpt lat="43.319550371" lon="11.363180587">
      <ele>271.0</ele>
    </trkpt>
    <trkpt lat="43.319278965" lon="11.362452619">
      <ele>269.0</ele>
    </trkpt>
    <trkpt lat="43.318640599" lon="11.361343442">
      <ele>262.0</ele>
    </trkpt>
    <trkpt lat="43.318418982" lon="11.360739777">
      <ele>260.0</ele>
    </trkpt>
    <trkpt lat="43.317884887" lon="11.359654488">
      <ele>254.0</ele>
    </trkpt>
    <trkpt lat="43.317703838" lon="11.358941691">
      <ele>249.0</ele>
    </trkpt>
    <trkpt lat="43.317501834" lon="11.358489571">
      <ele>245.0</ele>
    </trkpt>
    <trkpt lat="43.317214921" lon="11.358305337">
      <ele>241.0</ele>
    </trkpt>
    <trkpt lat="43.316615028" lon="11.358092939">
      <ele>232.0</ele>
    </trkpt>
    <trkpt lat="43.316184366" lon="11.357416939">
      <ele>226.0</ele>
    </trkpt>
    <trkpt lat="43.31604464" lon="11.356945541">
      <ele>224.0</ele>
    </trkpt>
    <trkpt lat="43.316014968" lon="11.356162839">
      <ele>221.0</ele>
    </trkpt>
    <trkpt lat="43.31628629" lon="11.355642071">
      <ele>227.0</ele>
    </trkpt>
    <trkpt lat="43.316283859" lon="11.355370162">
      <ele>229.0</ele>
    </trkpt>
    <trkpt lat="43.316198783" lon="11.355388183">
      <ele>230.0</ele>
    </trkpt>
    <trkpt lat="43.315983117" lon="11.355836699">
      <ele>232.0</ele>
    </trkpt>
    <trkpt lat="43.31579159" lon="11.35593703">
      <ele>231.0</ele>
    </trkpt>
    <trkpt lat="43.315324886" lon="11.355785569">
      <ele>228.0</ele>
    </trkpt>
    <trkpt lat="43.315040236" lon="11.35594097">
      <ele>231.0</ele>
    </trkpt>
    <trkpt lat="43.314551739" lon="11.356389234">
      <ele>234.0</ele>
    </trkpt>
    <trkpt lat="43.314440427" lon="11.356273228">
      <ele>235.0</ele>
    </trkpt>
    <trkpt lat="43.314676378" lon="11.355260024">
      <ele>245.0</ele>
    </trkpt>
    <trkpt lat="43.31466523" lon="11.354716793">
      <ele>248.0</ele>
    </trkpt>
    <trkpt lat="43.314601695" lon="11.35444656">
      <ele>251.0</ele>
    </trkpt>
    <trkpt lat="43.314375971" lon="11.35415026">
      <ele>257.0</ele>
    </trkpt>
    <trkpt lat="43.314175559" lon="11.353690093">
      <ele>261.0</ele>
    </trkpt>
    <trkpt lat="43.31348774" lon="11.352834469">
      <ele>265.0</ele>
    </trkpt>
    <trkpt lat="43.312916933" lon="11.351674329">
      <ele>273.0</ele>
    </trkpt>
    <trkpt lat="43.3125115" lon="11.350092497">
      <ele>285.0</ele>
    </trkpt>
    <trkpt lat="43.312526336" lon="11.349764429">
      <ele>285.0</ele>
    </trkpt>
    <trkpt lat="43.312704284" lon="11.349342484">
      <ele>284.0</ele>
    </trkpt>
    <trkpt lat="43.312744265" lon="11.348960018">
      <ele>282.0</ele>
    </trkpt>
    <trkpt lat="43.312659692" lon="11.348560033">
      <ele>282.0</ele>
    </trkpt>
    <trkpt lat="43.312503537" lon="11.34822526">
      <ele>282.0</ele>
    </trkpt>
    <trkpt lat="43.312276639" lon="11.348024094">
      <ele>277.0</ele>
    </trkpt>
    <trkpt lat="43.312153341" lon="11.348268092">
      <ele>275.0</ele>
    </trkpt>
    <trkpt lat="43.311853018" lon="11.349322032">
      <ele>270.0</ele>
    </trkpt>
    <trkpt lat="43.311599968" lon="11.349680778">
      <ele>269.0</ele>
    </trkpt>
    <trkpt lat="43.310528677" lon="11.350201964">
      <ele>268.0</ele>
    </trkpt>
    <trkpt lat="43.310223827" lon="11.350473287">
      <ele>268.0</ele>
    </trkpt>
    <trkpt lat="43.309981171" lon="11.350805964">
      <ele>267.0</ele>
    </trkpt>
    <trkpt lat="43.309646063" lon="11.351524126">
      <ele>266.0</ele>
    </trkpt>
    <trkpt lat="43.309285641" lon="11.353511894">
      <ele>269.0</ele>
    </trkpt>
    <trkpt lat="43.309252281" lon="11.354306582">
      <ele>268.0</ele>
    </trkpt>
    <trkpt lat="43.30926762" lon="11.354943775">
      <ele>267.0</ele>
    </trkpt>
    <trkpt lat="43.309558639" lon="11.35630399">
      <ele>261.0</ele>
    </trkpt>
    <trkpt lat="43.309441041" lon="11.357082585">
      <ele>258.0</ele>
    </trkpt>
    <trkpt lat="43.309136862" lon="11.357529676">
      <ele>256.0</ele>
    </trkpt>
    <trkpt lat="43.308156095" lon="11.358367866">
      <ele>251.0</ele>
    </trkpt>
    <trkpt lat="43.307018168" lon="11.359664379">
      <ele>245.0</ele>
    </trkpt>
    <trkpt lat="43.306153659" lon="11.360939434">
      <ele>250.0</ele>
    </trkpt>
    <trkpt lat="43.305918295" lon="11.361429775">
      <ele>251.0</ele>
    </trkpt>
    <trkpt lat="43.305657534" lon="11.361652566">
      <ele>250.0</ele>
    </trkpt>
    <trkpt lat="43.304627733" lon="11.36182934">
      <ele>248.0</ele>
    </trkpt>
    <trkpt lat="43.304137979" lon="11.362040229">
      <ele>245.0</ele>
    </trkpt>
    <trkpt lat="43.30365384" lon="11.362470221">
      <ele>246.0</ele>
    </trkpt>
    <trkpt lat="43.30346466" lon="11.362759061">
      <ele>247.0</ele>
    </trkpt>
    <trkpt lat="43.303238936" lon="11.363790119">
      <ele>252.0</ele>
    </trkpt>
    <trkpt lat="43.303105664" lon="11.363910483">
      <ele>253.0</ele>
    </trkpt>
    <trkpt lat="43.302568467" lon="11.363982987">
      <ele>254.0</ele>
    </trkpt>
    <trkpt lat="43.302084664" lon="11.364270737">
      <ele>251.0</ele>
    </trkpt>
    <trkpt lat="43.301801523" lon="11.364737442">
      <ele>247.0</ele>
    </trkpt>
    <trkpt lat="43.30162039" lon="11.36516626">
      <ele>244.0</ele>
    </trkpt>
    <trkpt lat="43.301422494" lon="11.365365833">
      <ele>242.0</ele>
    </trkpt>
    <trkpt lat="43.300877586" lon="11.365700942">
      <ele>241.0</ele>
    </trkpt>
    <trkpt lat="43.300348688" lon="11.365735894">
      <ele>239.0</ele>
    </trkpt>
    <trkpt lat="43.300011484" lon="11.365840081">
      <ele>239.0</ele>
    </trkpt>
    <trkpt lat="43.299883492" lon="11.365947621">
      <ele>240.0</ele>
    </trkpt>
    <trkpt lat="43.299256023" lon="11.366744824">
      <ele>242.0</ele>
    </trkpt>
    <trkpt lat="43.298620088" lon="11.368160276">
      <ele>242.0</ele>
    </trkpt>
    <trkpt lat="43.298328063" lon="11.368447859">
      <ele>240.0</ele>
    </trkpt>
    <trkpt lat="43.29799966" lon="11.368536539">
      <ele>240.0</ele>
    </trkpt>
    <trkpt lat="43.29670432" lon="11.368020885">
      <ele>242.0</ele>
    </trkpt>
    <trkpt lat="43.296191683" lon="11.368060363">
      <ele>243.0</ele>
    </trkpt>
    <trkpt lat="43.295285683" lon="11.368378038">
      <ele>243.0</ele>
    </trkpt>
    <trkpt lat="43.294973122" lon="11.36864936">
      <ele>240.0</ele>
    </trkpt>
    <trkpt lat="43.294543466" lon="11.369254533">
      <ele>238.0</ele>
    </trkpt>
    <trkpt lat="43.293328425" lon="11.369969761">
      <ele>230.0</ele>
    </trkpt>
    <trkpt lat="43.29289617" lon="11.370078474">
      <ele>228.0</ele>
    </trkpt>
    <trkpt lat="43.292047922" lon="11.370064225">
      <ele>227.0</ele>
    </trkpt>
    <trkpt lat="43.291631592" lon="11.370168999">
      <ele>226.0</ele>
    </trkpt>
    <trkpt lat="43.290735735" lon="11.370662022">
      <ele>226.0</ele>
    </trkpt>
    <trkpt lat="43.29042837" lon="11.370973159">
      <ele>226.0</ele>
    </trkpt>
    <trkpt lat="43.289893772" lon="11.371781928">
      <ele>225.0</ele>
    </trkpt>
    <trkpt lat="43.289870135" lon="11.372042522">
      <ele>224.0</ele>
    </trkpt>
    <trkpt lat="43.289776929" lon="11.372165317">
      <ele>224.0</ele>
    </trkpt>
    <trkpt lat="43.289283486" lon="11.372443428">
      <ele>221.0</ele>
    </trkpt>
    <trkpt lat="43.28913454" lon="11.372624058">
      <ele>219.0</ele>
    </trkpt>
    <trkpt lat="43.289101431" lon="11.37405376">
      <ele>205.0</ele>
    </trkpt>
    <trkpt lat="43.289242163" lon="11.377815139">
      <ele>176.0</ele>
    </trkpt>
    <trkpt lat="43.288470525" lon="11.378251836">
      <ele>190.0</ele>
    </trkpt>
    <trkpt lat="43.28805076" lon="11.378840581">
      <ele>201.0</ele>
    </trkpt>
    <trkpt lat="43.288046736" lon="11.379363276">
      <ele>200.0</ele>
    </trkpt>
    <trkpt lat="43.287988063" lon="11.379538961">
      <ele>201.0</ele>
    </trkpt>
    <trkpt lat="43.287385739" lon="11.379840961">
      <ele>202.0</ele>
    </trkpt>
    <trkpt lat="43.28707343" lon="11.379876584">
      <ele>202.0</ele>
    </trkpt>
    <trkpt lat="43.286492564" lon="11.379716238">
      <ele>203.0</ele>
    </trkpt>
    <trkpt lat="43.285378441" lon="11.379028922">
      <ele>198.0</ele>
    </trkpt>
    <trkpt lat="43.284386359" lon="11.378879137">
      <ele>189.0</ele>
    </trkpt>
    <trkpt lat="43.284070278" lon="11.378671099">
      <ele>185.0</ele>
    </trkpt>
    <trkpt lat="43.283587396" lon="11.377889821">
      <ele>179.0</ele>
    </trkpt>
    <trkpt lat="43.283241978" lon="11.377741294">
      <ele>178.0</ele>
    </trkpt>
    <trkpt lat="43.282674858" lon="11.377875069">
      <ele>176.0</ele>
    </trkpt>
    <trkpt lat="43.282267917" lon="11.377835423">
      <ele>177.0</ele>
    </trkpt>
    <trkpt lat="43.282042779" lon="11.377570974">
      <ele>176.0</ele>
    </trkpt>
    <trkpt lat="43.281922834" lon="11.377199488">
      <ele>176.0</ele>
    </trkpt>
    <trkpt lat="43.281543721" lon="11.375368377">
      <ele>181.0</ele>
    </trkpt>
    <trkpt lat="43.281575236" lon="11.374774436">
      <ele>185.0</ele>
    </trkpt>
    <trkpt lat="43.281742036" lon="11.374279233">
      <ele>187.0</ele>
    </trkpt>
    <trkpt lat="43.282127436" lon="11.373530058">
      <ele>192.0</ele>
    </trkpt>
    <trkpt lat="43.282256937" lon="11.373105431">
      <ele>194.0</ele>
    </trkpt>
    <trkpt lat="43.282436561" lon="11.370949773">
      <ele>204.0</ele>
    </trkpt>
    <trkpt lat="43.282545274" lon="11.370319035">
      <ele>206.0</ele>
    </trkpt>
    <trkpt lat="43.282729425" lon="11.369791059">
      <ele>208.0</ele>
    </trkpt>
    <trkpt lat="43.283284642" lon="11.36865682">
      <ele>210.0</ele>
    </trkpt>
    <trkpt lat="43.283468038" lon="11.368005797">
      <ele>212.0</ele>
    </trkpt>
    <trkpt lat="43.2834931" lon="11.367483437">
      <ele>213.0</ele>
    </trkpt>
    <trkpt lat="43.283423195" lon="11.366981361">
      <ele>213.0</ele>
    </trkpt>
    <trkpt lat="43.283042321" lon="11.366158761">
      <ele>216.0</ele>
    </trkpt>
    <trkpt lat="43.282390796" lon="11.365437163">
      <ele>219.0</ele>
    </trkpt>
    <trkpt lat="43.282217961" lon="11.365070539">
      <ele>219.0</ele>
    </trkpt>
    <trkpt lat="43.2821758" lon="11.364527559">
      <ele>220.0</ele>
    </trkpt>
    <trkpt lat="43.28231209" lon="11.363776624">
      <ele>221.0</ele>
    </trkpt>
    <trkpt lat="43.283006866" lon="11.362322364">
      <ele>222.0</ele>
    </trkpt>
    <trkpt lat="43.283266872" lon="11.361600766">
      <ele>223.0</ele>
    </trkpt>
    <trkpt lat="43.283486059" lon="11.360488571">
      <ele>225.0</ele>
    </trkpt>
    <trkpt lat="43.28410062" lon="11.358384378">
      <ele>230.0</ele>
    </trkpt>
    <trkpt lat="43.284402536" lon="11.357038161">
      <ele>234.0</ele>
    </trkpt>
    <trkpt lat="43.285087924" lon="11.354903793">
      <ele>239.0</ele>
    </trkpt>
    <trkpt lat="43.285075938" lon="11.354475478">
      <ele>238.0</ele>
    </trkpt>
    <trkpt lat="43.284924896" lon="11.354105333">
      <ele>237.0</ele>
    </trkpt>
    <trkpt lat="43.284464059" lon="11.353420028">
      <ele>237.0</ele>
    </trkpt>
    <trkpt lat="43.284325087" lon="11.353338221">
      <ele>237.0</ele>
    </trkpt>
    <trkpt lat="43.283545068" lon="11.353643825">
      <ele>239.0</ele>
    </trkpt>
    <trkpt lat="43.283132762" lon="11.353619182">
      <ele>240.0</ele>
    </trkpt>
    <trkpt lat="43.281267118" lon="11.353206877">
      <ele>240.0</ele>
    </trkpt>
    <trkpt lat="43.279648237" lon="11.35269382">
      <ele>235.0</ele>
    </trkpt>
    <trkpt lat="43.278989838" lon="11.352608241">
      <ele>234.0</ele>
    </trkpt>
    <trkpt lat="43.278582981" lon="11.352727264">
      <ele>234.0</ele>
    </trkpt>
    <trkpt lat="43.277217234" lon="11.353561264">
      <ele>236.0</ele>
    </trkpt>
    <trkpt lat="43.276801659" lon="11.353695961">
      <ele>236.0</ele>
    </trkpt>
    <trkpt lat="43.275118992" lon="11.354024364">
      <ele>231.0</ele>
    </trkpt>
    <trkpt lat="43.274707021" lon="11.354165683">
      <ele>231.0</ele>
    </trkpt>
    <trkpt lat="43.274434023" lon="11.354391491">
      <ele>230.0</ele>
    </trkpt>
    <trkpt lat="43.273744695" lon="11.355314339">
      <ele>227.0</ele>
    </trkpt>
    <trkpt lat="43.271966642" lon="11.35731644">
      <ele>230.0</ele>
    </trkpt>
    <trkpt lat="43.271765141" lon="11.357373437">
      <ele>230.0</ele>
    </trkpt>
    <trkpt lat="43.270526882" lon="11.356107183">
      <ele>217.0</ele>
    </trkpt>
    <trkpt lat="43.270205269" lon="11.355915992">
      <ele>215.0</ele>
    </trkpt>
    <trkpt lat="43.269967139" lon="11.355911633">
      <ele>214.0</ele>
    </trkpt>
    <trkpt lat="43.269527676" lon="11.356092263">
      <ele>211.0</ele>
    </trkpt>
    <trkpt lat="43.269234141" lon="11.356401974">
      <ele>208.0</ele>
    </trkpt>
    <trkpt lat="43.269001879" lon="11.356928274">
      <ele>205.0</ele>
    </trkpt>
    <trkpt lat="43.268901799" lon="11.358381025">
      <ele>199.0</ele>
    </trkpt>
    <trkpt lat="43.268769616" lon="11.358870361">
      <ele>195.0</ele>
    </trkpt>
    <trkpt lat="43.268533498" lon="11.359212259">
      <ele>191.0</ele>
    </trkpt>
    <trkpt lat="43.268172741" lon="11.359421387">
      <ele>188.0</ele>
    </trkpt>
    <trkpt lat="43.26776756" lon="11.359406719">
      <ele>187.0</ele>
    </trkpt>
    <trkpt lat="43.266795175" lon="11.358989384">
      <ele>188.0</ele>
    </trkpt>
    <trkpt lat="43.26650843" lon="11.359012434">
      <ele>189.0</ele>
    </trkpt>
    <trkpt lat="43.266348336" lon="11.358960634">
      <ele>189.0</ele>
    </trkpt>
    <trkpt lat="43.26604818" lon="11.358649665">
      <ele>189.0</ele>
    </trkpt>
    <trkpt lat="43.265306298" lon="11.35831397">
      <ele>188.0</ele>
    </trkpt>
    <trkpt lat="43.265048135" lon="11.35820576">
      <ele>188.0</ele>
    </trkpt>
    <trkpt lat="43.26472736" lon="11.358240126">
      <ele>188.0</ele>
    </trkpt>
    <trkpt lat="43.264161162" lon="11.359111173">
      <ele>188.0</ele>
    </trkpt>
    <trkpt lat="43.263384579" lon="11.359754568">
      <ele>186.0</ele>
    </trkpt>
    <trkpt lat="43.261783887" lon="11.361536561">
      <ele>185.0</ele>
    </trkpt>
    <trkpt lat="43.261271836" lon="11.361861024">
      <ele>186.0</ele>
    </trkpt>
    <trkpt lat="43.260785183" lon="11.362003936">
      <ele>185.0</ele>
    </trkpt>
    <trkpt lat="43.26045787" lon="11.361967893">
      <ele>187.0</ele>
    </trkpt>
    <trkpt lat="43.259943975" lon="11.361809392">
      <ele>190.0</ele>
    </trkpt>
    <trkpt lat="43.258977626" lon="11.361338664">
      <ele>196.0</ele>
    </trkpt>
    <trkpt lat="43.258066177" lon="11.36053836">
      <ele>199.0</ele>
    </trkpt>
    <trkpt lat="43.257791335" lon="11.360360663">
      <ele>202.0</ele>
    </trkpt>
    <trkpt lat="43.257273166" lon="11.360144075">
      <ele>204.0</ele>
    </trkpt>
    <trkpt lat="43.256720882" lon="11.360112391">
      <ele>206.0</ele>
    </trkpt>
    <trkpt lat="43.256201791" lon="11.360216159">
      <ele>209.0</ele>
    </trkpt>
    <trkpt lat="43.255511038" lon="11.360656796">
      <ele>211.0</ele>
    </trkpt>
    <trkpt lat="43.255204428" lon="11.360943373">
      <ele>213.0</ele>
    </trkpt>
    <trkpt lat="43.25461912" lon="11.362015335">
      <ele>220.0</ele>
    </trkpt>
    <trkpt lat="43.25449096" lon="11.362147434">
      <ele>221.0</ele>
    </trkpt>
    <trkpt lat="43.254175633" lon="11.362336362">
      <ele>226.0</ele>
    </trkpt>
    <trkpt lat="43.253312297" lon="11.362521434">
      <ele>230.0</ele>
    </trkpt>
    <trkpt lat="43.25288197" lon="11.362703238">
      <ele>234.0</ele>
    </trkpt>
    <trkpt lat="43.25237277" lon="11.363053182">
      <ele>238.0</ele>
    </trkpt>
    <trkpt lat="43.251920566" lon="11.363523994">
      <ele>238.0</ele>
    </trkpt>
    <trkpt lat="43.251541285" lon="11.363637736">
      <ele>235.0</ele>
    </trkpt>
    <trkpt lat="43.250012593" lon="11.363149239">
      <ele>227.0</ele>
    </trkpt>
    <trkpt lat="43.249576818" lon="11.363087296">
      <ele>227.0</ele>
    </trkpt>
    <trkpt lat="43.249302562" lon="11.363175977">
      <ele>227.0</ele>
    </trkpt>
    <trkpt lat="43.248925041" lon="11.363549978">
      <ele>229.0</ele>
    </trkpt>
    <trkpt lat="43.24838399" lon="11.36433444">
      <ele>228.0</ele>
    </trkpt>
    <trkpt lat="43.248270331" lon="11.364744399">
      <ele>228.0</ele>
    </trkpt>
    <trkpt lat="43.248204868" lon="11.365416795">
      <ele>230.0</ele>
    </trkpt>
    <trkpt lat="43.247952238" lon="11.365856593">
      <ele>229.0</ele>
    </trkpt>
    <trkpt lat="43.247640934" lon="11.366064381">
      <ele>227.0</ele>
    </trkpt>
    <trkpt lat="43.246609624" lon="11.366391359">
      <ele>229.0</ele>
    </trkpt>
    <trkpt lat="43.246236881" lon="11.36664466">
      <ele>230.0</ele>
    </trkpt>
    <trkpt lat="43.245433141" lon="11.367365168">
      <ele>225.0</ele>
    </trkpt>
    <trkpt lat="43.244085666" lon="11.367835896">
      <ele>228.0</ele>
    </trkpt>
    <trkpt lat="43.243159298" lon="11.36806204">
      <ele>228.0</ele>
    </trkpt>
    <trkpt lat="43.242846318" lon="11.368186092">
      <ele>227.0</ele>
    </trkpt>
    <trkpt lat="43.242545072" lon="11.368435286">
      <ele>225.0</ele>
    </trkpt>
    <trkpt lat="43.241658267" lon="11.369570531">
      <ele>221.0</ele>
    </trkpt>
    <trkpt lat="43.240712034" lon="11.370506035">
      <ele>219.0</ele>
    </trkpt>
    <trkpt lat="43.240378434" lon="11.370924292">
      <ele>218.0</ele>
    </trkpt>
    <trkpt lat="43.239631439" lon="11.372413337">
      <ele>216.0</ele>
    </trkpt>
    <trkpt lat="43.239416191" lon="11.372684659">
      <ele>215.0</ele>
    </trkpt>
    <trkpt lat="43.238842534" lon="11.372741237">
      <ele>215.0</ele>
    </trkpt>
    <trkpt lat="43.238453362" lon="11.372923041">
      <ele>214.0</ele>
    </trkpt>
    <trkpt lat="43.238242976" lon="11.373198135">
      <ele>214.0</ele>
    </trkpt>
    <trkpt lat="43.238313133" lon="11.374776363">
      <ele>210.0</ele>
    </trkpt>
    <trkpt lat="43.238203917" lon="11.375140138">
      <ele>208.0</ele>
    </trkpt>
    <trkpt lat="43.237053081" lon="11.376312263">
      <ele>202.0</ele>
    </trkpt>
    <trkpt lat="43.23673306" lon="11.376440842">
      <ele>200.0</ele>
    </trkpt>
    <trkpt lat="43.236513538" lon="11.376388539">
      <ele>199.0</ele>
    </trkpt>
    <trkpt lat="43.236341542" lon="11.376238586">
      <ele>198.0</ele>
    </trkpt>
    <trkpt lat="43.236207934" lon="11.375914961">
      <ele>197.0</ele>
    </trkpt>
    <trkpt lat="43.236178178" lon="11.375645986">
      <ele>196.0</ele>
    </trkpt>
    <trkpt lat="43.236236935" lon="11.375173163">
      <ele>195.0</ele>
    </trkpt>
    <trkpt lat="43.236512365" lon="11.374445781">
      <ele>193.0</ele>
    </trkpt>
    <trkpt lat="43.236562572" lon="11.374122659">
      <ele>192.0</ele>
    </trkpt>
    <trkpt lat="43.236525441" lon="11.373714041">
      <ele>190.0</ele>
    </trkpt>
    <trkpt lat="43.236360736" lon="11.37348949">
      <ele>189.0</ele>
    </trkpt>
    <trkpt lat="43.236035267" lon="11.373412125">
      <ele>187.0</ele>
    </trkpt>
    <trkpt lat="43.234160235" lon="11.373562999">
      <ele>182.0</ele>
    </trkpt>
    <trkpt lat="43.233691771" lon="11.373657798">
      <ele>184.0</ele>
    </trkpt>
    <trkpt lat="43.229926284" lon="11.376338163">
      <ele>183.0</ele>
    </trkpt>
    <trkpt lat="43.229107289" lon="11.377025563">
      <ele>183.0</ele>
    </trkpt>
    <trkpt lat="43.22863346" lon="11.377270063">
      <ele>184.0</ele>
    </trkpt>
    <trkpt lat="43.228182429" lon="11.37731256">
      <ele>183.0</ele>
    </trkpt>
    <trkpt lat="43.227522774" lon="11.377331922">
      <ele>183.0</ele>
    </trkpt>
    <trkpt lat="43.227085741" lon="11.377210468">
      <ele>183.0</ele>
    </trkpt>
    <trkpt lat="43.226692462" lon="11.37693638">
      <ele>184.0</ele>
    </trkpt>
    <trkpt lat="43.226343859" lon="11.376538826">
      <ele>183.0</ele>
    </trkpt>
    <trkpt lat="43.226136994" lon="11.37610808">
      <ele>182.0</ele>
    </trkpt>
    <trkpt lat="43.226008834" lon="11.375534087">
      <ele>183.0</ele>
    </trkpt>
    <trkpt lat="43.226126516" lon="11.374071781">
      <ele>185.0</ele>
    </trkpt>
    <trkpt lat="43.226088965" lon="11.373549085">
      <ele>184.0</ele>
    </trkpt>
    <trkpt lat="43.225730387" lon="11.372395735">
      <ele>183.0</ele>
    </trkpt>
    <trkpt lat="43.22550483" lon="11.372161629">
      <ele>181.0</ele>
    </trkpt>
    <trkpt lat="43.225371558" lon="11.372228097">
      <ele>180.0</ele>
    </trkpt>
    <trkpt lat="43.225247338" lon="11.372452062">
      <ele>180.0</ele>
    </trkpt>
    <trkpt lat="43.224943662" lon="11.373264771">
      <ele>182.0</ele>
    </trkpt>
    <trkpt lat="43.224679464" lon="11.373496363">
      <ele>185.0</ele>
    </trkpt>
    <trkpt lat="43.224408058" lon="11.373556461">
      <ele>187.0</ele>
    </trkpt>
    <trkpt lat="43.22418334" lon="11.373510277">
      <ele>191.0</ele>
    </trkpt>
    <trkpt lat="43.223795593" lon="11.373231327">
      <ele>195.0</ele>
    </trkpt>
    <trkpt lat="43.223615969" lon="11.372761438">
      <ele>199.0</ele>
    </trkpt>
    <trkpt lat="43.223630637" lon="11.371738929">
      <ele>201.0</ele>
    </trkpt>
    <trkpt lat="43.223551093" lon="11.371508762">
      <ele>201.0</ele>
    </trkpt>
    <trkpt lat="43.223385299" lon="11.371275075">
      <ele>204.0</ele>
    </trkpt>
    <trkpt lat="43.223239537" lon="11.371186059">
      <ele>206.0</ele>
    </trkpt>
    <trkpt lat="43.223072821" lon="11.371203326">
      <ele>209.0</ele>
    </trkpt>
    <trkpt lat="43.222941561" lon="11.371322684">
      <ele>211.0</ele>
    </trkpt>
    <trkpt lat="43.222460188" lon="11.372124162">
      <ele>219.0</ele>
    </trkpt>
    <trkpt lat="43.222098174" lon="11.372492965">
      <ele>223.0</ele>
    </trkpt>
    <trkpt lat="43.221901534" lon="11.372614335">
      <ele>226.0</ele>
    </trkpt>
    <trkpt lat="43.220821777" lon="11.372889681">
      <ele>232.0</ele>
    </trkpt>
    <trkpt lat="43.219747217" lon="11.373087661">
      <ele>241.0</ele>
    </trkpt>
    <trkpt lat="43.219088987" lon="11.373052122">
      <ele>253.0</ele>
    </trkpt>
    <trkpt lat="43.218537876" lon="11.372840898">
      <ele>250.0</ele>
    </trkpt>
    <trkpt lat="43.21847518" lon="11.372908121">
      <ele>249.0</ele>
    </trkpt>
    <trkpt lat="43.218358839" lon="11.37269807">
      <ele>253.0</ele>
    </trkpt>
    <trkpt lat="43.217848632" lon="11.372432364">
      <ele>248.0</ele>
    </trkpt>
    <trkpt lat="43.217785936" lon="11.37248517">
      <ele>260.0</ele>
    </trkpt>
    <trkpt lat="43.217683593" lon="11.37247134">
      <ele>253.0</ele>
    </trkpt>
    <trkpt lat="43.21769516" lon="11.372399759">
      <ele>254.0</ele>
    </trkpt>
    <trkpt lat="43.217708739" lon="11.372541161">
      <ele>261.0</ele>
    </trkpt>
    <trkpt lat="43.217612682" lon="11.372314598">
      <ele>247.0</ele>
    </trkpt>
    <trkpt lat="43.215972679" lon="11.371473894">
      <ele>246.0</ele>
    </trkpt>
    <trkpt lat="43.215376642" lon="11.370907277">
      <ele>250.0</ele>
    </trkpt>
    <trkpt lat="43.215068523" lon="11.370725641">
      <ele>249.0</ele>
    </trkpt>
    <trkpt lat="43.214688068" lon="11.370719019">
      <ele>246.0</ele>
    </trkpt>
    <trkpt lat="43.213753738" lon="11.371291336">
      <ele>234.0</ele>
    </trkpt>
    <trkpt lat="43.21330254" lon="11.371305333">
      <ele>228.0</ele>
    </trkpt>
    <trkpt lat="43.212364018" lon="11.369486796">
      <ele>231.0</ele>
    </trkpt>
    <trkpt lat="43.211999992" lon="11.36905496">
      <ele>232.0</ele>
    </trkpt>
    <trkpt lat="43.211346623" lon="11.368689174">
      <ele>236.0</ele>
    </trkpt>
    <trkpt lat="43.209807035" lon="11.368244682">
      <ele>240.0</ele>
    </trkpt>
    <trkpt lat="43.209582986" lon="11.36836756">
      <ele>242.0</ele>
    </trkpt>
    <trkpt lat="43.209474441" lon="11.368505862">
      <ele>242.0</ele>
    </trkpt>
    <trkpt lat="43.208219837" lon="11.370370081">
      <ele>261.0</ele>
    </trkpt>
    <trkpt lat="43.207225073" lon="11.371724261">
      <ele>275.0</ele>
    </trkpt>
    <trkpt lat="43.206770774" lon="11.372567061">
      <ele>283.0</ele>
    </trkpt>
    <trkpt lat="43.206476737" lon="11.372899069">
      <ele>281.0</ele>
    </trkpt>
    <trkpt lat="43.205541736" lon="11.373619242">
      <ele>276.0</ele>
    </trkpt>
    <trkpt lat="43.205176871" lon="11.373810265">
      <ele>273.0</ele>
    </trkpt>
    <trkpt lat="43.204755262" lon="11.373777995">
      <ele>268.0</ele>
    </trkpt>
    <trkpt lat="43.203905085" lon="11.374029871">
      <ele>256.0</ele>
    </trkpt>
    <trkpt lat="43.203341067" lon="11.374426419">
      <ele>254.0</ele>
    </trkpt>
    <trkpt lat="43.202024018" lon="11.374835875">
      <ele>260.0</ele>
    </trkpt>
    <trkpt lat="43.201615736" lon="11.375040142">
      <ele>264.0</ele>
    </trkpt>
    <trkpt lat="43.201245591" lon="11.375327725">
      <ele>272.0</ele>
    </trkpt>
    <trkpt lat="43.201064039" lon="11.375375083">
      <ele>272.0</ele>
    </trkpt>
    <trkpt lat="43.20086916" lon="11.375347842">
      <ele>271.0</ele>
    </trkpt>
    <trkpt lat="43.200364066" lon="11.375045842">
      <ele>266.0</ele>
    </trkpt>
    <trkpt lat="43.200146472" lon="11.37500586">
      <ele>262.0</ele>
    </trkpt>
    <trkpt lat="43.199715978" lon="11.375674736">
      <ele>253.0</ele>
    </trkpt>
    <trkpt lat="43.199378019" lon="11.376062483">
      <ele>248.0</ele>
    </trkpt>
    <trkpt lat="43.199005779" lon="11.376256859">
      <ele>245.0</ele>
    </trkpt>
    <trkpt lat="43.198566483" lon="11.376360795">
      <ele>241.0</ele>
    </trkpt>
    <trkpt lat="43.19817136" lon="11.376620885">
      <ele>239.0</ele>
    </trkpt>
    <trkpt lat="43.197833821" lon="11.377024893">
      <ele>237.0</ele>
    </trkpt>
    <trkpt lat="43.195879664" lon="11.37830833">
      <ele>231.0</ele>
    </trkpt>
    <trkpt lat="43.195418827" lon="11.378523996">
      <ele>233.0</ele>
    </trkpt>
    <trkpt lat="43.195066871" lon="11.378834294">
      <ele>235.0</ele>
    </trkpt>
    <trkpt lat="43.194816671" lon="11.37918449">
      <ele>236.0</ele>
    </trkpt>
    <trkpt lat="43.194585331" lon="11.379812462">
      <ele>236.0</ele>
    </trkpt>
    <trkpt lat="43.194483826" lon="11.380789625">
      <ele>234.0</ele>
    </trkpt>
    <trkpt lat="43.194334796" lon="11.381369065">
      <ele>234.0</ele>
    </trkpt>
    <trkpt lat="43.193678074" lon="11.383201266">
      <ele>231.0</ele>
    </trkpt>
    <trkpt lat="43.193438938" lon="11.383497482">
      <ele>231.0</ele>
    </trkpt>
    <trkpt lat="43.19278758" lon="11.383812977">
      <ele>228.0</ele>
    </trkpt>
    <trkpt lat="43.192443838" lon="11.383956727">
      <ele>227.0</ele>
    </trkpt>
    <trkpt lat="43.191982666" lon="11.383976927">
      <ele>226.0</ele>
    </trkpt>
    <trkpt lat="43.191661891" lon="11.384109026">
      <ele>226.0</ele>
    </trkpt>
    <trkpt lat="43.190891761" lon="11.385133797">
      <ele>223.0</ele>
    </trkpt>
    <trkpt lat="43.190410221" lon="11.385471672">
      <ele>223.0</ele>
    </trkpt>
    <trkpt lat="43.188955374" lon="11.385952542">
      <ele>221.0</ele>
    </trkpt>
    <trkpt lat="43.188659996" lon="11.385998139">
      <ele>223.0</ele>
    </trkpt>
    <trkpt lat="43.188514989" lon="11.385944663">
      <ele>225.0</ele>
    </trkpt>
    <trkpt lat="43.18790202" lon="11.385391038">
      <ele>232.0</ele>
    </trkpt>
    <trkpt lat="43.187368764" lon="11.385222562">
      <ele>241.0</ele>
    </trkpt>
    <trkpt lat="43.18643502" lon="11.385393972">
      <ele>249.0</ele>
    </trkpt>
    <trkpt lat="43.185520386" lon="11.385387266">
      <ele>259.0</ele>
    </trkpt>
    <trkpt lat="43.185383677" lon="11.385303698">
      <ele>262.0</ele>
    </trkpt>
    <trkpt lat="43.184869532" lon="11.384582017">
      <ele>269.0</ele>
    </trkpt>
    <trkpt lat="43.184585469" lon="11.384282028">
      <ele>273.0</ele>
    </trkpt>
    <trkpt lat="43.184063025" lon="11.383908279">
      <ele>277.0</ele>
    </trkpt>
    <trkpt lat="43.182355631" lon="11.383172683">
      <ele>274.0</ele>
    </trkpt>
    <trkpt lat="43.181448039" lon="11.382955089">
      <ele>274.0</ele>
    </trkpt>
    <trkpt lat="43.181016622" lon="11.382761886">
      <ele>275.0</ele>
    </trkpt>
    <trkpt lat="43.18078436" lon="11.38277513">
      <ele>275.0</ele>
    </trkpt>
    <trkpt lat="43.180006184" lon="11.383432187">
      <ele>276.0</ele>
    </trkpt>
    <trkpt lat="43.178908741" lon="11.38401364">
      <ele>280.0</ele>
    </trkpt>
    <trkpt lat="43.178130817" lon="11.384885861">
      <ele>280.0</ele>
    </trkpt>
    <trkpt lat="43.177453978" lon="11.385479635">
      <ele>279.0</ele>
    </trkpt>
    <trkpt lat="43.177134879" lon="11.386072235">
      <ele>277.0</ele>
    </trkpt>
    <trkpt lat="43.17655527" lon="11.38755952">
      <ele>277.0</ele>
    </trkpt>
    <trkpt lat="43.17622913" lon="11.38804324">
      <ele>278.0</ele>
    </trkpt>
    <trkpt lat="43.175879018" lon="11.388347168">
      <ele>278.0</ele>
    </trkpt>
    <trkpt lat="43.174117897" lon="11.389129031">
      <ele>284.0</ele>
    </trkpt>
    <trkpt lat="43.173795361" lon="11.389441341">
      <ele>285.0</ele>
    </trkpt>
    <trkpt lat="43.17310486" lon="11.390535934">
      <ele>289.0</ele>
    </trkpt>
    <trkpt lat="43.172914339" lon="11.390718827">
      <ele>293.0</ele>
    </trkpt>
    <trkpt lat="43.171992162" lon="11.391184526">
      <ele>304.0</ele>
    </trkpt>
    <trkpt lat="43.171438035" lon="11.391325928">
      <ele>302.0</ele>
    </trkpt>
    <trkpt lat="43.171122624" lon="11.391251581">
      <ele>303.0</ele>
    </trkpt>
    <trkpt lat="43.169352366" lon="11.390066631">
      <ele>296.0</ele>
    </trkpt>
    <trkpt lat="43.167042397" lon="11.389858592">
      <ele>277.0</ele>
    </trkpt>
    <trkpt lat="43.166570328" lon="11.390090939">
      <ele>275.0</ele>
    </trkpt>
    <trkpt lat="43.166158441" lon="11.390589159">
      <ele>273.0</ele>
    </trkpt>
    <trkpt lat="43.165744459" lon="11.390854362">
      <ele>275.0</ele>
    </trkpt>
    <trkpt lat="43.161940416" lon="11.391750136">
      <ele>291.0</ele>
    </trkpt>
    <trkpt lat="43.161727097" lon="11.392026739">
      <ele>290.0</ele>
    </trkpt>
    <trkpt lat="43.161548395" lon="11.392641887">
      <ele>288.0</ele>
    </trkpt>
    <trkpt lat="43.161281766" lon="11.393017061">
      <ele>286.0</ele>
    </trkpt>
    <trkpt lat="43.15968032" lon="11.393800182">
      <ele>284.0</ele>
    </trkpt>
    <trkpt lat="43.159330459" lon="11.394124897">
      <ele>284.0</ele>
    </trkpt>
    <trkpt lat="43.158861827" lon="11.394865271">
      <ele>281.0</ele>
    </trkpt>
    <trkpt lat="43.158711623" lon="11.395535488">
      <ele>280.0</ele>
    </trkpt>
    <trkpt lat="43.158683963" lon="11.397449495">
      <ele>280.0</ele>
    </trkpt>
    <trkpt lat="43.158719083" lon="11.397970179">
      <ele>281.0</ele>
    </trkpt>
    <trkpt lat="43.158918573" lon="11.399011379">
      <ele>285.0</ele>
    </trkpt>
    <trkpt lat="43.158903569" lon="11.399369538">
      <ele>286.0</ele>
    </trkpt>
    <trkpt lat="43.158796532" lon="11.399583025">
      <ele>288.0</ele>
    </trkpt>
    <trkpt lat="43.158603581" lon="11.399656199">
      <ele>289.0</ele>
    </trkpt>
    <trkpt lat="43.158103935" lon="11.399649996">
      <ele>289.0</ele>
    </trkpt>
    <trkpt lat="43.15741729" lon="11.400160287">
      <ele>292.0</ele>
    </trkpt>
    <trkpt lat="43.157093665" lon="11.400180738">
      <ele>292.0</ele>
    </trkpt>
    <trkpt lat="43.156627379" lon="11.400008826">
      <ele>293.0</ele>
    </trkpt>
    <trkpt lat="43.156380365" lon="11.400079736">
      <ele>294.0</ele>
    </trkpt>
    <trkpt lat="43.156296127" lon="11.400273778">
      <ele>295.0</ele>
    </trkpt>
    <trkpt lat="43.156328062" lon="11.400516685">
      <ele>294.0</ele>
    </trkpt>
    <trkpt lat="43.156651771" lon="11.401235266">
      <ele>292.0</ele>
    </trkpt>
    <trkpt lat="43.156741876" lon="11.401698366">
      <ele>290.0</ele>
    </trkpt>
    <trkpt lat="43.156537777" lon="11.402915334">
      <ele>285.0</ele>
    </trkpt>
    <trkpt lat="43.156442726" lon="11.404046975">
      <ele>283.0</ele>
    </trkpt>
    <trkpt lat="43.156236196" lon="11.404542429">
      <ele>283.0</ele>
    </trkpt>
    <trkpt lat="43.155952636" lon="11.404793635">
      <ele>283.0</ele>
    </trkpt>
    <trkpt lat="43.154907664" lon="11.405116338">
      <ele>282.0</ele>
    </trkpt>
    <trkpt lat="43.154076599" lon="11.405595196">
      <ele>284.0</ele>
    </trkpt>
    <trkpt lat="43.153419541" lon="11.405731067">
      <ele>287.0</ele>
    </trkpt>
    <trkpt lat="43.152635666" lon="11.406385358">
      <ele>288.0</ele>
    </trkpt>
    <trkpt lat="43.152210535" lon="11.406573532">
      <ele>287.0</ele>
    </trkpt>
    <trkpt lat="43.150753593" lon="11.406801688">
      <ele>285.0</ele>
    </trkpt>
    <trkpt lat="43.150327289" lon="11.406694232">
      <ele>284.0</ele>
    </trkpt>
    <trkpt lat="43.149697138" lon="11.406181594">
      <ele>283.0</ele>
    </trkpt>
    <trkpt lat="43.149468983" lon="11.406268263">
      <ele>285.0</ele>
    </trkpt>
    <trkpt lat="43.149275864" lon="11.406546794">
      <ele>286.0</ele>
    </trkpt>
    <trkpt lat="43.149049636" lon="11.406722059">
      <ele>287.0</ele>
    </trkpt>
    <trkpt lat="43.148759035" lon="11.406764137">
      <ele>286.0</ele>
    </trkpt>
    <trkpt lat="43.148412695" lon="11.407002937">
      <ele>285.0</ele>
    </trkpt>
    <trkpt lat="43.148028888" lon="11.407831321">
      <ele>281.0</ele>
    </trkpt>
    <trkpt lat="43.147709537" lon="11.409986559">
      <ele>273.0</ele>
    </trkpt>
    <trkpt lat="43.147477778" lon="11.410467764">
      <ele>268.0</ele>
    </trkpt>
    <trkpt lat="43.146895235" lon="11.410898594">
      <ele>265.0</ele>
    </trkpt>
    <trkpt lat="43.146480834" lon="11.4114259">
      <ele>263.0</ele>
    </trkpt>
    <trkpt lat="43.146003317" lon="11.412315723">
      <ele>258.0</ele>
    </trkpt>
    <trkpt lat="43.14577709" lon="11.413215017">
      <ele>254.0</ele>
    </trkpt>
    <trkpt lat="43.145426726" lon="11.413841899">
      <ele>251.0</ele>
    </trkpt>
    <trkpt lat="43.145222375" lon="11.414345317">
      <ele>249.0</ele>
    </trkpt>
    <trkpt lat="43.145282222" lon="11.414786791">
      <ele>247.0</ele>
    </trkpt>
    <trkpt lat="43.145654378" lon="11.415407471">
      <ele>243.0</ele>
    </trkpt>
    <trkpt lat="43.145803241" lon="11.415991941">
      <ele>241.0</ele>
    </trkpt>
    <trkpt lat="43.145603416" lon="11.417480567">
      <ele>233.0</ele>
    </trkpt>
    <trkpt lat="43.145430498" lon="11.418063194">
      <ele>229.0</ele>
    </trkpt>
    <trkpt lat="43.145346176" lon="11.419184189">
      <ele>224.0</ele>
    </trkpt>
    <trkpt lat="43.145189937" lon="11.419969993">
      <ele>219.0</ele>
    </trkpt>
    <trkpt lat="43.145165965" lon="11.42075588">
      <ele>215.0</ele>
    </trkpt>
    <trkpt lat="43.145171162" lon="11.421071375">
      <ele>213.0</ele>
    </trkpt>
    <trkpt lat="43.145281971" lon="11.421634387">
      <ele>212.0</ele>
    </trkpt>
    <trkpt lat="43.145939866" lon="11.423596591">
      <ele>211.0</ele>
    </trkpt>
    <trkpt lat="43.145979093" lon="11.423906889">
      <ele>211.0</ele>
    </trkpt>
    <trkpt lat="43.145910697" lon="11.424279884">
      <ele>210.0</ele>
    </trkpt>
    <trkpt lat="43.145613559" lon="11.42488556">
      <ele>209.0</ele>
    </trkpt>
    <trkpt lat="43.145570392" lon="11.425169623">
      <ele>209.0</ele>
    </trkpt>
    <trkpt lat="43.145684218" lon="11.425333237">
      <ele>210.0</ele>
    </trkpt>
    <trkpt lat="43.14613793" lon="11.425655186">
      <ele>210.0</ele>
    </trkpt>
    <trkpt lat="43.146493658" lon="11.426054081">
      <ele>209.0</ele>
    </trkpt>
    <trkpt lat="43.147075363" lon="11.426536459">
      <ele>210.0</ele>
    </trkpt>
    <trkpt lat="43.147601327" lon="11.427125121">
      <ele>210.0</ele>
    </trkpt>
    <trkpt lat="43.14835838" lon="11.427434329">
      <ele>210.0</ele>
    </trkpt>
    <trkpt lat="43.149204785" lon="11.427893322">
      <ele>206.0</ele>
    </trkpt>
    <trkpt lat="43.150014477" lon="11.428724891">
      <ele>201.0</ele>
    </trkpt>
    <trkpt lat="43.150351178" lon="11.429290082">
      <ele>199.0</ele>
    </trkpt>
    <trkpt lat="43.150964398" lon="11.429998772">
      <ele>196.0</ele>
    </trkpt>
    <trkpt lat="43.151145866" lon="11.430347376">
      <ele>194.0</ele>
    </trkpt>
    <trkpt lat="43.151130863" lon="11.432519462">
      <ele>185.0</ele>
    </trkpt>
    <trkpt lat="43.151214933" lon="11.432916764">
      <ele>184.0</ele>
    </trkpt>
    <trkpt lat="43.151368238" lon="11.433152379">
      <ele>183.0</ele>
    </trkpt>
    <trkpt lat="43.151689097" lon="11.433463432">
      <ele>181.0</ele>
    </trkpt>
    <trkpt lat="43.151991265" lon="11.433553034">
      <ele>180.0</ele>
    </trkpt>
    <trkpt lat="43.15220492" lon="11.43341138">
      <ele>179.0</ele>
    </trkpt>
    <trkpt lat="43.152453778" lon="11.433101585">
      <ele>178.0</ele>
    </trkpt>
    <trkpt lat="43.152714539" lon="11.433011731">
      <ele>177.0</ele>
    </trkpt>
    <trkpt lat="43.152793664" lon="11.433139388">
      <ele>176.0</ele>
    </trkpt>
    <trkpt lat="43.152755862" lon="11.433383636">
      <ele>174.0</ele>
    </trkpt>
    <trkpt lat="43.152655195" lon="11.433525039">
      <ele>173.0</ele>
    </trkpt>
    <trkpt lat="43.151687421" lon="11.43467688">
      <ele>165.0</ele>
    </trkpt>
    <trkpt lat="43.151559681" lon="11.435105195">
      <ele>162.0</ele>
    </trkpt>
    <trkpt lat="43.15198347" lon="11.437998964">
      <ele>163.0</ele>
    </trkpt>
    <trkpt lat="43.152022865" lon="11.438373467">
      <ele>164.0</ele>
    </trkpt>
    <trkpt lat="43.151962431" lon="11.438710839">
      <ele>165.0</ele>
    </trkpt>
    <trkpt lat="43.151529841" lon="11.439394886">
      <ele>169.0</ele>
    </trkpt>
    <trkpt lat="43.151000692" lon="11.440519486">
      <ele>170.0</ele>
    </trkpt>
    <trkpt lat="43.150750073" lon="11.440851996">
      <ele>170.0</ele>
    </trkpt>
    <trkpt lat="43.149005882" lon="11.442270968">
      <ele>172.0</ele>
    </trkpt>
    <trkpt lat="43.14865116" lon="11.442650165">
      <ele>172.0</ele>
    </trkpt>
    <trkpt lat="43.148261318" lon="11.443251818">
      <ele>173.0</ele>
    </trkpt>
    <trkpt lat="43.148052441" lon="11.443784237">
      <ele>173.0</ele>
    </trkpt>
    <trkpt lat="43.148216894" lon="11.444539363">
      <ele>172.0</ele>
    </trkpt>
    <trkpt lat="43.148134919" lon="11.44478512">
      <ele>172.0</ele>
    </trkpt>
    <trkpt lat="43.148004496" lon="11.444839267">
      <ele>172.0</ele>
    </trkpt>
    <trkpt lat="43.147806935" lon="11.444803476">
      <ele>172.0</ele>
    </trkpt>
    <trkpt lat="43.147312738" lon="11.444607172">
      <ele>172.0</ele>
    </trkpt>
    <trkpt lat="43.14685584" lon="11.444539698">
      <ele>172.0</ele>
    </trkpt>
    <trkpt lat="43.146579321" lon="11.444572639">
      <ele>171.0</ele>
    </trkpt>
    <trkpt lat="43.146271873" lon="11.444780258">
      <ele>171.0</ele>
    </trkpt>
    <trkpt lat="43.146167519" lon="11.445031632">
      <ele>171.0</ele>
    </trkpt>
    <trkpt lat="43.146141199" lon="11.445408231">
      <ele>172.0</ele>
    </trkpt>
    <trkpt lat="43.146411097" lon="11.446555462">
      <ele>172.0</ele>
    </trkpt>
    <trkpt lat="43.146382179" lon="11.44690834">
      <ele>171.0</ele>
    </trkpt>
    <trkpt lat="43.146262569" lon="11.446956368">
      <ele>170.0</ele>
    </trkpt>
    <trkpt lat="43.145726295" lon="11.446881099">
      <ele>171.0</ele>
    </trkpt>
    <trkpt lat="43.14534869" lon="11.447059717">
      <ele>171.0</ele>
    </trkpt>
    <trkpt lat="43.145084828" lon="11.447347216">
      <ele>171.0</ele>
    </trkpt>
    <trkpt lat="43.14492926" lon="11.447626669">
      <ele>171.0</ele>
    </trkpt>
    <trkpt lat="43.144900175" lon="11.448038975">
      <ele>171.0</ele>
    </trkpt>
    <trkpt lat="43.144877376" lon="11.447967729">
      <ele>172.0</ele>
    </trkpt>
    <trkpt lat="43.144926662" lon="11.447897824">
      <ele>172.0</ele>
    </trkpt>
    <trkpt lat="43.144900762" lon="11.448273668">
      <ele>171.0</ele>
    </trkpt>
    <trkpt lat="43.144845273" lon="11.448432673">
      <ele>171.0</ele>
    </trkpt>
    <trkpt lat="43.144678473" lon="11.448581535">
      <ele>172.0</ele>
    </trkpt>
    <trkpt lat="43.144451827" lon="11.448604167">
      <ele>172.0</ele>
    </trkpt>
    <trkpt lat="43.144061482" lon="11.448493442">
      <ele>173.0</ele>
    </trkpt>
    <trkpt lat="43.143009637" lon="11.447773268">
      <ele>173.0</ele>
    </trkpt>
    <trkpt lat="43.142643934" lon="11.447704285">
      <ele>173.0</ele>
    </trkpt>
    <trkpt lat="43.141608434" lon="11.448020535">
      <ele>173.0</ele>
    </trkpt>
    <trkpt lat="43.1406534" lon="11.448200997">
      <ele>173.0</ele>
    </trkpt>
    <trkpt lat="43.140348382" lon="11.448158836">
      <ele>172.0</ele>
    </trkpt>
    <trkpt lat="43.139827363" lon="11.447877539">
      <ele>168.0</ele>
    </trkpt>
    <trkpt lat="43.139546989" lon="11.447836887">
      <ele>166.0</ele>
    </trkpt>
    <trkpt lat="43.139373567" lon="11.448017936">
      <ele>166.0</ele>
    </trkpt>
    <trkpt lat="43.139309864" lon="11.448309626">
      <ele>165.0</ele>
    </trkpt>
    <trkpt lat="43.139278265" lon="11.449169526">
      <ele>164.0</ele>
    </trkpt>
    <trkpt lat="43.139303159" lon="11.450564777">
      <ele>162.0</ele>
    </trkpt>
    <trkpt lat="43.139186567" lon="11.451044893">
      <ele>162.0</ele>
    </trkpt>
    <trkpt lat="43.13890527" lon="11.45161327">
      <ele>161.0</ele>
    </trkpt>
    <trkpt lat="43.138605785" lon="11.452142335">
      <ele>161.0</ele>
    </trkpt>
    <trkpt lat="43.138267659" lon="11.452566963">
      <ele>161.0</ele>
    </trkpt>
    <trkpt lat="43.137323186" lon="11.453207089">
      <ele>160.0</ele>
    </trkpt>
    <trkpt lat="43.136856062" lon="11.453666836">
      <ele>160.0</ele>
    </trkpt>
    <trkpt lat="43.13644954" lon="11.454191292">
      <ele>160.0</ele>
    </trkpt>
    <trkpt lat="43.135856939" lon="11.455364339">
      <ele>159.0</ele>
    </trkpt>
    <trkpt lat="43.135603471" lon="11.455723839">
      <ele>159.0</ele>
    </trkpt>
    <trkpt lat="43.133155033" lon="11.458146963">
      <ele>157.0</ele>
    </trkpt>
    <trkpt lat="43.132750019" lon="11.458627917">
      <ele>156.0</ele>
    </trkpt>
    <trkpt lat="43.132570479" lon="11.458957074">
      <ele>155.0</ele>
    </trkpt>
    <trkpt lat="43.132119784" lon="11.460751137">
      <ele>154.0</ele>
    </trkpt>
    <trkpt lat="43.132164795" lon="11.461698459">
      <ele>151.0</ele>
    </trkpt>
    <trkpt lat="43.132113162" lon="11.461892165">
      <ele>150.0</ele>
    </trkpt>
    <trkpt lat="43.132011322" lon="11.461801976">
      <ele>150.0</ele>
    </trkpt>
    <trkpt lat="43.128564935" lon="11.455651335">
      <ele>179.0</ele>
    </trkpt>
    <trkpt lat="43.128298223" lon="11.455417564">
      <ele>183.0</ele>
    </trkpt>
    <trkpt lat="43.12728879" lon="11.454921691">
      <ele>200.0</ele>
    </trkpt>
    <trkpt lat="43.126960136" lon="11.454453729">
      <ele>209.0</ele>
    </trkpt>
    <trkpt lat="43.126789564" lon="11.453830618">
      <ele>219.0</ele>
    </trkpt>
    <trkpt lat="43.126745727" lon="11.452284325">
      <ele>236.0</ele>
    </trkpt>
    <trkpt lat="43.126653191" lon="11.451313533">
      <ele>237.0</ele>
    </trkpt>
    <trkpt lat="43.126133429" lon="11.44960044">
      <ele>248.0</ele>
    </trkpt>
    <trkpt lat="43.12597258" lon="11.449324172">
      <ele>250.0</ele>
    </trkpt>
    <trkpt lat="43.125754735" lon="11.449156785">
      <ele>251.0</ele>
    </trkpt>
    <trkpt lat="43.12479509" lon="11.448771637">
      <ele>249.0</ele>
    </trkpt>
    <trkpt lat="43.124547238" lon="11.448812792">
      <ele>249.0</ele>
    </trkpt>
    <trkpt lat="43.124382617" lon="11.449012617">
      <ele>248.0</ele>
    </trkpt>
    <trkpt lat="43.124112636" lon="11.449209675">
      <ele>247.0</ele>
    </trkpt>
    <trkpt lat="43.123875177" lon="11.449184362">
      <ele>246.0</ele>
    </trkpt>
    <trkpt lat="43.121655816" lon="11.448407862">
      <ele>232.0</ele>
    </trkpt>
    <trkpt lat="43.121344931" lon="11.448094966">
      <ele>229.0</ele>
    </trkpt>
    <trkpt lat="43.121209061" lon="11.44779196">
      <ele>227.0</ele>
    </trkpt>
    <trkpt lat="43.120714277" lon="11.446222533">
      <ele>219.0</ele>
    </trkpt>
    <trkpt lat="43.120698268" lon="11.445657341">
      <ele>215.0</ele>
    </trkpt>
    <trkpt lat="43.120830366" lon="11.444730638">
      <ele>210.0</ele>
    </trkpt>
    <trkpt lat="43.120691562" lon="11.44448664">
      <ele>208.0</ele>
    </trkpt>
    <trkpt lat="43.118976038" lon="11.443327591">
      <ele>191.0</ele>
    </trkpt>
    <trkpt lat="43.118644534" lon="11.44287874">
      <ele>185.0</ele>
    </trkpt>
    <trkpt lat="43.11782294" lon="11.442153538">
      <ele>174.0</ele>
    </trkpt>
    <trkpt lat="43.117578859" lon="11.441979697">
      <ele>171.0</ele>
    </trkpt>
    <trkpt lat="43.117278032" lon="11.44197274">
      <ele>167.0</ele>
    </trkpt>
    <trkpt lat="43.116903193" lon="11.442222437">
      <ele>164.0</ele>
    </trkpt>
    <trkpt lat="43.116612425" lon="11.442265436">
      <ele>161.0</ele>
    </trkpt>
    <trkpt lat="43.116417881" lon="11.442116322">
      <ele>159.0</ele>
    </trkpt>
    <trkpt lat="43.115761075" lon="11.441342924">
      <ele>151.0</ele>
    </trkpt>
    <trkpt lat="43.115442228" lon="11.441225493">
      <ele>148.0</ele>
    </trkpt>
    <trkpt lat="43.114749799" lon="11.44133362">
      <ele>145.0</ele>
    </trkpt>
    <trkpt lat="43.110053586" lon="11.441775095">
      <ele>139.0</ele>
    </trkpt>
    <trkpt lat="43.109126464" lon="11.442146162">
      <ele>138.0</ele>
    </trkpt>
    <trkpt lat="43.107678741" lon="11.442463417">
      <ele>138.0</ele>
    </trkpt>
    <trkpt lat="43.107403982" lon="11.44238052">
      <ele>138.0</ele>
    </trkpt>
    <trkpt lat="43.105495339" lon="11.43976084">
      <ele>136.0</ele>
    </trkpt>
    <trkpt lat="43.104885975" lon="11.438794574">
      <ele>137.0</ele>
    </trkpt>
    <trkpt lat="43.102380792" lon="11.435260428">
      <ele>143.0</ele>
    </trkpt>
    <trkpt lat="43.102241317" lon="11.434986591">
      <ele>143.0</ele>
    </trkpt>
    <trkpt lat="43.102194378" lon="11.434538579">
      <ele>145.0</ele>
    </trkpt>
    <trkpt lat="43.102299236" lon="11.433779262">
      <ele>148.0</ele>
    </trkpt>
    <trkpt lat="43.102307366" lon="11.433222787">
      <ele>150.0</ele>
    </trkpt>
    <trkpt lat="43.102227235" lon="11.432890194">
      <ele>151.0</ele>
    </trkpt>
    <trkpt lat="43.102082731" lon="11.432636641">
      <ele>152.0</ele>
    </trkpt>
    <trkpt lat="43.101860862" lon="11.432469422">
      <ele>153.0</ele>
    </trkpt>
    <trkpt lat="43.101570094" lon="11.432426088">
      <ele>154.0</ele>
    </trkpt>
    <trkpt lat="43.098675488" lon="11.432150323">
      <ele>173.0</ele>
    </trkpt>
    <trkpt lat="43.097563796" lon="11.431301488">
      <ele>179.0</ele>
    </trkpt>
    <trkpt lat="43.096781094" lon="11.430591792">
      <ele>181.0</ele>
    </trkpt>
    <trkpt lat="43.095964361" lon="11.429637093">
      <ele>185.0</ele>
    </trkpt>
    <trkpt lat="43.092074823" lon="11.426774422">
      <ele>212.0</ele>
    </trkpt>
    <trkpt lat="43.090906637" lon="11.426007058">
      <ele>219.0</ele>
    </trkpt>
    <trkpt lat="43.089377861" lon="11.425554017">
      <ele>228.0</ele>
    </trkpt>
    <trkpt lat="43.088994222" lon="11.425358634">
      <ele>233.0</ele>
    </trkpt>
    <trkpt lat="43.088935465" lon="11.424877262">
      <ele>235.0</ele>
    </trkpt>
    <trkpt lat="43.089116598" lon="11.423635734">
      <ele>245.0</ele>
    </trkpt>
    <trkpt lat="43.089098074" lon="11.42315302">
      <ele>248.0</ele>
    </trkpt>
    <trkpt lat="43.088649726" lon="11.421889281">
      <ele>260.0</ele>
    </trkpt>
    <trkpt lat="43.088543359" lon="11.421764726">
      <ele>263.0</ele>
    </trkpt>
    <trkpt lat="43.088387037" lon="11.42171653">
      <ele>264.0</ele>
    </trkpt>
    <trkpt lat="43.088221075" lon="11.421776293">
      <ele>268.0</ele>
    </trkpt>
    <trkpt lat="43.088132227" lon="11.421909565">
      <ele>270.0</ele>
    </trkpt>
    <trkpt lat="43.088123174" lon="11.422211062">
      <ele>280.0</ele>
    </trkpt>
    <trkpt lat="43.087854534" lon="11.423163498">
      <ele>288.0</ele>
    </trkpt>
    <trkpt lat="43.087629061" lon="11.423470359">
      <ele>284.0</ele>
    </trkpt>
    <trkpt lat="43.087535435" lon="11.423511766">
      <ele>287.0</ele>
    </trkpt>
    <trkpt lat="43.087343741" lon="11.422701823">
      <ele>296.0</ele>
    </trkpt>
    <trkpt lat="43.087196639" lon="11.422593528">
      <ele>299.0</ele>
    </trkpt>
    <trkpt lat="43.08691618" lon="11.423748974">
      <ele>313.0</ele>
    </trkpt>
    <trkpt lat="43.086790284" lon="11.423848467">
      <ele>312.0</ele>
    </trkpt>
    <trkpt lat="43.086546622" lon="11.423831619">
      <ele>312.0</ele>
    </trkpt>
    <trkpt lat="43.086427934" lon="11.423707819">
      <ele>315.0</ele>
    </trkpt>
    <trkpt lat="43.086377895" lon="11.423474383">
      <ele>317.0</ele>
    </trkpt>
    <trkpt lat="43.086515777" lon="11.422907431">
      <ele>326.0</ele>
    </trkpt>
    <trkpt lat="43.086433634" lon="11.422705762">
      <ele>327.0</ele>
    </trkpt>
    <trkpt lat="43.086337075" lon="11.422625631">
      <ele>329.0</ele>
    </trkpt>
    <trkpt lat="43.086244371" lon="11.422632337">
      <ele>333.0</ele>
    </trkpt>
    <trkpt lat="43.085986041" lon="11.423128964">
      <ele>343.0</ele>
    </trkpt>
    <trkpt lat="43.085858133" lon="11.423236672">
      <ele>344.0</ele>
    </trkpt>
    <trkpt lat="43.085740032" lon="11.423255028">
      <ele>344.0</ele>
    </trkpt>
    <trkpt lat="43.085573986" lon="11.423042631">
      <ele>345.0</ele>
    </trkpt>
    <trkpt lat="43.085296461" lon="11.422107127">
      <ele>349.0</ele>
    </trkpt>
    <trkpt lat="43.085213983" lon="11.421931023">
      <ele>351.0</ele>
    </trkpt>
    <trkpt lat="43.08505917" lon="11.421786686">
      <ele>353.0</ele>
    </trkpt>
    <trkpt lat="43.084496576" lon="11.421524165">
      <ele>355.0</ele>
    </trkpt>
    <trkpt lat="43.08355487" lon="11.42091128">
      <ele>358.0</ele>
    </trkpt>
    <trkpt lat="43.08262012" lon="11.420600563">
      <ele>368.0</ele>
    </trkpt>
    <trkpt lat="43.081840435" lon="11.420504926">
      <ele>371.0</ele>
    </trkpt>
    <trkpt lat="43.081444977" lon="11.420155987">
      <ele>372.0</ele>
    </trkpt>
    <trkpt lat="43.08115622" lon="11.419656929">
      <ele>375.0</ele>
    </trkpt>
    <trkpt lat="43.080793535" lon="11.419436485">
      <ele>380.0</ele>
    </trkpt>
    <trkpt lat="43.080463875" lon="11.41936264">
      <ele>383.0</ele>
    </trkpt>
  </trkseg>
</trk>
</gpx>
