<?xml version="1.0"?>
<gpx creator="GPS Visualizer http://www.gpsvisualizer.com/" version="1.1" xmlns="http://www.topografix.com/GPX/1/1" xmlns:xsi="http://www.w3.org/2001/XMLSchema-instance" xsi:schemaLocation="http://www.topografix.com/GPX/1/1 http://www.topografix.com/GPX/1/1/gpx.xsd">

  <trk>
    <name>ev7-CPDS - Sudtirol 002 - Pusterbike</name>
    <desc>From http://italy-cycling-guide.info/cycleways-cycle-routes/ciclopista-del-sole-eurovelo-7/</desc>
    
    <trkseg>
      <trkpt lat="46.741338456049562" lon="12.372804880142212">
        <ele>1112</ele>
      </trkpt>
      <trkpt lat="46.740750297904015" lon="12.370294332504272">
        <ele>1116</ele>
      </trkpt>
      <trkpt lat="46.740911984816194" lon="12.369672060012817">
        <ele>1119</ele>
      </trkpt>
      <trkpt lat="46.740470845252275" lon="12.368298768997192">
        <ele>1119</ele>
      </trkpt>
      <trkpt lat="46.740147387608886" lon="12.368041276931763">
        <ele>1118</ele>
      </trkpt>
      <trkpt lat="46.739956196397543" lon="12.366539239883423">
        <ele>1120</ele>
      </trkpt>
      <trkpt lat="46.739426795393229" lon="12.364200353622437">
        <ele>1124</ele>
      </trkpt>
      <trkpt lat="46.73929444514215" lon="12.363127470016479">
        <ele>1124</ele>
      </trkpt>
      <trkpt lat="46.739647407084703" lon="12.362655401229858">
        <ele>1126</ele>
      </trkpt>
      <trkpt lat="46.739691495895386" lon="12.361968755722046">
        <ele>1128</ele>
      </trkpt>
      <trkpt lat="46.739147426560521" lon="12.361496686935425">
        <ele>1127</ele>
      </trkpt>
      <trkpt lat="46.739397374913096" lon="12.360574007034302">
        <ele>1131</ele>
      </trkpt>
      <trkpt lat="46.738662114366889" lon="12.360059022903442">
        <ele>1128</ele>
      </trkpt>
      <trkpt lat="46.738618025556207" lon="12.359737157821655">
        <ele>1128</ele>
      </trkpt>
      <trkpt lat="46.738882726058364" lon="12.358599901199341">
        <ele>1133</ele>
      </trkpt>
      <trkpt lat="46.739000324159861" lon="12.357527017593384">
        <ele>1136</ele>
      </trkpt>
      <trkpt lat="46.738265063613653" lon="12.357054948806763">
        <ele>1133</ele>
      </trkpt>
      <trkpt lat="46.737882681190968" lon="12.356582880020142">
        <ele>1131</ele>
      </trkpt>
      <trkpt lat="46.737838592380285" lon="12.355037927627563">
        <ele>1133</ele>
      </trkpt>
      <trkpt lat="46.737544471397996" lon="12.353664636611938">
        <ele>1132</ele>
      </trkpt>
      <trkpt lat="46.735676815733314" lon="12.348943948745728">
        <ele>1134</ele>
      </trkpt>
      <trkpt lat="46.735265012830496" lon="12.347184419631958">
        <ele>1135</ele>
      </trkpt>
      <trkpt lat="46.733470782637596" lon="12.336713075637817">
        <ele>1137</ele>
      </trkpt>
      <trkpt lat="46.733279591426253" lon="12.334846258163452">
        <ele>1139</ele>
      </trkpt>
      <trkpt lat="46.7329266294837" lon="12.332335710525513">
        <ele>1150</ele>
      </trkpt>
      <trkpt lat="46.732603088021278" lon="12.330704927444458">
        <ele>1150</ele>
      </trkpt>
      <trkpt lat="46.732558999210596" lon="12.327700853347778">
        <ele>1150</ele>
      </trkpt>
      <trkpt lat="46.732161864638329" lon="12.326327562332153">
        <ele>1150</ele>
      </trkpt>
      <trkpt lat="46.731479158625007" lon="12.326635010540485">
        <ele>1150</ele>
      </trkpt>
      <trkpt lat="46.731323590502143" lon="12.326563596725464">
        <ele>1150</ele>
      </trkpt>
      <trkpt lat="46.731031900271773" lon="12.324730139225721">
        <ele>1150</ele>
      </trkpt>
      <trkpt lat="46.730647003278136" lon="12.324782609939575">
        <ele>1150</ele>
      </trkpt>
      <trkpt lat="46.730470480397344" lon="12.325061559677124">
        <ele>1150</ele>
      </trkpt>
      <trkpt lat="46.729940995573997" lon="12.324846982955933">
        <ele>1150</ele>
      </trkpt>
      <trkpt lat="46.729338001459837" lon="12.325254678726196">
        <ele>1150</ele>
      </trkpt>
      <trkpt lat="46.728896778076887" lon="12.324331998825073">
        <ele>1150</ele>
      </trkpt>
      <trkpt lat="46.728411382064223" lon="12.323108911514282">
        <ele>1150</ele>
      </trkpt>
      <trkpt lat="46.728308452293277" lon="12.322186231613159">
        <ele>1150</ele>
      </trkpt>
      <trkpt lat="46.727793635800481" lon="12.320727109909058">
        <ele>1150</ele>
      </trkpt>
      <trkpt lat="46.72763186506927" lon="12.320104837417603">
        <ele>1150</ele>
      </trkpt>
      <trkpt lat="46.727425921708345" lon="12.318023443222046">
        <ele>1150</ele>
      </trkpt>
      <trkpt lat="46.727617112919688" lon="12.316435575485229">
        <ele>1150</ele>
      </trkpt>
      <trkpt lat="46.727970158681273" lon="12.316499948501587">
        <ele>1150</ele>
      </trkpt>
      <trkpt lat="46.728279031813145" lon="12.31467604637146">
        <ele>1150</ele>
      </trkpt>
      <trkpt lat="46.72851431183517" lon="12.311629056930542">
        <ele>1151</ele>
      </trkpt>
      <trkpt lat="46.728543732315302" lon="12.306779623031616">
        <ele>1150</ele>
      </trkpt>
      <trkpt lat="46.728676166385412" lon="12.304633855819702">
        <ele>1152</ele>
      </trkpt>
      <trkpt lat="46.728985039517283" lon="12.301801443099976">
        <ele>1160</ele>
      </trkpt>
      <trkpt lat="46.729602785781026" lon="12.299398183822632">
        <ele>1166</ele>
      </trkpt>
      <trkpt lat="46.730308709666133" lon="12.297252416610718">
        <ele>1171</ele>
      </trkpt>
      <trkpt lat="46.731705972924829" lon="12.294033765792847">
        <ele>1175</ele>
      </trkpt>
      <trkpt lat="46.732397228479385" lon="12.291780710220337">
        <ele>1175</ele>
      </trkpt>
      <trkpt lat="46.732132444158196" lon="12.29169487953186">
        <ele>1175</ele>
      </trkpt>
      <trkpt lat="46.731411768123507" lon="12.291780710220337">
        <ele>1175</ele>
      </trkpt>
      <trkpt lat="46.731058806180954" lon="12.291480302810669">
        <ele>1174</ele>
      </trkpt>
      <trkpt lat="46.730955876410007" lon="12.291308641433716">
        <ele>1174</ele>
      </trkpt>
      <trkpt lat="46.730838194489479" lon="12.289055585861206">
        <ele>1175</ele>
      </trkpt>
      <trkpt lat="46.732190949842334" lon="12.282990524545312">
        <ele>1175</ele>
      </trkpt>
      <trkpt lat="46.732453051954508" lon="12.281493181362748">
        <ele>1175</ele>
      </trkpt>
      <trkpt lat="46.732395552098751" lon="12.280097678303719">
        <ele>1175</ele>
      </trkpt>
      <trkpt lat="46.732235373929143" lon="12.278841733932495">
        <ele>1175</ele>
      </trkpt>
      <trkpt lat="46.731852991506457" lon="12.27871298789978">
        <ele>1175</ele>
      </trkpt>
      <trkpt lat="46.731779482215643" lon="12.278498411178589">
        <ele>1175</ele>
      </trkpt>
      <trkpt lat="46.731956005096436" lon="12.27723240852356">
        <ele>1175</ele>
      </trkpt>
      <trkpt lat="46.731176488101482" lon="12.274121046066284">
        <ele>1175</ele>
      </trkpt>
      <trkpt lat="46.731176488101482" lon="12.273069620132446">
        <ele>1175</ele>
      </trkpt>
      <trkpt lat="46.73054407350719" lon="12.272125482559204">
        <ele>1175</ele>
      </trkpt>
      <trkpt lat="46.729926327243447" lon="12.270945310592651">
        <ele>1176</ele>
      </trkpt>
      <trkpt lat="46.729808645322919" lon="12.26979891769588">
        <ele>1179</ele>
      </trkpt>
      <trkpt lat="46.729793976992369" lon="12.26723313331604">
        <ele>1182</ele>
      </trkpt>
      <trkpt lat="46.729293912649155" lon="12.264658212661743">
        <ele>1189</ele>
      </trkpt>
      <trkpt lat="46.729029128327966" lon="12.263799905776978">
        <ele>1191</ele>
      </trkpt>
      <trkpt lat="46.728587904945016" lon="12.263284921646118">
        <ele>1194</ele>
      </trkpt>
      <trkpt lat="46.727808304131031" lon="12.262576818466187">
        <ele>1198</ele>
      </trkpt>
      <trkpt lat="46.726999366655946" lon="12.261546850204468">
        <ele>1200</ele>
      </trkpt>
      <trkpt lat="46.726602232083678" lon="12.260710000991821">
        <ele>1200</ele>
      </trkpt>
      <trkpt lat="46.726190345361829" lon="12.259465456008911">
        <ele>1200</ele>
      </trkpt>
      <trkpt lat="46.7260433267802" lon="12.258692979812622">
        <ele>1200</ele>
      </trkpt>
      <trkpt lat="46.725675612688065" lon="12.257834672927856">
        <ele>1200</ele>
      </trkpt>
      <trkpt lat="46.725587351247668" lon="12.256675958633423">
        <ele>1200</ele>
      </trkpt>
      <trkpt lat="46.726293358951807" lon="12.25650429725647">
        <ele>1200</ele>
      </trkpt>
      <trkpt lat="46.726764002814889" lon="12.256289720535278">
        <ele>1200</ele>
      </trkpt>
      <trkpt lat="46.726366868242621" lon="12.254680395126343">
        <ele>1200</ele>
      </trkpt>
      <trkpt lat="46.726161008700728" lon="12.253564596176147">
        <ele>1200</ele>
      </trkpt>
      <trkpt lat="46.726087415590882" lon="12.251204252243042">
        <ele>1200</ele>
      </trkpt>
      <trkpt lat="46.726131588220596" lon="12.24650502204895">
        <ele>1200</ele>
      </trkpt>
      <trkpt lat="46.726072747260332" lon="12.244488000869751">
        <ele>1200</ele>
      </trkpt>
      <trkpt lat="46.72591089271009" lon="12.242943048477173">
        <ele>1200</ele>
      </trkpt>
      <trkpt lat="46.724381195381284" lon="12.233351469039917">
        <ele>1201</ele>
      </trkpt>
      <trkpt lat="46.72421196475625" lon="12.232686197385192">
        <ele>1207</ele>
      </trkpt>
      <trkpt lat="46.724034352228045" lon="12.231382308527827">
        <ele>1212</ele>
      </trkpt>
      <trkpt lat="46.7240228690207" lon="12.230377234518528">
        <ele>1221</ele>
      </trkpt>
      <trkpt lat="46.724089253693819" lon="12.228491054847836">
        <ele>1216</ele>
      </trkpt>
      <trkpt lat="46.72404583543539" lon="12.227713465690613"/>
      <trkpt lat="46.724616475403309" lon="12.225261926651001">
        <ele>1212</ele>
      </trkpt>
      <trkpt lat="46.724969521164894" lon="12.22204327583313">
        <ele>1211</ele>
      </trkpt>
      <trkpt lat="46.72489601187408" lon="12.221142053604126">
        <ele>1209</ele>
      </trkpt>
      <trkpt lat="46.724954852834344" lon="12.218717336654663">
        <ele>1203</ele>
      </trkpt>
      <trkpt lat="46.725175464525819" lon="12.218395471572876">
        <ele>1203</ele>
      </trkpt>
      <trkpt lat="46.725704949349165" lon="12.217923402786255">
        <ele>1202</ele>
      </trkpt>
      <trkpt lat="46.725602019578218" lon="12.217515707015991">
        <ele>1201</ele>
      </trkpt>
      <trkpt lat="46.725366655737162" lon="12.217000722885132">
        <ele>1200</ele>
      </trkpt>
      <trkpt lat="46.725704949349165" lon="12.216356992721558">
        <ele>1200</ele>
      </trkpt>
      <trkpt lat="46.726116836071014" lon="12.215992212295532">
        <ele>1200</ele>
      </trkpt>
      <trkpt lat="46.72605799511075" lon="12.215691804885864">
        <ele>1200</ele>
      </trkpt>
      <trkpt lat="46.726558143272996" lon="12.215069532394409">
        <ele>1200</ele>
      </trkpt>
      <trkpt lat="46.726940525695682" lon="12.214404344558716">
        <ele>1200</ele>
      </trkpt>
      <trkpt lat="46.727146469056606" lon="12.213846445083618">
        <ele>1200</ele>
      </trkpt>
      <trkpt lat="46.727161137387156" lon="12.21354603767395">
        <ele>1200</ele>
      </trkpt>
      <trkpt lat="46.728205438703299" lon="12.21129298210144">
        <ele>1200</ele>
      </trkpt>
      <trkpt lat="46.728411382064223" lon="12.210434675216675">
        <ele>1200</ele>
      </trkpt>
      <trkpt lat="46.728779096156359" lon="12.210026979446411">
        <ele>1200</ele>
      </trkpt>
      <trkpt lat="46.728823184967041" lon="12.209018468856812">
        <ele>1201</ele>
      </trkpt>
      <trkpt lat="46.729426262900233" lon="12.207323312759399">
        <ele>1200</ele>
      </trkpt>
      <trkpt lat="46.729543944820762" lon="12.207108736038208">
        <ele>1200</ele>
      </trkpt>
      <trkpt lat="46.729749804362655" lon="12.206958532333374">
        <ele>1200</ele>
      </trkpt>
      <trkpt lat="46.729926327243447" lon="12.206379175186157">
        <ele>1200</ele>
      </trkpt>
      <trkpt lat="46.729867486283183" lon="12.206164598464966">
        <ele>1200</ele>
      </trkpt>
      <trkpt lat="46.729499772191048" lon="12.206100225448608">
        <ele>1200</ele>
      </trkpt>
      <trkpt lat="46.729411510750651" lon="12.205842733383179">
        <ele>1200</ele>
      </trkpt>
      <trkpt lat="46.729352753609419" lon="12.20481276512146">
        <ele>1202</ele>
      </trkpt>
      <trkpt lat="46.729720383882523" lon="12.202302217483521">
        <ele>1204</ele>
      </trkpt>
      <trkpt lat="46.730044009163976" lon="12.197753190994263">
        <ele>1209</ele>
      </trkpt>
      <trkpt lat="46.729852817952633" lon="12.197302579879761">
        <ele>1210</ele>
      </trkpt>
      <trkpt lat="46.729632206261158" lon="12.197045087814331">
        <ele>1211</ele>
      </trkpt>
      <trkpt lat="46.730441059917212" lon="12.194513082504272">
        <ele>1201</ele>
      </trkpt>
      <trkpt lat="46.730794105678797" lon="12.193719148635864">
        <ele>1197</ele>
      </trkpt>
      <trkpt lat="46.731323590502143" lon="12.193247079849243">
        <ele>1195</ele>
      </trkpt>
      <trkpt lat="46.732647176831961" lon="12.193676233291626">
        <ele>1194</ele>
      </trkpt>
      <trkpt lat="46.733029643073678" lon="12.193676233291626">
        <ele>1189</ele>
      </trkpt>
      <trkpt lat="46.733206082135439" lon="12.193912267684937">
        <ele>1188</ele>
      </trkpt>
      <trkpt lat="46.733294343575835" lon="12.194427251815796">
        <ele>1188</ele>
      </trkpt>
      <trkpt lat="46.73336785286665" lon="12.194405794143677">
        <ele>1187</ele>
      </trkpt>
      <trkpt lat="46.733544375747442" lon="12.193440198898315">
        <ele>1182</ele>
      </trkpt>
      <trkpt lat="46.733794324100018" lon="12.193268537521362">
        <ele>1179</ele>
      </trkpt>
      <trkpt lat="46.734397318214178" lon="12.193375825881958">
        <ele>1175</ele>
      </trkpt>
      <trkpt lat="46.735206171870232" lon="12.190564870834351">
        <ele>1172</ele>
      </trkpt>
      <trkpt lat="46.735691484063864" lon="12.188311815261841">
        <ele>1171</ele>
      </trkpt>
      <trkpt lat="46.736103286966681" lon="12.183033227920532">
        <ele>1168</ele>
      </trkpt>
      <trkpt lat="46.736176796257496" lon="12.181037664413452">
        <ele>1166</ele>
      </trkpt>
      <trkpt lat="46.736456248909235" lon="12.178999185562134">
        <ele>1164</ele>
      </trkpt>
      <trkpt lat="46.736470917239785" lon="12.176080942153931">
        <ele>1161</ele>
      </trkpt>
      <trkpt lat="46.736647440120578" lon="12.174664735794067">
        <ele>1158</ele>
      </trkpt>
      <trkpt lat="46.736897388473153" lon="12.173699140548706">
        <ele>1155</ele>
      </trkpt>
      <trkpt lat="46.737426873296499" lon="12.172476053237915">
        <ele>1150</ele>
      </trkpt>
      <trkpt lat="46.737559223547578" lon="12.171167135238647">
        <ele>1150</ele>
      </trkpt>
      <trkpt lat="46.738147381693125" lon="12.169171571731567">
        <ele>1150</ele>
      </trkpt>
      <trkpt lat="46.738250395283103" lon="12.168592214584351">
        <ele>1150</ele>
      </trkpt>
      <trkpt lat="46.738088624551892" lon="12.167090177536011">
        <ele>1150</ele>
      </trkpt>
      <trkpt lat="46.738250395283103" lon="12.166317701339722">
        <ele>1150</ele>
      </trkpt>
      <trkpt lat="46.738015031442046" lon="12.165223360061646">
        <ele>1148</ele>
      </trkpt>
      <trkpt lat="46.738191554322839" lon="12.163742780685425">
        <ele>1146</ele>
      </trkpt>
      <trkpt lat="46.738162133842707" lon="12.162841558456421">
        <ele>1146</ele>
      </trkpt>
      <trkpt lat="46.736853299662471" lon="12.162798643112183">
        <ele>1150</ele>
      </trkpt>
      <trkpt lat="46.736823879182339" lon="12.162626981735229">
        <ele>1150</ele>
      </trkpt>
      <trkpt lat="46.737015070393682" lon="12.158249616622925">
        <ele>1148</ele>
      </trkpt>
      <trkpt lat="46.736853299662471" lon="12.157412767410278">
        <ele>1148</ele>
      </trkpt>
      <trkpt lat="46.736823879182339" lon="12.156254053115845">
        <ele>1148</ele>
      </trkpt>
      <trkpt lat="46.737338611856103" lon="12.154151201248169">
        <ele>1147</ele>
      </trkpt>
      <trkpt lat="46.737632732838392" lon="12.152649164199829">
        <ele>1145</ele>
      </trkpt>
      <trkpt lat="46.737720910459757" lon="12.150717973709106">
        <ele>1144</ele>
      </trkpt>
      <trkpt lat="46.738956235349178" lon="12.145503759384155">
        <ele>1142</ele>
      </trkpt>
      <trkpt lat="46.738662114366889" lon="12.144023180007935">
        <ele>1145</ele>
      </trkpt>
      <trkpt lat="46.738559184595942" lon="12.142928838729858">
        <ele>1147</ele>
      </trkpt>
      <trkpt lat="46.738588605076075" lon="12.142370939254761">
        <ele>1148</ele>
      </trkpt>
      <trkpt lat="46.737992987036705" lon="12.138315439224243">
        <ele>1167</ele>
      </trkpt>
      <trkpt lat="46.737860636785626" lon="12.138422727584839">
        <ele>1168</ele>
      </trkpt>
      <trkpt lat="46.737522426992655" lon="12.136909961700439">
        <ele>1163</ele>
      </trkpt>
      <trkpt lat="46.737706242129207" lon="12.136631011962891">
        <ele>1159</ele>
      </trkpt>
      <trkpt lat="46.738250395283103" lon="12.136432528495789">
        <ele>1154</ele>
      </trkpt>
      <trkpt lat="46.739301821216941" lon="12.135697603225708">
        <ele>1149</ele>
      </trkpt>
      <trkpt lat="46.739051789045334" lon="12.133841514587402">
        <ele>1135</ele>
      </trkpt>
      <trkpt lat="46.73883855342865" lon="12.133541107177734">
        <ele>1136</ele>
      </trkpt>
      <trkpt lat="46.738551808521152" lon="12.133535742759705">
        <ele>1139</ele>
      </trkpt>
      <trkpt lat="46.738294484093785" lon="12.133637666702271">
        <ele>1142</ele>
      </trkpt>
      <trkpt lat="46.738331196829677" lon="12.13314414024353">
        <ele>1141</ele>
      </trkpt>
      <trkpt lat="46.738853305578232" lon="12.131835222244263">
        <ele>1141</ele>
      </trkpt>
      <trkpt lat="46.739000324159861" lon="12.131277322769165">
        <ele>1141</ele>
      </trkpt>
      <trkpt lat="46.740588527172804" lon="12.128616571426392">
        <ele>1139</ele>
      </trkpt>
      <trkpt lat="46.741323787719011" lon="12.128123044967651">
        <ele>1137</ele>
      </trkpt>
      <trkpt lat="46.741544315591455" lon="12.127844095230103">
        <ele>1137</ele>
      </trkpt>
      <trkpt lat="46.742441263049841" lon="12.126020193099976">
        <ele>1135</ele>
      </trkpt>
      <trkpt lat="46.743499981239438" lon="12.124325037002563">
        <ele>1127</ele>
      </trkpt>
      <trkpt lat="46.7451027687639" lon="12.121556997299194">
        <ele>1124</ele>
      </trkpt>
      <trkpt lat="46.745323296636343" lon="12.120891809463501">
        <ele>1123</ele>
      </trkpt>
      <trkpt lat="46.745632085949183" lon="12.119518518447876">
        <ele>1122</ele>
      </trkpt>
      <trkpt lat="46.746146734803915" lon="12.119067907333374">
        <ele>1116</ele>
      </trkpt>
      <trkpt lat="46.747014177963138" lon="12.118831872940063">
        <ele>1107</ele>
      </trkpt>
      <trkpt lat="46.747572915628552" lon="12.118510007858276">
        <ele>1103</ele>
      </trkpt>
      <trkpt lat="46.748469779267907" lon="12.117372751235962">
        <ele>1101</ele>
      </trkpt>
      <trkpt lat="46.74866097047925" lon="12.116965055465698">
        <ele>1101</ele>
      </trkpt>
      <trkpt lat="46.749160867184401" lon="12.116321325302124">
        <ele>1100</ele>
      </trkpt>
      <trkpt lat="46.749587170779705" lon="12.115248441696167">
        <ele>1100</ele>
      </trkpt>
      <trkpt lat="46.750939842313528" lon="12.112394571304321">
        <ele>1100</ele>
      </trkpt>
      <trkpt lat="46.751719024032354" lon="12.10992693901062">
        <ele>1100</ele>
      </trkpt>
      <trkpt lat="46.752042481675744" lon="12.108339071273804">
        <ele>1099</ele>
      </trkpt>
      <trkpt lat="46.751792533323169" lon="12.107695341110229">
        <ele>1099</ele>
      </trkpt>
      <trkpt lat="46.751660266891122" lon="12.107137441635132">
        <ele>1099</ele>
      </trkpt>
      <trkpt lat="46.751851374283433" lon="12.106086015701294">
        <ele>1099</ele>
      </trkpt>
      <trkpt lat="46.752145411446691" lon="12.105571031570435">
        <ele>1100</ele>
      </trkpt>
      <trkpt lat="46.752630556002259" lon="12.105485200881958">
        <ele>1099</ele>
      </trkpt>
      <trkpt lat="46.753365648910403" lon="12.104669809341431">
        <ele>1099</ele>
      </trkpt>
      <trkpt lat="46.753733195364475" lon="12.103511095046997">
        <ele>1099</ele>
      </trkpt>
      <trkpt lat="46.754100741818547" lon="12.103382349014282">
        <ele>1099</ele>
      </trkpt>
      <trkpt lat="46.754350606352091" lon="12.103532552719116">
        <ele>1099</ele>
      </trkpt>
      <trkpt lat="46.75483575090766" lon="12.103167772293091">
        <ele>1097</ele>
      </trkpt>
      <trkpt lat="46.755600180476904" lon="12.102116346359253">
        <ele>1092</ele>
      </trkpt>
      <trkpt lat="46.755659021437168" lon="12.101601362228394">
        <ele>1092</ele>
      </trkpt>
      <trkpt lat="46.755894217640162" lon="12.101472616195679">
        <ele>1089</ele>
      </trkpt>
      <trkpt lat="46.756320521235466" lon="12.100807428359985">
        <ele>1084</ele>
      </trkpt>
      <trkpt lat="46.756614558398724" lon="12.099841833114624">
        <ele>1077</ele>
      </trkpt>
      <trkpt lat="46.757834712043405" lon="12.098554372787476">
        <ele>1075</ele>
      </trkpt>
      <trkpt lat="46.758143417537212" lon="12.09894061088562">
        <ele>1075</ele>
      </trkpt>
      <trkpt lat="46.759466417133808" lon="12.099670171737671">
        <ele>1082</ele>
      </trkpt>
      <trkpt lat="46.759833879768848" lon="12.099305391311646">
        <ele>1086</ele>
      </trkpt>
      <trkpt lat="46.760289603844285" lon="12.098232507705688">
        <ele>1090</ele>
      </trkpt>
      <trkpt lat="46.760230762884021" lon="12.096151113510132">
        <ele>1081</ele>
      </trkpt>
      <trkpt lat="46.760083828121424" lon="12.095872163772583">
        <ele>1077</ele>
      </trkpt>
      <trkpt lat="46.760260183364153" lon="12.094863653182983">
        <ele>1077</ele>
      </trkpt>
      <trkpt lat="46.760069075971842" lon="12.094219923019409">
        <ele>1075</ele>
      </trkpt>
      <trkpt lat="46.759481085464358" lon="12.09344744682312">
        <ele>1075</ele>
      </trkpt>
      <trkpt lat="46.759348819032311" lon="12.093082666397095">
        <ele>1075</ele>
      </trkpt>
      <trkpt lat="46.759187132120132" lon="12.091215848922729">
        <ele>1075</ele>
      </trkpt>
      <trkpt lat="46.759172379970551" lon="12.088533639907837">
        <ele>1075</ele>
      </trkpt>
      <trkpt lat="46.759407576173544" lon="12.088297605514526">
        <ele>1075</ele>
      </trkpt>
      <trkpt lat="46.759642772376537" lon="12.087761163711548">
        <ele>1075</ele>
      </trkpt>
      <trkpt lat="46.75951050594449" lon="12.087095975875854">
        <ele>1074</ele>
      </trkpt>
      <trkpt lat="46.759584015235305" lon="12.086044549942017">
        <ele>1072</ele>
      </trkpt>
      <trkpt lat="46.760260183364153" lon="12.083920240402222">
        <ele>1068</ele>
      </trkpt>
      <trkpt lat="46.76037778146565" lon="12.08321213722229">
        <ele>1068</ele>
      </trkpt>
      <trkpt lat="46.761289145797491" lon="12.081366777420044">
        <ele>1069</ele>
      </trkpt>
      <trkpt lat="46.76143616437912" lon="12.080851793289185">
        <ele>1071</ele>
      </trkpt>
      <trkpt lat="46.761524342000484" lon="12.079628705978394">
        <ele>1071</ele>
      </trkpt>
      <trkpt lat="46.76142149604857" lon="12.078791856765747">
        <ele>1069</ele>
      </trkpt>
      <trkpt lat="46.760554220527411" lon="12.075659036636353">
        <ele>1064</ele>
      </trkpt>
      <trkpt lat="46.760480711236596" lon="12.075101137161255">
        <ele>1066</ele>
      </trkpt>
      <trkpt lat="46.760539468377829" lon="12.0744788646698">
        <ele>1061</ele>
      </trkpt>
      <trkpt lat="46.760671818628907" lon="12.073920965194702">
        <ele>1054</ele>
      </trkpt>
      <trkpt lat="46.761009860783815" lon="12.073405981063843">
        <ele>1048</ele>
      </trkpt>
      <trkpt lat="46.761053949594498" lon="12.072805166244507">
        <ele>1047</ele>
      </trkpt>
      <trkpt lat="46.760612977668643" lon="12.071152925491333">
        <ele>1057</ele>
      </trkpt>
      <trkpt lat="46.760568888857961" lon="12.070337533950806">
        <ele>1059</ele>
      </trkpt>
      <trkpt lat="46.760671818628907" lon="12.068899869918823">
        <ele>1053</ele>
      </trkpt>
      <trkpt lat="46.760524800047278" lon="12.068127393722534">
        <ele>1057</ele>
      </trkpt>
      <trkpt lat="46.760010318830609" lon="12.067011594772339">
        <ele>1056</ele>
      </trkpt>
      <trkpt lat="46.759731033816934" lon="12.06623911857605">
        <ele>1056</ele>
      </trkpt>
      <trkpt lat="46.758731408044696" lon="12.064801454544067">
        <ele>1055</ele>
      </trkpt>
      <trkpt lat="46.75811399705708" lon="12.063664197921753">
        <ele>1054</ele>
      </trkpt>
      <trkpt lat="46.758040487766266" lon="12.063127756118774">
        <ele>1053</ele>
      </trkpt>
      <trkpt lat="46.758216926828027" lon="12.062162160873413">
        <ele>1051</ele>
      </trkpt>
      <trkpt lat="46.757981730625033" lon="12.061389684677124">
        <ele>1063</ele>
      </trkpt>
      <trkpt lat="46.757996398955584" lon="12.060853242874146">
        <ele>1063</ele>
      </trkpt>
      <trkpt lat="46.758246347308159" lon="12.05973744392395">
        <ele>1055</ele>
      </trkpt>
      <trkpt lat="46.758055239915848" lon="12.059394121170044">
        <ele>1062</ele>
      </trkpt>
      <trkpt lat="46.758172838017344" lon="12.058128118515015">
        <ele>1057</ele>
      </trkpt>
      <trkpt lat="46.758202174678445" lon="12.056561708450317">
        <ele>1057</ele>
      </trkpt>
      <trkpt lat="46.758408034220338" lon="12.055059671401978">
        <ele>1059</ele>
      </trkpt>
      <trkpt lat="46.758569721132517" lon="12.054802179336548">
        <ele>1058</ele>
      </trkpt>
      <trkpt lat="46.75951050594449" lon="12.053815126419067">
        <ele>1052</ele>
      </trkpt>
      <trkpt lat="46.759760370478034" lon="12.053428888320923">
        <ele>1051</ele>
      </trkpt>
      <trkpt lat="46.75951050594449" lon="12.051905393600464">
        <ele>1058</ele>
      </trkpt>
      <trkpt lat="46.75951050594449" lon="12.051583528518677">
        <ele>1058</ele>
      </trkpt>
      <trkpt lat="46.759863300248981" lon="12.049845457077026">
        <ele>1062</ele>
      </trkpt>
      <trkpt lat="46.760142585262656" lon="12.048879861831665">
        <ele>1060</ele>
      </trkpt>
      <trkpt lat="46.760216094553471" lon="12.047935724258423">
        <ele>1059</ele>
      </trkpt>
      <trkpt lat="46.759995566681027" lon="12.046669721603394">
        <ele>1063</ele>
      </trkpt>
      <trkpt lat="46.759554594755173" lon="12.046047449111938">
        <ele>1070</ele>
      </trkpt>
      <trkpt lat="46.75914304330945" lon="12.0460045337677">
        <ele>1074</ele>
      </trkpt>
      <trkpt lat="46.757643604651093" lon="12.046111822128296">
        <ele>1077</ele>
      </trkpt>
      <trkpt lat="46.757305478677154" lon="12.045789957046509">
        <ele>1079</ele>
      </trkpt>
      <trkpt lat="46.758011151105165" lon="12.04525351524353">
        <ele>1076</ele>
      </trkpt>
      <trkpt lat="46.758084576576948" lon="12.042378187179565">
        <ele>1088</ele>
      </trkpt>
      <trkpt lat="46.758246347308159" lon="12.041369676589966">
        <ele>1089</ele>
      </trkpt>
      <trkpt lat="46.75846679136157" lon="12.040446996688843">
        <ele>1088</ele>
      </trkpt>
      <trkpt lat="46.758246347308159" lon="12.039717435836792">
        <ele>1082</ele>
      </trkpt>
      <trkpt lat="46.757643604651093" lon="12.039545774459839">
        <ele>1080</ele>
      </trkpt>
      <trkpt lat="46.757496586069465" lon="12.039245367050171">
        <ele>1078</ele>
      </trkpt>
      <trkpt lat="46.757643604651093" lon="12.038902044296265">
        <ele>1077</ele>
      </trkpt>
      <trkpt lat="46.759113622829318" lon="12.037314176559448">
        <ele>1065</ele>
      </trkpt>
      <trkpt lat="46.759951477870345" lon="12.036670446395874">
        <ele>1059</ele>
      </trkpt>
      <trkpt lat="46.760510131716728" lon="12.036541700363159">
        <ele>1057</ele>
      </trkpt>
      <trkpt lat="46.760995192453265" lon="12.033902406692505">
        <ele>1052</ele>
      </trkpt>
      <trkpt lat="46.761612519621849" lon="12.032700777053833">
        <ele>1047</ele>
      </trkpt>
      <trkpt lat="46.761186299845576" lon="12.0295250415802">
        <ele>1046</ele>
      </trkpt>
      <trkpt lat="46.761744869872928" lon="12.02928900718689">
        <ele>1043</ele>
      </trkpt>
      <trkpt lat="46.762582724913955" lon="12.028344869613647">
        <ele>1044</ele>
      </trkpt>
      <trkpt lat="46.76339115947485" lon="12.02727198600769">
        <ele>1048</ele>
      </trkpt>
      <trkpt lat="46.764008486643434" lon="12.026928663253784">
        <ele>1049</ele>
      </trkpt>
      <trkpt lat="46.765581183135509" lon="12.024954557418823">
        <ele>1050</ele>
      </trkpt>
      <trkpt lat="46.766815837472677" lon="12.022637128829956">
        <ele>1045</ele>
      </trkpt>
      <trkpt lat="46.767109790816903" lon="12.020920515060425">
        <ele>1035</ele>
      </trkpt>
      <trkpt lat="46.767932893708348" lon="12.019826173782349">
        <ele>1026</ele>
      </trkpt>
      <trkpt lat="46.768491379916668" lon="12.019268274307251">
        <ele>1018</ele>
      </trkpt>
      <trkpt lat="46.768417870625854" lon="12.01905369758606">
        <ele>1016</ele>
      </trkpt>
      <trkpt lat="46.768035739660263" lon="12.019118070602417">
        <ele>1017</ele>
      </trkpt>
      <trkpt lat="46.76762418821454" lon="12.019010782241821">
        <ele>1017</ele>
      </trkpt>
      <trkpt lat="46.767477253451943" lon="12.017916440963745">
        <ele>1017</ele>
      </trkpt>
      <trkpt lat="46.767962230369449" lon="12.017079591751099">
        <ele>1019</ele>
      </trkpt>
      <trkpt lat="46.767976982519031" lon="12.016671895980835">
        <ele>1022</ele>
      </trkpt>
      <trkpt lat="46.768432538956404" lon="12.01654314994812">
        <ele>1018</ele>
      </trkpt>
      <trkpt lat="46.768564889207482" lon="12.015920877456665">
        <ele>1019</ele>
      </trkpt>
      <trkpt lat="46.768902931362391" lon="12.015727758407593">
        <ele>1015</ele>
      </trkpt>
      <trkpt lat="46.769226221367717" lon="12.015148401260376">
        <ele>1011</ele>
      </trkpt>
      <trkpt lat="46.769446665421128" lon="12.01454758644104">
        <ele>1011</ele>
      </trkpt>
      <trkpt lat="46.769637772813439" lon="12.014311552047729">
        <ele>1010</ele>
      </trkpt>
      <trkpt lat="46.769828796386719" lon="12.014418840408325">
        <ele>1007</ele>
      </trkpt>
      <trkpt lat="46.770108081400394" lon="12.015255689620972">
        <ele>1002</ele>
      </trkpt>
      <trkpt lat="46.769887637346983" lon="12.016671895980835">
        <ele>1001</ele>
      </trkpt>
      <trkpt lat="46.769902305677533" lon="12.016972303390503">
        <ele>1000</ele>
      </trkpt>
      <trkpt lat="46.770108081400394" lon="12.017122507095337">
        <ele>1000</ele>
      </trkpt>
      <trkpt lat="46.770661035552621" lon="12.016846239566803">
        <ele>1000</ele>
      </trkpt>
      <trkpt lat="46.77177800796926" lon="12.016846239566803">
        <ele>1000</ele>
      </trkpt>
      <trkpt lat="46.772395251318812" lon="12.015945017337799">
        <ele>1000</ele>
      </trkpt>
      <trkpt lat="46.773482719436288" lon="12.015987932682037">
        <ele>1000</ele>
      </trkpt>
      <trkpt lat="46.773629654198885" lon="12.015215456485748">
        <ele>1000</ele>
      </trkpt>
      <trkpt lat="46.774276318028569" lon="12.014228403568268">
        <ele>999</ele>
      </trkpt>
      <trkpt lat="46.77527560852468" lon="12.013842165470123">
        <ele>999</ele>
      </trkpt>
      <trkpt lat="46.776480674743652" lon="12.014013826847076">
        <ele>999</ele>
      </trkpt>
      <trkpt lat="46.778038283810019" lon="12.014571726322174">
        <ele>999</ele>
      </trkpt>
      <trkpt lat="46.778684863820672" lon="12.014571726322174">
        <ele>998</ele>
      </trkpt>
      <trkpt lat="46.779742911458015" lon="12.013584673404694">
        <ele>992</ele>
      </trkpt>
      <trkpt lat="46.780330650508404" lon="12.013370096683502">
        <ele>988</ele>
      </trkpt>
      <trkpt lat="46.781800081953406" lon="12.011481821537018">
        <ele>980</ele>
      </trkpt>
      <trkpt lat="46.782152708619833" lon="12.009593546390533">
        <ele>975</ele>
      </trkpt>
      <trkpt lat="46.783063653856516" lon="12.005988657474518">
        <ele>975</ele>
      </trkpt>
      <trkpt lat="46.783563299104571" lon="12.004872858524323">
        <ele>972</ele>
      </trkpt>
      <trkpt lat="46.783827748149633" lon="12.003542482852936">
        <ele>964</ele>
      </trkpt>
      <trkpt lat="46.786413649097085" lon="12.000752985477448">
        <ele>953</ele>
      </trkpt>
      <trkpt lat="46.786560583859682" lon="12.000409662723541">
        <ele>953</ele>
      </trkpt>
      <trkpt lat="46.786590004339814" lon="11.999723017215729">
        <ele>955</ele>
      </trkpt>
      <trkpt lat="46.786119863390923" lon="11.998821794986725">
        <ele>951</ele>
      </trkpt>
      <trkpt lat="46.786025064066052" lon="11.998034650459886">
        <ele>945</ele>
      </trkpt>
      <trkpt lat="46.785884751006961" lon="11.99693351984024">
        <ele>939</ele>
      </trkpt>
      <trkpt lat="46.786061022430658" lon="11.996504366397858">
        <ele>939</ele>
      </trkpt>
      <trkpt lat="46.78714832291007" lon="11.995302736759186">
        <ele>933</ele>
      </trkpt>
      <trkpt lat="46.788088604807854" lon="11.993757784366608">
        <ele>931</ele>
      </trkpt>
      <trkpt lat="46.788148954510689" lon="11.99228273704648">
        <ele>925</ele>
      </trkpt>
      <trkpt lat="46.788000427186489" lon="11.990539133548737">
        <ele>925</ele>
      </trkpt>
      <trkpt lat="46.788264876231551" lon="11.989637911319733">
        <ele>925</ele>
      </trkpt>
      <trkpt lat="46.788118025287986" lon="11.98895126581192">
        <ele>925</ele>
      </trkpt>
      <trkpt lat="46.78844123147428" lon="11.988350450992584">
        <ele>923</ele>
      </trkpt>
      <trkpt lat="46.789117064327002" lon="11.98796421289444">
        <ele>922</ele>
      </trkpt>
      <trkpt lat="46.789807565510273" lon="11.982385218143463">
        <ele>920</ele>
      </trkpt>
      <trkpt lat="46.789704719558358" lon="11.981698572635651">
        <ele>919</ele>
      </trkpt>
      <trkpt lat="46.789205158129334" lon="11.981097757816315">
        <ele>911</ele>
      </trkpt>
      <trkpt lat="46.789117064327002" lon="11.980067789554596">
        <ele>907</ele>
      </trkpt>
      <trkpt lat="46.789352092891932" lon="11.979552805423737">
        <ele>909</ele>
      </trkpt>
      <trkpt lat="46.789939748123288" lon="11.976934969425201">
        <ele>913</ele>
      </trkpt>
      <trkpt lat="46.790145440027118" lon="11.975347101688385">
        <ele>911</ele>
      </trkpt>
      <trkpt lat="46.789734056219459" lon="11.974360048770905">
        <ele>904</ele>
      </trkpt>
      <trkpt lat="46.789645962417126" lon="11.973544657230377">
        <ele>905</ele>
      </trkpt>
      <trkpt lat="46.789028886705637" lon="11.972428858280182">
        <ele>902</ele>
      </trkpt>
      <trkpt lat="46.788147361949086" lon="11.971870958805084">
        <ele>902</ele>
      </trkpt>
      <trkpt lat="46.787647800520062" lon="11.971355974674225">
        <ele>901</ele>
      </trkpt>
      <trkpt lat="46.787207080051303" lon="11.969811022281647">
        <ele>904</ele>
      </trkpt>
      <trkpt lat="46.786354891955853" lon="11.96873813867569">
        <ele>901</ele>
      </trkpt>
      <trkpt lat="46.78629613481462" lon="11.968094408512115">
        <ele>901</ele>
      </trkpt>
      <trkpt lat="46.786766275763512" lon="11.966806948184967">
        <ele>903</ele>
      </trkpt>
      <trkpt lat="46.786641385406256" lon="11.966436803340912">
        <ele>902</ele>
      </trkpt>
      <trkpt lat="46.786369644105434" lon="11.966195404529572">
        <ele>903</ele>
      </trkpt>
      <trkpt lat="46.78584803827107" lon="11.966098845005035">
        <ele>901</ele>
      </trkpt>
      <trkpt lat="46.784650515764952" lon="11.963818967342377">
        <ele>921</ele>
      </trkpt>
      <trkpt lat="46.784555045887828" lon="11.963362991809845">
        <ele>919</ele>
      </trkpt>
      <trkpt lat="46.783159207552671" lon="11.96074515581131">
        <ele>887</ele>
      </trkpt>
      <trkpt lat="46.78373227827251" lon="11.958695948123932">
        <ele>884</ele>
      </trkpt>
      <trkpt lat="46.784121617674828" lon="11.95775181055069">
        <ele>879</ele>
      </trkpt>
      <trkpt lat="46.785150077193975" lon="11.956292688846588">
        <ele>881</ele>
      </trkpt>
      <trkpt lat="46.784797450527549" lon="11.955520212650299">
        <ele>879</ele>
      </trkpt>
      <trkpt lat="46.785561544820666" lon="11.95449024438858">
        <ele>882</ele>
      </trkpt>
      <trkpt lat="46.785972928628325" lon="11.953074038028717">
        <ele>879</ele>
      </trkpt>
      <trkpt lat="46.787207080051303" lon="11.951475441455841">
        <ele>877</ele>
      </trkpt>
      <trkpt lat="46.787185035645962" lon="11.95100337266922">
        <ele>879</ele>
      </trkpt>
      <trkpt lat="46.787600107491016" lon="11.950643956661224">
        <ele>878</ele>
      </trkpt>
      <trkpt lat="46.788029847666621" lon="11.950713694095612">
        <ele>872</ele>
      </trkpt>
      <trkpt lat="46.788617502897978" lon="11.950928270816803">
        <ele>864</ele>
      </trkpt>
      <trkpt lat="46.789028886705637" lon="11.950928270816803">
        <ele>862</ele>
      </trkpt>
      <trkpt lat="46.790439309552312" lon="11.950713694095612">
        <ele>853</ele>
      </trkpt>
      <trkpt lat="46.791263837367296" lon="11.950069963932037">
        <ele>850</ele>
      </trkpt>
      <trkpt lat="46.794976852834225" lon="11.944413185119629">
        <ele>838</ele>
      </trkpt>
      <trkpt lat="46.795175168663263" lon="11.94389820098877">
        <ele>835</ele>
      </trkpt>
      <trkpt lat="46.795329479500651" lon="11.943018436431885">
        <ele>831</ele>
      </trkpt>
      <trkpt lat="46.795344147831202" lon="11.941215991973877">
        <ele>830</ele>
      </trkpt>
      <trkpt lat="46.795520419254899" lon="11.940486431121826">
        <ele>832</ele>
      </trkpt>
      <trkpt lat="46.795740779489279" lon="11.940089464187622">
        <ele>828</ele>
      </trkpt>
      <trkpt lat="46.796644181013107" lon="11.939241886138916">
        <ele>825</ele>
      </trkpt>
      <trkpt lat="46.797863412648439" lon="11.938372850418091">
        <ele>825</ele>
      </trkpt>
      <trkpt lat="46.798267420381308" lon="11.937332153320312">
        <ele>825</ele>
      </trkpt>
      <trkpt lat="46.798260044306517" lon="11.936516761779785">
        <ele>825</ele>
      </trkpt>
      <trkpt lat="46.797525538131595" lon="11.933383941650391">
        <ele>825</ele>
      </trkpt>
      <trkpt lat="46.797444820404053" lon="11.931838989257812">
        <ele>825</ele>
      </trkpt>
      <trkpt lat="46.797209708020091" lon="11.93115234375">
        <ele>825</ele>
      </trkpt>
      <trkpt lat="46.796710314229131" lon="11.930594444274902">
        <ele>825</ele>
      </trkpt>
      <trkpt lat="46.795961139723659" lon="11.930047273635864">
        <ele>825</ele>
      </trkpt>
      <trkpt lat="46.795314727351069" lon="11.929253339767456">
        <ele>825</ele>
      </trkpt>
      <trkpt lat="46.794051406905055" lon="11.92466139793396">
        <ele>821</ele>
      </trkpt>
      <trkpt lat="46.793786957859993" lon="11.924039125442505">
        <ele>816</ele>
      </trkpt>
      <trkpt lat="46.793353613466024" lon="11.923320293426514">
        <ele>807</ele>
      </trkpt>
      <trkpt lat="46.792692532762885" lon="11.922762393951416">
        <ele>802</ele>
      </trkpt>
      <trkpt lat="46.790173016488552" lon="11.921249628067017">
        <ele>800</ele>
      </trkpt>
      <trkpt lat="46.790018705651164" lon="11.921646595001221">
        <ele>801</ele>
      </trkpt>
      <trkpt lat="46.789533896371722" lon="11.921281814575195">
        <ele>802</ele>
      </trkpt>
      <trkpt lat="46.788769969716668" lon="11.919136047363281">
        <ele>801</ele>
      </trkpt>
      <trkpt lat="46.788432011380792" lon="11.918385028839111">
        <ele>801</ele>
      </trkpt>
      <trkpt lat="46.788108805194497" lon="11.916775703430176">
        <ele>801</ele>
      </trkpt>
      <trkpt lat="46.78752114996314" lon="11.914801597595215">
        <ele>801</ele>
      </trkpt>
      <trkpt lat="46.786830564960837" lon="11.912999153137207">
        <ele>806</ele>
      </trkpt>
      <trkpt lat="46.786610204726458" lon="11.911368370056152">
        <ele>807</ele>
      </trkpt>
      <trkpt lat="46.78668363019824" lon="11.910209655761719">
        <ele>802</ele>
      </trkpt>
      <trkpt lat="46.78644860163331" lon="11.909780502319336">
        <ele>804</ele>
      </trkpt>
      <trkpt lat="46.784068308770657" lon="11.902377605438232">
        <ele>803</ele>
      </trkpt>
      <trkpt lat="46.783098606392741" lon="11.902270317077637">
        <ele>810</ele>
      </trkpt>
      <trkpt lat="46.78162925876677" lon="11.902656555175781">
        <ele>821</ele>
      </trkpt>
      <trkpt lat="46.782025974243879" lon="11.895661354064941">
        <ele>810</ele>
      </trkpt>
      <trkpt lat="46.782481446862221" lon="11.893150806427002">
        <ele>806</ele>
      </trkpt>
      <trkpt lat="46.782540204003453" lon="11.893043518066406">
        <ele>806</ele>
      </trkpt>
      <trkpt lat="46.782261086627841" lon="11.892163753509521">
        <ele>809</ele>
      </trkpt>
      <trkpt lat="46.782114151865244" lon="11.892035007476807">
        <ele>810</ele>
      </trkpt>
      <trkpt lat="46.781335389241576" lon="11.892035007476807">
        <ele>815</ele>
      </trkpt>
      <trkpt lat="46.779954135417938" lon="11.891176700592041">
        <ele>822</ele>
      </trkpt>
      <trkpt lat="46.778866751119494" lon="11.890296936035156">
        <ele>830</ele>
      </trkpt>
      <trkpt lat="46.778719816356897" lon="11.88870906829834">
        <ele>826</ele>
      </trkpt>
      <trkpt lat="46.779160620644689" lon="11.88645601272583">
        <ele>825</ele>
      </trkpt>
      <trkpt lat="46.778940176591277" lon="11.885576248168945">
        <ele>825</ele>
      </trkpt>
      <trkpt lat="46.778558129444718" lon="11.885061264038086">
        <ele>825</ele>
      </trkpt>
      <trkpt lat="46.777323810383677" lon="11.884288787841797">
        <ele>825</ele>
      </trkpt>
      <trkpt lat="46.776008522138" lon="11.879632472991943">
        <ele>825</ele>
      </trkpt>
      <trkpt lat="46.77658905275166" lon="11.879428625106812">
        <ele>825</ele>
      </trkpt>
      <trkpt lat="46.776846209540963" lon="11.879997253417969">
        <ele>826</ele>
      </trkpt>
      <trkpt lat="46.777242925018072" lon="11.880018711090088">
        <ele>828</ele>
      </trkpt>
      <trkpt lat="46.777683813124895" lon="11.879847049713135">
        <ele>832</ele>
      </trkpt>
      <trkpt lat="46.777940969914198" lon="11.879342794418335">
        <ele>835</ele>
      </trkpt>
      <trkpt lat="46.778660975396633" lon="11.879417896270752">
        <ele>843</ele>
      </trkpt>
      <trkpt lat="46.778962220996618" lon="11.879847049713135">
        <ele>850</ele>
      </trkpt>
      <trkpt lat="46.779472846537828" lon="11.879192590713501">
        <ele>854</ele>
      </trkpt>
      <trkpt lat="46.78020391613245" lon="11.878543496131897">
        <ele>858</ele>
      </trkpt>
      <trkpt lat="46.780589651316404" lon="11.877856850624084">
        <ele>849</ele>
      </trkpt>
      <trkpt lat="46.782169220969081" lon="11.876585483551025">
        <ele>840</ele>
      </trkpt>
      <trkpt lat="46.7830765619874" lon="11.875644028186798">
        <ele>840</ele>
      </trkpt>
      <trkpt lat="46.783513678237796" lon="11.87472403049469">
        <ele>833</ele>
      </trkpt>
      <trkpt lat="46.784393442794681" lon="11.87385767698288">
        <ele>826</ele>
      </trkpt>
      <trkpt lat="46.784994006156921" lon="11.872830390930176">
        <ele>810</ele>
      </trkpt>
      <trkpt lat="46.784964585676789" lon="11.86997652053833">
        <ele>805</ele>
      </trkpt>
      <trkpt lat="46.785758016631007" lon="11.867036819458008">
        <ele>802</ele>
      </trkpt>
      <trkpt lat="46.785831525921822" lon="11.86497688293457">
        <ele>806</ele>
      </trkpt>
      <trkpt lat="46.786316335201263" lon="11.863367557525635">
        <ele>811</ele>
      </trkpt>
      <trkpt lat="46.787344794720411" lon="11.861608028411865">
        <ele>806</ele>
      </trkpt>
      <trkpt lat="46.788196982815862" lon="11.85999870300293">
        <ele>803</ele>
      </trkpt>
      <trkpt lat="46.788858063519001" lon="11.85924768447876">
        <ele>802</ele>
      </trkpt>
      <trkpt lat="46.789813013747334" lon="11.857659816741943">
        <ele>803</ele>
      </trkpt>
      <trkpt lat="46.791561311110854" lon="11.85650110244751">
        <ele>800</ele>
      </trkpt>
      <trkpt lat="46.792075540870428" lon="11.856093406677246">
        <ele>800</ele>
      </trkpt>
      <trkpt lat="46.791928606107831" lon="11.855621337890625">
        <ele>805</ele>
      </trkpt>
      <trkpt lat="46.792207723483443" lon="11.855385303497314">
        <ele>806</ele>
      </trkpt>
      <trkpt lat="46.792295901104808" lon="11.855020523071289">
        <ele>809</ele>
      </trkpt>
      <trkpt lat="46.793603310361505" lon="11.853303909301758">
        <ele>811</ele>
      </trkpt>
      <trkpt lat="46.794572928920388" lon="11.850278377532959">
        <ele>814</ele>
      </trkpt>
      <trkpt lat="46.795659977942705" lon="11.848025321960449">
        <ele>804</ele>
      </trkpt>
      <trkpt lat="46.796041941270232" lon="11.84650182723999">
        <ele>805</ele>
      </trkpt>
      <trkpt lat="46.797261172905564" lon="11.844120025634766">
        <ele>801</ele>
      </trkpt>
      <trkpt lat="46.798568498343229" lon="11.84251070022583">
        <ele>800</ele>
      </trkpt>
      <trkpt lat="46.799567369744182" lon="11.842124462127686">
        <ele>799</ele>
      </trkpt>
      <trkpt lat="46.800448726862669" lon="11.841437816619873">
        <ele>799</ele>
      </trkpt>
      <trkpt lat="46.800404638051987" lon="11.841051578521729">
        <ele>798</ele>
      </trkpt>
      <trkpt lat="46.800713092088699" lon="11.840193271636963">
        <ele>799</ele>
      </trkpt>
      <trkpt lat="46.803092630580068" lon="11.840107440948486">
        <ele>798</ele>
      </trkpt>
      <trkpt lat="46.803577272221446" lon="11.839721202850342">
        <ele>798</ele>
      </trkpt>
      <trkpt lat="46.804223516955972" lon="11.837918758392334">
        <ele>798</ele>
      </trkpt>
      <trkpt lat="46.806250428780913" lon="11.833069324493408">
        <ele>789</ele>
      </trkpt>
      <trkpt lat="46.806235760450363" lon="11.832726001739502">
        <ele>789</ele>
      </trkpt>
      <trkpt lat="46.805868549272418" lon="11.832554340362549">
        <ele>794</ele>
      </trkpt>
      <trkpt lat="46.80517821572721" lon="11.829056739807129">
        <ele>785</ele>
      </trkpt>
      <trkpt lat="46.805369155481458" lon="11.828112602233887">
        <ele>781</ele>
      </trkpt>
      <trkpt lat="46.80514887906611" lon="11.826159954071045">
        <ele>780</ele>
      </trkpt>
      <trkpt lat="46.805295730009675" lon="11.824464797973633">
        <ele>780</ele>
      </trkpt>
      <trkpt lat="46.804869845509529" lon="11.822469234466553">
        <ele>780</ele>
      </trkpt>
      <trkpt lat="46.804855093359947" lon="11.821632385253906">
        <ele>781</ele>
      </trkpt>
      <trkpt lat="46.805369155481458" lon="11.818392276763916">
        <ele>779</ele>
      </trkpt>
      <trkpt lat="46.80566294118762" lon="11.815581321716309">
        <ele>779</ele>
      </trkpt>
      <trkpt lat="46.805295730009675" lon="11.814401149749756">
        <ele>779</ele>
      </trkpt>
      <trkpt lat="46.80516354739666" lon="11.813349723815918">
        <ele>777</ele>
      </trkpt>
      <trkpt lat="46.804649485275149" lon="11.811633110046387">
        <ele>792</ele>
      </trkpt>
      <trkpt lat="46.805369155481458" lon="11.80931568145752">
        <ele>778</ele>
      </trkpt>
      <trkpt lat="46.806000731885433" lon="11.808435916900635">
        <ele>776</ele>
      </trkpt>
      <trkpt lat="46.806426616385579" lon="11.806526184082031">
        <ele>779</ele>
      </trkpt>
      <trkpt lat="46.80746940895915" lon="11.804466247558594">
        <ele>773</ele>
      </trkpt>
      <trkpt lat="46.807836620137095" lon="11.804659366607666">
        <ele>773</ele>
      </trkpt>
      <trkpt lat="46.810201071202755" lon="11.800646781921387">
        <ele>772</ele>
      </trkpt>
      <trkpt lat="46.810274496674538" lon="11.799874305725098">
        <ele>772</ele>
      </trkpt>
      <trkpt lat="46.810201071202755" lon="11.79757833480835">
        <ele>771</ele>
      </trkpt>
      <trkpt lat="46.809878032654524" lon="11.797535419464111">
        <ele>771</ele>
      </trkpt>
      <trkpt lat="46.809745850041509" lon="11.796398162841797">
        <ele>770</ele>
      </trkpt>
      <trkpt lat="46.809231787919998" lon="11.796205043792725">
        <ele>769</ele>
      </trkpt>
      <trkpt lat="46.8090261798352" lon="11.794703006744385">
        <ele>768</ele>
      </trkpt>
      <trkpt lat="46.8089968431741" lon="11.792535781860352">
        <ele>766</ele>
      </trkpt>
      <trkpt lat="46.808277172967792" lon="11.791505813598633">
        <ele>766</ele>
      </trkpt>
      <trkpt lat="46.807777862995863" lon="11.790368556976318">
        <ele>768</ele>
      </trkpt>
      <trkpt lat="46.807586923241615" lon="11.788566112518311">
        <ele>768</ele>
      </trkpt>
      <trkpt lat="46.807895377278328" lon="11.78708553314209">
        <ele>766</ele>
      </trkpt>
      <trkpt lat="46.808438776060939" lon="11.786055564880371">
        <ele>763</ele>
      </trkpt>
      <trkpt lat="46.808438776060939" lon="11.78459644317627">
        <ele>763</ele>
      </trkpt>
      <trkpt lat="46.808380018919706" lon="11.784017086029053">
        <ele>763</ele>
      </trkpt>
      <trkpt lat="46.808086233213544" lon="11.783287525177002">
        <ele>767</ele>
      </trkpt>
      <trkpt lat="46.808247836306691" lon="11.781034469604492">
        <ele>766</ele>
      </trkpt>
      <trkpt lat="46.808218415826559" lon="11.779403686523438">
        <ele>770</ele>
      </trkpt>
      <trkpt lat="46.808864660561085" lon="11.777772903442383">
        <ele>762</ele>
      </trkpt>
      <trkpt lat="46.809246456250548" lon="11.77534818649292">
        <ele>757</ele>
      </trkpt>
      <trkpt lat="46.808967422693968" lon="11.771936416625977">
        <ele>757</ele>
      </trkpt>
      <trkpt lat="46.808614963665605" lon="11.769533157348633">
        <ele>760</ele>
      </trkpt>
      <trkpt lat="46.808453444391489" lon="11.768953800201416">
        <ele>761</ele>
      </trkpt>
      <trkpt lat="46.808614963665605" lon="11.767752170562744">
        <ele>758</ele>
      </trkpt>
      <trkpt lat="46.80876181460917" lon="11.764769554138184">
        <ele>759</ele>
      </trkpt>
      <trkpt lat="46.808570874854922" lon="11.763728857040405">
        <ele>758</ele>
      </trkpt>
      <trkpt lat="46.808277172967792" lon="11.762709617614746">
        <ele>758</ele>
      </trkpt>
      <trkpt lat="46.809217119589448" lon="11.757688522338867">
        <ele>751</ele>
      </trkpt>
      <trkpt lat="46.809202451258898" lon="11.754662990570068">
        <ele>750</ele>
      </trkpt>
      <trkpt lat="46.809040848165751" lon="11.753525733947754">
        <ele>755</ele>
      </trkpt>
      <trkpt lat="46.809540241956711" lon="11.751809120178223">
        <ele>758</ele>
      </trkpt>
      <trkpt lat="46.809701761230826" lon="11.750006675720215">
        <ele>762</ele>
      </trkpt>
      <trkpt lat="46.80953286588192" lon="11.748021841049194">
        <ele>772</ele>
      </trkpt>
      <trkpt lat="46.809613667428493" lon="11.746680736541748">
        <ele>759</ele>
      </trkpt>
      <trkpt lat="46.810120353475213" lon="11.744481325149536">
        <ele>751</ele>
      </trkpt>
      <trkpt lat="46.810656376183033" lon="11.742732524871826">
        <ele>752</ele>
      </trkpt>
      <trkpt lat="46.811317205429077" lon="11.741251945495605">
        <ele>750</ele>
      </trkpt>
      <trkpt lat="46.812301157042384" lon="11.740028858184814">
        <ele>750</ele>
      </trkpt>
      <trkpt lat="46.81274170987308" lon="11.738934516906738">
        <ele>750</ele>
      </trkpt>
      <trkpt lat="46.813006075099111" lon="11.73790454864502">
        <ele>750</ele>
      </trkpt>
      <trkpt lat="46.812227731570601" lon="11.737432479858398">
        <ele>750</ele>
      </trkpt>
      <trkpt lat="46.812227731570601" lon="11.736681461334229">
        <ele>750</ele>
      </trkpt>
      <trkpt lat="46.812051460146904" lon="11.736059188842773">
        <ele>750</ele>
      </trkpt>
      <trkpt lat="46.812183642759919" lon="11.734213829040527">
        <ele>750</ele>
      </trkpt>
      <trkpt lat="46.812403919175267" lon="11.732883453369141">
        <ele>750</ele>
      </trkpt>
      <trkpt lat="46.812506765127182" lon="11.730372905731201">
        <ele>750</ele>
      </trkpt>
      <trkpt lat="46.812007455155253" lon="11.728227138519287">
        <ele>750</ele>
      </trkpt>
      <trkpt lat="46.810810519382358" lon="11.725984811782837">
        <ele>751</ele>
      </trkpt>
      <trkpt lat="46.810421347618103" lon="11.723935604095459">
        <ele>753</ele>
      </trkpt>
      <trkpt lat="46.810450768098235" lon="11.723570823669434">
        <ele>751</ele>
      </trkpt>
      <trkpt lat="46.810964746400714" lon="11.721811294555664">
        <ele>750</ele>
      </trkpt>
      <trkpt lat="46.811126265674829" lon="11.719901561737061">
        <ele>750</ele>
      </trkpt>
      <trkpt lat="46.811816515401006" lon="11.718077659606934">
        <ele>751</ele>
      </trkpt>
      <trkpt lat="46.812183642759919" lon="11.717755794525146">
        <ele>751</ele>
      </trkpt>
      <trkpt lat="46.812433339655399" lon="11.716854572296143">
        <ele>751</ele>
      </trkpt>
      <trkpt lat="46.812976654618979" lon="11.7159104347229">
        <ele>751</ele>
      </trkpt>
      <trkpt lat="46.812815135344863" lon="11.714837551116943">
        <ele>758</ele>
      </trkpt>
      <trkpt lat="46.81275637820363" lon="11.712820529937744">
        <ele>754</ele>
      </trkpt>
      <trkpt lat="46.813681572675705" lon="11.710374355316162">
        <ele>753</ele>
      </trkpt>
      <trkpt lat="46.813681572675705" lon="11.709880828857422">
        <ele>756</ele>
      </trkpt>
      <trkpt lat="46.814415827393532" lon="11.708443164825439">
        <ele>752</ele>
      </trkpt>
      <trkpt lat="46.815135329961777" lon="11.706748008728027">
        <ele>752</ele>
      </trkpt>
      <trkpt lat="46.81548778899014" lon="11.70419454574585">
        <ele>759</ele>
      </trkpt>
      <trkpt lat="46.815443700179458" lon="11.703464984893799">
        <ele>765</ele>
      </trkpt>
      <trkpt lat="46.815590551123023" lon="11.701018810272217">
        <ele>758</ele>
      </trkpt>
      <trkpt lat="46.815399695187807" lon="11.697907447814941">
        <ele>753</ele>
      </trkpt>
      <trkpt lat="46.815116973593831" lon="11.696255207061768">
        <ele>750</ele>
      </trkpt>
      <trkpt lat="46.815506145358086" lon="11.696040630340576">
        <ele>750</ele>
      </trkpt>
      <trkpt lat="46.81508026085794" lon="11.693969964981079">
        <ele>750</ele>
      </trkpt>
      <trkpt lat="46.814698465168476" lon="11.692553758621216">
        <ele>750</ele>
      </trkpt>
      <trkpt lat="46.814368050545454" lon="11.692070960998535">
        <ele>751</ele>
      </trkpt>
      <trkpt lat="46.813648547977209" lon="11.691298484802246">
        <ele>749</ele>
      </trkpt>
      <trkpt lat="46.813318133354187" lon="11.690547466278076">
        <ele>747</ele>
      </trkpt>
      <trkpt lat="46.813237331807613" lon="11.689732074737549">
        <ele>746</ele>
      </trkpt>
      <trkpt lat="46.813024431467056" lon="11.689120531082153">
        <ele>744</ele>
      </trkpt>
      <trkpt lat="46.812972966581583" lon="11.688369512557983">
        <ele>741</ele>
      </trkpt>
      <trkpt lat="46.81285553611815" lon="11.688154935836792">
        <ele>739</ele>
      </trkpt>
      <trkpt lat="46.812466364353895" lon="11.686277389526367">
        <ele>728</ele>
      </trkpt>
      <trkpt lat="46.812481032684445" lon="11.686105728149414">
        <ele>729</ele>
      </trkpt>
      <trkpt lat="46.812561834231019" lon="11.686105728149414">
        <ele>731</ele>
      </trkpt>
      <trkpt lat="46.812980342656374" lon="11.686599254608154">
        <ele>736</ele>
      </trkpt>
      <trkpt lat="46.812951005995274" lon="11.686009168624878">
        <ele>741</ele>
      </trkpt>
      <trkpt lat="46.811181334778666" lon="11.684507131576538">
        <ele>728</ele>
      </trkpt>
      <trkpt lat="46.811093240976334" lon="11.683917045593262">
        <ele>736</ele>
      </trkpt>
      <trkpt lat="46.811203379184008" lon="11.683884859085083">
        <ele>739</ele>
      </trkpt>
      <trkpt lat="46.810527881607413" lon="11.6834557056427">
        <ele>735</ele>
      </trkpt>
      <trkpt lat="46.810050532221794" lon="11.683273315429688">
        <ele>731</ele>
      </trkpt>
      <trkpt lat="46.809808211401105" lon="11.683262586593628">
        <ele>730</ele>
      </trkpt>
      <trkpt lat="46.809117961674929" lon="11.682919263839722">
        <ele>732</ele>
      </trkpt>
      <trkpt lat="46.808332242071629" lon="11.68220043182373">
        <ele>733</ele>
      </trkpt>
      <trkpt lat="46.806900277733803" lon="11.680623292922974">
        <ele>737</ele>
      </trkpt>
      <trkpt lat="46.80604113265872" lon="11.679550409317017">
        <ele>740</ele>
      </trkpt>
      <trkpt lat="46.805578451603651" lon="11.67822003364563">
        <ele>755</ele>
      </trkpt>
      <trkpt lat="46.805269997566938" lon="11.677855253219604">
        <ele>750</ele>
      </trkpt>
      <trkpt lat="46.80480002425611" lon="11.676868200302124">
        <ele>756</ele>
      </trkpt>
      <trkpt lat="46.804697262123227" lon="11.67647123336792">
        <ele>760</ele>
      </trkpt>
      <trkpt lat="46.804087730124593" lon="11.675355434417725">
        <ele>758</ele>
      </trkpt>
      <trkpt lat="46.804124442860484" lon="11.674636602401733">
        <ele>772</ele>
      </trkpt>
      <trkpt lat="46.803103610873222" lon="11.673778295516968">
        <ele>768</ele>
      </trkpt>
      <trkpt lat="46.802729023620486" lon="11.673746109008789">
        <ele>758</ele>
      </trkpt>
      <trkpt lat="46.800533132627606" lon="11.671932935714722">
        <ele>752</ele>
      </trkpt>
      <trkpt lat="46.799240559339523" lon="11.670055389404297">
        <ele>751</ele>
      </trkpt>
      <trkpt lat="46.798241687938571" lon="11.669111251831055">
        <ele>750</ele>
      </trkpt>
      <trkpt lat="46.797786299139261" lon="11.668821573257446">
        <ele>750</ele>
      </trkpt>
      <trkpt lat="46.797404419630766" lon="11.668757200241089">
        <ele>747</ele>
      </trkpt>
      <trkpt lat="46.795861981809139" lon="11.667555570602417">
        <ele>747</ele>
      </trkpt>
      <trkpt lat="46.795494686812162" lon="11.667040586471558">
        <ele>745</ele>
      </trkpt>
      <trkpt lat="46.79611905477941" lon="11.665581464767456">
        <ele>774</ele>
      </trkpt>
      <trkpt lat="46.796038253232837" lon="11.665463447570801">
        <ele>774</ele>
      </trkpt>
      <trkpt lat="46.795340459793806" lon="11.66523814201355">
        <ele>770</ele>
      </trkpt>
      <trkpt lat="46.794877694919705" lon="11.665270328521729">
        <ele>765</ele>
      </trkpt>
      <trkpt lat="46.794782225042582" lon="11.665195226669312">
        <ele>767</ele>
      </trkpt>
      <trkpt lat="46.793864071369171" lon="11.665409803390503">
        <ele>760</ele>
      </trkpt>
      <trkpt lat="46.793364593759179" lon="11.665356159210205">
        <ele>762</ele>
      </trkpt>
      <trkpt lat="46.792608043178916" lon="11.664937734603882">
        <ele>778</ele>
      </trkpt>
      <trkpt lat="46.791789047420025" lon="11.664760708808899">
        <ele>785</ele>
      </trkpt>
      <trkpt lat="46.791094858199358" lon="11.664358377456665">
        <ele>795</ele>
      </trkpt>
      <trkpt lat="46.790650449693203" lon="11.664444208145142">
        <ele>791</ele>
      </trkpt>
      <trkpt lat="46.79023546166718" lon="11.664294004440308">
        <ele>799</ele>
      </trkpt>
      <trkpt lat="46.790007725358009" lon="11.664068698883057">
        <ele>809</ele>
      </trkpt>
      <trkpt lat="46.789882835000753" lon="11.663789749145508">
        <ele>817</ele>
      </trkpt>
      <trkpt lat="46.789750652387738" lon="11.663757562637329">
        <ele>818</ele>
      </trkpt>
      <trkpt lat="46.789633054286242" lon="11.663854122161865">
        <ele>816</ele>
      </trkpt>
      <trkpt lat="46.789464158937335" lon="11.664197444915771">
        <ele>807</ele>
      </trkpt>
      <trkpt lat="46.78913357667625" lon="11.664379835128784">
        <ele>803</ele>
      </trkpt>
      <trkpt lat="46.788443075492978" lon="11.664572954177856">
        <ele>800</ele>
      </trkpt>
      <trkpt lat="46.787848044186831" lon="11.66448712348938">
        <ele>802</ele>
      </trkpt>
      <trkpt lat="46.787289725616574" lon="11.664905548095703">
        <ele>799</ele>
      </trkpt>
      <trkpt lat="46.786826876923442" lon="11.665624380111694">
        <ele>791</ele>
      </trkpt>
      <trkpt lat="46.785827837884426" lon="11.666214466094971">
        <ele>792</ele>
      </trkpt>
      <trkpt lat="46.785622145980597" lon="11.666611433029175">
        <ele>786</ele>
      </trkpt>
      <trkpt lat="46.785276811569929" lon="11.667094230651855">
        <ele>780</ele>
      </trkpt>
      <trkpt lat="46.784233599901199" lon="11.668038368225098">
        <ele>774</ele>
      </trkpt>
      <trkpt lat="46.783748790621758" lon="11.668210029602051">
        <ele>772</ele>
      </trkpt>
      <trkpt lat="46.783028785139322" lon="11.667877435684204">
        <ele>776</ele>
      </trkpt>
      <trkpt lat="46.78236024454236" lon="11.668038368225098">
        <ele>773</ele>
      </trkpt>
      <trkpt lat="46.781676951795816" lon="11.668531894683838">
        <ele>769</ele>
      </trkpt>
      <trkpt lat="46.78069987334311" lon="11.668950319290161">
        <ele>763</ele>
      </trkpt>
      <trkpt lat="46.779516935348511" lon="11.668885946273804">
        <ele>760</ele>
      </trkpt>
      <trkpt lat="46.779171600937843" lon="11.66872501373291">
        <ele>762</ele>
      </trkpt>
      <trkpt lat="46.778142973780632" lon="11.6684889793396">
        <ele>776</ele>
      </trkpt>
      <trkpt lat="46.777760926634073" lon="11.668263673782349">
        <ele>775</ele>
      </trkpt>
      <trkpt lat="46.77688661031425" lon="11.667523384094238">
        <ele>775</ele>
      </trkpt>
      <trkpt lat="46.776695586740971" lon="11.667351722717285">
        <ele>775</ele>
      </trkpt>
      <trkpt lat="46.776622077450156" lon="11.666965484619141">
        <ele>776</ele>
      </trkpt>
      <trkpt lat="46.776078343391418" lon="11.666718721389771">
        <ele>776</ele>
      </trkpt>
      <trkpt lat="46.775299496948719" lon="11.665527820587158">
        <ele>778</ele>
      </trkpt>
      <trkpt lat="46.775181898847222" lon="11.66499137878418">
        <ele>778</ele>
      </trkpt>
      <trkpt lat="46.775189274922013" lon="11.664460301399231">
        <ele>780</ele>
      </trkpt>
      <trkpt lat="46.775064384564757" lon="11.664047241210938">
        <ele>777</ele>
      </trkpt>
      <trkpt lat="46.774818208068609" lon="11.663902401924133">
        <ele>775</ele>
      </trkpt>
      <trkpt lat="46.773447850719094" lon="11.664674878120422">
        <ele>773</ele>
      </trkpt>
      <trkpt lat="46.772544030100107" lon="11.664830446243286">
        <ele>771</ele>
      </trkpt>
      <trkpt lat="46.772720385342836" lon="11.664369106292725">
        <ele>770</ele>
      </trkpt>
      <trkpt lat="46.77280118688941" lon="11.662899255752563">
        <ele>764</ele>
      </trkpt>
      <trkpt lat="46.772132562473416" lon="11.661440134048462">
        <ele>755</ele>
      </trkpt>
      <trkpt lat="46.771485898643732" lon="11.660259962081909">
        <ele>751</ele>
      </trkpt>
      <trkpt lat="46.770030884072185" lon="11.656022071838379">
        <ele>736</ele>
      </trkpt>
      <trkpt lat="46.769516486674547" lon="11.655759215354919">
        <ele>731</ele>
      </trkpt>
      <trkpt lat="46.769332755357027" lon="11.655195951461792">
        <ele>729</ele>
      </trkpt>
      <trkpt lat="46.76939888857305" lon="11.654611229896545">
        <ele>728</ele>
      </trkpt>
      <trkpt lat="46.769547751173377" lon="11.654522716999054">
        <ele>728</ele>
      </trkpt>
      <trkpt lat="46.769645065069199" lon="11.654326915740967">
        <ele>728</ele>
      </trkpt>
      <trkpt lat="46.769296042621136" lon="11.653195023536682">
        <ele>725</ele>
      </trkpt>
      <trkpt lat="46.768991108983755" lon="11.651526689529419">
        <ele>731</ele>
      </trkpt>
      <trkpt lat="46.768307648599148" lon="11.650239229202271">
        <ele>733</ele>
      </trkpt>
      <trkpt lat="46.768204802647233" lon="11.649595499038696">
        <ele>734</ele>
      </trkpt>
      <trkpt lat="46.768256183713675" lon="11.648651361465454">
        <ele>736</ele>
      </trkpt>
      <trkpt lat="46.768215782940388" lon="11.647846698760986">
        <ele>720</ele>
      </trkpt>
      <trkpt lat="46.768485847860575" lon="11.64701521396637">
        <ele>707</ele>
      </trkpt>
      <trkpt lat="46.768667735159397" lon="11.646806001663208">
        <ele>707</ele>
      </trkpt>
      <trkpt lat="46.769014997407794" lon="11.646645069122314">
        <ele>713</ele>
      </trkpt>
      <trkpt lat="46.769420932978392" lon="11.646580696105957">
        <ele>715</ele>
      </trkpt>
      <trkpt lat="46.770747369155288" lon="11.646784543991089">
        <ele>717</ele>
      </trkpt>
      <trkpt lat="46.771603412926197" lon="11.646596789360046">
        <ele>714</ele>
      </trkpt>
      <trkpt lat="46.772209675982594" lon="11.646591424942017">
        <ele>718</ele>
      </trkpt>
      <trkpt lat="46.77251092158258" lon="11.646140813827515">
        <ele>716</ele>
      </trkpt>
      <trkpt lat="46.772444788366556" lon="11.645631194114685">
        <ele>710</ele>
      </trkpt>
      <trkpt lat="46.772544030100107" lon="11.645202040672302">
        <ele>708</ele>
      </trkpt>
      <trkpt lat="46.772720385342836" lon="11.644906997680664">
        <ele>710</ele>
      </trkpt>
      <trkpt lat="46.775993853807449" lon="11.641881465911865">
        <ele>717</ele>
      </trkpt>
      <trkpt lat="46.776346564292908" lon="11.641666889190674">
        <ele>719</ele>
      </trkpt>
      <trkpt lat="46.776489811018109" lon="11.641291379928589">
        <ele>717</ele>
      </trkpt>
      <trkpt lat="46.776633141562343" lon="11.64050817489624">
        <ele>712</ele>
      </trkpt>
      <trkpt lat="46.777044525370002" lon="11.639896631240845">
        <ele>716</ele>
      </trkpt>
      <trkpt lat="46.777940969914198" lon="11.638866662979126">
        <ele>724</ele>
      </trkpt>
      <trkpt lat="46.777963014319539" lon="11.638598442077637">
        <ele>724</ele>
      </trkpt>
      <trkpt lat="46.777656236663461" lon="11.638485789299011">
        <ele>719</ele>
      </trkpt>
      <trkpt lat="46.777334790676832" lon="11.63800835609436">
        <ele>717</ele>
      </trkpt>
      <trkpt lat="46.777048213407397" lon="11.637203693389893">
        <ele>718</ele>
      </trkpt>
      <trkpt lat="46.77708500996232" lon="11.634921133518219">
        <ele>721</ele>
      </trkpt>
      <trkpt lat="46.77719883620739" lon="11.634226441383362">
        <ele>718</ele>
      </trkpt>
      <trkpt lat="46.777511145919561" lon="11.633250117301941">
        <ele>713</ele>
      </trkpt>
      <trkpt lat="46.777467057108879" lon="11.632751226425171">
        <ele>712</ele>
      </trkpt>
      <trkpt lat="46.777375191450119" lon="11.632461547851562">
        <ele>711</ele>
      </trkpt>
      <trkpt lat="46.776682678610086" lon="11.632118225097656">
        <ele>705</ele>
      </trkpt>
      <trkpt lat="46.776438429951668" lon="11.631699800491333">
        <ele>708</ele>
      </trkpt>
      <trkpt lat="46.776423677802086" lon="11.629189252853394">
        <ele>728</ele>
      </trkpt>
      <trkpt lat="46.776611097157001" lon="11.628105640411377">
        <ele>734</ele>
      </trkpt>
      <trkpt lat="46.77680941298604" lon="11.627714037895203">
        <ele>735</ele>
      </trkpt>
      <trkpt lat="46.77680941298604" lon="11.627714037895203">
        <ele>735</ele>
      </trkpt>
      <trkpt lat="46.776896668598056" lon="11.627455204725266">
        <ele>735</ele>
      </trkpt>
      <trkpt lat="46.777762770652771" lon="11.626466810703278">
        <ele>731</ele>
      </trkpt>
      <trkpt lat="46.777952872216702" lon="11.626068502664566">
        <ele>729</ele>
      </trkpt>
      <trkpt lat="46.778224278241396" lon="11.62463553249836">
        <ele>728</ele>
      </trkpt>
      <trkpt lat="46.778194438666105" lon="11.624200344085693">
        <ele>731</ele>
      </trkpt>
      <trkpt lat="46.77799972705543" lon="11.62402868270874">
        <ele>736</ele>
      </trkpt>
    </trkseg>
  </trk>

</gpx>
