<?xml version="1.0"?>
<gpx creator="GPS Visualizer http://www.gpsvisualizer.com/" version="1.1" xmlns="http://www.topografix.com/GPX/1/1" xmlns:xsi="http://www.w3.org/2001/XMLSchema-instance" xsi:schemaLocation="http://www.topografix.com/GPX/1/1 http://www.topografix.com/GPX/1/1/gpx.xsd">
  <trk>
    <name>ev8-Cuneo-Limone-France</name>
    <desc>http://italy-cycling-guide.info</desc>
    <trkseg>
      <trkpt lat="44.389228820800781" lon="7.546663284301758">
        <ele>530</ele>
      </trkpt>
      <trkpt lat="44.38916671089828" lon="7.546779457479715">
        <ele>530</ele>
      </trkpt>
      <trkpt lat="44.390494823455811" lon="7.548058032989502">
        <ele>525</ele>
      </trkpt>
      <trkpt lat="44.390215873718262" lon="7.548551559448242">
        <ele>524</ele>
      </trkpt>
      <trkpt lat="44.389958381652832" lon="7.548701763153076">
        <ele>525</ele>
      </trkpt>
      <trkpt lat="44.389722347259521" lon="7.548637390136719">
        <ele>525</ele>
      </trkpt>
      <trkpt lat="44.388606548309326" lon="7.547543048858643">
        <ele>529</ele>
      </trkpt>
      <trkpt lat="44.387984275817871" lon="7.548809051513672">
        <ele>527</ele>
      </trkpt>
      <trkpt lat="44.38800573348999" lon="7.549045085906982">
        <ele>526</ele>
      </trkpt>
      <trkpt lat="44.387855529785156" lon="7.549152374267578">
        <ele>526</ele>
      </trkpt>
      <trkpt lat="44.387748241424561" lon="7.549045085906982">
        <ele>527</ele>
      </trkpt>
      <trkpt lat="44.387748241424561" lon="7.548894882202148">
        <ele>527</ele>
      </trkpt>
      <trkpt lat="44.383907318115234" lon="7.548165321350098">
        <ele>531</ele>
      </trkpt>
      <trkpt lat="44.382083415985107" lon="7.547028064727783">
        <ele>538</ele>
      </trkpt>
      <trkpt lat="44.380474090576172" lon="7.545933723449707">
        <ele>542</ele>
      </trkpt>
      <trkpt lat="44.379808902740479" lon="7.545590400695801">
        <ele>543</ele>
      </trkpt>
      <trkpt lat="44.376182556152344" lon="7.54335880279541">
        <ele>549</ele>
      </trkpt>
      <trkpt lat="44.372491836547852" lon="7.540977001190186">
        <ele>553</ele>
      </trkpt>
      <trkpt lat="44.368586540222168" lon="7.538573741912842">
        <ele>562</ele>
      </trkpt>
      <trkpt lat="44.367427825927734" lon="7.537758350372314">
        <ele>562</ele>
      </trkpt>
      <trkpt lat="44.367105960845947" lon="7.537393569946289">
        <ele>562</ele>
      </trkpt>
      <trkpt lat="44.366633892059326" lon="7.535912990570068">
        <ele>564</ele>
      </trkpt>
      <trkpt lat="44.36654806137085" lon="7.535805702209473">
        <ele>564</ele>
      </trkpt>
      <trkpt lat="44.366569519042969" lon="7.535741329193115">
        <ele>564</ele>
      </trkpt>
      <trkpt lat="44.366354942321777" lon="7.5356125831604">
        <ele>564</ele>
      </trkpt>
      <trkpt lat="44.366097450256348" lon="7.535312175750732">
        <ele>564</ele>
      </trkpt>
      <trkpt lat="44.362964630126953" lon="7.530934810638428">
        <ele>569</ele>
      </trkpt>
      <trkpt lat="44.362943172454834" lon="7.530655860900879">
        <ele>570</ele>
      </trkpt>
      <trkpt lat="44.362857341766357" lon="7.530612945556641">
        <ele>570</ele>
      </trkpt>
      <trkpt lat="44.362900257110596" lon="7.530462741851807">
        <ele>571</ele>
      </trkpt>
      <trkpt lat="44.362857341766357" lon="7.530398368835449">
        <ele>571</ele>
      </trkpt>
      <trkpt lat="44.362342357635498" lon="7.530012130737305">
        <ele>572</ele>
      </trkpt>
      <trkpt lat="44.361205101013184" lon="7.528402805328369">
        <ele>576</ele>
      </trkpt>
      <trkpt lat="44.359896183013916" lon="7.527523040771484">
        <ele>578</ele>
      </trkpt>
      <trkpt lat="44.359445571899414" lon="7.526943683624268">
        <ele>578</ele>
      </trkpt>
      <trkpt lat="44.359016418457031" lon="7.52612829208374">
        <ele>580</ele>
      </trkpt>
      <trkpt lat="44.358243942260742" lon="7.524926662445068">
        <ele>581</ele>
      </trkpt>
      <trkpt lat="44.358167750760913" lon="7.524844519793987">
        <ele>581</ele>
      </trkpt>
      <trkpt lat="44.358121734112501" lon="7.524928506463766">
        <ele>581</ele>
      </trkpt>
      <trkpt lat="44.358167750760913" lon="7.524844519793987">
        <ele>581</ele>
      </trkpt>
      <trkpt lat="44.357686042785645" lon="7.524325847625732">
        <ele>581</ele>
      </trkpt>
      <trkpt lat="44.357256889343262" lon="7.524046897888184">
        <ele>580</ele>
      </trkpt>
      <trkpt lat="44.355819225311279" lon="7.522029876708984">
        <ele>582</ele>
      </trkpt>
      <trkpt lat="44.355282783508301" lon="7.521042823791504">
        <ele>583</ele>
      </trkpt>
      <trkpt lat="44.353952407836914" lon="7.520077228546143">
        <ele>584</ele>
      </trkpt>
      <trkpt lat="44.353759288787842" lon="7.519733905792236">
        <ele>584</ele>
      </trkpt>
      <trkpt lat="44.353480339050293" lon="7.518596649169922">
        <ele>588</ele>
      </trkpt>
      <trkpt lat="44.352750778198242" lon="7.517502307891846">
        <ele>592</ele>
      </trkpt>
      <trkpt lat="44.352686405181885" lon="7.517180442810059">
        <ele>593</ele>
      </trkpt>
      <trkpt lat="44.352686405181885" lon="7.516837120056152">
        <ele>595</ele>
      </trkpt>
      <trkpt lat="44.352922439575195" lon="7.515506744384766">
        <ele>600</ele>
      </trkpt>
      <trkpt lat="44.353064345195889" lon="7.514925040304661">
        <ele>601</ele>
      </trkpt>
      <trkpt lat="44.353110948577523" lon="7.514947587624192">
        <ele>601</ele>
      </trkpt>
      <trkpt lat="44.35028214007616" lon="7.51420914195478">
        <ele>602</ele>
      </trkpt>
      <trkpt lat="44.349841754883528" lon="7.514024404808879">
        <ele>602</ele>
      </trkpt>
      <trkpt lat="44.347201539203525" lon="7.511205235496163">
        <ele>605</ele>
      </trkpt>
      <trkpt lat="44.34700783342123" lon="7.511043129488826">
        <ele>606</ele>
      </trkpt>
      <trkpt lat="44.346793759614229" lon="7.51101354137063">
        <ele>606</ele>
      </trkpt>
      <trkpt lat="44.346464267000556" lon="7.510579945519567">
        <ele>606</ele>
      </trkpt>
      <trkpt lat="44.344886289909482" lon="7.509036669507623">
        <ele>609</ele>
      </trkpt>
      <trkpt lat="44.343605367466807" lon="7.507898407056928">
        <ele>615</ele>
      </trkpt>
      <trkpt lat="44.342320254072547" lon="7.506618741899729">
        <ele>620</ele>
      </trkpt>
      <trkpt lat="44.339924035593867" lon="7.504493677988648">
        <ele>623</ele>
      </trkpt>
      <trkpt lat="44.338921308517456" lon="7.50323454849422">
        <ele>625</ele>
      </trkpt>
      <trkpt lat="44.337493535131216" lon="7.501780288293958">
        <ele>627</ele>
      </trkpt>
      <trkpt lat="44.336896659806371" lon="7.500978475436568">
        <ele>629</ele>
      </trkpt>
      <trkpt lat="44.336170200258493" lon="7.500320412218571">
        <ele>630</ele>
      </trkpt>
      <trkpt lat="44.335403675213456" lon="7.499487083405256">
        <ele>632</ele>
      </trkpt>
      <trkpt lat="44.334493316709995" lon="7.498726090416312">
        <ele>635</ele>
      </trkpt>
      <trkpt lat="44.332538489252329" lon="7.496879808604717">
        <ele>623</ele>
      </trkpt>
      <trkpt lat="44.332516193389893" lon="7.496795654296875">
        <ele>623</ele>
      </trkpt>
      <trkpt lat="44.332387447357178" lon="7.496881484985352">
        <ele>622</ele>
      </trkpt>
      <trkpt lat="44.332280158996582" lon="7.496817111968994">
        <ele>623</ele>
      </trkpt>
      <trkpt lat="44.332215785980225" lon="7.496688365936279">
        <ele>623</ele>
      </trkpt>
      <trkpt lat="44.332172870635986" lon="7.496109008789062">
        <ele>624</ele>
      </trkpt>
      <trkpt lat="44.330520629882812" lon="7.491989135742188">
        <ele>632</ele>
      </trkpt>
      <trkpt lat="44.330198764801025" lon="7.491345405578613">
        <ele>632</ele>
      </trkpt>
      <trkpt lat="44.33009147644043" lon="7.491323947906494">
        <ele>632</ele>
      </trkpt>
      <trkpt lat="44.330005645751953" lon="7.491152286529541">
        <ele>632</ele>
      </trkpt>
      <trkpt lat="44.329833984375" lon="7.491023540496826">
        <ele>632</ele>
      </trkpt>
      <trkpt lat="44.329683780670166" lon="7.490808963775635">
        <ele>633</ele>
      </trkpt>
      <trkpt lat="44.329190254211426" lon="7.489736080169678">
        <ele>635</ele>
      </trkpt>
      <trkpt lat="44.328975677490234" lon="7.489328384399414">
        <ele>635</ele>
      </trkpt>
      <trkpt lat="44.328889846801758" lon="7.489264011383057">
        <ele>635</ele>
      </trkpt>
      <trkpt lat="44.328889846801758" lon="7.489156723022461">
        <ele>636</ele>
      </trkpt>
      <trkpt lat="44.329018592834473" lon="7.489135265350342">
        <ele>636</ele>
      </trkpt>
      <trkpt lat="44.32934045791626" lon="7.488577365875244">
        <ele>638</ele>
      </trkpt>
      <trkpt lat="44.328460693359375" lon="7.487568855285645">
        <ele>639</ele>
      </trkpt>
      <trkpt lat="44.32809591293335" lon="7.487246990203857">
        <ele>639</ele>
      </trkpt>
      <trkpt lat="44.327859878540039" lon="7.48793363571167">
        <ele>637</ele>
      </trkpt>
      <trkpt lat="44.327001571655273" lon="7.486882209777832">
        <ele>639</ele>
      </trkpt>
      <trkpt lat="44.32499754242599" lon="7.482526050880551">
        <ele>642</ele>
      </trkpt>
      <trkpt lat="44.32509183883667" lon="7.48244047164917">
        <ele>648</ele>
      </trkpt>
      <trkpt lat="44.32499754242599" lon="7.482526050880551">
        <ele>642</ele>
      </trkpt>
      <trkpt lat="44.324297904968262" lon="7.481131553649902">
        <ele>647</ele>
      </trkpt>
      <trkpt lat="44.323976039886475" lon="7.480981349945068">
        <ele>641</ele>
      </trkpt>
      <trkpt lat="44.323718547821045" lon="7.481088638305664">
        <ele>640</ele>
      </trkpt>
      <trkpt lat="44.323868751525879" lon="7.480809688568115">
        <ele>642</ele>
      </trkpt>
      <trkpt lat="44.323697090148926" lon="7.480552196502686">
        <ele>643</ele>
      </trkpt>
      <trkpt lat="44.323289394378662" lon="7.480380535125732">
        <ele>639</ele>
      </trkpt>
      <trkpt lat="44.322924613952637" lon="7.480359077453613">
        <ele>638</ele>
      </trkpt>
      <trkpt lat="44.317989349365234" lon="7.481625080108643">
        <ele>639</ele>
      </trkpt>
      <trkpt lat="44.317731857299805" lon="7.481732368469238">
        <ele>639</ele>
      </trkpt>
      <trkpt lat="44.317409992218018" lon="7.481753826141357">
        <ele>639</ele>
      </trkpt>
      <trkpt lat="44.316444396972656" lon="7.479178905487061">
        <ele>643</ele>
      </trkpt>
      <trkpt lat="44.316401481628418" lon="7.478899955749512">
        <ele>643</ele>
      </trkpt>
      <trkpt lat="44.317173957824707" lon="7.477891445159912">
        <ele>641</ele>
      </trkpt>
      <trkpt lat="44.31760311126709" lon="7.477633953094482">
        <ele>640</ele>
      </trkpt>
      <trkpt lat="44.317946434020996" lon="7.477633953094482">
        <ele>640</ele>
      </trkpt>
      <trkpt lat="44.318225383758545" lon="7.477805614471436">
        <ele>640</ele>
      </trkpt>
      <trkpt lat="44.318482875823975" lon="7.478234767913818">
        <ele>640</ele>
      </trkpt>
      <trkpt lat="44.31859016418457" lon="7.478663921356201">
        <ele>640</ele>
      </trkpt>
      <trkpt lat="44.319040775299072" lon="7.483341693878174">
        <ele>639</ele>
      </trkpt>
      <trkpt lat="44.318954944610596" lon="7.484328746795654">
        <ele>639</ele>
      </trkpt>
      <trkpt lat="44.318761825561523" lon="7.485122680664062">
        <ele>638</ele>
      </trkpt>
      <trkpt lat="44.318504333496094" lon="7.48568058013916">
        <ele>638</ele>
      </trkpt>
      <trkpt lat="44.317989349365234" lon="7.486367225646973">
        <ele>638</ele>
      </trkpt>
      <trkpt lat="44.316980838775635" lon="7.487075328826904">
        <ele>638</ele>
      </trkpt>
      <trkpt lat="44.316873550415039" lon="7.487332820892334">
        <ele>638</ele>
      </trkpt>
      <trkpt lat="44.316809177398682" lon="7.487761974334717">
        <ele>638</ele>
      </trkpt>
      <trkpt lat="44.316680431365967" lon="7.487955093383789">
        <ele>638</ele>
      </trkpt>
      <trkpt lat="44.316487312316895" lon="7.488062381744385">
        <ele>638</ele>
      </trkpt>
      <trkpt lat="44.31635856628418" lon="7.488062381744385">
        <ele>638</ele>
      </trkpt>
      <trkpt lat="44.315972328186035" lon="7.48767614364624">
        <ele>638</ele>
      </trkpt>
      <trkpt lat="44.315800666809082" lon="7.487633228302002">
        <ele>638</ele>
      </trkpt>
      <trkpt lat="44.314942359924316" lon="7.488126754760742">
        <ele>638</ele>
      </trkpt>
      <trkpt lat="44.314448833465576" lon="7.488555908203125">
        <ele>638</ele>
      </trkpt>
      <trkpt lat="44.314041137695312" lon="7.489049434661865">
        <ele>638</ele>
      </trkpt>
      <trkpt lat="44.313719272613525" lon="7.489564418792725">
        <ele>639</ele>
      </trkpt>
      <trkpt lat="44.312732219696045" lon="7.491753101348877">
        <ele>647</ele>
      </trkpt>
      <trkpt lat="44.310178756713867" lon="7.497847080230713">
        <ele>663</ele>
      </trkpt>
      <trkpt lat="44.309813976287842" lon="7.499241828918457">
        <ele>663</ele>
      </trkpt>
      <trkpt lat="44.309492111206055" lon="7.501194477081299">
        <ele>664</ele>
      </trkpt>
      <trkpt lat="44.308998584747314" lon="7.503232955932617">
        <ele>670</ele>
      </trkpt>
      <trkpt lat="44.308269023895264" lon="7.505035400390625">
        <ele>663</ele>
      </trkpt>
      <trkpt lat="44.307346343994141" lon="7.506644725799561">
        <ele>658</ele>
      </trkpt>
      <trkpt lat="44.305071830749512" lon="7.509927749633789">
        <ele>659</ele>
      </trkpt>
      <trkpt lat="44.304342269897461" lon="7.511086463928223">
        <ele>662</ele>
      </trkpt>
      <trkpt lat="44.303312301635742" lon="7.513210773468018">
        <ele>665</ele>
      </trkpt>
      <trkpt lat="44.302690029144287" lon="7.514219284057617">
        <ele>664</ele>
      </trkpt>
      <trkpt lat="44.302303791046143" lon="7.514691352844238">
        <ele>663</ele>
      </trkpt>
      <trkpt lat="44.301745891571045" lon="7.515206336975098">
        <ele>665</ele>
      </trkpt>
      <trkpt lat="44.300823211669922" lon="7.515914440155029">
        <ele>669</ele>
      </trkpt>
      <trkpt lat="44.30011510848999" lon="7.516214847564697">
        <ele>670</ele>
      </trkpt>
      <trkpt lat="44.298806190490723" lon="7.516493797302246">
        <ele>668</ele>
      </trkpt>
      <trkpt lat="44.298033714294434" lon="7.516450881958008">
        <ele>668</ele>
      </trkpt>
      <trkpt lat="44.297046661376953" lon="7.516214847564697">
        <ele>669</ele>
      </trkpt>
      <trkpt lat="44.296295642852783" lon="7.516171932220459">
        <ele>669</ele>
      </trkpt>
      <trkpt lat="44.295587539672852" lon="7.516236305236816">
        <ele>670</ele>
      </trkpt>
      <trkpt lat="44.29462194442749" lon="7.516622543334961">
        <ele>671</ele>
      </trkpt>
      <trkpt lat="44.292089939117432" lon="7.517995834350586">
        <ele>673</ele>
      </trkpt>
      <trkpt lat="44.291231632232666" lon="7.518360614776611">
        <ele>673</ele>
      </trkpt>
      <trkpt lat="44.289793968200684" lon="7.518875598907471">
        <ele>675</ele>
      </trkpt>
      <trkpt lat="44.288699626922607" lon="7.519176006317139">
        <ele>676</ele>
      </trkpt>
      <trkpt lat="44.287605285644531" lon="7.519369125366211">
        <ele>677</ele>
      </trkpt>
      <trkpt lat="44.28638219833374" lon="7.519347667694092">
        <ele>677</ele>
      </trkpt>
      <trkpt lat="44.285545349121094" lon="7.519218921661377">
        <ele>678</ele>
      </trkpt>
      <trkpt lat="44.284665584564209" lon="7.518939971923828">
        <ele>681</ele>
      </trkpt>
      <trkpt lat="44.28415060043335" lon="7.518703937530518">
        <ele>684</ele>
      </trkpt>
      <trkpt lat="44.282734394073486" lon="7.517867088317871">
        <ele>696</ele>
      </trkpt>
      <trkpt lat="44.282176494598389" lon="7.517609596252441">
        <ele>698</ele>
      </trkpt>
      <trkpt lat="44.281082153320312" lon="7.517437934875488">
        <ele>700</ele>
      </trkpt>
      <trkpt lat="44.277992248535156" lon="7.517738342285156">
        <ele>711</ele>
      </trkpt>
      <trkpt lat="44.276769161224365" lon="7.518081665039062">
        <ele>717</ele>
      </trkpt>
      <trkpt lat="44.274258613586426" lon="7.519047260284424">
        <ele>721</ele>
      </trkpt>
      <trkpt lat="44.273743629455566" lon="7.518875598907471">
        <ele>724</ele>
      </trkpt>
      <trkpt lat="44.273743629455566" lon="7.519111633300781">
        <ele>721</ele>
      </trkpt>
      <trkpt lat="44.273443222045898" lon="7.5191330909729">
        <ele>721</ele>
      </trkpt>
      <trkpt lat="44.269366264343262" lon="7.51889705657959">
        <ele>732</ele>
      </trkpt>
      <trkpt lat="44.2694091796875" lon="7.518746852874756">
        <ele>736</ele>
      </trkpt>
      <trkpt lat="44.269366264343262" lon="7.51889705657959">
        <ele>732</ele>
      </trkpt>
      <trkpt lat="44.268379211425781" lon="7.518832683563232">
        <ele>734</ele>
      </trkpt>
      <trkpt lat="44.26715612411499" lon="7.518661022186279">
        <ele>737</ele>
      </trkpt>
      <trkpt lat="44.264774322509766" lon="7.518124580383301">
        <ele>748</ele>
      </trkpt>
      <trkpt lat="44.264152050018311" lon="7.51788854598999">
        <ele>759</ele>
      </trkpt>
      <trkpt lat="44.264044761657715" lon="7.517931461334229">
        <ele>756</ele>
      </trkpt>
      <trkpt lat="44.263679981231689" lon="7.518832683563232">
        <ele>740</ele>
      </trkpt>
      <trkpt lat="44.263486862182617" lon="7.518961429595947">
        <ele>741</ele>
      </trkpt>
      <trkpt lat="44.263143539428711" lon="7.518918514251709">
        <ele>743</ele>
      </trkpt>
      <trkpt lat="44.262199401855469" lon="7.518596649169922">
        <ele>751</ele>
      </trkpt>
      <trkpt lat="44.261856079101562" lon="7.518596649169922">
        <ele>753</ele>
      </trkpt>
      <trkpt lat="44.261684417724609" lon="7.518703937530518">
        <ele>755</ele>
      </trkpt>
      <trkpt lat="44.260954856872559" lon="7.519605159759521">
        <ele>761</ele>
      </trkpt>
      <trkpt lat="44.260504245758057" lon="7.52164363861084">
        <ele>773</ele>
      </trkpt>
      <trkpt lat="44.25966739654541" lon="7.523252964019775">
        <ele>765</ele>
      </trkpt>
      <trkpt lat="44.25940990447998" lon="7.52363920211792">
        <ele>766</ele>
      </trkpt>
      <trkpt lat="44.259109497070312" lon="7.52387523651123">
        <ele>763</ele>
      </trkpt>
      <trkpt lat="44.258251190185547" lon="7.524368762969971">
        <ele>765</ele>
      </trkpt>
      <trkpt lat="44.257371425628662" lon="7.525248527526855">
        <ele>767</ele>
      </trkpt>
      <trkpt lat="44.255547523498535" lon="7.526149749755859">
        <ele>763</ele>
      </trkpt>
      <trkpt lat="44.255375862121582" lon="7.526299953460693">
        <ele>763</ele>
      </trkpt>
      <trkpt lat="44.255225658416748" lon="7.526664733886719">
        <ele>762</ele>
      </trkpt>
      <trkpt lat="44.255011081695557" lon="7.527673244476318">
        <ele>763</ele>
      </trkpt>
      <trkpt lat="44.25468921661377" lon="7.528252601623535">
        <ele>764</ele>
      </trkpt>
      <trkpt lat="44.253444671630859" lon="7.529067993164062">
        <ele>766</ele>
      </trkpt>
      <trkpt lat="44.252693653106689" lon="7.529776096343994">
        <ele>778</ele>
      </trkpt>
      <trkpt lat="44.252414703369141" lon="7.529947757720947">
        <ele>777</ele>
      </trkpt>
      <trkpt lat="44.25168514251709" lon="7.530226707458496">
        <ele>779</ele>
      </trkpt>
      <trkpt lat="44.251298904418945" lon="7.530462741851807">
        <ele>779</ele>
      </trkpt>
      <trkpt lat="44.250247478485107" lon="7.531578540802002">
        <ele>784</ele>
      </trkpt>
      <trkpt lat="44.249904155731201" lon="7.531771659851074">
        <ele>784</ele>
      </trkpt>
      <trkpt lat="44.249281883239746" lon="7.53187894821167">
        <ele>782</ele>
      </trkpt>
      <trkpt lat="44.248466491699219" lon="7.532200813293457">
        <ele>784</ele>
      </trkpt>
      <trkpt lat="44.248144626617432" lon="7.532179355621338">
        <ele>784</ele>
      </trkpt>
      <trkpt lat="44.247296713292599" lon="7.531840056180954">
        <ele>781</ele>
      </trkpt>
      <trkpt lat="44.247028408572078" lon="7.531877104192972">
        <ele>782</ele>
      </trkpt>
      <trkpt lat="44.244389533996582" lon="7.532930374145508">
        <ele>799</ele>
      </trkpt>
      <trkpt lat="44.243981838226318" lon="7.53312349319458">
        <ele>799</ele>
      </trkpt>
      <trkpt lat="44.243574142456055" lon="7.533488273620605">
        <ele>799</ele>
      </trkpt>
      <trkpt lat="44.243295192718506" lon="7.533917427062988">
        <ele>799</ele>
      </trkpt>
      <trkpt lat="44.242715835571289" lon="7.535312175750732">
        <ele>799</ele>
      </trkpt>
      <trkpt lat="44.242351055145264" lon="7.535934448242188">
        <ele>800</ele>
      </trkpt>
      <trkpt lat="44.241256713867188" lon="7.537522315979004">
        <ele>800</ele>
      </trkpt>
      <trkpt lat="44.240376949310303" lon="7.539045810699463">
        <ele>805</ele>
      </trkpt>
      <trkpt lat="44.239175319671631" lon="7.54035472869873">
        <ele>813</ele>
      </trkpt>
      <trkpt lat="44.23818826675415" lon="7.541728019714355">
        <ele>827</ele>
      </trkpt>
      <trkpt lat="44.237630367279053" lon="7.542800903320312">
        <ele>825</ele>
      </trkpt>
      <trkpt lat="44.23720121383667" lon="7.543830871582031">
        <ele>821</ele>
      </trkpt>
      <trkpt lat="44.235033988952637" lon="7.546727657318115">
        <ele>826</ele>
      </trkpt>
      <trkpt lat="44.233853816986084" lon="7.547693252563477">
        <ele>838</ele>
      </trkpt>
      <trkpt lat="44.233660697937012" lon="7.548015117645264">
        <ele>839</ele>
      </trkpt>
      <trkpt lat="44.233553409576416" lon="7.548487186431885">
        <ele>840</ele>
      </trkpt>
      <trkpt lat="44.233574867248535" lon="7.54910945892334">
        <ele>841</ele>
      </trkpt>
      <trkpt lat="44.233467578887939" lon="7.54986047744751">
        <ele>843</ele>
      </trkpt>
      <trkpt lat="44.232780933380127" lon="7.55136251449585">
        <ele>852</ele>
      </trkpt>
      <trkpt lat="44.232051372528076" lon="7.552371025085449">
        <ele>854</ele>
      </trkpt>
      <trkpt lat="44.231815338134766" lon="7.552864551544189">
        <ele>856</ele>
      </trkpt>
      <trkpt lat="44.231579303741455" lon="7.554173469543457">
        <ele>859</ele>
      </trkpt>
      <trkpt lat="44.231171607971191" lon="7.555031776428223">
        <ele>863</ele>
      </trkpt>
      <trkpt lat="44.230785369873047" lon="7.555503845214844">
        <ele>862</ele>
      </trkpt>
      <trkpt lat="44.229733943939209" lon="7.556126117706299">
        <ele>869</ele>
      </trkpt>
      <trkpt lat="44.229090213775635" lon="7.556641101837158">
        <ele>871</ele>
      </trkpt>
      <trkpt lat="44.228639602661133" lon="7.557284832000732">
        <ele>881</ele>
      </trkpt>
      <trkpt lat="44.22846794128418" lon="7.557649612426758">
        <ele>881</ele>
      </trkpt>
      <trkpt lat="44.228274822235107" lon="7.558550834655762">
        <ele>883</ele>
      </trkpt>
      <trkpt lat="44.228425025939941" lon="7.559773921966553">
        <ele>877</ele>
      </trkpt>
      <trkpt lat="44.228725433349609" lon="7.561233043670654">
        <ele>876</ele>
      </trkpt>
      <trkpt lat="44.22870397567749" lon="7.56183385848999">
        <ele>878</ele>
      </trkpt>
      <trkpt lat="44.228618144989014" lon="7.562069892883301">
        <ele>878</ele>
      </trkpt>
      <trkpt lat="44.228425025939941" lon="7.562305927276611">
        <ele>876</ele>
      </trkpt>
      <trkpt lat="44.228167533874512" lon="7.562520503997803">
        <ele>876</ele>
      </trkpt>
      <trkpt lat="44.227888584136963" lon="7.562563419342041">
        <ele>877</ele>
      </trkpt>
      <trkpt lat="44.226601123809814" lon="7.562456130981445">
        <ele>881</ele>
      </trkpt>
      <trkpt lat="44.226171970367432" lon="7.562670707702637">
        <ele>885</ele>
      </trkpt>
      <trkpt lat="44.22572135925293" lon="7.563014030456543">
        <ele>886</ele>
      </trkpt>
      <trkpt lat="44.225142002105713" lon="7.563850879669189">
        <ele>888</ele>
      </trkpt>
      <trkpt lat="44.225013256072998" lon="7.563958168029785">
        <ele>889</ele>
      </trkpt>
      <trkpt lat="44.223532676696777" lon="7.564666271209717">
        <ele>897</ele>
      </trkpt>
      <trkpt lat="44.223189353942871" lon="7.565052509307861">
        <ele>898</ele>
      </trkpt>
      <trkpt lat="44.222438335418701" lon="7.566747665405273">
        <ele>900</ele>
      </trkpt>
      <trkpt lat="44.221946066245437" lon="7.567438166588545">
        <ele>900</ele>
      </trkpt>
      <trkpt lat="44.222288131713867" lon="7.567970752716064">
        <ele>900</ele>
      </trkpt>
      <trkpt lat="44.221946066245437" lon="7.567438166588545">
        <ele>900</ele>
      </trkpt>
      <trkpt lat="44.221429824829102" lon="7.568013668060303">
        <ele>900</ele>
      </trkpt>
      <trkpt lat="44.220871925354004" lon="7.568421363830566">
        <ele>901</ele>
      </trkpt>
      <trkpt lat="44.217631816864014" lon="7.570009231567383">
        <ele>935</ele>
      </trkpt>
      <trkpt lat="44.21546459197998" lon="7.571511268615723">
        <ele>951</ele>
      </trkpt>
      <trkpt lat="44.213941097259521" lon="7.571918964385986">
        <ele>957</ele>
      </trkpt>
      <trkpt lat="44.213190078735352" lon="7.572412490844727">
        <ele>959</ele>
      </trkpt>
      <trkpt lat="44.212653636932373" lon="7.572541236877441">
        <ele>960</ele>
      </trkpt>
      <trkpt lat="44.21222448348999" lon="7.572412490844727">
        <ele>959</ele>
      </trkpt>
      <trkpt lat="44.21147346496582" lon="7.571983337402344">
        <ele>958</ele>
      </trkpt>
      <trkpt lat="44.21097993850708" lon="7.571983337402344">
        <ele>958</ele>
      </trkpt>
      <trkpt lat="44.210400581359863" lon="7.572112083435059">
        <ele>966</ele>
      </trkpt>
      <trkpt lat="44.209713935852051" lon="7.572476863861084">
        <ele>973</ele>
      </trkpt>
      <trkpt lat="44.208555221557617" lon="7.573978900909424">
        <ele>980</ele>
      </trkpt>
      <trkpt lat="44.208211898803711" lon="7.574214935302734">
        <ele>980</ele>
      </trkpt>
      <trkpt lat="44.207890033721924" lon="7.574279308319092">
        <ele>981</ele>
      </trkpt>
      <trkpt lat="44.207310676574707" lon="7.574214935302734">
        <ele>982</ele>
      </trkpt>
      <trkpt lat="44.206967353820801" lon="7.574257850646973">
        <ele>984</ele>
      </trkpt>
      <trkpt lat="44.206516742706299" lon="7.574386596679688">
        <ele>985</ele>
      </trkpt>
      <trkpt lat="44.205443859100342" lon="7.574965953826904">
        <ele>980</ele>
      </trkpt>
      <trkpt lat="44.205207824707031" lon="7.575030326843262">
        <ele>980</ele>
      </trkpt>
      <trkpt lat="44.205197095870972" lon="7.57508397102356">
        <ele>980</ele>
      </trkpt>
      <trkpt lat="44.205207824707031" lon="7.575030326843262">
        <ele>980</ele>
      </trkpt>
      <trkpt lat="44.205100536346436" lon="7.575008869171143">
        <ele>980</ele>
      </trkpt>
      <trkpt lat="44.204542636871338" lon="7.574622631072998">
        <ele>980</ele>
      </trkpt>
      <trkpt lat="44.203641414642334" lon="7.573914527893066">
        <ele>990</ele>
      </trkpt>
      <trkpt lat="44.203606294468045" lon="7.574010584503412">
        <ele>988</ele>
      </trkpt>
      <trkpt lat="44.203636636957526" lon="7.573911510407925">
        <ele>991</ele>
      </trkpt>
      <trkpt lat="44.203426837921143" lon="7.57382869720459">
        <ele>995</ele>
      </trkpt>
      <trkpt lat="44.20323371887207" lon="7.573850154876709">
        <ele>998</ele>
      </trkpt>
      <trkpt lat="44.202117919921875" lon="7.574386596679688">
        <ele>1002</ele>
      </trkpt>
      <trkpt lat="44.200379848480225" lon="7.574687004089355">
        <ele>1015</ele>
      </trkpt>
      <trkpt lat="44.199930494651198" lon="7.574946759268641">
        <ele>1010</ele>
      </trkpt>
      <trkpt lat="44.19999361038208" lon="7.575137615203857">
        <ele>1005</ele>
      </trkpt>
      <trkpt lat="44.199930494651198" lon="7.574946759268641">
        <ele>1010</ele>
      </trkpt>
      <trkpt lat="44.199435710906982" lon="7.575180530548096">
        <ele>1008</ele>
      </trkpt>
      <trkpt lat="44.199156761169434" lon="7.575201988220215">
        <ele>1009</ele>
      </trkpt>
      <trkpt lat="44.195809364318848" lon="7.574751377105713">
        <ele>1016</ele>
      </trkpt>
      <trkpt lat="44.195518679916859" lon="7.574693122878671">
        <ele>1017</ele>
      </trkpt>
      <trkpt lat="44.197976589202881" lon="7.575051784515381">
        <ele>1014</ele>
      </trkpt>
      <trkpt lat="44.195809364318848" lon="7.574751377105713">
        <ele>1016</ele>
      </trkpt>
      <trkpt lat="44.195487499237061" lon="7.574687004089355">
        <ele>1017</ele>
      </trkpt>
      <trkpt lat="44.195337295532227" lon="7.574601173400879">
        <ele>1018</ele>
      </trkpt>
      <trkpt lat="44.194328784942627" lon="7.572669982910156">
        <ele>1043</ele>
      </trkpt>
      <trkpt lat="44.191775321960449" lon="7.570030689239502">
        <ele>1046</ele>
      </trkpt>
      <trkpt lat="44.191153049468994" lon="7.569301128387451">
        <ele>1051</ele>
      </trkpt>
      <trkpt lat="44.190552234649658" lon="7.568764686584473">
        <ele>1050</ele>
      </trkpt>
      <trkpt lat="44.189929962158203" lon="7.568314075469971">
        <ele>1047</ele>
      </trkpt>
      <trkpt lat="44.189629554748535" lon="7.567970752716064">
        <ele>1056</ele>
      </trkpt>
      <trkpt lat="44.189093112945557" lon="7.566533088684082">
        <ele>1066</ele>
      </trkpt>
      <trkpt lat="44.187312126159668" lon="7.564043998718262">
        <ele>1079</ele>
      </trkpt>
      <trkpt lat="44.186646938323975" lon="7.562477588653564">
        <ele>1098</ele>
      </trkpt>
      <trkpt lat="44.185938835144043" lon="7.562284469604492">
        <ele>1097</ele>
      </trkpt>
      <trkpt lat="44.185574054718018" lon="7.562370300292969">
        <ele>1097</ele>
      </trkpt>
      <trkpt lat="44.18525218963623" lon="7.562606334686279">
        <ele>1097</ele>
      </trkpt>
      <trkpt lat="44.185187816619873" lon="7.562735080718994">
        <ele>1097</ele>
      </trkpt>
      <trkpt lat="44.185166358947754" lon="7.563014030456543">
        <ele>1095</ele>
      </trkpt>
      <trkpt lat="44.185316562652588" lon="7.563164234161377">
        <ele>1092</ele>
      </trkpt>
      <trkpt lat="44.185874462127686" lon="7.563228607177734">
        <ele>1084</ele>
      </trkpt>
      <trkpt lat="44.185960292816162" lon="7.563400268554688">
        <ele>1083</ele>
      </trkpt>
      <trkpt lat="44.185831546783447" lon="7.563636302947998">
        <ele>1083</ele>
      </trkpt>
      <trkpt lat="44.185659885406494" lon="7.563614845275879">
        <ele>1086</ele>
      </trkpt>
      <trkpt lat="44.184823036193848" lon="7.563250064849854">
        <ele>1101</ele>
      </trkpt>
      <trkpt lat="44.184243679046631" lon="7.562928199768066">
        <ele>1114</ele>
      </trkpt>
      <trkpt lat="44.183921813964844" lon="7.562606334686279">
        <ele>1122</ele>
      </trkpt>
      <trkpt lat="44.183728694915771" lon="7.562069892883301">
        <ele>1129</ele>
      </trkpt>
      <trkpt lat="44.183664321899414" lon="7.561662197113037">
        <ele>1133</ele>
      </trkpt>
      <trkpt lat="44.183793067932129" lon="7.560653686523438">
        <ele>1140</ele>
      </trkpt>
      <trkpt lat="44.183728694915771" lon="7.560460567474365">
        <ele>1143</ele>
      </trkpt>
      <trkpt lat="44.183578491210938" lon="7.560374736785889">
        <ele>1145</ele>
      </trkpt>
      <trkpt lat="44.183428287506104" lon="7.560439109802246">
        <ele>1145</ele>
      </trkpt>
      <trkpt lat="44.183363914489746" lon="7.560632228851318">
        <ele>1144</ele>
      </trkpt>
      <trkpt lat="44.18351411819458" lon="7.561962604522705">
        <ele>1134</ele>
      </trkpt>
      <trkpt lat="44.183449745178223" lon="7.562220096588135">
        <ele>1134</ele>
      </trkpt>
      <trkpt lat="44.18327808380127" lon="7.56232738494873">
        <ele>1138</ele>
      </trkpt>
      <trkpt lat="44.183123186230659" lon="7.56223258562386">
        <ele>1143</ele>
      </trkpt>
      <trkpt lat="44.183063507080078" lon="7.562112808227539">
        <ele>1145</ele>
      </trkpt>
      <trkpt lat="44.183170795440674" lon="7.561168670654297">
        <ele>1145</ele>
      </trkpt>
      <trkpt lat="44.183106422424316" lon="7.560975551605225">
        <ele>1147</ele>
      </trkpt>
      <trkpt lat="44.183063507080078" lon="7.560911178588867">
        <ele>1148</ele>
      </trkpt>
      <trkpt lat="44.182870388031006" lon="7.560889720916748">
        <ele>1152</ele>
      </trkpt>
      <trkpt lat="44.18276309967041" lon="7.561018466949463">
        <ele>1154</ele>
      </trkpt>
      <trkpt lat="44.182720184326172" lon="7.561254501342773">
        <ele>1155</ele>
      </trkpt>
      <trkpt lat="44.182999134063721" lon="7.562627792358398">
        <ele>1147</ele>
      </trkpt>
      <trkpt lat="44.182913303375244" lon="7.562799453735352">
        <ele>1150</ele>
      </trkpt>
      <trkpt lat="44.182806015014648" lon="7.562863826751709">
        <ele>1154</ele>
      </trkpt>
      <trkpt lat="44.182612895965576" lon="7.562777996063232">
        <ele>1160</ele>
      </trkpt>
      <trkpt lat="44.182551959529519" lon="7.562656123191118">
        <ele>1162</ele>
      </trkpt>
      <trkpt lat="44.1825270652771" lon="7.561812400817871">
        <ele>1161</ele>
      </trkpt>
      <trkpt lat="44.182140827178955" lon="7.560396194458008">
        <ele>1171</ele>
      </trkpt>
      <trkpt lat="44.182205200195312" lon="7.559924125671387">
        <ele>1169</ele>
      </trkpt>
      <trkpt lat="44.182097911834717" lon="7.559773921966553">
        <ele>1171</ele>
      </trkpt>
      <trkpt lat="44.181990623474121" lon="7.55983829498291">
        <ele>1174</ele>
      </trkpt>
      <trkpt lat="44.181904792785645" lon="7.560825347900391">
        <ele>1179</ele>
      </trkpt>
      <trkpt lat="44.181990623474121" lon="7.563292980194092">
        <ele>1187</ele>
      </trkpt>
      <trkpt lat="44.181840419769287" lon="7.563807964324951">
        <ele>1194</ele>
      </trkpt>
      <trkpt lat="44.1815185546875" lon="7.564280033111572">
        <ele>1204</ele>
      </trkpt>
      <trkpt lat="44.181046485900879" lon="7.564752101898193">
        <ele>1214</ele>
      </trkpt>
      <trkpt lat="44.180724620819092" lon="7.56533145904541">
        <ele>1218</ele>
      </trkpt>
      <trkpt lat="44.180166721343994" lon="7.566061019897461">
        <ele>1226</ele>
      </trkpt>
      <trkpt lat="44.179136753082275" lon="7.566983699798584">
        <ele>1239</ele>
      </trkpt>
      <trkpt lat="44.179072380065918" lon="7.567005157470703">
        <ele>1241</ele>
      </trkpt>
      <trkpt lat="44.17902946472168" lon="7.566940784454346">
        <ele>1243</ele>
      </trkpt>
      <trkpt lat="44.17902946472168" lon="7.566812038421631">
        <ele>1246</ele>
      </trkpt>
      <trkpt lat="44.179694652557373" lon="7.565481662750244">
        <ele>1251</ele>
      </trkpt>
      <trkpt lat="44.180102348327637" lon="7.563571929931641">
        <ele>1259</ele>
      </trkpt>
      <trkpt lat="44.180295467376709" lon="7.563378810882568">
        <ele>1254</ele>
      </trkpt>
      <trkpt lat="44.180831909179688" lon="7.563228607177734">
        <ele>1234</ele>
      </trkpt>
      <trkpt lat="44.180853366851807" lon="7.563056945800781">
        <ele>1233</ele>
      </trkpt>
      <trkpt lat="44.180724620819092" lon="7.563014030456543">
        <ele>1238</ele>
      </trkpt>
      <trkpt lat="44.180424213409424" lon="7.5630784034729">
        <ele>1250</ele>
      </trkpt>
      <trkpt lat="44.179909229278564" lon="7.563443183898926">
        <ele>1267</ele>
      </trkpt>
      <trkpt lat="44.17975902557373" lon="7.563657760620117">
        <ele>1269</ele>
      </trkpt>
      <trkpt lat="44.179630279541016" lon="7.56333589553833">
        <ele>1275</ele>
      </trkpt>
      <trkpt lat="44.179329872131348" lon="7.56434440612793">
        <ele>1278</ele>
      </trkpt>
      <trkpt lat="44.178879261016846" lon="7.565288543701172">
        <ele>1282</ele>
      </trkpt>
      <trkpt lat="44.177484512329102" lon="7.566468715667725">
        <ele>1295</ele>
      </trkpt>
      <trkpt lat="44.17677640914917" lon="7.566940784454346">
        <ele>1293</ele>
      </trkpt>
      <trkpt lat="44.176626205444336" lon="7.566962242126465">
        <ele>1294</ele>
      </trkpt>
      <trkpt lat="44.17651891708374" lon="7.566962242126465">
        <ele>1296</ele>
      </trkpt>
      <trkpt lat="44.175896644592285" lon="7.566683292388916">
        <ele>1315</ele>
      </trkpt>
      <trkpt lat="44.175360202789307" lon="7.566790580749512">
        <ele>1318</ele>
      </trkpt>
      <trkpt lat="44.174845218658447" lon="7.566812038421631">
        <ele>1322</ele>
      </trkpt>
      <trkpt lat="44.174716472625732" lon="7.566897869110107">
        <ele>1320</ele>
      </trkpt>
      <trkpt lat="44.174544811248779" lon="7.567198276519775">
        <ele>1310</ele>
      </trkpt>
      <trkpt lat="44.174673557281494" lon="7.567627429962158">
        <ele>1295</ele>
      </trkpt>
      <trkpt lat="44.174652099609375" lon="7.56782054901123">
        <ele>1290</ele>
      </trkpt>
      <trkpt lat="44.17452335357666" lon="7.567949295043945">
        <ele>1288</ele>
      </trkpt>
      <trkpt lat="44.174094200134277" lon="7.568120956420898">
        <ele>1288</ele>
      </trkpt>
      <trkpt lat="44.173793792724609" lon="7.568185329437256">
        <ele>1289</ele>
      </trkpt>
      <trkpt lat="44.173600673675537" lon="7.568163871765137">
        <ele>1291</ele>
      </trkpt>
      <trkpt lat="44.17252779006958" lon="7.567412853240967">
        <ele>1329</ele>
      </trkpt>
      <trkpt lat="44.172227382659912" lon="7.567455768585205">
        <ele>1331</ele>
      </trkpt>
      <trkpt lat="44.171905517578125" lon="7.567670345306396">
        <ele>1326</ele>
      </trkpt>
      <trkpt lat="44.171733856201172" lon="7.568206787109375">
        <ele>1307</ele>
      </trkpt>
      <trkpt lat="44.171690940856934" lon="7.568635940551758">
        <ele>1296</ele>
      </trkpt>
      <trkpt lat="44.171433448791504" lon="7.568957805633545">
        <ele>1292</ele>
      </trkpt>
      <trkpt lat="44.170703887939453" lon="7.569386959075928">
        <ele>1294</ele>
      </trkpt>
      <trkpt lat="44.170253276824951" lon="7.569494247436523">
        <ele>1301</ele>
      </trkpt>
      <trkpt lat="44.169802665710449" lon="7.569472789764404">
        <ele>1312</ele>
      </trkpt>
      <trkpt lat="44.168922901153564" lon="7.569043636322021">
        <ele>1359</ele>
      </trkpt>
      <trkpt lat="44.168021678924561" lon="7.569000720977783">
        <ele>1391</ele>
      </trkpt>
      <trkpt lat="44.167270660400391" lon="7.5685715675354">
        <ele>1416</ele>
      </trkpt>
      <trkpt lat="44.166669845581055" lon="7.568807601928711">
        <ele>1415</ele>
      </trkpt>
      <trkpt lat="44.165918827056885" lon="7.568957805633545">
        <ele>1428</ele>
      </trkpt>
      <trkpt lat="44.16579008102417" lon="7.56908655166626">
        <ele>1429</ele>
      </trkpt>
      <trkpt lat="44.165768623352051" lon="7.569236755371094">
        <ele>1427</ele>
      </trkpt>
      <trkpt lat="44.16579008102417" lon="7.569966316223145">
        <ele>1413</ele>
      </trkpt>
      <trkpt lat="44.165747165679932" lon="7.570223808288574">
        <ele>1407</ele>
      </trkpt>
      <trkpt lat="44.165639877319336" lon="7.570266723632812">
        <ele>1409</ele>
      </trkpt>
      <trkpt lat="44.165425300598145" lon="7.569859027862549">
        <ele>1424</ele>
      </trkpt>
      <trkpt lat="44.16529655456543" lon="7.569859027862549">
        <ele>1427</ele>
      </trkpt>
      <trkpt lat="44.165232181549072" lon="7.569923400878906">
        <ele>1427</ele>
      </trkpt>
      <trkpt lat="44.164910316467285" lon="7.570459842681885">
        <ele>1425</ele>
      </trkpt>
      <trkpt lat="44.164867401123047" lon="7.570631504058838">
        <ele>1423</ele>
      </trkpt>
      <trkpt lat="44.164867401123047" lon="7.570781707763672">
        <ele>1420</ele>
      </trkpt>
      <trkpt lat="44.1650390625" lon="7.571189403533936">
        <ele>1406</ele>
      </trkpt>
      <trkpt lat="44.164652824401855" lon="7.571747303009033">
        <ele>1404</ele>
      </trkpt>
      <trkpt lat="44.164373874664307" lon="7.572026252746582">
        <ele>1408</ele>
      </trkpt>
      <trkpt lat="44.164073467254639" lon="7.572197914123535">
        <ele>1415</ele>
      </trkpt>
      <trkpt lat="44.163944721221924" lon="7.572219371795654">
        <ele>1420</ele>
      </trkpt>
      <trkpt lat="44.163815975189209" lon="7.572047710418701">
        <ele>1429</ele>
      </trkpt>
      <trkpt lat="44.163837432861328" lon="7.571554183959961">
        <ele>1436</ele>
      </trkpt>
      <trkpt lat="44.164180755615234" lon="7.570738792419434">
        <ele>1436</ele>
      </trkpt>
      <trkpt lat="44.164094924926758" lon="7.570202350616455">
        <ele>1449</ele>
      </trkpt>
      <trkpt lat="44.164009094238281" lon="7.570137977600098">
        <ele>1453</ele>
      </trkpt>
      <trkpt lat="44.163923263549805" lon="7.570674419403076">
        <ele>1448</ele>
      </trkpt>
      <trkpt lat="44.16353702545166" lon="7.571210861206055">
        <ele>1454</ele>
      </trkpt>
      <trkpt lat="44.16330099105835" lon="7.572283744812012">
        <ele>1448</ele>
      </trkpt>
      <trkpt lat="44.163064956665039" lon="7.572841644287109">
        <ele>1452</ele>
      </trkpt>
      <trkpt lat="44.162828922271729" lon="7.57307767868042">
        <ele>1458</ele>
      </trkpt>
      <trkpt lat="44.162335395812988" lon="7.573184967041016">
        <ele>1470</ele>
      </trkpt>
      <trkpt lat="44.16229248046875" lon="7.573184967041016">
        <ele>1471</ele>
      </trkpt>
      <trkpt lat="44.162271022796631" lon="7.57307767868042">
        <ele>1473</ele>
      </trkpt>
      <trkpt lat="44.16278600692749" lon="7.572841644287109">
        <ele>1462</ele>
      </trkpt>
      <trkpt lat="44.162914752960205" lon="7.572562694549561">
        <ele>1460</ele>
      </trkpt>
      <trkpt lat="44.163086414337158" lon="7.571811676025391">
        <ele>1465</ele>
      </trkpt>
      <trkpt lat="44.163000583648682" lon="7.571532726287842">
        <ele>1473</ele>
      </trkpt>
      <trkpt lat="44.163000583648682" lon="7.570738792419434">
        <ele>1485</ele>
      </trkpt>
      <trkpt lat="44.163022041320801" lon="7.570245265960693">
        <ele>1490</ele>
      </trkpt>
      <trkpt lat="44.163150787353516" lon="7.569644451141357">
        <ele>1492</ele>
      </trkpt>
      <trkpt lat="44.163107872009277" lon="7.569580078125">
        <ele>1495</ele>
      </trkpt>
      <trkpt lat="44.163064956665039" lon="7.569601535797119">
        <ele>1496</ele>
      </trkpt>
      <trkpt lat="44.162743091583252" lon="7.570481300354004">
        <ele>1499</ele>
      </trkpt>
      <trkpt lat="44.162614345550537" lon="7.571382522583008">
        <ele>1493</ele>
      </trkpt>
      <trkpt lat="44.162614345550537" lon="7.571876049041748">
        <ele>1485</ele>
      </trkpt>
      <trkpt lat="44.162528514862061" lon="7.571940422058105">
        <ele>1488</ele>
      </trkpt>
      <trkpt lat="44.162485599517822" lon="7.571167945861816">
        <ele>1501</ele>
      </trkpt>
      <trkpt lat="44.162271022796631" lon="7.570459842681885">
        <ele>1517</ele>
      </trkpt>
      <trkpt lat="44.162249565124512" lon="7.570223808288574">
        <ele>1521</ele>
      </trkpt>
      <trkpt lat="44.162249565124512" lon="7.569987773895264">
        <ele>1524</ele>
      </trkpt>
      <trkpt lat="44.162399768829346" lon="7.569301128387451">
        <ele>1528</ele>
      </trkpt>
      <trkpt lat="44.162335395812988" lon="7.568614482879639">
        <ele>1541</ele>
      </trkpt>
      <trkpt lat="44.162442684173584" lon="7.568249702453613">
        <ele>1543</ele>
      </trkpt>
      <trkpt lat="44.163172245025635" lon="7.566919326782227">
        <ele>1538</ele>
      </trkpt>
      <trkpt lat="44.163129329681396" lon="7.566854953765869">
        <ele>1542</ele>
      </trkpt>
      <trkpt lat="44.163086414337158" lon="7.566876411437988">
        <ele>1544</ele>
      </trkpt>
      <trkpt lat="44.162850379943848" lon="7.567155361175537">
        <ele>1550</ele>
      </trkpt>
      <trkpt lat="44.161884784698486" lon="7.568442821502686">
        <ele>1565</ele>
      </trkpt>
      <trkpt lat="44.161477088928223" lon="7.569537162780762">
        <ele>1559</ele>
      </trkpt>
      <trkpt lat="44.161348342895508" lon="7.57108211517334">
        <ele>1536</ele>
      </trkpt>
      <trkpt lat="44.160940647125244" lon="7.571918964385986">
        <ele>1527</ele>
      </trkpt>
      <trkpt lat="44.160876274108887" lon="7.571961879730225">
        <ele>1527</ele>
      </trkpt>
      <trkpt lat="44.160833358764648" lon="7.571961879730225">
        <ele>1528</ele>
      </trkpt>
      <trkpt lat="44.160811901092529" lon="7.57183313369751">
        <ele>1532</ele>
      </trkpt>
      <trkpt lat="44.160983562469482" lon="7.571382522583008">
        <ele>1538</ele>
      </trkpt>
      <trkpt lat="44.161069393157959" lon="7.570781707763672">
        <ele>1548</ele>
      </trkpt>
      <trkpt lat="44.16079044342041" lon="7.568013668060303">
        <ele>1608</ele>
      </trkpt>
      <trkpt lat="44.161026477813721" lon="7.567541599273682">
        <ele>1613</ele>
      </trkpt>
      <trkpt lat="44.16154146194458" lon="7.566854953765869">
        <ele>1615</ele>
      </trkpt>
      <trkpt lat="44.162077903747559" lon="7.565932273864746">
        <ele>1617</ele>
      </trkpt>
      <trkpt lat="44.162678718566895" lon="7.565159797668457">
        <ele>1612</ele>
      </trkpt>
      <trkpt lat="44.162700176239014" lon="7.565052509307861">
        <ele>1613</ele>
      </trkpt>
      <trkpt lat="44.162571430206299" lon="7.56507396697998">
        <ele>1618</ele>
      </trkpt>
      <trkpt lat="44.162120819091797" lon="7.56558895111084">
        <ele>1622</ele>
      </trkpt>
      <trkpt lat="44.161241054534912" lon="7.566382884979248">
        <ele>1633</ele>
      </trkpt>
      <trkpt lat="44.160103797912598" lon="7.567048072814941">
        <ele>1652</ele>
      </trkpt>
      <trkpt lat="44.159653186798096" lon="7.56758451461792">
        <ele>1650</ele>
      </trkpt>
      <trkpt lat="44.159417152404785" lon="7.56908655166626">
        <ele>1619</ele>
      </trkpt>
      <trkpt lat="44.159309864044189" lon="7.569258213043213">
        <ele>1617</ele>
      </trkpt>
      <trkpt lat="44.159245491027832" lon="7.569150924682617">
        <ele>1621</ele>
      </trkpt>
      <trkpt lat="44.159309864044189" lon="7.568485736846924">
        <ele>1635</ele>
      </trkpt>
      <trkpt lat="44.159266948699951" lon="7.567348480224609">
        <ele>1667</ele>
      </trkpt>
      <trkpt lat="44.159631729125977" lon="7.566425800323486">
        <ele>1685</ele>
      </trkpt>
      <trkpt lat="44.160468578338623" lon="7.565438747406006">
        <ele>1682</ele>
      </trkpt>
      <trkpt lat="44.161090850830078" lon="7.564494609832764">
        <ele>1679</ele>
      </trkpt>
      <trkpt lat="44.161434173583984" lon="7.5640869140625">
        <ele>1675</ele>
      </trkpt>
      <trkpt lat="44.161970615386963" lon="7.56359338760376">
        <ele>1665</ele>
      </trkpt>
      <trkpt lat="44.161992073059082" lon="7.563486099243164">
        <ele>1666</ele>
      </trkpt>
      <trkpt lat="44.161906242370605" lon="7.563486099243164">
        <ele>1670</ele>
      </trkpt>
      <trkpt lat="44.161133766174316" lon="7.563958168029785">
        <ele>1689</ele>
      </trkpt>
      <trkpt lat="44.160704612731934" lon="7.564151287078857">
        <ele>1702</ele>
      </trkpt>
      <trkpt lat="44.16003942489624" lon="7.56458044052124">
        <ele>1721</ele>
      </trkpt>
      <trkpt lat="44.1595458984375" lon="7.564988136291504">
        <ele>1728</ele>
      </trkpt>
      <trkpt lat="44.158859252929688" lon="7.565245628356934">
        <ele>1745</ele>
      </trkpt>
      <trkpt lat="44.15830135345459" lon="7.565546035766602">
        <ele>1754</ele>
      </trkpt>
      <trkpt lat="44.157893657684326" lon="7.565674781799316">
        <ele>1761</ele>
      </trkpt>
      <trkpt lat="44.157850742340088" lon="7.565610408782959">
        <ele>1764</ele>
      </trkpt>
      <trkpt lat="44.157872200012207" lon="7.565524578094482">
        <ele>1767</ele>
      </trkpt>
      <trkpt lat="44.158108234405518" lon="7.565417289733887">
        <ele>1764</ele>
      </trkpt>
      <trkpt lat="44.158279895782471" lon="7.565245628356934">
        <ele>1764</ele>
      </trkpt>
      <trkpt lat="44.159095287322998" lon="7.564301490783691">
        <ele>1765</ele>
      </trkpt>
      <trkpt lat="44.15980339050293" lon="7.563271522521973">
        <ele>1768</ele>
      </trkpt>
      <trkpt lat="44.159953594207764" lon="7.563014030456543">
        <ele>1769</ele>
      </trkpt>
      <trkpt lat="44.160361289978027" lon="7.561962604522705">
        <ele>1768</ele>
      </trkpt>
      <trkpt lat="44.160919189453125" lon="7.561211585998535">
        <ele>1747</ele>
      </trkpt>
      <trkpt lat="44.160854816436768" lon="7.561104297637939">
        <ele>1752</ele>
      </trkpt>
      <trkpt lat="44.16079044342041" lon="7.561211585998535">
        <ele>1754</ele>
      </trkpt>
      <trkpt lat="44.160232543945312" lon="7.561554908752441">
        <ele>1784</ele>
      </trkpt>
      <trkpt lat="44.159266948699951" lon="7.562670707702637">
        <ele>1804</ele>
      </trkpt>
      <trkpt lat="44.158987998962402" lon="7.562885284423828">
        <ele>1808</ele>
      </trkpt>
      <trkpt lat="44.158151149749756" lon="7.563292980194092">
        <ele>1821</ele>
      </trkpt>
      <trkpt lat="44.155962467193604" lon="7.563958168029785">
        <ele>1834</ele>
      </trkpt>
      <trkpt lat="44.155340194702148" lon="7.563765048980713">
        <ele>1823</ele>
      </trkpt>
      <trkpt lat="44.15454626083374" lon="7.563872337341309">
        <ele>1810</ele>
      </trkpt>
      <trkpt lat="44.15306568145752" lon="7.564859390258789">
        <ele>1832</ele>
      </trkpt>
      <trkpt lat="44.152400493621826" lon="7.565438747406006">
        <ele>1848</ele>
      </trkpt>
      <trkpt lat="44.15205717086792" lon="7.565546035766602">
        <ele>1863</ele>
      </trkpt>
      <trkpt lat="44.151778221130371" lon="7.565460205078125">
        <ele>1868</ele>
      </trkpt>
      <trkpt lat="44.15104866027832" lon="7.564194202423096">
        <ele>1865</ele>
      </trkpt>
      <trkpt lat="44.150426387786865" lon="7.563250064849854">
        <ele>1868</ele>
      </trkpt>
      <trkpt lat="44.150168895721436" lon="7.562670707702637">
        <ele>1868</ele>
      </trkpt>
      <trkpt lat="44.149632453918457" lon="7.56183385848999">
        <ele>1866</ele>
      </trkpt>
      <trkpt lat="44.149653911590576" lon="7.561790943145752">
        <ele>1866</ele>
      </trkpt>
      <trkpt lat="44.149289131164551" lon="7.561962604522705">
        <ele>1868</ele>
      </trkpt>
      <trkpt lat="44.149224758148193" lon="7.56209135055542">
        <ele>1868</ele>
      </trkpt>
      <trkpt lat="44.149374961853027" lon="7.563378810882568">
        <ele>1863</ele>
      </trkpt>
      <trkpt lat="44.149482250213623" lon="7.56507396697998">
        <ele>1857</ele>
      </trkpt>
      <trkpt lat="44.149396419525146" lon="7.565953731536865">
        <ele>1847</ele>
      </trkpt>
      <trkpt lat="44.149439334869385" lon="7.56633996963501">
        <ele>1846</ele>
      </trkpt>
      <trkpt lat="44.149417877197266" lon="7.566490173339844">
        <ele>1844</ele>
      </trkpt>
      <trkpt lat="44.149332046508789" lon="7.566511631011963">
        <ele>1840</ele>
      </trkpt>
      <trkpt lat="44.148881435394287" lon="7.564129829406738">
        <ele>1837</ele>
      </trkpt>
      <trkpt lat="44.148452281951904" lon="7.563121318817139">
        <ele>1834</ele>
      </trkpt>
      <trkpt lat="44.148387908935547" lon="7.563014030456543">
        <ele>1834</ele>
      </trkpt>
      <trkpt lat="44.148130416870117" lon="7.562928199768066">
        <ele>1826</ele>
      </trkpt>
      <trkpt lat="44.147894382476807" lon="7.562735080718994">
        <ele>1819</ele>
      </trkpt>
      <trkpt lat="44.147679805755615" lon="7.562456130981445">
        <ele>1816</ele>
      </trkpt>
      <trkpt lat="44.147422313690186" lon="7.561812400817871">
        <ele>1830</ele>
      </trkpt>
      <trkpt lat="44.147014617919922" lon="7.561147212982178">
        <ele>1838</ele>
      </trkpt>
      <trkpt lat="44.14682149887085" lon="7.560975551605225">
        <ele>1836</ele>
      </trkpt>
      <trkpt lat="44.14630651473999" lon="7.560696601867676">
        <ele>1819</ele>
      </trkpt>
      <trkpt lat="44.146177768707275" lon="7.560546398162842">
        <ele>1813</ele>
      </trkpt>
      <trkpt lat="44.14607048034668" lon="7.560546398162842">
        <ele>1808</ele>
      </trkpt>
      <trkpt lat="44.146177768707275" lon="7.560782432556152">
        <ele>1813</ele>
      </trkpt>
      <trkpt lat="44.146907329559326" lon="7.561404705047607">
        <ele>1824</ele>
      </trkpt>
      <trkpt lat="44.147078990936279" lon="7.561748027801514">
        <ele>1819</ele>
      </trkpt>
      <trkpt lat="44.147186279296875" lon="7.562134265899658">
        <ele>1811</ele>
      </trkpt>
      <trkpt lat="44.147186279296875" lon="7.562541961669922">
        <ele>1799</ele>
      </trkpt>
      <trkpt lat="44.147336483001709" lon="7.563014030456543">
        <ele>1793</ele>
      </trkpt>
      <trkpt lat="44.147400856018066" lon="7.563443183898926">
        <ele>1787</ele>
      </trkpt>
      <trkpt lat="44.147636890411377" lon="7.564001083374023">
        <ele>1788</ele>
      </trkpt>
      <trkpt lat="44.147593975067139" lon="7.565374374389648">
        <ele>1769</ele>
      </trkpt>
      <trkpt lat="44.147701263427734" lon="7.566962242126465">
        <ele>1753</ele>
      </trkpt>
      <trkpt lat="44.147636890411377" lon="7.567048072814941">
        <ele>1749</ele>
      </trkpt>
      <trkpt lat="44.14757251739502" lon="7.566962242126465">
        <ele>1748</ele>
      </trkpt>
      <trkpt lat="44.147529602050781" lon="7.566511631011963">
        <ele>1752</ele>
      </trkpt>
      <trkpt lat="44.147250652313232" lon="7.565395832061768">
        <ele>1757</ele>
      </trkpt>
      <trkpt lat="44.147036075592041" lon="7.564902305603027">
        <ele>1757</ele>
      </trkpt>
      <trkpt lat="44.146864414215088" lon="7.563872337341309">
        <ele>1768</ele>
      </trkpt>
      <trkpt lat="44.146757125854492" lon="7.563614845275879">
        <ele>1770</ele>
      </trkpt>
      <trkpt lat="44.146242141723633" lon="7.562992572784424">
        <ele>1766</ele>
      </trkpt>
      <trkpt lat="44.14531946182251" lon="7.562692165374756">
        <ele>1729</ele>
      </trkpt>
      <trkpt lat="44.14482593536377" lon="7.562692165374756">
        <ele>1699</ele>
      </trkpt>
      <trkpt lat="44.144783020019531" lon="7.562777996063232">
        <ele>1694</ele>
      </trkpt>
      <trkpt lat="44.144847393035889" lon="7.56284236907959">
        <ele>1697</ele>
      </trkpt>
      <trkpt lat="44.145276546478271" lon="7.562949657440186">
        <ele>1721</ele>
      </trkpt>
      <trkpt lat="44.145855903625488" lon="7.563250064849854">
        <ele>1748</ele>
      </trkpt>
      <trkpt lat="44.145898818969727" lon="7.563378810882568">
        <ele>1746</ele>
      </trkpt>
      <trkpt lat="44.14581298828125" lon="7.563421726226807">
        <ele>1742</ele>
      </trkpt>
      <trkpt lat="44.14555549621582" lon="7.563292980194092">
        <ele>1729</ele>
      </trkpt>
      <trkpt lat="44.144783020019531" lon="7.563250064849854">
        <ele>1683</ele>
      </trkpt>
      <trkpt lat="44.144611358642578" lon="7.563142776489258">
        <ele>1674</ele>
      </trkpt>
      <trkpt lat="44.144439697265625" lon="7.562885284423828">
        <ele>1668</ele>
      </trkpt>
      <trkpt lat="44.144375324249268" lon="7.562863826751709">
        <ele>1664</ele>
      </trkpt>
      <trkpt lat="44.144353866577148" lon="7.562928199768066">
        <ele>1661</ele>
      </trkpt>
      <trkpt lat="44.144632816314697" lon="7.563400268554688">
        <ele>1670</ele>
      </trkpt>
      <trkpt lat="44.145169258117676" lon="7.563807964324951">
        <ele>1694</ele>
      </trkpt>
      <trkpt lat="44.14531946182251" lon="7.564043998718262">
        <ele>1697</ele>
      </trkpt>
      <trkpt lat="44.145469665527344" lon="7.564795017242432">
        <ele>1690</ele>
      </trkpt>
      <trkpt lat="44.145383834838867" lon="7.564795017242432">
        <ele>1685</ele>
      </trkpt>
      <trkpt lat="44.145190715789795" lon="7.564516067504883">
        <ele>1679</ele>
      </trkpt>
      <trkpt lat="44.144268035888672" lon="7.564001083374023">
        <ele>1632</ele>
      </trkpt>
      <trkpt lat="44.143946170806885" lon="7.563700675964355">
        <ele>1616</ele>
      </trkpt>
      <trkpt lat="44.14381742477417" lon="7.563464641571045">
        <ele>1612</ele>
      </trkpt>
      <trkpt lat="44.143731594085693" lon="7.563443183898926">
        <ele>1606</ele>
      </trkpt>
      <trkpt lat="44.144010543823242" lon="7.564301490783691">
        <ele>1609</ele>
      </trkpt>
      <trkpt lat="44.144117832183838" lon="7.564516067504883">
        <ele>1612</ele>
      </trkpt>
      <trkpt lat="44.144418239593506" lon="7.564859390258789">
        <ele>1625</ele>
      </trkpt>
      <trkpt lat="44.144439697265625" lon="7.564988136291504">
        <ele>1624</ele>
      </trkpt>
      <trkpt lat="44.144353866577148" lon="7.564988136291504">
        <ele>1619</ele>
      </trkpt>
      <trkpt lat="44.144182205200195" lon="7.564795017242432">
        <ele>1612</ele>
      </trkpt>
      <trkpt lat="44.143967628479004" lon="7.564709186553955">
        <ele>1599</ele>
      </trkpt>
      <trkpt lat="44.143366813659668" lon="7.564172744750977">
        <ele>1565</ele>
      </trkpt>
      <trkpt lat="44.143345355987549" lon="7.564301490783691">
        <ele>1562</ele>
      </trkpt>
      <trkpt lat="44.14381742477417" lon="7.565245628356934">
        <ele>1581</ele>
      </trkpt>
      <trkpt lat="44.143753051757812" lon="7.565267086029053">
        <ele>1576</ele>
      </trkpt>
      <trkpt lat="44.143388271331787" lon="7.565009593963623">
        <ele>1555</ele>
      </trkpt>
      <trkpt lat="44.143195152282715" lon="7.564644813537598">
        <ele>1547</ele>
      </trkpt>
      <trkpt lat="44.143130779266357" lon="7.564644813537598">
        <ele>1543</ele>
      </trkpt>
      <trkpt lat="44.143366813659668" lon="7.565546035766602">
        <ele>1547</ele>
      </trkpt>
      <trkpt lat="44.143259525299072" lon="7.565567493438721">
        <ele>1540</ele>
      </trkpt>
      <trkpt lat="44.142937660217285" lon="7.565009593963623">
        <ele>1525</ele>
      </trkpt>
      <trkpt lat="44.142873287200928" lon="7.564687728881836">
        <ele>1525</ele>
      </trkpt>
      <trkpt lat="44.142787456512451" lon="7.564666271209717">
        <ele>1519</ele>
      </trkpt>
      <trkpt lat="44.14280891418457" lon="7.565009593963623">
        <ele>1517</ele>
      </trkpt>
      <trkpt lat="44.142937660217285" lon="7.565374374389648">
        <ele>1521</ele>
      </trkpt>
      <trkpt lat="44.143109321594238" lon="7.565653324127197">
        <ele>1528</ele>
      </trkpt>
      <trkpt lat="44.143044948577881" lon="7.565739154815674">
        <ele>1523</ele>
      </trkpt>
      <trkpt lat="44.142701625823975" lon="7.565395832061768">
        <ele>1505</ele>
      </trkpt>
      <trkpt lat="44.142508506774902" lon="7.565031051635742">
        <ele>1496</ele>
      </trkpt>
      <trkpt lat="44.142465591430664" lon="7.565181255340576">
        <ele>1492</ele>
      </trkpt>
      <trkpt lat="44.142508506774902" lon="7.565460205078125">
        <ele>1491</ele>
      </trkpt>
      <trkpt lat="44.142594337463379" lon="7.565717697143555">
        <ele>1494</ele>
      </trkpt>
      <trkpt lat="44.143109321594238" lon="7.566146850585938">
        <ele>1522</ele>
      </trkpt>
      <trkpt lat="44.143130779266357" lon="7.566254138946533">
        <ele>1522</ele>
      </trkpt>
      <trkpt lat="44.14306640625" lon="7.566275596618652">
        <ele>1518</ele>
      </trkpt>
      <trkpt lat="44.14231538772583" lon="7.565760612487793">
        <ele>1476</ele>
      </trkpt>
      <trkpt lat="44.142208099365234" lon="7.565610408782959">
        <ele>1472</ele>
      </trkpt>
      <trkpt lat="44.142122268676758" lon="7.56483793258667">
        <ele>1480</ele>
      </trkpt>
      <trkpt lat="44.142208099365234" lon="7.564537525177002">
        <ele>1488</ele>
      </trkpt>
      <trkpt lat="44.142401218414307" lon="7.564301490783691">
        <ele>1500</ele>
      </trkpt>
      <trkpt lat="44.142508506774902" lon="7.563743591308594">
        <ele>1515</ele>
      </trkpt>
      <trkpt lat="44.142508506774902" lon="7.563486099243164">
        <ele>1521</ele>
      </trkpt>
      <trkpt lat="44.142401218414307" lon="7.562992572784424">
        <ele>1529</ele>
      </trkpt>
      <trkpt lat="44.142358303070068" lon="7.56309986114502">
        <ele>1524</ele>
      </trkpt>
      <trkpt lat="44.142379760742188" lon="7.563679218292236">
        <ele>1511</ele>
      </trkpt>
      <trkpt lat="44.14231538772583" lon="7.564001083374023">
        <ele>1502</ele>
      </trkpt>
      <trkpt lat="44.142251014709473" lon="7.564129829406738">
        <ele>1497</ele>
      </trkpt>
      <trkpt lat="44.142186641693115" lon="7.564129829406738">
        <ele>1494</ele>
      </trkpt>
      <trkpt lat="44.142293930053711" lon="7.563765048980713">
        <ele>1506</ele>
      </trkpt>
      <trkpt lat="44.14231538772583" lon="7.563464641571045">
        <ele>1513</ele>
      </trkpt>
      <trkpt lat="44.142251014709473" lon="7.5630784034729">
        <ele>1520</ele>
      </trkpt>
      <trkpt lat="44.142208099365234" lon="7.563056945800781">
        <ele>1519</ele>
      </trkpt>
      <trkpt lat="44.142165184020996" lon="7.563121318817139">
        <ele>1515</ele>
      </trkpt>
      <trkpt lat="44.142208099365234" lon="7.563571929931641">
        <ele>1506</ele>
      </trkpt>
      <trkpt lat="44.142100811004639" lon="7.564001083374023">
        <ele>1493</ele>
      </trkpt>
      <trkpt lat="44.142014980316162" lon="7.563979625701904">
        <ele>1490</ele>
      </trkpt>
      <trkpt lat="44.142122268676758" lon="7.563657760620117">
        <ele>1501</ele>
      </trkpt>
      <trkpt lat="44.14207935333252" lon="7.563142776489258">
        <ele>1511</ele>
      </trkpt>
      <trkpt lat="44.142014980316162" lon="7.563207149505615">
        <ele>1507</ele>
      </trkpt>
      <trkpt lat="44.142014980316162" lon="7.563550472259521">
        <ele>1499</ele>
      </trkpt>
      <trkpt lat="44.141714572906494" lon="7.564494609832764">
        <ele>1467</ele>
      </trkpt>
      <trkpt lat="44.141628742218018" lon="7.56458044052124">
        <ele>1460</ele>
      </trkpt>
      <trkpt lat="44.141607284545898" lon="7.564473152160645">
        <ele>1461</ele>
      </trkpt>
      <trkpt lat="44.14182186126709" lon="7.563958168029785">
        <ele>1483</ele>
      </trkpt>
      <trkpt lat="44.141929149627686" lon="7.563464641571045">
        <ele>1498</ele>
      </trkpt>
      <trkpt lat="44.141843318939209" lon="7.563529014587402">
        <ele>1493</ele>
      </trkpt>
      <trkpt lat="44.141736030578613" lon="7.563807964324951">
        <ele>1483</ele>
      </trkpt>
      <trkpt lat="44.141414165496826" lon="7.564322948455811">
        <ele>1450</ele>
      </trkpt>
      <trkpt lat="44.140920639038086" lon="7.56584644317627">
        <ele>1390</ele>
      </trkpt>
      <trkpt lat="44.140877723693848" lon="7.566146850585938">
        <ele>1384</ele>
      </trkpt>
      <trkpt lat="44.140834808349609" lon="7.566168308258057">
        <ele>1381</ele>
      </trkpt>
      <trkpt lat="44.140791893005371" lon="7.566103935241699">
        <ele>1380</ele>
      </trkpt>
      <trkpt lat="44.140748977661133" lon="7.565889358520508">
        <ele>1381</ele>
      </trkpt>
      <trkpt lat="44.140834808349609" lon="7.56533145904541">
        <ele>1391</ele>
      </trkpt>
      <trkpt lat="44.140791893005371" lon="7.56533145904541">
        <ele>1389</ele>
      </trkpt>
      <trkpt lat="44.140620231628418" lon="7.565674781799316">
        <ele>1377</ele>
      </trkpt>
      <trkpt lat="44.140534400939941" lon="7.565996646881104">
        <ele>1369</ele>
      </trkpt>
      <trkpt lat="44.140448570251465" lon="7.565996646881104">
        <ele>1365</ele>
      </trkpt>
      <trkpt lat="44.140512943267822" lon="7.565567493438721">
        <ele>1374</ele>
      </trkpt>
      <trkpt lat="44.140684604644775" lon="7.565159797668457">
        <ele>1387</ele>
      </trkpt>
      <trkpt lat="44.140620231628418" lon="7.565116882324219">
        <ele>1385</ele>
      </trkpt>
      <trkpt lat="44.140083789825439" lon="7.566189765930176">
        <ele>1344</ele>
      </trkpt>
      <trkpt lat="44.140191078186035" lon="7.566640377044678">
        <ele>1342</ele>
      </trkpt>
      <trkpt lat="44.139955043792725" lon="7.566404342651367">
        <ele>1334</ele>
      </trkpt>
      <trkpt lat="44.140019416809082" lon="7.566640377044678">
        <ele>1332</ele>
      </trkpt>
      <trkpt lat="44.139955043792725" lon="7.566704750061035">
        <ele>1328</ele>
      </trkpt>
      <trkpt lat="44.139869213104248" lon="7.566404342651367">
        <ele>1330</ele>
      </trkpt>
      <trkpt lat="44.140083789825439" lon="7.56558895111084">
        <ele>1355</ele>
      </trkpt>
      <trkpt lat="44.140083789825439" lon="7.565524578094482">
        <ele>1356</ele>
      </trkpt>
      <trkpt lat="44.140019416809082" lon="7.565503120422363">
        <ele>1354</ele>
      </trkpt>
      <trkpt lat="44.139697551727295" lon="7.566361427307129">
        <ele>1322</ele>
      </trkpt>
      <trkpt lat="44.139719009399414" lon="7.566897869110107">
        <ele>1316</ele>
      </trkpt>
      <trkpt lat="44.139676094055176" lon="7.566897869110107">
        <ele>1314</ele>
      </trkpt>
      <trkpt lat="44.139525890350342" lon="7.566490173339844">
        <ele>1312</ele>
      </trkpt>
      <trkpt lat="44.139547348022461" lon="7.566275596618652">
        <ele>1316</ele>
      </trkpt>
      <trkpt lat="44.139847755432129" lon="7.56558895111084">
        <ele>1343</ele>
      </trkpt>
      <trkpt lat="44.139783382415771" lon="7.565546035766602">
        <ele>1340</ele>
      </trkpt>
      <trkpt lat="44.139397144317627" lon="7.566318511962891">
        <ele>1307</ele>
      </trkpt>
      <trkpt lat="44.139375686645508" lon="7.566704750061035">
        <ele>1302</ele>
      </trkpt>
      <trkpt lat="44.139440059661865" lon="7.566983699798584">
        <ele>1303</ele>
      </trkpt>
      <trkpt lat="44.139633178710938" lon="7.567262649536133">
        <ele>1309</ele>
      </trkpt>
      <trkpt lat="44.139611721038818" lon="7.56732702255249">
        <ele>1307</ele>
      </trkpt>
      <trkpt lat="44.139504432678223" lon="7.567262649536133">
        <ele>1303</ele>
      </trkpt>
      <trkpt lat="44.139289855957031" lon="7.566962242126465">
        <ele>1297</ele>
      </trkpt>
      <trkpt lat="44.139204025268555" lon="7.566683292388916">
        <ele>1295</ele>
      </trkpt>
      <trkpt lat="44.139204025268555" lon="7.56633996963501">
        <ele>1298</ele>
      </trkpt>
      <trkpt lat="44.139461517333984" lon="7.565653324127197">
        <ele>1320</ele>
      </trkpt>
      <trkpt lat="44.139182567596436" lon="7.566061019897461">
        <ele>1299</ele>
      </trkpt>
      <trkpt lat="44.139053821563721" lon="7.566382884979248">
        <ele>1293</ele>
      </trkpt>
      <trkpt lat="44.139032363891602" lon="7.566790580749512">
        <ele>1289</ele>
      </trkpt>
      <trkpt lat="44.139246940612793" lon="7.567498683929443">
        <ele>1291</ele>
      </trkpt>
      <trkpt lat="44.139204025268555" lon="7.567520141601562">
        <ele>1289</ele>
      </trkpt>
      <trkpt lat="44.138989448547363" lon="7.567112445831299">
        <ele>1286</ele>
      </trkpt>
      <trkpt lat="44.138839244842529" lon="7.566425800323486">
        <ele>1288</ele>
      </trkpt>
      <trkpt lat="44.139053821563721" lon="7.565782070159912">
        <ele>1300</ele>
      </trkpt>
      <trkpt lat="44.138967990875244" lon="7.56584644317627">
        <ele>1297</ele>
      </trkpt>
      <trkpt lat="44.138710498809814" lon="7.56633996963501">
        <ele>1287</ele>
      </trkpt>
      <trkpt lat="44.138689041137695" lon="7.566747665405273">
        <ele>1282</ele>
      </trkpt>
      <trkpt lat="44.138624668121338" lon="7.566876411437988">
        <ele>1279</ele>
      </trkpt>
      <trkpt lat="44.1385817527771" lon="7.566511631011963">
        <ele>1282</ele>
      </trkpt>
      <trkpt lat="44.138710498809814" lon="7.565932273864746">
        <ele>1293</ele>
      </trkpt>
      <trkpt lat="44.138453006744385" lon="7.566382884979248">
        <ele>1281</ele>
      </trkpt>
      <trkpt lat="44.138474464416504" lon="7.566704750061035">
        <ele>1277</ele>
      </trkpt>
      <trkpt lat="44.138388633728027" lon="7.566790580749512">
        <ele>1274</ele>
      </trkpt>
      <trkpt lat="44.138345718383789" lon="7.566382884979248">
        <ele>1279</ele>
      </trkpt>
      <trkpt lat="44.138410091400146" lon="7.566146850585938">
        <ele>1285</ele>
      </trkpt>
      <trkpt lat="44.138367176055908" lon="7.566103935241699">
        <ele>1285</ele>
      </trkpt>
      <trkpt lat="44.138281345367432" lon="7.566211223602295">
        <ele>1282</ele>
      </trkpt>
      <trkpt lat="44.138195514678955" lon="7.566747665405273">
        <ele>1271</ele>
      </trkpt>
      <trkpt lat="44.13832426071167" lon="7.567155361175537">
        <ele>1270</ele>
      </trkpt>
      <trkpt lat="44.138002395629883" lon="7.566769123077393">
        <ele>1266</ele>
      </trkpt>
      <trkpt lat="44.13806676864624" lon="7.566318511962891">
        <ele>1277</ele>
      </trkpt>
      <trkpt lat="44.138002395629883" lon="7.566318511962891">
        <ele>1277</ele>
      </trkpt>
      <trkpt lat="44.137873649597168" lon="7.566597461700439">
        <ele>1267</ele>
      </trkpt>
      <trkpt lat="44.137873649597168" lon="7.566876411437988">
        <ele>1262</ele>
      </trkpt>
      <trkpt lat="44.138088226318359" lon="7.567391395568848">
        <ele>1263</ele>
      </trkpt>
      <trkpt lat="44.138023853302002" lon="7.567434310913086">
        <ele>1260</ele>
      </trkpt>
      <trkpt lat="44.137723445892334" lon="7.567069530487061">
        <ele>1257</ele>
      </trkpt>
      <trkpt lat="44.137637615203857" lon="7.566618919372559">
        <ele>1262</ele>
      </trkpt>
      <trkpt lat="44.1375732421875" lon="7.566618919372559">
        <ele>1260</ele>
      </trkpt>
      <trkpt lat="44.137616157531738" lon="7.567155361175537">
        <ele>1253</ele>
      </trkpt>
      <trkpt lat="44.138121837750077" lon="7.568055829033256">
        <ele>1258</ele>
      </trkpt>
    </trkseg>
  </trk>

</gpx>
