<?xml version="1.0"?>
<gpx creator="GPS Visualizer http://www.gpsvisualizer.com/" version="1.1" xmlns="http://www.topografix.com/GPX/1/1" xmlns:xsi="http://www.w3.org/2001/XMLSchema-instance" xsi:schemaLocation="http://www.topografix.com/GPX/1/1 http://www.topografix.com/GPX/1/1/gpx.xsd">

  <metadata>
    <link href="http://www.garmin.com">
      <text>Garmin International</text>
    </link>
  <trk>
    <name>ev8-Casalmaggiore - Cremona</name>
    <desc>http://italy-cycling-guide.info</desc>
    <trkseg>
      <trkpt lat="44.980422975495458" lon="10.419792020693421">
        <ele>25.609999999999999</ele>
      </trkpt>
      <trkpt lat="44.980248045176268" lon="10.419918252155185">
        <ele>25.129999999999999</ele>
      </trkpt>
      <trkpt lat="44.980404954403639" lon="10.419168071821332">
        <ele>23.690000000000001</ele>
      </trkpt>
      <trkpt lat="44.980900743976235" lon="10.418010195717216">
        <ele>26.09</ele>
      </trkpt>
      <trkpt lat="44.982780972495675" lon="10.416071293875575">
        <ele>25.129999999999999</ele>
      </trkpt>
      <trkpt lat="44.983898364007473" lon="10.414554169401526">
        <ele>26.09</ele>
      </trkpt>
      <trkpt lat="44.984376216307282" lon="10.414027869701385">
        <ele>26.09</ele>
      </trkpt>
      <trkpt lat="44.984714845195413" lon="10.413814214989543">
        <ele>26.09</ele>
      </trkpt>
      <trkpt lat="44.985898118466139" lon="10.413349606096745">
        <ele>26.09</ele>
      </trkpt>
      <trkpt lat="44.986508153378963" lon="10.41323309764266">
        <ele>27.050000000000001</ele>
      </trkpt>
      <trkpt lat="44.987540217116475" lon="10.412911148741841">
        <ele>27.530000000000001</ele>
      </trkpt>
      <trkpt lat="44.989184075966477" lon="10.411973381415009">
        <ele>26.57</ele>
      </trkpt>
      <trkpt lat="44.990910580381751" lon="10.411306684836745">
        <ele>26.57</ele>
      </trkpt>
      <trkpt lat="44.994220174849033" lon="10.408213343471289">
        <ele>24.649999999999999</ele>
      </trkpt>
      <trkpt lat="44.995083510875702" lon="10.407236516475677">
        <ele>24.649999999999999</ele>
      </trkpt>
      <trkpt lat="44.995982386171818" lon="10.406680628657341">
        <ele>25.609999999999999</ele>
      </trkpt>
      <trkpt lat="44.997166497632861" lon="10.405541863292456">
        <ele>26.57</ele>
      </trkpt>
      <trkpt lat="44.998035449534655" lon="10.404986478388309">
        <ele>27.050000000000001</ele>
      </trkpt>
      <trkpt lat="44.99838505871594" lon="10.404689591377974">
        <ele>27.050000000000001</ele>
      </trkpt>
      <trkpt lat="44.998593516647816" lon="10.404217187315226">
        <ele>27.050000000000001</ele>
      </trkpt>
      <trkpt lat="44.99898511916399" lon="10.40289469063282">
        <ele>27.050000000000001</ele>
      </trkpt>
      <trkpt lat="44.999175388365984" lon="10.401268349960446">
        <ele>26.09</ele>
      </trkpt>
      <trkpt lat="44.999412847682834" lon="10.400111814960837">
        <ele>26.57</ele>
      </trkpt>
      <trkpt lat="44.999418128281832" lon="10.398506848141551">
        <ele>26.57</ele>
      </trkpt>
      <trkpt lat="44.999219896271825" lon="10.397390881553292">
        <ele>26.09</ele>
      </trkpt>
      <trkpt lat="44.99953337945044" lon="10.395799158141017">
        <ele>26.57</ele>
      </trkpt>
      <trkpt lat="44.999883407726884" lon="10.394843704998493">
        <ele>26.57</ele>
      </trkpt>
      <trkpt lat="45.000053308904171" lon="10.394013728946447">
        <ele>26.57</ele>
      </trkpt>
      <trkpt lat="45.00029613263905" lon="10.39178472943604">
        <ele>26.57</ele>
      </trkpt>
      <trkpt lat="45.000335862860084" lon="10.389524968340993">
        <ele>25.609999999999999</ele>
      </trkpt>
      <trkpt lat="45.000413479283452" lon="10.389261357486248">
        <ele>25.609999999999999</ele>
      </trkpt>
      <trkpt lat="45.001401957124472" lon="10.387144675478339">
        <ele>26.57</ele>
      </trkpt>
      <trkpt lat="45.001559117808938" lon="10.38661845959723">
        <ele>27.050000000000001</ele>
      </trkpt>
      <trkpt lat="45.001725666224957" lon="10.385452955961227">
        <ele>27.050000000000001</ele>
      </trkpt>
      <trkpt lat="45.001612342894077" lon="10.384021829813719">
        <ele>27.050000000000001</ele>
      </trkpt>
      <trkpt lat="45.001805545762181" lon="10.383013319224119">
        <ele>26.57</ele>
      </trkpt>
      <trkpt lat="45.002011237666011" lon="10.382552733644843">
        <ele>27.050000000000001</ele>
      </trkpt>
      <trkpt lat="45.00281548127532" lon="10.381371472030878">
        <ele>26.57</ele>
      </trkpt>
      <trkpt lat="45.00334613956511" lon="10.380396489053965">
        <ele>26.57</ele>
      </trkpt>
      <trkpt lat="45.003522243350744" lon="10.379936154931784">
        <ele>26.57</ele>
      </trkpt>
      <trkpt lat="45.003623077645898" lon="10.379417818039656">
        <ele>27.050000000000001</ele>
      </trkpt>
      <trkpt lat="45.003991965204477" lon="10.376269575208426">
        <ele>27.050000000000001</ele>
      </trkpt>
      <trkpt lat="45.00398819334805" lon="10.375127121806145">
        <ele>27.050000000000001</ele>
      </trkpt>
      <trkpt lat="45.003815609961748" lon="10.373162906616926">
        <ele>27.050000000000001</ele>
      </trkpt>
      <trkpt lat="45.003691138699651" lon="10.372677678242326">
        <ele>27.050000000000001</ele>
      </trkpt>
      <trkpt lat="45.003374218940735" lon="10.37203193642199">
        <ele>27.050000000000001</ele>
      </trkpt>
      <trkpt lat="45.003326693549752" lon="10.371775534003973">
        <ele>27.530000000000001</ele>
      </trkpt>
      <trkpt lat="45.003362316638231" lon="10.37151443772018">
        <ele>27.050000000000001</ele>
      </trkpt>
      <trkpt lat="45.003470024093986" lon="10.371301285922527">
        <ele>27.050000000000001</ele>
      </trkpt>
      <trkpt lat="45.003897836431861" lon="10.370804239064455">
        <ele>26.57</ele>
      </trkpt>
      <trkpt lat="45.004206793382764" lon="10.370094375684857">
        <ele>26.57</ele>
      </trkpt>
      <trkpt lat="45.005315719172359" lon="10.368416905403137">
        <ele>26.57</ele>
      </trkpt>
      <trkpt lat="45.005868589505553" lon="10.36714511923492">
        <ele>27.050000000000001</ele>
      </trkpt>
      <trkpt lat="45.006099343299866" lon="10.366436010226607">
        <ele>27.530000000000001</ele>
      </trkpt>
      <trkpt lat="45.00626371242106" lon="10.365665378049016">
        <ele>27.050000000000001</ele>
      </trkpt>
      <trkpt lat="45.00637318007648" lon="10.363430511206388">
        <ele>27.050000000000001</ele>
      </trkpt>
      <trkpt lat="45.006755813956261" lon="10.362190576270223">
        <ele>27.530000000000001</ele>
      </trkpt>
      <trkpt lat="45.006715077906847" lon="10.361368814483285">
        <ele>27.050000000000001</ele>
      </trkpt>
      <trkpt lat="45.00651047565043" lon="10.360297858715057">
        <ele>27.050000000000001</ele>
      </trkpt>
      <trkpt lat="45.006019212305546" lon="10.359053732827306">
        <ele>27.050000000000001</ele>
      </trkpt>
      <trkpt lat="45.005875546485186" lon="10.358222750946879">
        <ele>28.02</ele>
      </trkpt>
      <trkpt lat="45.00572182238102" lon="10.357732409611344">
        <ele>27.530000000000001</ele>
      </trkpt>
      <trkpt lat="45.004817415028811" lon="10.355463428422809">
        <ele>27.530000000000001</ele>
      </trkpt>
      <trkpt lat="45.004798304289579" lon="10.355149107053876">
        <ele>27.530000000000001</ele>
      </trkpt>
      <trkpt lat="45.005024950951338" lon="10.353174330666661">
        <ele>27.050000000000001</ele>
      </trkpt>
      <trkpt lat="45.004962589591742" lon="10.352075966075063">
        <ele>27.050000000000001</ele>
      </trkpt>
      <trkpt lat="45.005241455510259" lon="10.351325534284115">
        <ele>27.530000000000001</ele>
      </trkpt>
      <trkpt lat="45.006655398756266" lon="10.348935602232814">
        <ele>27.050000000000001</ele>
      </trkpt>
      <trkpt lat="45.007319916039705" lon="10.347148831933737">
        <ele>27.530000000000001</ele>
      </trkpt>
      <trkpt lat="45.007797013968229" lon="10.344987055286765">
        <ele>27.530000000000001</ele>
      </trkpt>
      <trkpt lat="45.008408473804593" lon="10.341680562123656">
        <ele>28.02</ele>
      </trkpt>
      <trkpt lat="45.008636964485049" lon="10.339475534856319">
        <ele>27.530000000000001</ele>
      </trkpt>
      <trkpt lat="45.008664205670357" lon="10.337936952710152">
        <ele>27.530000000000001</ele>
      </trkpt>
      <trkpt lat="45.008570747449994" lon="10.337321888655424">
        <ele>27.530000000000001</ele>
      </trkpt>
      <trkpt lat="45.007217405363917" lon="10.332973441109061">
        <ele>28.5</ele>
      </trkpt>
      <trkpt lat="45.007095783948898" lon="10.332708321511745">
        <ele>28.5</ele>
      </trkpt>
      <trkpt lat="45.006315009668469" lon="10.332044390961528">
        <ele>28.02</ele>
      </trkpt>
      <trkpt lat="45.00587722286582" lon="10.331394877284765">
        <ele>28.02</ele>
      </trkpt>
      <trkpt lat="45.005796086043119" lon="10.331137217581272">
        <ele>28.5</ele>
      </trkpt>
      <trkpt lat="45.00578049570322" lon="10.32804898917675">
        <ele>27.530000000000001</ele>
      </trkpt>
      <trkpt lat="45.006241416558623" lon="10.32626305706799">
        <ele>28.5</ele>
      </trkpt>
      <trkpt lat="45.00639908015728" lon="10.326065495610237">
        <ele>28.5</ele>
      </trkpt>
      <trkpt lat="45.006807781755924" lon="10.3258618991822">
        <ele>28.02</ele>
      </trkpt>
      <trkpt lat="45.007622251287103" lon="10.325573477894068">
        <ele>27.530000000000001</ele>
      </trkpt>
      <trkpt lat="45.007989127188921" lon="10.32530190423131">
        <ele>28.02</ele>
      </trkpt>
      <trkpt lat="45.008493550121784" lon="10.324801169335842">
        <ele>27.530000000000001</ele>
      </trkpt>
      <trkpt lat="45.00924582593143" lon="10.324380481615663">
        <ele>28.02</ele>
      </trkpt>
      <trkpt lat="45.009380355477333" lon="10.324168251827359">
        <ele>28.5</ele>
      </trkpt>
      <trkpt lat="45.010078148916364" lon="10.322688007727265">
        <ele>27.530000000000001</ele>
      </trkpt>
      <trkpt lat="45.011392179876566" lon="10.318811628967524">
        <ele>28.02</ele>
      </trkpt>
      <trkpt lat="45.011406345292926" lon="10.318515161052346">
        <ele>28.02</ele>
      </trkpt>
      <trkpt lat="45.011314479634166" lon="10.317974863573909">
        <ele>27.530000000000001</ele>
      </trkpt>
      <trkpt lat="45.010441839694977" lon="10.314434180036187">
        <ele>28.98</ele>
      </trkpt>
      <trkpt lat="45.010416358709335" lon="10.314139388501644">
        <ele>28.98</ele>
      </trkpt>
      <trkpt lat="45.010692207142711" lon="10.313325002789497">
        <ele>28.5</ele>
      </trkpt>
      <trkpt lat="45.010709725320339" lon="10.313027612864971">
        <ele>28.02</ele>
      </trkpt>
      <trkpt lat="45.010597407817841" lon="10.311596151441336">
        <ele>27.530000000000001</ele>
      </trkpt>
      <trkpt lat="45.010607298463583" lon="10.311083011329174">
        <ele>27.530000000000001</ele>
      </trkpt>
      <trkpt lat="45.010671503841877" lon="10.31057951040566">
        <ele>27.530000000000001</ele>
      </trkpt>
      <trkpt lat="45.010894043371081" lon="10.310093611478806">
        <ele>27.530000000000001</ele>
      </trkpt>
      <trkpt lat="45.011242143809795" lon="10.309820109978318">
        <ele>27.050000000000001</ele>
      </trkpt>
      <trkpt lat="45.011806581169367" lon="10.309569826349616">
        <ele>26.57</ele>
      </trkpt>
      <trkpt lat="45.012908130884171" lon="10.308680254966021">
        <ele>28.02</ele>
      </trkpt>
      <trkpt lat="45.013036457821727" lon="10.308485710993409">
        <ele>28.5</ele>
      </trkpt>
      <trkpt lat="45.013187080621719" lon="10.307973576709628">
        <ele>28.5</ele>
      </trkpt>
      <trkpt lat="45.013612546026707" lon="10.305651454254985">
        <ele>28.02</ele>
      </trkpt>
      <trkpt lat="45.013752607628703" lon="10.303371325135231">
        <ele>27.530000000000001</ele>
      </trkpt>
      <trkpt lat="45.013695023953915" lon="10.300648547708988">
        <ele>26.57</ele>
      </trkpt>
      <trkpt lat="45.014207493513823" lon="10.295778075233102">
        <ele>29.940000000000001</ele>
      </trkpt>
      <trkpt lat="45.013789068907499" lon="10.292069585993886">
        <ele>28.98</ele>
      </trkpt>
      <trkpt lat="45.013809688389301" lon="10.291558541357517">
        <ele>28.98</ele>
      </trkpt>
      <trkpt lat="45.0140739697963" lon="10.290588671341538">
        <ele>29.460000000000001</ele>
      </trkpt>
      <trkpt lat="45.01471409574151" lon="10.289484607055783">
        <ele>28.98</ele>
      </trkpt>
      <trkpt lat="45.015008887276053" lon="10.289192581549287">
        <ele>29.460000000000001</ele>
      </trkpt>
      <trkpt lat="45.018368856981397" lon="10.288708945736289">
        <ele>29.460000000000001</ele>
      </trkpt>
      <trkpt lat="45.019614240154624" lon="10.288441060110927">
        <ele>29.460000000000001</ele>
      </trkpt>
      <trkpt lat="45.019800318405032" lon="10.288275768980384">
        <ele>29.460000000000001</ele>
      </trkpt>
      <trkpt lat="45.020113298669457" lon="10.287558445706964">
        <ele>29.460000000000001</ele>
      </trkpt>
      <trkpt lat="45.020371964201331" lon="10.287154354155064">
        <ele>29.460000000000001</ele>
      </trkpt>
      <trkpt lat="45.021295482292771" lon="10.286069065332413">
        <ele>29.460000000000001</ele>
      </trkpt>
      <trkpt lat="45.025313599035144" lon="10.283941822126508">
        <ele>29.460000000000001</ele>
      </trkpt>
      <trkpt lat="45.028495788574219" lon="10.282054971903563">
        <ele>30.420000000000002</ele>
      </trkpt>
      <trkpt lat="45.03283778205514" lon="10.280991811305285">
        <ele>29.460000000000001</ele>
      </trkpt>
      <trkpt lat="45.040390882641077" lon="10.279648946598172">
        <ele>28.98</ele>
      </trkpt>
      <trkpt lat="45.041765179485083" lon="10.279146116226912">
        <ele>28.98</ele>
      </trkpt>
      <trkpt lat="45.041955532506108" lon="10.279027344658971">
        <ele>28.98</ele>
      </trkpt>
      <trkpt lat="45.043590422719717" lon="10.27560199610889">
        <ele>27.530000000000001</ele>
      </trkpt>
      <trkpt lat="45.046192333102226" lon="10.272487113252282">
        <ele>28.5</ele>
      </trkpt>
      <trkpt lat="45.047412822023034" lon="10.270294826477766">
        <ele>28.02</ele>
      </trkpt>
      <trkpt lat="45.048254951834679" lon="10.268400516360998">
        <ele>28.02</ele>
      </trkpt>
      <trkpt lat="45.049166735261679" lon="10.267296954989433">
        <ele>28.02</ele>
      </trkpt>
      <trkpt lat="45.050376327708364" lon="10.265513705089688">
        <ele>28.02</ele>
      </trkpt>
      <trkpt lat="45.05072602070868" lon="10.264115519821644">
        <ele>28.02</ele>
      </trkpt>
      <trkpt lat="45.050931042060256" lon="10.26185785420239">
        <ele>28.98</ele>
      </trkpt>
      <trkpt lat="45.051060458645225" lon="10.261377822607756">
        <ele>28.02</ele>
      </trkpt>
      <trkpt lat="45.051559936255217" lon="10.260541392490268">
        <ele>27.530000000000001</ele>
      </trkpt>
      <trkpt lat="45.054110046476126" lon="10.25730044580996">
        <ele>29.940000000000001</ele>
      </trkpt>
      <trkpt lat="45.05400619469583" lon="10.257464731112123">
        <ele>29.940000000000001</ele>
      </trkpt>
      <trkpt lat="45.054534170776606" lon="10.256498968228698">
        <ele>27.530000000000001</ele>
      </trkpt>
      <trkpt lat="45.055242273956537" lon="10.254806745797396">
        <ele>26.09</ele>
      </trkpt>
      <trkpt lat="45.056590586900711" lon="10.250245397910476">
        <ele>25.609999999999999</ele>
      </trkpt>
      <trkpt lat="45.056972969323397" lon="10.247833002358675">
        <ele>28.02</ele>
      </trkpt>
      <trkpt lat="45.057653747498989" lon="10.245685391128063">
        <ele>27.050000000000001</ele>
      </trkpt>
      <trkpt lat="45.057949293404818" lon="10.244242111220956">
        <ele>27.530000000000001</ele>
      </trkpt>
      <trkpt lat="45.057996483519673" lon="10.243341894820333">
        <ele>27.530000000000001</ele>
      </trkpt>
      <trkpt lat="45.057980390265584" lon="10.241027567535639">
        <ele>28.5</ele>
      </trkpt>
      <trkpt lat="45.05791031755507" lon="10.240799747407436">
        <ele>28.5</ele>
      </trkpt>
      <trkpt lat="45.056128576397896" lon="10.2411107160151">
        <ele>28.98</ele>
      </trkpt>
      <trkpt lat="45.055853398516774" lon="10.24110141210258">
        <ele>29.940000000000001</ele>
      </trkpt>
      <trkpt lat="45.055502448230982" lon="10.239759385585785">
        <ele>29.940000000000001</ele>
      </trkpt>
      <trkpt lat="45.055554499849677" lon="10.239143734797835">
        <ele>29.940000000000001</ele>
      </trkpt>
      <trkpt lat="45.055504040792584" lon="10.238299509510398">
        <ele>29.460000000000001</ele>
      </trkpt>
      <trkpt lat="45.056283473968506" lon="10.236353818327188">
        <ele>28.98</ele>
      </trkpt>
      <trkpt lat="45.056645991280675" lon="10.235088653862476">
        <ele>28.02</ele>
      </trkpt>
      <trkpt lat="45.057241776958108" lon="10.234008645638824">
        <ele>28.02</ele>
      </trkpt>
      <trkpt lat="45.058503337204456" lon="10.22903373464942">
        <ele>24.170000000000002</ele>
      </trkpt>
      <trkpt lat="45.058714393526316" lon="10.228623943403363">
        <ele>24.170000000000002</ele>
      </trkpt>
      <trkpt lat="45.059991125017405" lon="10.226832730695605">
        <ele>25.609999999999999</ele>
      </trkpt>
      <trkpt lat="45.060671484097838" lon="10.225086947903037">
        <ele>25.129999999999999</ele>
      </trkpt>
      <trkpt lat="45.061158472672105" lon="10.224583363160491">
        <ele>24.649999999999999</ele>
      </trkpt>
      <trkpt lat="45.060755470767617" lon="10.224091848358512">
        <ele>26.57</ele>
      </trkpt>
      <trkpt lat="45.060363030061126" lon="10.223890263587236">
        <ele>27.050000000000001</ele>
      </trkpt>
      <trkpt lat="45.057216044515371" lon="10.223446357995272">
        <ele>27.050000000000001</ele>
      </trkpt>
      <trkpt lat="45.057035917416215" lon="10.223273104056716">
        <ele>27.530000000000001</ele>
      </trkpt>
      <trkpt lat="45.056754872202873" lon="10.222599366679788">
        <ele>28.98</ele>
      </trkpt>
      <trkpt lat="45.055985329672694" lon="10.221296902745962">
        <ele>29.940000000000001</ele>
      </trkpt>
      <trkpt lat="45.055664302781224" lon="10.220552757382393">
        <ele>29.940000000000001</ele>
      </trkpt>
      <trkpt lat="45.055187037214637" lon="10.218620477244258">
        <ele>30.899999999999999</ele>
      </trkpt>
      <trkpt lat="45.05434432066977" lon="10.216696411371231">
        <ele>30.899999999999999</ele>
      </trkpt>
      <trkpt lat="45.054039219394326" lon="10.215293867513537">
        <ele>30.899999999999999</ele>
      </trkpt>
      <trkpt lat="45.053687514737248" lon="10.214569754898548">
        <ele>31.379999999999999</ele>
      </trkpt>
      <trkpt lat="45.053163897246122" lon="10.213702479377389">
        <ele>30.420000000000002</ele>
      </trkpt>
      <trkpt lat="45.053076390177011" lon="10.213432414457202">
        <ele>29.940000000000001</ele>
      </trkpt>
      <trkpt lat="45.053055351600051" lon="10.212563211098313">
        <ele>29.940000000000001</ele>
      </trkpt>
      <trkpt lat="45.052998019382358" lon="10.212325165048242">
        <ele>29.940000000000001</ele>
      </trkpt>
      <trkpt lat="45.052842199802399" lon="10.212099105119705">
        <ele>30.420000000000002</ele>
      </trkpt>
      <trkpt lat="45.052282707765698" lon="10.211910763755441">
        <ele>29.940000000000001</ele>
      </trkpt>
      <trkpt lat="45.052110040560365" lon="10.211722254753113">
        <ele>29.460000000000001</ele>
      </trkpt>
      <trkpt lat="45.05173847079277" lon="10.211009625345469">
        <ele>29.460000000000001</ele>
      </trkpt>
      <trkpt lat="45.051276879385114" lon="10.210410235449672">
        <ele>28.98</ele>
      </trkpt>
      <trkpt lat="45.051034390926361" lon="10.209960462525487">
        <ele>28.5</ele>
      </trkpt>
      <trkpt lat="45.050893491134048" lon="10.20939719863236">
        <ele>28.98</ele>
      </trkpt>
      <trkpt lat="45.051212925463915" lon="10.208098674193025">
        <ele>29.460000000000001</ele>
      </trkpt>
      <trkpt lat="45.051488522440195" lon="10.205835560336709">
        <ele>28.02</ele>
      </trkpt>
      <trkpt lat="45.051547698676586" lon="10.204949844628572">
        <ele>28.02</ele>
      </trkpt>
      <trkpt lat="45.051487097516656" lon="10.203811917454004">
        <ele>28.02</ele>
      </trkpt>
      <trkpt lat="45.051641324535012" lon="10.202366374433041">
        <ele>28.02</ele>
      </trkpt>
      <trkpt lat="45.05164903588593" lon="10.201529106125236">
        <ele>27.530000000000001</ele>
      </trkpt>
      <trkpt lat="45.05150780081749" lon="10.200361926108599">
        <ele>28.02</ele>
      </trkpt>
      <trkpt lat="45.050566764548421" lon="10.197458770126104">
        <ele>28.98</ele>
      </trkpt>
      <trkpt lat="45.050562489777803" lon="10.197157943621278">
        <ele>28.98</ele>
      </trkpt>
      <trkpt lat="45.050691990181804" lon="10.196362836286426">
        <ele>28.5</ele>
      </trkpt>
      <trkpt lat="45.050532231107354" lon="10.196164771914482">
        <ele>28.5</ele>
      </trkpt>
      <trkpt lat="45.049830246716738" lon="10.195703767240047">
        <ele>28.02</ele>
      </trkpt>
      <trkpt lat="45.049164807423949" lon="10.195108987390995">
        <ele>27.530000000000001</ele>
      </trkpt>
      <trkpt lat="45.049038240686059" lon="10.194923831149936">
        <ele>28.02</ele>
      </trkpt>
      <trkpt lat="45.048932796344161" lon="10.194130567833781">
        <ele>28.98</ele>
      </trkpt>
      <trkpt lat="45.048840679228306" lon="10.193893192335963">
        <ele>28.98</ele>
      </trkpt>
      <trkpt lat="45.048680668696761" lon="10.19374156370759">
        <ele>28.98</ele>
      </trkpt>
      <trkpt lat="45.048490986227989" lon="10.193699821829796">
        <ele>28.98</ele>
      </trkpt>
      <trkpt lat="45.047922190278769" lon="10.193733097985387">
        <ele>28.5</ele>
      </trkpt>
      <trkpt lat="45.047182152047753" lon="10.193377286195755">
        <ele>28.98</ele>
      </trkpt>
      <trkpt lat="45.046354858204722" lon="10.193235380575061">
        <ele>28.98</ele>
      </trkpt>
      <trkpt lat="45.045482134446502" lon="10.19247648306191">
        <ele>29.460000000000001</ele>
      </trkpt>
      <trkpt lat="45.044324928894639" lon="10.191334616392851">
        <ele>30.420000000000002</ele>
      </trkpt>
      <trkpt lat="45.042989691719413" lon="10.190351251512766">
        <ele>20.809999999999999</ele>
      </trkpt>
      <trkpt lat="45.042199781164527" lon="10.19002896733582">
        <ele>21.77</ele>
      </trkpt>
      <trkpt lat="45.041949665173888" lon="10.189634598791599">
        <ele>21.289999999999999</ele>
      </trkpt>
      <trkpt lat="45.041706170886755" lon="10.188889699056745">
        <ele>21.289999999999999</ele>
      </trkpt>
      <trkpt lat="45.041636181995273" lon="10.18780617043376">
        <ele>22.25</ele>
      </trkpt>
      <trkpt lat="45.041230414062738" lon="10.185480443760753">
        <ele>23.690000000000001</ele>
      </trkpt>
      <trkpt lat="45.041050538420677" lon="10.185600807890296">
        <ele>23.210000000000001</ele>
      </trkpt>
      <trkpt lat="45.041404841467738" lon="10.185259999707341">
        <ele>25.129999999999999</ele>
      </trkpt>
      <trkpt lat="45.041716229170561" lon="10.184533121064305">
        <ele>24.170000000000002</ele>
      </trkpt>
      <trkpt lat="45.042318301275373" lon="10.183721417561173">
        <ele>23.210000000000001</ele>
      </trkpt>
      <trkpt lat="45.042872177436948" lon="10.183397457003593">
        <ele>22.73</ele>
      </trkpt>
      <trkpt lat="45.044752154499292" lon="10.182593213394284">
        <ele>18.399999999999999</ele>
      </trkpt>
      <trkpt lat="45.044917864724994" lon="10.182432029396296">
        <ele>18.879999999999999</ele>
      </trkpt>
      <trkpt lat="45.044945441186428" lon="10.182160288095474">
        <ele>19.84</ele>
      </trkpt>
      <trkpt lat="45.045063206925988" lon="10.181946884840727">
        <ele>20.809999999999999</ele>
      </trkpt>
      <trkpt lat="45.045663937926292" lon="10.18124045804143">
        <ele>22.73</ele>
      </trkpt>
      <trkpt lat="45.047741141170263" lon="10.179590815678239">
        <ele>23.690000000000001</ele>
      </trkpt>
      <trkpt lat="45.048459721729159" lon="10.179090667515993">
        <ele>24.170000000000002</ele>
      </trkpt>
      <trkpt lat="45.053284680470824" lon="10.1774359960109">
        <ele>22.25</ele>
      </trkpt>
      <trkpt lat="45.0542685482651" lon="10.177030898630619">
        <ele>25.129999999999999</ele>
      </trkpt>
      <trkpt lat="45.054635424166918" lon="10.176955126225948">
        <ele>24.649999999999999</ele>
      </trkpt>
      <trkpt lat="45.056079290807247" lon="10.177038442343473">
        <ele>24.649999999999999</ele>
      </trkpt>
      <trkpt lat="45.057326350361109" lon="10.17722250893712">
        <ele>28.02</ele>
      </trkpt>
      <trkpt lat="45.058090696111321" lon="10.177171882241964">
        <ele>28.5</ele>
      </trkpt>
      <trkpt lat="45.058495374396443" lon="10.177220413461328">
        <ele>28.5</ele>
      </trkpt>
      <trkpt lat="45.058400826528668" lon="10.176907014101744">
        <ele>28.5</ele>
      </trkpt>
      <trkpt lat="45.058364784345031" lon="10.175468763336539">
        <ele>28.5</ele>
      </trkpt>
      <trkpt lat="45.059909485280514" lon="10.173097103834152">
        <ele>29.460000000000001</ele>
      </trkpt>
      <trkpt lat="45.060421116650105" lon="10.171222910284996">
        <ele>28.98</ele>
      </trkpt>
      <trkpt lat="45.060519268736243" lon="10.170960808172822">
        <ele>28.98</ele>
      </trkpt>
      <trkpt lat="45.060801152139902" lon="10.170546490699053">
        <ele>26.57</ele>
      </trkpt>
      <trkpt lat="45.060827303677797" lon="10.169663960114121">
        <ele>26.09</ele>
      </trkpt>
      <trkpt lat="45.061056381091475" lon="10.168612534180284">
        <ele>25.609999999999999</ele>
      </trkpt>
      <trkpt lat="45.060931742191315" lon="10.166417313739657">
        <ele>25.609999999999999</ele>
      </trkpt>
      <trkpt lat="45.060987649485469" lon="10.166133586317301">
        <ele>26.09</ele>
      </trkpt>
      <trkpt lat="45.061570024117827" lon="10.165810715407133">
        <ele>26.09</ele>
      </trkpt>
      <trkpt lat="45.061711762100458" lon="10.165577027946711">
        <ele>25.609999999999999</ele>
      </trkpt>
      <trkpt lat="45.062288856133819" lon="10.162068028002977">
        <ele>27.530000000000001</ele>
      </trkpt>
      <trkpt lat="45.064073447138071" lon="10.160324005410075">
        <ele>29.940000000000001</ele>
      </trkpt>
      <trkpt lat="45.064189536496997" lon="10.160099873319268">
        <ele>29.940000000000001</ele>
      </trkpt>
      <trkpt lat="45.06492261774838" lon="10.157683035358787">
        <ele>28.98</ele>
      </trkpt>
      <trkpt lat="45.065363086760044" lon="10.15708900988102">
        <ele>29.940000000000001</ele>
      </trkpt>
      <trkpt lat="45.065738512203097" lon="10.156148644164205">
        <ele>29.460000000000001</ele>
      </trkpt>
      <trkpt lat="45.066269254311919" lon="10.155272651463747">
        <ele>29.460000000000001</ele>
      </trkpt>
      <trkpt lat="45.066650882363319" lon="10.154508640989661">
        <ele>30.420000000000002</ele>
      </trkpt>
      <trkpt lat="45.06678381934762" lon="10.154323233291507">
        <ele>30.420000000000002</ele>
      </trkpt>
      <trkpt lat="45.067417994141579" lon="10.153743959963322">
        <ele>29.940000000000001</ele>
      </trkpt>
      <trkpt lat="45.067789647728205" lon="10.153113892301917">
        <ele>29.940000000000001</ele>
      </trkpt>
      <trkpt lat="45.067893667146564" lon="10.152856986969709">
        <ele>29.460000000000001</ele>
      </trkpt>
      <trkpt lat="45.067765256389976" lon="10.151715455576777">
        <ele>28.5</ele>
      </trkpt>
      <trkpt lat="45.068518621847034" lon="10.149870431050658">
        <ele>30.420000000000002</ele>
      </trkpt>
      <trkpt lat="45.068813413381577" lon="10.14863770455122">
        <ele>29.460000000000001</ele>
      </trkpt>
      <trkpt lat="45.068906620144844" lon="10.147479912266135">
        <ele>28.98</ele>
      </trkpt>
      <trkpt lat="45.068736551329494" lon="10.146706430241466">
        <ele>28.98</ele>
      </trkpt>
      <trkpt lat="45.068763541057706" lon="10.146424630656838">
        <ele>29.460000000000001</ele>
      </trkpt>
      <trkpt lat="45.068994462490082" lon="10.145896738395095">
        <ele>29.940000000000001</ele>
      </trkpt>
      <trkpt lat="45.069034779444337" lon="10.145648466423154">
        <ele>29.460000000000001</ele>
      </trkpt>
      <trkpt lat="45.069108288735151" lon="10.144180208444595">
        <ele>29.460000000000001</ele>
      </trkpt>
      <trkpt lat="45.069218343123794" lon="10.143928583711386">
        <ele>29.460000000000001</ele>
      </trkpt>
      <trkpt lat="45.069785714149475" lon="10.143496748059988">
        <ele>29.940000000000001</ele>
      </trkpt>
      <trkpt lat="45.069951927289367" lon="10.143281416967511">
        <ele>30.420000000000002</ele>
      </trkpt>
      <trkpt lat="45.070282593369484" lon="10.142650762572885">
        <ele>29.940000000000001</ele>
      </trkpt>
      <trkpt lat="45.070284018293023" lon="10.142395449802279">
        <ele>29.460000000000001</ele>
      </trkpt>
      <trkpt lat="45.070184273645282" lon="10.142176263034344">
        <ele>29.460000000000001</ele>
      </trkpt>
      <trkpt lat="45.070167258381844" lon="10.141931930556893">
        <ele>29.460000000000001</ele>
      </trkpt>
      <trkpt lat="45.070225261151791" lon="10.141652226448059">
        <ele>29.940000000000001</ele>
      </trkpt>
      <trkpt lat="45.070188883692026" lon="10.141383167356253">
        <ele>29.940000000000001</ele>
      </trkpt>
      <trkpt lat="45.069730142131448" lon="10.140400808304548">
        <ele>30.420000000000002</ele>
      </trkpt>
      <trkpt lat="45.069462507963181" lon="10.13963470235467">
        <ele>30.899999999999999</ele>
      </trkpt>
      <trkpt lat="45.069417916238308" lon="10.139358434826136">
        <ele>30.420000000000002</ele>
      </trkpt>
      <trkpt lat="45.069545656442642" lon="10.137015776708722">
        <ele>29.940000000000001</ele>
      </trkpt>
      <trkpt lat="45.070006912574172" lon="10.135233448818326">
        <ele>29.940000000000001</ele>
      </trkpt>
      <trkpt lat="45.070027783513069" lon="10.134388972073793">
        <ele>29.460000000000001</ele>
      </trkpt>
      <trkpt lat="45.070437910035253" lon="10.133412899449468">
        <ele>30.899999999999999</ele>
      </trkpt>
      <trkpt lat="45.070658102631569" lon="10.132622318342328">
        <ele>30.420000000000002</ele>
      </trkpt>
      <trkpt lat="45.071646412834525" lon="10.128351990133524">
        <ele>29.940000000000001</ele>
      </trkpt>
      <trkpt lat="45.07216508500278" lon="10.126417363062501">
        <ele>28.98</ele>
      </trkpt>
      <trkpt lat="45.072259297594428" lon="10.123680084943771">
        <ele>27.530000000000001</ele>
      </trkpt>
      <trkpt lat="45.071666780859232" lon="10.121292332187295">
        <ele>30.899999999999999</ele>
      </trkpt>
      <trkpt lat="45.071847410872579" lon="10.119874030351639">
        <ele>29.460000000000001</ele>
      </trkpt>
      <trkpt lat="45.071714976802468" lon="10.119380336254835">
        <ele>29.460000000000001</ele>
      </trkpt>
      <trkpt lat="45.071266880258918" lon="10.118509707972407">
        <ele>30.899999999999999</ele>
      </trkpt>
      <trkpt lat="45.071244668215513" lon="10.118235871195793">
        <ele>30.420000000000002</ele>
      </trkpt>
      <trkpt lat="45.071344161406159" lon="10.117125604301691">
        <ele>28.98</ele>
      </trkpt>
      <trkpt lat="45.071099242195487" lon="10.116062611341476">
        <ele>29.460000000000001</ele>
      </trkpt>
      <trkpt lat="45.070989606902003" lon="10.11498293839395">
        <ele>28.98</ele>
      </trkpt>
      <trkpt lat="45.070883324369788" lon="10.114761320874095">
        <ele>29.940000000000001</ele>
      </trkpt>
      <trkpt lat="45.070570930838585" lon="10.114402156323195">
        <ele>30.420000000000002</ele>
      </trkpt>
      <trkpt lat="45.06901734508574" lon="10.113041270524263">
        <ele>30.420000000000002</ele>
      </trkpt>
      <trkpt lat="45.068692546337843" lon="10.112287402153015">
        <ele>30.899999999999999</ele>
      </trkpt>
      <trkpt lat="45.067962482571602" lon="10.110912099480629">
        <ele>30.420000000000002</ele>
      </trkpt>
      <trkpt lat="45.067932140082121" lon="10.110639855265617">
        <ele>30.420000000000002</ele>
      </trkpt>
      <trkpt lat="45.068545527756214" lon="10.106921810656786">
        <ele>29.940000000000001</ele>
      </trkpt>
      <trkpt lat="45.069254385307431" lon="10.104947704821825">
        <ele>29.940000000000001</ele>
      </trkpt>
      <trkpt lat="45.069472482427955" lon="10.104190483689308">
        <ele>30.420000000000002</ele>
      </trkpt>
      <trkpt lat="45.069560408592224" lon="10.103629985824227">
        <ele>30.420000000000002</ele>
      </trkpt>
      <trkpt lat="45.069549260661006" lon="10.101354215294123">
        <ele>29.460000000000001</ele>
      </trkpt>
      <trkpt lat="45.06983382627368" lon="10.099959131330252">
        <ele>29.460000000000001</ele>
      </trkpt>
      <trkpt lat="45.069883363321424" lon="10.097897434607148">
        <ele>29.460000000000001</ele>
      </trkpt>
      <trkpt lat="45.069706924259663" lon="10.095539018511772">
        <ele>30.420000000000002</ele>
      </trkpt>
      <trkpt lat="45.06957096979022" lon="10.09500190615654">
        <ele>30.420000000000002</ele>
      </trkpt>
      <trkpt lat="45.069602150470018" lon="10.094691943377256">
        <ele>30.420000000000002</ele>
      </trkpt>
      <trkpt lat="45.069895181804895" lon="10.094009069725871">
        <ele>30.420000000000002</ele>
      </trkpt>
      <trkpt lat="45.069804321974516" lon="10.09286125190556">
        <ele>30.420000000000002</ele>
      </trkpt>
      <trkpt lat="45.06985142827034" lon="10.092252139002085">
        <ele>30.420000000000002</ele>
      </trkpt>
      <trkpt lat="45.070768408477306" lon="10.088250869885087">
        <ele>28.98</ele>
      </trkpt>
      <trkpt lat="45.07086873985827" lon="10.087424414232373">
        <ele>28.5</ele>
      </trkpt>
      <trkpt lat="45.071050208061934" lon="10.084322690963745">
        <ele>29.940000000000001</ele>
      </trkpt>
      <trkpt lat="45.071322452276945" lon="10.082748485729098">
        <ele>29.940000000000001</ele>
      </trkpt>
      <trkpt lat="45.070222159847617" lon="10.081898141652346">
        <ele>31.379999999999999</ele>
      </trkpt>
      <trkpt lat="45.06988663226366" lon="10.081525649875402">
        <ele>31.859999999999999</ele>
      </trkpt>
      <trkpt lat="45.069144582375884" lon="10.079689342528582">
        <ele>30.420000000000002</ele>
      </trkpt>
      <trkpt lat="45.068688690662384" lon="10.079609462991357">
        <ele>31.859999999999999</ele>
      </trkpt>
      <trkpt lat="45.068297758698463" lon="10.079628406092525">
        <ele>31.859999999999999</ele>
      </trkpt>
      <trkpt lat="45.06772099994123" lon="10.079804509878159">
        <ele>32.340000000000003</ele>
      </trkpt>
      <trkpt lat="45.067322608083487" lon="10.07985639385879">
        <ele>32.340000000000003</ele>
      </trkpt>
      <trkpt lat="45.066177388653159" lon="10.079795122146606">
        <ele>31.859999999999999</ele>
      </trkpt>
      <trkpt lat="45.065984101966023" lon="10.079699819907546">
        <ele>31.859999999999999</ele>
      </trkpt>
      <trkpt lat="45.06760616786778" lon="10.063554681837559">
        <ele>31.379999999999999</ele>
      </trkpt>
      <trkpt lat="45.067967008799314" lon="10.05911068059504">
        <ele>31.859999999999999</ele>
      </trkpt>
      <trkpt lat="45.06801076233387" lon="10.058859223499894">
        <ele>32.340000000000003</ele>
      </trkpt>
      <trkpt lat="45.068165240809321" lon="10.05875788629055">
        <ele>32.82</ele>
      </trkpt>
      <trkpt lat="45.068767229095101" lon="10.058758473023772">
        <ele>31.379999999999999</ele>
      </trkpt>
      <trkpt lat="45.068969987332821" lon="10.058692675083876">
        <ele>30.899999999999999</ele>
      </trkpt>
      <trkpt lat="45.069314148277044" lon="10.058405008167028">
        <ele>29.940000000000001</ele>
      </trkpt>
      <trkpt lat="45.06945563480258" lon="10.057913409546018">
        <ele>29.460000000000001</ele>
      </trkpt>
      <trkpt lat="45.069524869322777" lon="10.05703934468329">
        <ele>29.460000000000001</ele>
      </trkpt>
      <trkpt lat="45.069548254832625" lon="10.056151114404202">
        <ele>28.98</ele>
      </trkpt>
      <trkpt lat="45.069473404437304" lon="10.055334214121103">
        <ele>28.98</ele>
      </trkpt>
      <trkpt lat="45.068971496075392" lon="10.051780790090561">
        <ele>28.5</ele>
      </trkpt>
      <trkpt lat="45.06882137618959" lon="10.051255831494927">
        <ele>28.98</ele>
      </trkpt>
      <trkpt lat="45.068389121443033" lon="10.050340024754405">
        <ele>30.420000000000002</ele>
      </trkpt>
      <trkpt lat="45.068224249407649" lon="10.049807857722044">
        <ele>30.420000000000002</ele>
      </trkpt>
      <trkpt lat="45.068200025707483" lon="10.049526896327734">
        <ele>30.899999999999999</ele>
      </trkpt>
      <trkpt lat="45.068342015147209" lon="10.049313828349113">
        <ele>31.379999999999999</ele>
      </trkpt>
      <trkpt lat="45.06892011500895" lon="10.049152811989188">
        <ele>31.379999999999999</ele>
      </trkpt>
      <trkpt lat="45.069395285099745" lon="10.048181768506765">
        <ele>31.859999999999999</ele>
      </trkpt>
      <trkpt lat="45.070305727422237" lon="10.046923225745559">
        <ele>30.899999999999999</ele>
      </trkpt>
      <trkpt lat="45.070851054042578" lon="10.046422407031059">
        <ele>28.98</ele>
      </trkpt>
      <trkpt lat="45.071022296324372" lon="10.046350406482816">
        <ele>28.98</ele>
      </trkpt>
      <trkpt lat="45.071822851896286" lon="10.046486360952258">
        <ele>29.460000000000001</ele>
      </trkpt>
      <trkpt lat="45.07219978608191" lon="10.046366667374969">
        <ele>28.98</ele>
      </trkpt>
      <trkpt lat="45.073771392926574" lon="10.046315705403686">
        <ele>30.899999999999999</ele>
      </trkpt>
      <trkpt lat="45.075157759711146" lon="10.045774318277836">
        <ele>31.859999999999999</ele>
      </trkpt>
      <trkpt lat="45.075721023604274" lon="10.045445580035448">
        <ele>31.859999999999999</ele>
      </trkpt>
      <trkpt lat="45.076641272753477" lon="10.044664889574051">
        <ele>31.379999999999999</ele>
      </trkpt>
      <trkpt lat="45.077336886897683" lon="10.043978746980429">
        <ele>31.379999999999999</ele>
      </trkpt>
      <trkpt lat="45.079959416761994" lon="10.040966458618641">
        <ele>30.420000000000002</ele>
      </trkpt>
      <trkpt lat="45.081156436353922" lon="10.039972113445401">
        <ele>29.460000000000001</ele>
      </trkpt>
      <trkpt lat="45.083900839090347" lon="10.037857359275222">
        <ele>31.859999999999999</ele>
      </trkpt>
      <trkpt lat="45.08574653416872" lon="10.036887740716338">
        <ele>34.259999999999998</ele>
      </trkpt>
      <trkpt lat="45.087411850690842" lon="10.035888617858291">
        <ele>33.780000000000001</ele>
      </trkpt>
      <trkpt lat="45.088502001017332" lon="10.035105664283037">
        <ele>34.740000000000002</ele>
      </trkpt>
      <trkpt lat="45.089702792465687" lon="10.03460593521595">
        <ele>34.740000000000002</ele>
      </trkpt>
      <trkpt lat="45.090808449313045" lon="10.03394091501832">
        <ele>34.259999999999998</ele>
      </trkpt>
      <trkpt lat="45.092511819675565" lon="10.033115800470114">
        <ele>34.740000000000002</ele>
      </trkpt>
      <trkpt lat="45.092710554599762" lon="10.033046314492822">
        <ele>34.259999999999998</ele>
      </trkpt>
      <trkpt lat="45.09395794942975" lon="10.032947491854429">
        <ele>38.109999999999999</ele>
      </trkpt>
      <trkpt lat="45.094564547762275" lon="10.032804245129228">
        <ele>38.109999999999999</ele>
      </trkpt>
      <trkpt lat="45.095165949314833" lon="10.032615652307868">
        <ele>36.670000000000002</ele>
      </trkpt>
      <trkpt lat="45.095076095312834" lon="10.032408619299531">
        <ele>27.530000000000001</ele>
      </trkpt>
      <trkpt lat="45.095060504972935" lon="10.032466370612383">
        <ele>26.09</ele>
      </trkpt>
      <trkpt lat="45.094935027882457" lon="10.032465867698193">
        <ele>25.129999999999999</ele>
      </trkpt>
      <trkpt lat="45.094937710091472" lon="10.032541388645768">
        <ele>35.710000000000001</ele>
      </trkpt>
      <trkpt lat="45.094855567440391" lon="10.032526217401028">
        <ele>38.109999999999999</ele>
      </trkpt>
      <trkpt lat="45.095043908804655" lon="10.032563600689173">
        <ele>39.549999999999997</ele>
      </trkpt>
      <trkpt lat="45.095073496922851" lon="10.032397555187345">
        <ele>37.149999999999999</ele>
      </trkpt>
      <trkpt lat="45.095992907881737" lon="10.032918155193329">
        <ele>29.460000000000001</ele>
      </trkpt>
      <trkpt lat="45.096452319994569" lon="10.033404221758246">
        <ele>29.460000000000001</ele>
      </trkpt>
      <trkpt lat="45.096662370488048" lon="10.033883163705468">
        <ele>30.899999999999999</ele>
      </trkpt>
      <trkpt lat="45.097043076530099" lon="10.03513709641993">
        <ele>31.379999999999999</ele>
      </trkpt>
      <trkpt lat="45.097074927762151" lon="10.035040620714426">
        <ele>31.379999999999999</ele>
      </trkpt>
      <trkpt lat="45.097266202792525" lon="10.034962082281709">
        <ele>31.379999999999999</ele>
      </trkpt>
      <trkpt lat="45.099668791517615" lon="10.034624626860023">
        <ele>32.340000000000003</ele>
      </trkpt>
      <trkpt lat="45.100064165890217" lon="10.03443100489676">
        <ele>32.340000000000003</ele>
      </trkpt>
      <trkpt lat="45.102202640846372" lon="10.033083278685808">
        <ele>32.340000000000003</ele>
      </trkpt>
      <trkpt lat="45.102855255827308" lon="10.032125227153301">
        <ele>32.340000000000003</ele>
      </trkpt>
      <trkpt lat="45.103640053421259" lon="10.030777836218476">
        <ele>28.5</ele>
      </trkpt>
      <trkpt lat="45.104412529617548" lon="10.030266875401139">
        <ele>27.530000000000001</ele>
      </trkpt>
      <trkpt lat="45.104330386966467" lon="10.029369592666626">
        <ele>29.460000000000001</ele>
      </trkpt>
      <trkpt lat="45.104374811053276" lon="10.029094330966473">
        <ele>31.379999999999999</ele>
      </trkpt>
      <trkpt lat="45.104485033079982" lon="10.028866678476334">
        <ele>32.340000000000003</ele>
      </trkpt>
      <trkpt lat="45.10517586953938" lon="10.028339372947812">
        <ele>32.82</ele>
      </trkpt>
      <trkpt lat="45.105983633548021" lon="10.027948021888733">
        <ele>32.82</ele>
      </trkpt>
      <trkpt lat="45.108353700488806" lon="10.027983142063022">
        <ele>32.340000000000003</ele>
      </trkpt>
      <trkpt lat="45.108774388208985" lon="10.027884403243661">
        <ele>32.82</ele>
      </trkpt>
      <trkpt lat="45.110833905637264" lon="10.027170265093446">
        <ele>33.299999999999997</ele>
      </trkpt>
      <trkpt lat="45.110745644196868" lon="10.027225250378251">
        <ele>32.340000000000003</ele>
      </trkpt>
      <trkpt lat="45.112698459997773" lon="10.026160748675466">
        <ele>33.299999999999997</ele>
      </trkpt>
      <trkpt lat="45.114615736529231" lon="10.025532189756632">
        <ele>32.340000000000003</ele>
      </trkpt>
      <trkpt lat="45.115709155797958" lon="10.025089289993048">
        <ele>32.340000000000003</ele>
      </trkpt>
      <trkpt lat="45.115861790254712" lon="10.024936152622104">
        <ele>32.340000000000003</ele>
      </trkpt>
      <trkpt lat="45.116415750235319" lon="10.023514833301306">
        <ele>31.859999999999999</ele>
      </trkpt>
      <trkpt lat="45.116917574778199" lon="10.022594751790166">
        <ele>31.859999999999999</ele>
      </trkpt>
      <trkpt lat="45.118342498317361" lon="10.020883502438664">
        <ele>31.859999999999999</ele>
      </trkpt>
      <trkpt lat="45.11927573941648" lon="10.019469391554594">
        <ele>31.859999999999999</ele>
      </trkpt>
      <trkpt lat="45.12064534239471" lon="10.016285190358758">
        <ele>32.340000000000003</ele>
      </trkpt>
      <trkpt lat="45.121370377019048" lon="10.014958502724767">
        <ele>32.82</ele>
      </trkpt>
      <trkpt lat="45.122491288930178" lon="10.013125715777278">
        <ele>32.340000000000003</ele>
      </trkpt>
      <trkpt lat="45.122792115435004" lon="10.012419372797012">
        <ele>32.340000000000003</ele>
      </trkpt>
      <trkpt lat="45.124576622620225" lon="10.007142294198275">
        <ele>31.859999999999999</ele>
      </trkpt>
      <trkpt lat="45.124548962339759" lon="10.006905673071742">
        <ele>31.859999999999999</ele>
      </trkpt>
      <trkpt lat="45.123848738148808" lon="10.006146607920527">
        <ele>28.5</ele>
      </trkpt>
      <trkpt lat="45.123951751738787" lon="10.006191283464432">
        <ele>27.050000000000001</ele>
      </trkpt>
      <trkpt lat="45.123839182779193" lon="10.006148284301162">
        <ele>28.02</ele>
      </trkpt>
      <trkpt lat="45.123105179518461" lon="10.005357451736927">
        <ele>28.02</ele>
      </trkpt>
    </trkseg>
  </trk>

</gpx>
