<?xml version="1.0"?>
<gpx creator="GPS Visualizer http://www.gpsvisualizer.com/" version="1.1" xmlns="http://www.topografix.com/GPX/1/1" xmlns:xsi="http://www.w3.org/2001/XMLSchema-instance" xsi:schemaLocation="http://www.topografix.com/GPX/1/1 http://www.topografix.com/GPX/1/1/gpx.xsd">
<trk>
  <name>Firenze-Siena direct</name>
  <trkseg>
    <trkpt lat="43.764038086" lon="11.281671524">
      <ele>53.0</ele>
    </trkpt>
    <trkpt lat="43.764038086" lon="11.281499863">
      <ele>53.0</ele>
    </trkpt>
    <trkpt lat="43.763952255" lon="11.281414032">
      <ele>53.0</ele>
    </trkpt>
    <trkpt lat="43.763866425" lon="11.281371117">
      <ele>53.0</ele>
    </trkpt>
    <trkpt lat="43.763694763" lon="11.281499863">
      <ele>52.0</ele>
    </trkpt>
    <trkpt lat="43.763694763" lon="11.281628609">
      <ele>52.0</ele>
    </trkpt>
    <trkpt lat="43.763394356" lon="11.28180027">
      <ele>52.0</ele>
    </trkpt>
    <trkpt lat="43.762493134" lon="11.282658577">
      <ele>54.0</ele>
    </trkpt>
    <trkpt lat="43.762450218" lon="11.282529831">
      <ele>54.0</ele>
    </trkpt>
    <trkpt lat="43.762364388" lon="11.282572746">
      <ele>54.0</ele>
    </trkpt>
    <trkpt lat="43.762278557" lon="11.282830238">
      <ele>53.0</ele>
    </trkpt>
    <trkpt lat="43.762407303" lon="11.282916069">
      <ele>53.0</ele>
    </trkpt>
    <trkpt lat="43.762450218" lon="11.282873154">
      <ele>53.0</ele>
    </trkpt>
    <trkpt lat="43.763008118" lon="11.283345222">
      <ele>52.0</ele>
    </trkpt>
    <trkpt lat="43.762450218" lon="11.28991127">
      <ele>55.0</ele>
    </trkpt>
    <trkpt lat="43.762750626" lon="11.290898323">
      <ele>51.0</ele>
    </trkpt>
    <trkpt lat="43.762578964" lon="11.292829514">
      <ele>52.0</ele>
    </trkpt>
    <trkpt lat="43.762364388" lon="11.297893524">
      <ele>54.0</ele>
    </trkpt>
    <trkpt lat="43.762235641" lon="11.299395561">
      <ele>54.0</ele>
    </trkpt>
    <trkpt lat="43.762493134" lon="11.299352646">
      <ele>53.0</ele>
    </trkpt>
    <trkpt lat="43.762278557" lon="11.302099228">
      <ele>52.0</ele>
    </trkpt>
    <trkpt lat="43.762106895" lon="11.302828789">
      <ele>54.0</ele>
    </trkpt>
    <trkpt lat="43.761806488" lon="11.302957535">
      <ele>56.0</ele>
    </trkpt>
    <trkpt lat="43.760304451" lon="11.302142143">
      <ele>54.0</ele>
    </trkpt>
    <trkpt lat="43.760261536" lon="11.301412582">
      <ele>55.0</ele>
    </trkpt>
    <trkpt lat="43.760089874" lon="11.300811768">
      <ele>56.0</ele>
    </trkpt>
    <trkpt lat="43.760089874" lon="11.299953461">
      <ele>56.0</ele>
    </trkpt>
    <trkpt lat="43.758330345" lon="11.299309731">
      <ele>58.0</ele>
    </trkpt>
    <trkpt lat="43.757815361" lon="11.299309731">
      <ele>57.0</ele>
    </trkpt>
    <trkpt lat="43.756914139" lon="11.298880577">
      <ele>57.0</ele>
    </trkpt>
    <trkpt lat="43.756931322" lon="11.298785945">
      <ele>58.0</ele>
    </trkpt>
    <trkpt lat="43.756914139" lon="11.298880577">
      <ele>57.0</ele>
    </trkpt>
    <trkpt lat="43.756012917" lon="11.298408508">
      <ele>59.0</ele>
    </trkpt>
    <trkpt lat="43.755884171" lon="11.297979355">
      <ele>59.0</ele>
    </trkpt>
    <trkpt lat="43.755455017" lon="11.297764778">
      <ele>58.0</ele>
    </trkpt>
    <trkpt lat="43.755283356" lon="11.298494339">
      <ele>59.0</ele>
    </trkpt>
    <trkpt lat="43.755111694" lon="11.29858017">
      <ele>59.0</ele>
    </trkpt>
    <trkpt lat="43.75515461" lon="11.298751831">
      <ele>59.0</ele>
    </trkpt>
    <trkpt lat="43.75524044" lon="11.298794746">
      <ele>59.0</ele>
    </trkpt>
    <trkpt lat="43.755197525" lon="11.299052238">
      <ele>59.0</ele>
    </trkpt>
    <trkpt lat="43.754467964" lon="11.305360794">
      <ele>59.0</ele>
    </trkpt>
    <trkpt lat="43.754382133" lon="11.305532455">
      <ele>59.0</ele>
    </trkpt>
    <trkpt lat="43.754081726" lon="11.305618286">
      <ele>59.0</ele>
    </trkpt>
    <trkpt lat="43.753995895" lon="11.305875778">
      <ele>58.0</ele>
    </trkpt>
    <trkpt lat="43.754253387" lon="11.306219101">
      <ele>59.0</ele>
    </trkpt>
    <trkpt lat="43.754253387" lon="11.306648254">
      <ele>59.0</ele>
    </trkpt>
    <trkpt lat="43.753738403" lon="11.310982704">
      <ele>59.0</ele>
    </trkpt>
    <trkpt lat="43.753094673" lon="11.315703392">
      <ele>64.0</ele>
    </trkpt>
    <trkpt lat="43.75275135" lon="11.317591667">
      <ele>70.0</ele>
    </trkpt>
    <trkpt lat="43.75234047" lon="11.318964623">
      <ele>74.0</ele>
    </trkpt>
    <trkpt lat="43.752151122" lon="11.319909263">
      <ele>77.0</ele>
    </trkpt>
    <trkpt lat="43.751952639" lon="11.319843214">
      <ele>74.0</ele>
    </trkpt>
    <trkpt lat="43.751497418" lon="11.319696615">
      <ele>84.0</ele>
    </trkpt>
    <trkpt lat="43.75141955" lon="11.319370978">
      <ele>87.0</ele>
    </trkpt>
    <trkpt lat="43.751330953" lon="11.319189258">
      <ele>88.0</ele>
    </trkpt>
    <trkpt lat="43.751120567" lon="11.31913662">
      <ele>91.0</ele>
    </trkpt>
    <trkpt lat="43.75082016" lon="11.319608688">
      <ele>97.0</ele>
    </trkpt>
    <trkpt lat="43.750605583" lon="11.319565773">
      <ele>100.0</ele>
    </trkpt>
    <trkpt lat="43.750519753" lon="11.319437027">
      <ele>101.0</ele>
    </trkpt>
    <trkpt lat="43.750476837" lon="11.318922043">
      <ele>101.0</ele>
    </trkpt>
    <trkpt lat="43.750391006" lon="11.318836212">
      <ele>102.0</ele>
    </trkpt>
    <trkpt lat="43.75017643" lon="11.318964958">
      <ele>104.0</ele>
    </trkpt>
    <trkpt lat="43.750004768" lon="11.31922245">
      <ele>105.0</ele>
    </trkpt>
    <trkpt lat="43.749790192" lon="11.31922245">
      <ele>109.0</ele>
    </trkpt>
    <trkpt lat="43.74961853" lon="11.318922043">
      <ele>111.0</ele>
    </trkpt>
    <trkpt lat="43.749790192" lon="11.318407059">
      <ele>109.0</ele>
    </trkpt>
    <trkpt lat="43.749790192" lon="11.318235397">
      <ele>110.0</ele>
    </trkpt>
    <trkpt lat="43.749704361" lon="11.318106651">
      <ele>112.0</ele>
    </trkpt>
    <trkpt lat="43.748803139" lon="11.317548752">
      <ele>117.0</ele>
    </trkpt>
    <trkpt lat="43.748073578" lon="11.316862106">
      <ele>114.0</ele>
    </trkpt>
    <trkpt lat="43.74777317" lon="11.316304207">
      <ele>114.0</ele>
    </trkpt>
    <trkpt lat="43.747515678" lon="11.315746307">
      <ele>112.0</ele>
    </trkpt>
    <trkpt lat="43.745498657" lon="11.309523582">
      <ele>100.0</ele>
    </trkpt>
    <trkpt lat="43.74455452" lon="11.305317879">
      <ele>99.0</ele>
    </trkpt>
    <trkpt lat="43.744425774" lon="11.304931641">
      <ele>98.0</ele>
    </trkpt>
    <trkpt lat="43.743524551" lon="11.303300858">
      <ele>98.0</ele>
    </trkpt>
    <trkpt lat="43.743009567" lon="11.301841736">
      <ele>92.0</ele>
    </trkpt>
    <trkpt lat="43.74215126" lon="11.300039291">
      <ele>88.0</ele>
    </trkpt>
    <trkpt lat="43.740606308" lon="11.298451424">
      <ele>84.0</ele>
    </trkpt>
    <trkpt lat="43.740134239" lon="11.297721863">
      <ele>82.0</ele>
    </trkpt>
    <trkpt lat="43.739875993" lon="11.297180727">
      <ele>83.0</ele>
    </trkpt>
    <trkpt lat="43.739716737" lon="11.296637999">
      <ele>84.0</ele>
    </trkpt>
    <trkpt lat="43.740091324" lon="11.295833588">
      <ele>82.0</ele>
    </trkpt>
    <trkpt lat="43.740391731" lon="11.294503212">
      <ele>84.0</ele>
    </trkpt>
    <trkpt lat="43.740348816" lon="11.292786598">
      <ele>86.0</ele>
    </trkpt>
    <trkpt lat="43.73957634" lon="11.292872429">
      <ele>80.0</ele>
    </trkpt>
    <trkpt lat="43.738031387" lon="11.293344498">
      <ele>80.0</ele>
    </trkpt>
    <trkpt lat="43.737859726" lon="11.294202805">
      <ele>79.0</ele>
    </trkpt>
    <trkpt lat="43.737645149" lon="11.294674873">
      <ele>79.0</ele>
    </trkpt>
    <trkpt lat="43.737301826" lon="11.295232773">
      <ele>81.0</ele>
    </trkpt>
    <trkpt lat="43.735456467" lon="11.296520233">
      <ele>86.0</ele>
    </trkpt>
    <trkpt lat="43.734383583" lon="11.296863556">
      <ele>86.0</ele>
    </trkpt>
    <trkpt lat="43.733739853" lon="11.296949387">
      <ele>85.0</ele>
    </trkpt>
    <trkpt lat="43.729362488" lon="11.295661926">
      <ele>87.0</ele>
    </trkpt>
    <trkpt lat="43.728075027" lon="11.295189857">
      <ele>88.0</ele>
    </trkpt>
    <trkpt lat="43.726873398" lon="11.293430328">
      <ele>90.0</ele>
    </trkpt>
    <trkpt lat="43.726272583" lon="11.293001175">
      <ele>90.0</ele>
    </trkpt>
    <trkpt lat="43.725757599" lon="11.292743683">
      <ele>89.0</ele>
    </trkpt>
    <trkpt lat="43.725671768" lon="11.292743683">
      <ele>89.0</ele>
    </trkpt>
    <trkpt lat="43.725242615" lon="11.293087006">
      <ele>89.0</ele>
    </trkpt>
    <trkpt lat="43.724298477" lon="11.29304409">
      <ele>88.0</ele>
    </trkpt>
    <trkpt lat="43.723955154" lon="11.293387413">
      <ele>89.0</ele>
    </trkpt>
    <trkpt lat="43.723225594" lon="11.294589043">
      <ele>93.0</ele>
    </trkpt>
    <trkpt lat="43.722839355" lon="11.295061111">
      <ele>97.0</ele>
    </trkpt>
    <trkpt lat="43.722624779" lon="11.295232773">
      <ele>98.0</ele>
    </trkpt>
    <trkpt lat="43.721251488" lon="11.295833588">
      <ele>100.0</ele>
    </trkpt>
    <trkpt lat="43.721079826" lon="11.295619011">
      <ele>103.0</ele>
    </trkpt>
    <trkpt lat="43.721036911" lon="11.295404434">
      <ele>105.0</ele>
    </trkpt>
    <trkpt lat="43.721251488" lon="11.295146942">
      <ele>107.0</ele>
    </trkpt>
    <trkpt lat="43.722667694" lon="11.294760704">
      <ele>102.0</ele>
    </trkpt>
    <trkpt lat="43.72279644" lon="11.294631958">
      <ele>101.0</ele>
    </trkpt>
    <trkpt lat="43.722839355" lon="11.294417381">
      <ele>102.0</ele>
    </trkpt>
    <trkpt lat="43.72279644" lon="11.29424572">
      <ele>105.0</ele>
    </trkpt>
    <trkpt lat="43.722667694" lon="11.294074059">
      <ele>108.0</ele>
    </trkpt>
    <trkpt lat="43.722195625" lon="11.293988228">
      <ele>114.0</ele>
    </trkpt>
    <trkpt lat="43.721895218" lon="11.293773651">
      <ele>117.0</ele>
    </trkpt>
    <trkpt lat="43.721036911" lon="11.292572021">
      <ele>128.0</ele>
    </trkpt>
    <trkpt lat="43.720908165" lon="11.292314529">
      <ele>131.0</ele>
    </trkpt>
    <trkpt lat="43.72086525" lon="11.291842461">
      <ele>133.0</ele>
    </trkpt>
    <trkpt lat="43.721079826" lon="11.290984154">
      <ele>126.0</ele>
    </trkpt>
    <trkpt lat="43.72095108" lon="11.290597916">
      <ele>126.0</ele>
    </trkpt>
    <trkpt lat="43.720779419" lon="11.290426254">
      <ele>127.0</ele>
    </trkpt>
    <trkpt lat="43.720607758" lon="11.290426254">
      <ele>128.0</ele>
    </trkpt>
    <trkpt lat="43.719491959" lon="11.291542053">
      <ele>144.0</ele>
    </trkpt>
    <trkpt lat="43.719234467" lon="11.291627884">
      <ele>146.0</ele>
    </trkpt>
    <trkpt lat="43.717346191" lon="11.291627884">
      <ele>159.0</ele>
    </trkpt>
    <trkpt lat="43.716058731" lon="11.292014122">
      <ele>169.0</ele>
    </trkpt>
    <trkpt lat="43.715543747" lon="11.291799545">
      <ele>172.0</ele>
    </trkpt>
    <trkpt lat="43.715114594" lon="11.291542053">
      <ele>175.0</ele>
    </trkpt>
    <trkpt lat="43.713870049" lon="11.2911129">
      <ele>176.0</ele>
    </trkpt>
    <trkpt lat="43.712882996" lon="11.290340424">
      <ele>179.0</ele>
    </trkpt>
    <trkpt lat="43.712496758" lon="11.290297508">
      <ele>179.0</ele>
    </trkpt>
    <trkpt lat="43.710823059" lon="11.290683746">
      <ele>181.0</ele>
    </trkpt>
    <trkpt lat="43.710050583" lon="11.290383339">
      <ele>180.0</ele>
    </trkpt>
    <trkpt lat="43.709106445" lon="11.289696693">
      <ele>186.0</ele>
    </trkpt>
    <trkpt lat="43.708462715" lon="11.289353371">
      <ele>187.0</ele>
    </trkpt>
    <trkpt lat="43.707089424" lon="11.289525032">
      <ele>188.0</ele>
    </trkpt>
    <trkpt lat="43.706660271" lon="11.289739609">
      <ele>191.0</ele>
    </trkpt>
    <trkpt lat="43.704557419" lon="11.292314529">
      <ele>198.0</ele>
    </trkpt>
    <trkpt lat="43.703956604" lon="11.292872429">
      <ele>198.0</ele>
    </trkpt>
    <trkpt lat="43.703484535" lon="11.293172836">
      <ele>199.0</ele>
    </trkpt>
    <trkpt lat="43.702411652" lon="11.293172836">
      <ele>198.0</ele>
    </trkpt>
    <trkpt lat="43.700180054" lon="11.292915344">
      <ele>202.0</ele>
    </trkpt>
    <trkpt lat="43.699579239" lon="11.293001175">
      <ele>202.0</ele>
    </trkpt>
    <trkpt lat="43.69910717" lon="11.293172836">
      <ele>203.0</ele>
    </trkpt>
    <trkpt lat="43.699064255" lon="11.293258667">
      <ele>203.0</ele>
    </trkpt>
    <trkpt lat="43.698592186" lon="11.293344498">
      <ele>204.0</ele>
    </trkpt>
    <trkpt lat="43.697519302" lon="11.293387413">
      <ele>202.0</ele>
    </trkpt>
    <trkpt lat="43.696489334" lon="11.293215752">
      <ele>203.0</ele>
    </trkpt>
    <trkpt lat="43.695158958" lon="11.292829514">
      <ele>205.0</ele>
    </trkpt>
    <trkpt lat="43.69412899" lon="11.292872429">
      <ele>205.0</ele>
    </trkpt>
    <trkpt lat="43.693742752" lon="11.293430328">
      <ele>203.0</ele>
    </trkpt>
    <trkpt lat="43.693227768" lon="11.293773651">
      <ele>203.0</ele>
    </trkpt>
    <trkpt lat="43.693141937" lon="11.293945312">
      <ele>203.0</ele>
    </trkpt>
    <trkpt lat="43.693013191" lon="11.294760704">
      <ele>199.0</ele>
    </trkpt>
    <trkpt lat="43.692927361" lon="11.29488945">
      <ele>199.0</ele>
    </trkpt>
    <trkpt lat="43.692798615" lon="11.294932365">
      <ele>200.0</ele>
    </trkpt>
    <trkpt lat="43.692111969" lon="11.294760704">
      <ele>203.0</ele>
    </trkpt>
    <trkpt lat="43.691296577" lon="11.295275688">
      <ele>201.0</ele>
    </trkpt>
    <trkpt lat="43.689923286" lon="11.295919418">
      <ele>208.0</ele>
    </trkpt>
    <trkpt lat="43.689408302" lon="11.296005249">
      <ele>208.0</ele>
    </trkpt>
    <trkpt lat="43.688764572" lon="11.295919418">
      <ele>207.0</ele>
    </trkpt>
    <trkpt lat="43.688421249" lon="11.295962334">
      <ele>204.0</ele>
    </trkpt>
    <trkpt lat="43.68721962" lon="11.296262741">
      <ele>203.0</ele>
    </trkpt>
    <trkpt lat="43.686275482" lon="11.296305656">
      <ele>209.0</ele>
    </trkpt>
    <trkpt lat="43.685846329" lon="11.296219826">
      <ele>212.0</ele>
    </trkpt>
    <trkpt lat="43.68481636" lon="11.295490265">
      <ele>221.0</ele>
    </trkpt>
    <trkpt lat="43.684515953" lon="11.295061111">
      <ele>223.0</ele>
    </trkpt>
    <trkpt lat="43.68417263" lon="11.294159889">
      <ele>226.0</ele>
    </trkpt>
    <trkpt lat="43.683915138" lon="11.293859482">
      <ele>224.0</ele>
    </trkpt>
    <trkpt lat="43.682456017" lon="11.293215752">
      <ele>229.0</ele>
    </trkpt>
    <trkpt lat="43.680953979" lon="11.292829514">
      <ele>232.0</ele>
    </trkpt>
    <trkpt lat="43.677048683" lon="11.292829514">
      <ele>241.0</ele>
    </trkpt>
    <trkpt lat="43.67670536" lon="11.292743683">
      <ele>242.0</ele>
    </trkpt>
    <trkpt lat="43.67606163" lon="11.292357445">
      <ele>246.0</ele>
    </trkpt>
    <trkpt lat="43.675546646" lon="11.292142868">
      <ele>248.0</ele>
    </trkpt>
    <trkpt lat="43.672885895" lon="11.291885376">
      <ele>253.0</ele>
    </trkpt>
    <trkpt lat="43.671898842" lon="11.292185783">
      <ele>250.0</ele>
    </trkpt>
    <trkpt lat="43.67099762" lon="11.291971207">
      <ele>248.0</ele>
    </trkpt>
    <trkpt lat="43.669967651" lon="11.292099953">
      <ele>246.0</ele>
    </trkpt>
    <trkpt lat="43.667607307" lon="11.292572021">
      <ele>239.0</ele>
    </trkpt>
    <trkpt lat="43.666706085" lon="11.293001175">
      <ele>239.0</ele>
    </trkpt>
    <trkpt lat="43.665847778" lon="11.293301582">
      <ele>239.0</ele>
    </trkpt>
    <trkpt lat="43.664989471" lon="11.293387413">
      <ele>243.0</ele>
    </trkpt>
    <trkpt lat="43.663272858" lon="11.29424572">
      <ele>242.0</ele>
    </trkpt>
    <trkpt lat="43.662285805" lon="11.294460297">
      <ele>240.0</ele>
    </trkpt>
    <trkpt lat="43.660697937" lon="11.295361519">
      <ele>239.0</ele>
    </trkpt>
    <trkpt lat="43.660354614" lon="11.295104027">
      <ele>240.0</ele>
    </trkpt>
    <trkpt lat="43.659496307" lon="11.294717789">
      <ele>235.0</ele>
    </trkpt>
    <trkpt lat="43.659367561" lon="11.294717789">
      <ele>234.0</ele>
    </trkpt>
    <trkpt lat="43.658938408" lon="11.295018196">
      <ele>234.0</ele>
    </trkpt>
    <trkpt lat="43.658235921" lon="11.296046739">
      <ele>236.0</ele>
    </trkpt>
    <trkpt lat="43.658020003" lon="11.296461392">
      <ele>245.0</ele>
    </trkpt>
    <trkpt lat="43.658509254" lon="11.297550201">
      <ele>245.0</ele>
    </trkpt>
    <trkpt lat="43.656320572" lon="11.302442551">
      <ele>241.0</ele>
    </trkpt>
    <trkpt lat="43.655376434" lon="11.305575371">
      <ele>226.0</ele>
    </trkpt>
    <trkpt lat="43.654561043" lon="11.307249069">
      <ele>223.0</ele>
    </trkpt>
    <trkpt lat="43.65293026" lon="11.30797863">
      <ele>214.0</ele>
    </trkpt>
    <trkpt lat="43.652715683" lon="11.308150291">
      <ele>214.0</ele>
    </trkpt>
    <trkpt lat="43.652458191" lon="11.308193207">
      <ele>214.0</ele>
    </trkpt>
    <trkpt lat="43.652114868" lon="11.308107376">
      <ele>213.0</ele>
    </trkpt>
    <trkpt lat="43.651642799" lon="11.308794022">
      <ele>215.0</ele>
    </trkpt>
    <trkpt lat="43.651041985" lon="11.309437752">
      <ele>217.0</ele>
    </trkpt>
    <trkpt lat="43.650097847" lon="11.310338974">
      <ele>223.0</ele>
    </trkpt>
    <trkpt lat="43.649454117" lon="11.310811043">
      <ele>227.0</ele>
    </trkpt>
    <trkpt lat="43.647437096" lon="11.311326027">
      <ele>243.0</ele>
    </trkpt>
    <trkpt lat="43.646063805" lon="11.311798096">
      <ele>243.0</ele>
    </trkpt>
    <trkpt lat="43.645591736" lon="11.312055588">
      <ele>244.0</ele>
    </trkpt>
    <trkpt lat="43.642201424" lon="11.312656403">
      <ele>260.0</ele>
    </trkpt>
    <trkpt lat="43.641257286" lon="11.312870979">
      <ele>268.0</ele>
    </trkpt>
    <trkpt lat="43.640441895" lon="11.313300133">
      <ele>274.0</ele>
    </trkpt>
    <trkpt lat="43.639411926" lon="11.313428879">
      <ele>278.0</ele>
    </trkpt>
    <trkpt lat="43.638939857" lon="11.31360054">
      <ele>278.0</ele>
    </trkpt>
    <trkpt lat="43.638381958" lon="11.313900948">
      <ele>280.0</ele>
    </trkpt>
    <trkpt lat="43.637781143" lon="11.313986778">
      <ele>284.0</ele>
    </trkpt>
    <trkpt lat="43.637008667" lon="11.314029694">
      <ele>292.0</ele>
    </trkpt>
    <trkpt lat="43.636407852" lon="11.313686371">
      <ele>295.0</ele>
    </trkpt>
    <trkpt lat="43.635892868" lon="11.313514709">
      <ele>300.0</ele>
    </trkpt>
    <trkpt lat="43.635292053" lon="11.313428879">
      <ele>301.0</ele>
    </trkpt>
    <trkpt lat="43.634390831" lon="11.314029694">
      <ele>304.0</ele>
    </trkpt>
    <trkpt lat="43.634176254" lon="11.314029694">
      <ele>303.0</ele>
    </trkpt>
    <trkpt lat="43.633790016" lon="11.313772202">
      <ele>303.0</ele>
    </trkpt>
    <trkpt lat="43.633103371" lon="11.313858032">
      <ele>310.0</ele>
    </trkpt>
    <trkpt lat="43.632717133" lon="11.313772202">
      <ele>312.0</ele>
    </trkpt>
    <trkpt lat="43.631987572" lon="11.313300133">
      <ele>313.0</ele>
    </trkpt>
    <trkpt lat="43.631472588" lon="11.313128471">
      <ele>317.0</ele>
    </trkpt>
    <trkpt lat="43.631086349" lon="11.312699318">
      <ele>319.0</ele>
    </trkpt>
    <trkpt lat="43.630056381" lon="11.312184334">
      <ele>328.0</ele>
    </trkpt>
    <trkpt lat="43.629155159" lon="11.311540604">
      <ele>339.0</ele>
    </trkpt>
    <trkpt lat="43.628168106" lon="11.311368942">
      <ele>341.0</ele>
    </trkpt>
    <trkpt lat="43.627610207" lon="11.310853958">
      <ele>332.0</ele>
    </trkpt>
    <trkpt lat="43.627223969" lon="11.310124397">
      <ele>327.0</ele>
    </trkpt>
    <trkpt lat="43.627009392" lon="11.309952736">
      <ele>324.0</ele>
    </trkpt>
    <trkpt lat="43.623661995" lon="11.308579445">
      <ele>291.0</ele>
    </trkpt>
    <trkpt lat="43.622889519" lon="11.307764053">
      <ele>285.0</ele>
    </trkpt>
    <trkpt lat="43.622202873" lon="11.306219101">
      <ele>286.0</ele>
    </trkpt>
    <trkpt lat="43.621730804" lon="11.304674149">
      <ele>288.0</ele>
    </trkpt>
    <trkpt lat="43.620400429" lon="11.303601265">
      <ele>276.0</ele>
    </trkpt>
    <trkpt lat="43.620014191" lon="11.303172112">
      <ele>274.0</ele>
    </trkpt>
    <trkpt lat="43.618941307" lon="11.302528381">
      <ele>266.0</ele>
    </trkpt>
    <trkpt lat="43.618683815" lon="11.302270889">
      <ele>264.0</ele>
    </trkpt>
    <trkpt lat="43.617696762" lon="11.300811768">
      <ele>266.0</ele>
    </trkpt>
    <trkpt lat="43.616666794" lon="11.299824715">
      <ele>264.0</ele>
    </trkpt>
    <trkpt lat="43.61559391" lon="11.299438477">
      <ele>256.0</ele>
    </trkpt>
    <trkpt lat="43.614349365" lon="11.298880577">
      <ele>248.0</ele>
    </trkpt>
    <trkpt lat="43.614006042" lon="11.298623085">
      <ele>247.0</ele>
    </trkpt>
    <trkpt lat="43.61366272" lon="11.29802227">
      <ele>244.0</ele>
    </trkpt>
    <trkpt lat="43.613533974" lon="11.297850609">
      <ele>243.0</ele>
    </trkpt>
    <trkpt lat="43.613362312" lon="11.297764778">
      <ele>243.0</ele>
    </trkpt>
    <trkpt lat="43.613190651" lon="11.297807693">
      <ele>244.0</ele>
    </trkpt>
    <trkpt lat="43.61301899" lon="11.298108101">
      <ele>245.0</ele>
    </trkpt>
    <trkpt lat="43.613061905" lon="11.298408508">
      <ele>244.0</ele>
    </trkpt>
    <trkpt lat="43.613576889" lon="11.299352646">
      <ele>240.0</ele>
    </trkpt>
    <trkpt lat="43.61430645" lon="11.299953461">
      <ele>240.0</ele>
    </trkpt>
    <trkpt lat="43.61430645" lon="11.300210953">
      <ele>237.0</ele>
    </trkpt>
    <trkpt lat="43.614220619" lon="11.300296783">
      <ele>235.0</ele>
    </trkpt>
    <trkpt lat="43.614048958" lon="11.300253868">
      <ele>233.0</ele>
    </trkpt>
    <trkpt lat="43.612332344" lon="11.299309731">
      <ele>227.0</ele>
    </trkpt>
    <trkpt lat="43.612031937" lon="11.2992239">
      <ele>227.0</ele>
    </trkpt>
    <trkpt lat="43.61181736" lon="11.299266815">
      <ele>226.0</ele>
    </trkpt>
    <trkpt lat="43.611431122" lon="11.299524307">
      <ele>221.0</ele>
    </trkpt>
    <trkpt lat="43.611302376" lon="11.299524307">
      <ele>220.0</ele>
    </trkpt>
    <trkpt lat="43.611044884" lon="11.299395561">
      <ele>220.0</ele>
    </trkpt>
    <trkpt lat="43.610830307" lon="11.299395561">
      <ele>219.0</ele>
    </trkpt>
    <trkpt lat="43.610229492" lon="11.299781799">
      <ele>214.0</ele>
    </trkpt>
    <trkpt lat="43.609800339" lon="11.299910545">
      <ele>211.0</ele>
    </trkpt>
    <trkpt lat="43.609585762" lon="11.299910545">
      <ele>210.0</ele>
    </trkpt>
    <trkpt lat="43.609027863" lon="11.299695969">
      <ele>208.0</ele>
    </trkpt>
    <trkpt lat="43.60868454" lon="11.299653053">
      <ele>205.0</ele>
    </trkpt>
    <trkpt lat="43.60868454" lon="11.299910545">
      <ele>204.0</ele>
    </trkpt>
    <trkpt lat="43.608169556" lon="11.300983429">
      <ele>208.0</ele>
    </trkpt>
    <trkpt lat="43.607997894" lon="11.301584244">
      <ele>210.0</ele>
    </trkpt>
    <trkpt lat="43.607912064" lon="11.30235672">
      <ele>209.0</ele>
    </trkpt>
    <trkpt lat="43.60683918" lon="11.304459572">
      <ele>213.0</ele>
    </trkpt>
    <trkpt lat="43.60435009" lon="11.306605339">
      <ele>210.0</ele>
    </trkpt>
    <trkpt lat="43.604221344" lon="11.306905746">
      <ele>211.0</ele>
    </trkpt>
    <trkpt lat="43.604178429" lon="11.307249069">
      <ele>213.0</ele>
    </trkpt>
    <trkpt lat="43.604135513" lon="11.308450699">
      <ele>216.0</ele>
    </trkpt>
    <trkpt lat="43.60370636" lon="11.309223175">
      <ele>215.0</ele>
    </trkpt>
    <trkpt lat="43.601002693" lon="11.310768127">
      <ele>216.0</ele>
    </trkpt>
    <trkpt lat="43.597955704" lon="11.316175461">
      <ele>221.0</ele>
    </trkpt>
    <trkpt lat="43.596925735" lon="11.316905022">
      <ele>221.0</ele>
    </trkpt>
    <trkpt lat="43.596496582" lon="11.316947937">
      <ele>221.0</ele>
    </trkpt>
    <trkpt lat="43.595423698" lon="11.316690445">
      <ele>220.0</ele>
    </trkpt>
    <trkpt lat="43.594608307" lon="11.31664753">
      <ele>225.0</ele>
    </trkpt>
    <trkpt lat="43.593792915" lon="11.316132545">
      <ele>226.0</ele>
    </trkpt>
    <trkpt lat="43.592419624" lon="11.315402985">
      <ele>224.0</ele>
    </trkpt>
    <trkpt lat="43.591518402" lon="11.314716339">
      <ele>222.0</ele>
    </trkpt>
    <trkpt lat="43.591132164" lon="11.314544678">
      <ele>224.0</ele>
    </trkpt>
    <trkpt lat="43.590574265" lon="11.314415932">
      <ele>224.0</ele>
    </trkpt>
    <trkpt lat="43.587870598" lon="11.31480217">
      <ele>227.0</ele>
    </trkpt>
    <trkpt lat="43.5850811" lon="11.315317154">
      <ele>230.0</ele>
    </trkpt>
    <trkpt lat="43.58435154" lon="11.315574646">
      <ele>232.0</ele>
    </trkpt>
    <trkpt lat="43.584136963" lon="11.315789223">
      <ele>232.0</ele>
    </trkpt>
    <trkpt lat="43.583879471" lon="11.316218376">
      <ele>232.0</ele>
    </trkpt>
    <trkpt lat="43.583450317" lon="11.317205429">
      <ele>234.0</ele>
    </trkpt>
    <trkpt lat="43.582935333" lon="11.317720413">
      <ele>235.0</ele>
    </trkpt>
    <trkpt lat="43.582634926" lon="11.317763329">
      <ele>235.0</ele>
    </trkpt>
    <trkpt lat="43.582119942" lon="11.317977905">
      <ele>236.0</ele>
    </trkpt>
    <trkpt lat="43.581647873" lon="11.317892075">
      <ele>238.0</ele>
    </trkpt>
    <trkpt lat="43.581004143" lon="11.31793499">
      <ele>236.0</ele>
    </trkpt>
    <trkpt lat="43.58001709" lon="11.317033768">
      <ele>240.0</ele>
    </trkpt>
    <trkpt lat="43.578600883" lon="11.316561699">
      <ele>241.0</ele>
    </trkpt>
    <trkpt lat="43.578300476" lon="11.316561699">
      <ele>242.0</ele>
    </trkpt>
    <trkpt lat="43.577227592" lon="11.316947937">
      <ele>243.0</ele>
    </trkpt>
    <trkpt lat="43.575510979" lon="11.317763329">
      <ele>246.0</ele>
    </trkpt>
    <trkpt lat="43.570618629" lon="11.320252419">
      <ele>256.0</ele>
    </trkpt>
    <trkpt lat="43.569545746" lon="11.320552826">
      <ele>261.0</ele>
    </trkpt>
    <trkpt lat="43.569417" lon="11.320638657">
      <ele>263.0</ele>
    </trkpt>
    <trkpt lat="43.569030762" lon="11.321926117">
      <ele>265.0</ele>
    </trkpt>
    <trkpt lat="43.568730354" lon="11.322398186">
      <ele>269.0</ele>
    </trkpt>
    <trkpt lat="43.568472862" lon="11.322569847">
      <ele>273.0</ele>
    </trkpt>
    <trkpt lat="43.567357063" lon="11.322741508">
      <ele>278.0</ele>
    </trkpt>
    <trkpt lat="43.566498756" lon="11.322312355">
      <ele>287.0</ele>
    </trkpt>
    <trkpt lat="43.566069603" lon="11.32235527">
      <ele>287.0</ele>
    </trkpt>
    <trkpt lat="43.565039635" lon="11.322655678">
      <ele>292.0</ele>
    </trkpt>
    <trkpt lat="43.564395905" lon="11.323084831">
      <ele>296.0</ele>
    </trkpt>
    <trkpt lat="43.563666344" lon="11.323256493">
      <ele>304.0</ele>
    </trkpt>
    <trkpt lat="43.563065529" lon="11.323728561">
      <ele>303.0</ele>
    </trkpt>
    <trkpt lat="43.562464714" lon="11.323857307">
      <ele>309.0</ele>
    </trkpt>
    <trkpt lat="43.561906815" lon="11.32420063">
      <ele>312.0</ele>
    </trkpt>
    <trkpt lat="43.561263084" lon="11.324415207">
      <ele>314.0</ele>
    </trkpt>
    <trkpt lat="43.560833931" lon="11.324372292">
      <ele>317.0</ele>
    </trkpt>
    <trkpt lat="43.560233116" lon="11.323986053">
      <ele>318.0</ele>
    </trkpt>
    <trkpt lat="43.559632301" lon="11.323385239">
      <ele>323.0</ele>
    </trkpt>
    <trkpt lat="43.559160233" lon="11.322484016">
      <ele>333.0</ele>
    </trkpt>
    <trkpt lat="43.559031487" lon="11.322398186">
      <ele>335.0</ele>
    </trkpt>
    <trkpt lat="43.558773994" lon="11.322441101">
      <ele>337.0</ele>
    </trkpt>
    <trkpt lat="43.557443619" lon="11.32291317">
      <ele>342.0</ele>
    </trkpt>
    <trkpt lat="43.555555344" lon="11.324629784">
      <ele>352.0</ele>
    </trkpt>
    <trkpt lat="43.555212021" lon="11.324672699">
      <ele>355.0</ele>
    </trkpt>
    <trkpt lat="43.554739952" lon="11.324501038">
      <ele>363.0</ele>
    </trkpt>
    <trkpt lat="43.55448246" lon="11.324586868">
      <ele>366.0</ele>
    </trkpt>
    <trkpt lat="43.553795815" lon="11.325316429">
      <ele>359.0</ele>
    </trkpt>
    <trkpt lat="43.553624153" lon="11.32540226">
      <ele>358.0</ele>
    </trkpt>
    <trkpt lat="43.553409576" lon="11.325359344">
      <ele>360.0</ele>
    </trkpt>
    <trkpt lat="43.553195" lon="11.324543953">
      <ele>374.0</ele>
    </trkpt>
    <trkpt lat="43.553023338" lon="11.324243546">
      <ele>378.0</ele>
    </trkpt>
    <trkpt lat="43.552765846" lon="11.324157715">
      <ele>379.0</ele>
    </trkpt>
    <trkpt lat="43.551821709" lon="11.32420063">
      <ele>378.0</ele>
    </trkpt>
    <trkpt lat="43.551650047" lon="11.324157715">
      <ele>379.0</ele>
    </trkpt>
    <trkpt lat="43.55079174" lon="11.323771477">
      <ele>384.0</ele>
    </trkpt>
    <trkpt lat="43.550448418" lon="11.3235569">
      <ele>385.0</ele>
    </trkpt>
    <trkpt lat="43.550105095" lon="11.323084831">
      <ele>388.0</ele>
    </trkpt>
    <trkpt lat="43.549675941" lon="11.32291317">
      <ele>389.0</ele>
    </trkpt>
    <trkpt lat="43.546628952" lon="11.323642731">
      <ele>401.0</ele>
    </trkpt>
    <trkpt lat="43.54637146" lon="11.323771477">
      <ele>401.0</ele>
    </trkpt>
    <trkpt lat="43.546242714" lon="11.323943138">
      <ele>400.0</ele>
    </trkpt>
    <trkpt lat="43.545641899" lon="11.325960159">
      <ele>408.0</ele>
    </trkpt>
    <trkpt lat="43.544998169" lon="11.327033043">
      <ele>412.0</ele>
    </trkpt>
    <trkpt lat="43.544869423" lon="11.327118874">
      <ele>415.0</ele>
    </trkpt>
    <trkpt lat="43.544611931" lon="11.327161789">
      <ele>418.0</ele>
    </trkpt>
    <trkpt lat="43.544397354" lon="11.326904297">
      <ele>421.0</ele>
    </trkpt>
    <trkpt lat="43.544182777" lon="11.325616837">
      <ele>420.0</ele>
    </trkpt>
    <trkpt lat="43.544139862" lon="11.324801445">
      <ele>424.0</ele>
    </trkpt>
    <trkpt lat="43.544182777" lon="11.324543953">
      <ele>426.0</ele>
    </trkpt>
    <trkpt lat="43.5445261" lon="11.324028969">
      <ele>423.0</ele>
    </trkpt>
    <trkpt lat="43.544569016" lon="11.323599815">
      <ele>425.0</ele>
    </trkpt>
    <trkpt lat="43.544397354" lon="11.322827339">
      <ele>431.0</ele>
    </trkpt>
    <trkpt lat="43.544011116" lon="11.321797371">
      <ele>440.0</ele>
    </trkpt>
    <trkpt lat="43.544096947" lon="11.321411133">
      <ele>443.0</ele>
    </trkpt>
    <trkpt lat="43.544225693" lon="11.321325302">
      <ele>443.0</ele>
    </trkpt>
    <trkpt lat="43.546500206" lon="11.321196556">
      <ele>448.0</ele>
    </trkpt>
    <trkpt lat="43.547401428" lon="11.320810318">
      <ele>451.0</ele>
    </trkpt>
    <trkpt lat="43.547530174" lon="11.320595741">
      <ele>451.0</ele>
    </trkpt>
    <trkpt lat="43.54757309" lon="11.320338249">
      <ele>451.0</ele>
    </trkpt>
    <trkpt lat="43.547487259" lon="11.320123672">
      <ele>454.0</ele>
    </trkpt>
    <trkpt lat="43.546800613" lon="11.319522858">
      <ele>462.0</ele>
    </trkpt>
    <trkpt lat="43.546543121" lon="11.319093704">
      <ele>464.0</ele>
    </trkpt>
    <trkpt lat="43.546414375" lon="11.318020821">
      <ele>463.0</ele>
    </trkpt>
    <trkpt lat="43.546328545" lon="11.317892075">
      <ele>464.0</ele>
    </trkpt>
    <trkpt lat="43.546071053" lon="11.317763329">
      <ele>468.0</ele>
    </trkpt>
    <trkpt lat="43.545513153" lon="11.317677498">
      <ele>476.0</ele>
    </trkpt>
    <trkpt lat="43.545298576" lon="11.317591667">
      <ele>478.0</ele>
    </trkpt>
    <trkpt lat="43.545084" lon="11.317119598">
      <ele>478.0</ele>
    </trkpt>
    <trkpt lat="43.545041084" lon="11.316175461">
      <ele>475.0</ele>
    </trkpt>
    <trkpt lat="43.544912338" lon="11.316046715">
      <ele>475.0</ele>
    </trkpt>
    <trkpt lat="43.544611931" lon="11.31608963">
      <ele>475.0</ele>
    </trkpt>
    <trkpt lat="43.542809486" lon="11.31664753">
      <ele>473.0</ele>
    </trkpt>
    <trkpt lat="43.542637825" lon="11.31673336">
      <ele>472.0</ele>
    </trkpt>
    <trkpt lat="43.542294502" lon="11.317119598">
      <ele>473.0</ele>
    </trkpt>
    <trkpt lat="43.542079926" lon="11.317205429">
      <ele>472.0</ele>
    </trkpt>
    <trkpt lat="43.541822433" lon="11.317205429">
      <ele>469.0</ele>
    </trkpt>
    <trkpt lat="43.540792465" lon="11.316862106">
      <ele>456.0</ele>
    </trkpt>
    <trkpt lat="43.539934158" lon="11.317334175">
      <ele>457.0</ele>
    </trkpt>
    <trkpt lat="43.539633751" lon="11.31729126">
      <ele>456.0</ele>
    </trkpt>
    <trkpt lat="43.539247513" lon="11.317119598">
      <ele>451.0</ele>
    </trkpt>
    <trkpt lat="43.538990021" lon="11.317076683">
      <ele>450.0</ele>
    </trkpt>
    <trkpt lat="43.537659645" lon="11.316475868">
      <ele>446.0</ele>
    </trkpt>
    <trkpt lat="43.537101746" lon="11.315531731">
      <ele>439.0</ele>
    </trkpt>
    <trkpt lat="43.536672592" lon="11.315016747">
      <ele>439.0</ele>
    </trkpt>
    <trkpt lat="43.536200523" lon="11.314072609">
      <ele>432.0</ele>
    </trkpt>
    <trkpt lat="43.535385132" lon="11.312999725">
      <ele>433.0</ele>
    </trkpt>
    <trkpt lat="43.534526825" lon="11.311712265">
      <ele>430.0</ele>
    </trkpt>
    <trkpt lat="43.534312248" lon="11.310510635">
      <ele>421.0</ele>
    </trkpt>
    <trkpt lat="43.534097672" lon="11.310124397">
      <ele>420.0</ele>
    </trkpt>
    <trkpt lat="43.532681465" lon="11.308751106">
      <ele>420.0</ele>
    </trkpt>
    <trkpt lat="43.532338142" lon="11.307549477">
      <ele>415.0</ele>
    </trkpt>
    <trkpt lat="43.531823158" lon="11.306390762">
      <ele>419.0</ele>
    </trkpt>
    <trkpt lat="43.531823158" lon="11.304802895">
      <ele>409.0</ele>
    </trkpt>
    <trkpt lat="43.531651497" lon="11.304502487">
      <ele>407.0</ele>
    </trkpt>
    <trkpt lat="43.530964851" lon="11.303944588">
      <ele>404.0</ele>
    </trkpt>
    <trkpt lat="43.530750275" lon="11.303858757">
      <ele>403.0</ele>
    </trkpt>
    <trkpt lat="43.530278206" lon="11.303815842">
      <ele>400.0</ele>
    </trkpt>
    <trkpt lat="43.529419899" lon="11.303901672">
      <ele>398.0</ele>
    </trkpt>
    <trkpt lat="43.528776169" lon="11.303815842">
      <ele>393.0</ele>
    </trkpt>
    <trkpt lat="43.528218269" lon="11.303987503">
      <ele>394.0</ele>
    </trkpt>
    <trkpt lat="43.527832031" lon="11.303386688">
      <ele>387.0</ele>
    </trkpt>
    <trkpt lat="43.527231216" lon="11.30300045">
      <ele>383.0</ele>
    </trkpt>
    <trkpt lat="43.526759148" lon="11.302270889">
      <ele>377.0</ele>
    </trkpt>
    <trkpt lat="43.526630402" lon="11.301970482">
      <ele>376.0</ele>
    </trkpt>
    <trkpt lat="43.526587486" lon="11.301112175">
      <ele>373.0</ele>
    </trkpt>
    <trkpt lat="43.526244164" lon="11.300039291">
      <ele>367.0</ele>
    </trkpt>
    <trkpt lat="43.525986671" lon="11.299781799">
      <ele>365.0</ele>
    </trkpt>
    <trkpt lat="43.525385857" lon="11.299738884">
      <ele>364.0</ele>
    </trkpt>
    <trkpt lat="43.525128365" lon="11.299910545">
      <ele>364.0</ele>
    </trkpt>
    <trkpt lat="43.524870872" lon="11.300768852">
      <ele>361.0</ele>
    </trkpt>
    <trkpt lat="43.524870872" lon="11.301112175">
      <ele>359.0</ele>
    </trkpt>
    <trkpt lat="43.525557518" lon="11.302013397">
      <ele>364.0</ele>
    </trkpt>
    <trkpt lat="43.525600433" lon="11.302485466">
      <ele>363.0</ele>
    </trkpt>
    <trkpt lat="43.525428772" lon="11.302614212">
      <ele>361.0</ele>
    </trkpt>
    <trkpt lat="43.524184227" lon="11.301326752">
      <ele>346.0</ele>
    </trkpt>
    <trkpt lat="43.524141312" lon="11.301026344">
      <ele>346.0</ele>
    </trkpt>
    <trkpt lat="43.524227142" lon="11.300339699">
      <ele>349.0</ele>
    </trkpt>
    <trkpt lat="43.524141312" lon="11.300082207">
      <ele>347.0</ele>
    </trkpt>
    <trkpt lat="43.524012566" lon="11.299910545">
      <ele>345.0</ele>
    </trkpt>
    <trkpt lat="43.521952629" lon="11.298151016">
      <ele>328.0</ele>
    </trkpt>
    <trkpt lat="43.521094322" lon="11.297979355">
      <ele>315.0</ele>
    </trkpt>
    <trkpt lat="43.52083683" lon="11.297721863">
      <ele>315.0</ele>
    </trkpt>
    <trkpt lat="43.519635201" lon="11.295790672">
      <ele>298.0</ele>
    </trkpt>
    <trkpt lat="43.519678116" lon="11.295189857">
      <ele>296.0</ele>
    </trkpt>
    <trkpt lat="43.519849777" lon="11.29488945">
      <ele>297.0</ele>
    </trkpt>
    <trkpt lat="43.520364761" lon="11.294546127">
      <ele>292.0</ele>
    </trkpt>
    <trkpt lat="43.520793915" lon="11.294760704">
      <ele>297.0</ele>
    </trkpt>
    <trkpt lat="43.521437645" lon="11.294846535">
      <ele>294.0</ele>
    </trkpt>
    <trkpt lat="43.521566391" lon="11.294546127">
      <ele>287.0</ele>
    </trkpt>
    <trkpt lat="43.52139473" lon="11.294331551">
      <ele>284.0</ele>
    </trkpt>
    <trkpt lat="43.520107269" lon="11.293859482">
      <ele>279.0</ele>
    </trkpt>
    <trkpt lat="43.519978523" lon="11.293730736">
      <ele>277.0</ele>
    </trkpt>
    <trkpt lat="43.519978523" lon="11.293473244">
      <ele>274.0</ele>
    </trkpt>
    <trkpt lat="43.5201931" lon="11.29304409">
      <ele>270.0</ele>
    </trkpt>
    <trkpt lat="43.520064354" lon="11.291799545">
      <ele>278.0</ele>
    </trkpt>
    <trkpt lat="43.519721031" lon="11.291842461">
      <ele>278.0</ele>
    </trkpt>
    <trkpt lat="43.518733978" lon="11.292743683">
      <ele>274.0</ele>
    </trkpt>
    <trkpt lat="43.518476486" lon="11.29304409">
      <ele>274.0</ele>
    </trkpt>
    <trkpt lat="43.518218994" lon="11.29360199">
      <ele>272.0</ele>
    </trkpt>
    <trkpt lat="43.518047333" lon="11.293730736">
      <ele>272.0</ele>
    </trkpt>
    <trkpt lat="43.517832756" lon="11.293644905">
      <ele>273.0</ele>
    </trkpt>
    <trkpt lat="43.517532349" lon="11.293258667">
      <ele>276.0</ele>
    </trkpt>
    <trkpt lat="43.516802788" lon="11.292057037">
      <ele>277.0</ele>
    </trkpt>
    <trkpt lat="43.516244888" lon="11.292228699">
      <ele>282.0</ele>
    </trkpt>
    <trkpt lat="43.516073227" lon="11.292228699">
      <ele>285.0</ele>
    </trkpt>
    <trkpt lat="43.515944481" lon="11.292099953">
      <ele>286.0</ele>
    </trkpt>
    <trkpt lat="43.515644073" lon="11.291542053">
      <ele>285.0</ele>
    </trkpt>
    <trkpt lat="43.515343666" lon="11.291413307">
      <ele>287.0</ele>
    </trkpt>
    <trkpt lat="43.514227867" lon="11.291241646">
      <ele>295.0</ele>
    </trkpt>
    <trkpt lat="43.513627052" lon="11.290941238">
      <ele>293.0</ele>
    </trkpt>
    <trkpt lat="43.512554169" lon="11.291885376">
      <ele>310.0</ele>
    </trkpt>
    <trkpt lat="43.512382507" lon="11.291928291">
      <ele>312.0</ele>
    </trkpt>
    <trkpt lat="43.512253761" lon="11.291842461">
      <ele>313.0</ele>
    </trkpt>
    <trkpt lat="43.511481285" lon="11.290898323">
      <ele>312.0</ele>
    </trkpt>
    <trkpt lat="43.511009216" lon="11.290769577">
      <ele>318.0</ele>
    </trkpt>
    <trkpt lat="43.510537148" lon="11.290426254">
      <ele>319.0</ele>
    </trkpt>
    <trkpt lat="43.510365486" lon="11.290383339">
      <ele>320.0</ele>
    </trkpt>
    <trkpt lat="43.510279655" lon="11.290512085">
      <ele>322.0</ele>
    </trkpt>
    <trkpt lat="43.510279655" lon="11.290640831">
      <ele>323.0</ele>
    </trkpt>
    <trkpt lat="43.510537148" lon="11.291413307">
      <ele>329.0</ele>
    </trkpt>
    <trkpt lat="43.510751724" lon="11.292743683">
      <ele>337.0</ele>
    </trkpt>
    <trkpt lat="43.510708809" lon="11.292829514">
      <ele>339.0</ele>
    </trkpt>
    <trkpt lat="43.510580063" lon="11.292829514">
      <ele>341.0</ele>
    </trkpt>
    <trkpt lat="43.509979248" lon="11.292314529">
      <ele>344.0</ele>
    </trkpt>
    <trkpt lat="43.509893417" lon="11.292314529">
      <ele>345.0</ele>
    </trkpt>
    <trkpt lat="43.509335518" lon="11.292786598">
      <ele>356.0</ele>
    </trkpt>
    <trkpt lat="43.508992195" lon="11.292743683">
      <ele>361.0</ele>
    </trkpt>
    <trkpt lat="43.50830555" lon="11.292142868">
      <ele>361.0</ele>
    </trkpt>
    <trkpt lat="43.508005142" lon="11.292099953">
      <ele>362.0</ele>
    </trkpt>
    <trkpt lat="43.507575989" lon="11.292529106">
      <ele>376.0</ele>
    </trkpt>
    <trkpt lat="43.507447243" lon="11.292529106">
      <ele>377.0</ele>
    </trkpt>
    <trkpt lat="43.507018089" lon="11.292099953">
      <ele>370.0</ele>
    </trkpt>
    <trkpt lat="43.506803513" lon="11.292057037">
      <ele>371.0</ele>
    </trkpt>
    <trkpt lat="43.506631851" lon="11.292099953">
      <ele>374.0</ele>
    </trkpt>
    <trkpt lat="43.506245613" lon="11.292486191">
      <ele>384.0</ele>
    </trkpt>
    <trkpt lat="43.506031036" lon="11.292572021">
      <ele>385.0</ele>
    </trkpt>
    <trkpt lat="43.505215645" lon="11.292443275">
      <ele>383.0</ele>
    </trkpt>
    <trkpt lat="43.505001068" lon="11.292486191">
      <ele>385.0</ele>
    </trkpt>
    <trkpt lat="43.504915237" lon="11.292614937">
      <ele>385.0</ele>
    </trkpt>
    <trkpt lat="43.504872322" lon="11.293001175">
      <ele>391.0</ele>
    </trkpt>
    <trkpt lat="43.504400253" lon="11.293473244">
      <ele>390.0</ele>
    </trkpt>
    <trkpt lat="43.504056931" lon="11.294417381">
      <ele>400.0</ele>
    </trkpt>
    <trkpt lat="43.503456116" lon="11.295061111">
      <ele>399.0</ele>
    </trkpt>
    <trkpt lat="43.503370285" lon="11.295661926">
      <ele>404.0</ele>
    </trkpt>
    <trkpt lat="43.503456116" lon="11.296434402">
      <ele>413.0</ele>
    </trkpt>
    <trkpt lat="43.5034132" lon="11.296777725">
      <ele>414.0</ele>
    </trkpt>
    <trkpt lat="43.503241539" lon="11.297249794">
      <ele>414.0</ele>
    </trkpt>
    <trkpt lat="43.503198624" lon="11.297678947">
      <ele>417.0</ele>
    </trkpt>
    <trkpt lat="43.503241539" lon="11.298236847">
      <ele>424.0</ele>
    </trkpt>
    <trkpt lat="43.503155708" lon="11.298451424">
      <ele>425.0</ele>
    </trkpt>
    <trkpt lat="43.50276947" lon="11.298837662">
      <ele>423.0</ele>
    </trkpt>
    <trkpt lat="43.502511978" lon="11.299309731">
      <ele>427.0</ele>
    </trkpt>
    <trkpt lat="43.501868248" lon="11.299695969">
      <ele>430.0</ele>
    </trkpt>
    <trkpt lat="43.501825333" lon="11.29986763">
      <ele>434.0</ele>
    </trkpt>
    <trkpt lat="43.501310349" lon="11.299910545">
      <ele>432.0</ele>
    </trkpt>
    <trkpt lat="43.500752449" lon="11.300210953">
      <ele>437.0</ele>
    </trkpt>
    <trkpt lat="43.500108719" lon="11.300382614">
      <ele>442.0</ele>
    </trkpt>
    <trkpt lat="43.499379158" lon="11.300425529">
      <ele>446.0</ele>
    </trkpt>
    <trkpt lat="43.499035835" lon="11.300597191">
      <ele>451.0</ele>
    </trkpt>
    <trkpt lat="43.498306274" lon="11.301112175">
      <ele>456.0</ele>
    </trkpt>
    <trkpt lat="43.498005867" lon="11.301198006">
      <ele>462.0</ele>
    </trkpt>
    <trkpt lat="43.497834206" lon="11.30115509">
      <ele>464.0</ele>
    </trkpt>
    <trkpt lat="43.497619629" lon="11.300940514">
      <ele>465.0</ele>
    </trkpt>
    <trkpt lat="43.497576714" lon="11.300725937">
      <ele>466.0</ele>
    </trkpt>
    <trkpt lat="43.497662544" lon="11.300382614">
      <ele>467.0</ele>
    </trkpt>
    <trkpt lat="43.498005867" lon="11.300039291">
      <ele>463.0</ele>
    </trkpt>
    <trkpt lat="43.498563766" lon="11.298708916">
      <ele>464.0</ele>
    </trkpt>
    <trkpt lat="43.498649597" lon="11.298279762">
      <ele>465.0</ele>
    </trkpt>
    <trkpt lat="43.49834919" lon="11.29802227">
      <ele>462.0</ele>
    </trkpt>
    <trkpt lat="43.498177528" lon="11.29802227">
      <ele>462.0</ele>
    </trkpt>
    <trkpt lat="43.497877121" lon="11.298279762">
      <ele>467.0</ele>
    </trkpt>
    <trkpt lat="43.497533798" lon="11.298751831">
      <ele>473.0</ele>
    </trkpt>
    <trkpt lat="43.496975899" lon="11.2992239">
      <ele>482.0</ele>
    </trkpt>
    <trkpt lat="43.496460915" lon="11.299438477">
      <ele>487.0</ele>
    </trkpt>
    <trkpt lat="43.491697311" lon="11.300253868">
      <ele>521.0</ele>
    </trkpt>
    <trkpt lat="43.490967751" lon="11.300296783">
      <ele>519.0</ele>
    </trkpt>
    <trkpt lat="43.487362862" lon="11.2992239">
      <ele>527.0</ele>
    </trkpt>
    <trkpt lat="43.484358788" lon="11.298451424">
      <ele>537.0</ele>
    </trkpt>
    <trkpt lat="43.483715057" lon="11.298193932">
      <ele>541.0</ele>
    </trkpt>
    <trkpt lat="43.482298851" lon="11.297893524">
      <ele>546.0</ele>
    </trkpt>
    <trkpt lat="43.480410576" lon="11.297850609">
      <ele>551.0</ele>
    </trkpt>
    <trkpt lat="43.479423523" lon="11.29793644">
      <ele>556.0</ele>
    </trkpt>
    <trkpt lat="43.478479385" lon="11.297807693">
      <ele>568.0</ele>
    </trkpt>
    <trkpt lat="43.477964401" lon="11.297636032">
      <ele>573.0</ele>
    </trkpt>
    <trkpt lat="43.475775719" lon="11.296606064">
      <ele>562.0</ele>
    </trkpt>
    <trkpt lat="43.47530365" lon="11.296048164">
      <ele>556.0</ele>
    </trkpt>
    <trkpt lat="43.475131989" lon="11.295061111">
      <ele>554.0</ele>
    </trkpt>
    <trkpt lat="43.47530365" lon="11.293001175">
      <ele>547.0</ele>
    </trkpt>
    <trkpt lat="43.475475311" lon="11.292271614">
      <ele>546.0</ele>
    </trkpt>
    <trkpt lat="43.47594738" lon="11.291456223">
      <ele>544.0</ele>
    </trkpt>
    <trkpt lat="43.476376534" lon="11.29119873">
      <ele>547.0</ele>
    </trkpt>
    <trkpt lat="43.47650528" lon="11.290941238">
      <ele>545.0</ele>
    </trkpt>
    <trkpt lat="43.476161957" lon="11.289138794">
      <ele>539.0</ele>
    </trkpt>
    <trkpt lat="43.476033211" lon="11.288881302">
      <ele>541.0</ele>
    </trkpt>
    <trkpt lat="43.475861549" lon="11.288709641">
      <ele>544.0</ele>
    </trkpt>
    <trkpt lat="43.475260735" lon="11.288495064">
      <ele>547.0</ele>
    </trkpt>
    <trkpt lat="43.474960327" lon="11.288194656">
      <ele>549.0</ele>
    </trkpt>
    <trkpt lat="43.474788666" lon="11.287508011">
      <ele>556.0</ele>
    </trkpt>
    <trkpt lat="43.474617004" lon="11.286263466">
      <ele>560.0</ele>
    </trkpt>
    <trkpt lat="43.474488258" lon="11.285963058">
      <ele>559.0</ele>
    </trkpt>
    <trkpt lat="43.474359512" lon="11.285877228">
      <ele>557.0</ele>
    </trkpt>
    <trkpt lat="43.474144936" lon="11.286005974">
      <ele>555.0</ele>
    </trkpt>
    <trkpt lat="43.47401619" lon="11.286220551">
      <ele>558.0</ele>
    </trkpt>
    <trkpt lat="43.473758698" lon="11.287851334">
      <ele>560.0</ele>
    </trkpt>
    <trkpt lat="43.473587036" lon="11.288366318">
      <ele>563.0</ele>
    </trkpt>
    <trkpt lat="43.473372459" lon="11.288752556">
      <ele>566.0</ele>
    </trkpt>
    <trkpt lat="43.473243713" lon="11.288795471">
      <ele>566.0</ele>
    </trkpt>
    <trkpt lat="43.473072052" lon="11.288752556">
      <ele>565.0</ele>
    </trkpt>
    <trkpt lat="43.472943306" lon="11.288366318">
      <ele>564.0</ele>
    </trkpt>
    <trkpt lat="43.473114967" lon="11.287207603">
      <ele>569.0</ele>
    </trkpt>
    <trkpt lat="43.473114967" lon="11.286649704">
      <ele>570.0</ele>
    </trkpt>
    <trkpt lat="43.472986221" lon="11.286220551">
      <ele>573.0</ele>
    </trkpt>
    <trkpt lat="43.472771645" lon="11.285877228">
      <ele>576.0</ele>
    </trkpt>
    <trkpt lat="43.471441269" lon="11.285448074">
      <ele>572.0</ele>
    </trkpt>
    <trkpt lat="43.471398354" lon="11.285319328">
      <ele>571.0</ele>
    </trkpt>
    <trkpt lat="43.471441269" lon="11.285448074">
      <ele>572.0</ele>
    </trkpt>
    <trkpt lat="43.471269608" lon="11.285748482">
      <ele>570.0</ele>
    </trkpt>
    <trkpt lat="43.470368385" lon="11.286649704">
      <ele>572.0</ele>
    </trkpt>
    <trkpt lat="43.469252586" lon="11.287894249">
      <ele>573.0</ele>
    </trkpt>
    <trkpt lat="43.468995094" lon="11.28798008">
      <ele>571.0</ele>
    </trkpt>
    <trkpt lat="43.468523026" lon="11.28798008">
      <ele>569.0</ele>
    </trkpt>
    <trkpt lat="43.468222618" lon="11.287851334">
      <ele>568.0</ele>
    </trkpt>
    <trkpt lat="43.467879295" lon="11.28798008">
      <ele>568.0</ele>
    </trkpt>
    <trkpt lat="43.467321396" lon="11.288323402">
      <ele>568.0</ele>
    </trkpt>
    <trkpt lat="43.467063904" lon="11.288409233">
      <ele>569.0</ele>
    </trkpt>
    <trkpt lat="43.46663475" lon="11.288709641">
      <ele>568.0</ele>
    </trkpt>
    <trkpt lat="43.465390205" lon="11.289310455">
      <ele>564.0</ele>
    </trkpt>
    <trkpt lat="43.464789391" lon="11.289396286">
      <ele>562.0</ele>
    </trkpt>
    <trkpt lat="43.46157074" lon="11.290340424">
      <ele>562.0</ele>
    </trkpt>
    <trkpt lat="43.458266258" lon="11.291971207">
      <ele>574.0</ele>
    </trkpt>
    <trkpt lat="43.456678391" lon="11.292314529">
      <ele>575.0</ele>
    </trkpt>
    <trkpt lat="43.455047607" lon="11.291971207">
      <ele>571.0</ele>
    </trkpt>
    <trkpt lat="43.454918861" lon="11.291885376">
      <ele>572.0</ele>
    </trkpt>
    <trkpt lat="43.454618454" lon="11.291928291">
      <ele>574.0</ele>
    </trkpt>
    <trkpt lat="43.453502655" lon="11.292357445">
      <ele>575.0</ele>
    </trkpt>
    <trkpt lat="43.452129364" lon="11.292057037">
      <ele>575.0</ele>
    </trkpt>
    <trkpt lat="43.451786041" lon="11.292271614">
      <ele>575.0</ele>
    </trkpt>
    <trkpt lat="43.451399803" lon="11.292657852">
      <ele>574.0</ele>
    </trkpt>
    <trkpt lat="43.450155258" lon="11.293301582">
      <ele>563.0</ele>
    </trkpt>
    <trkpt lat="43.449940681" lon="11.293516159">
      <ele>560.0</ele>
    </trkpt>
    <trkpt lat="43.449511528" lon="11.294331551">
      <ele>559.0</ele>
    </trkpt>
    <trkpt lat="43.449254036" lon="11.294546127">
      <ele>561.0</ele>
    </trkpt>
    <trkpt lat="43.448438644" lon="11.294975281">
      <ele>564.0</ele>
    </trkpt>
    <trkpt lat="43.44792366" lon="11.295919418">
      <ele>562.0</ele>
    </trkpt>
    <trkpt lat="43.447880745" lon="11.296219826">
      <ele>561.0</ele>
    </trkpt>
    <trkpt lat="43.44792366" lon="11.296691895">
      <ele>562.0</ele>
    </trkpt>
    <trkpt lat="43.44783783" lon="11.296949387">
      <ele>561.0</ele>
    </trkpt>
    <trkpt lat="43.446292877" lon="11.299180984">
      <ele>546.0</ele>
    </trkpt>
    <trkpt lat="43.446249962" lon="11.299309731">
      <ele>547.0</ele>
    </trkpt>
    <trkpt lat="43.4460783" lon="11.299438477">
      <ele>547.0</ele>
    </trkpt>
    <trkpt lat="43.44543457" lon="11.299824715">
      <ele>549.0</ele>
    </trkpt>
    <trkpt lat="43.444919586" lon="11.299824715">
      <ele>550.0</ele>
    </trkpt>
    <trkpt lat="43.444104195" lon="11.299138069">
      <ele>542.0</ele>
    </trkpt>
    <trkpt lat="43.443803787" lon="11.299095154">
      <ele>537.0</ele>
    </trkpt>
    <trkpt lat="43.443546295" lon="11.299352646">
      <ele>538.0</ele>
    </trkpt>
    <trkpt lat="43.443245888" lon="11.299996376">
      <ele>539.0</ele>
    </trkpt>
    <trkpt lat="43.443160057" lon="11.300683022">
      <ele>541.0</ele>
    </trkpt>
    <trkpt lat="43.443074226" lon="11.300811768">
      <ele>540.0</ele>
    </trkpt>
    <trkpt lat="43.44285965" lon="11.300940514">
      <ele>538.0</ele>
    </trkpt>
    <trkpt lat="43.442602158" lon="11.300940514">
      <ele>535.0</ele>
    </trkpt>
    <trkpt lat="43.441915512" lon="11.300382614">
      <ele>530.0</ele>
    </trkpt>
    <trkpt lat="43.44165802" lon="11.300339699">
      <ele>530.0</ele>
    </trkpt>
    <trkpt lat="43.441143036" lon="11.300382614">
      <ele>529.0</ele>
    </trkpt>
    <trkpt lat="43.440585136" lon="11.301026344">
      <ele>530.0</ele>
    </trkpt>
    <trkpt lat="43.439769745" lon="11.301240921">
      <ele>534.0</ele>
    </trkpt>
    <trkpt lat="43.439512253" lon="11.301541328">
      <ele>533.0</ele>
    </trkpt>
    <trkpt lat="43.43981266" lon="11.303687096">
      <ele>534.0</ele>
    </trkpt>
    <trkpt lat="43.439683914" lon="11.304030418">
      <ele>530.0</ele>
    </trkpt>
    <trkpt lat="43.439598083" lon="11.304802895">
      <ele>530.0</ele>
    </trkpt>
    <trkpt lat="43.439469337" lon="11.305146217">
      <ele>529.0</ele>
    </trkpt>
    <trkpt lat="43.439340591" lon="11.305274963">
      <ele>529.0</ele>
    </trkpt>
    <trkpt lat="43.438911438" lon="11.305403709">
      <ele>523.0</ele>
    </trkpt>
    <trkpt lat="43.438568115" lon="11.305618286">
      <ele>520.0</ele>
    </trkpt>
    <trkpt lat="43.438396454" lon="11.305875778">
      <ele>520.0</ele>
    </trkpt>
    <trkpt lat="43.438310623" lon="11.30613327">
      <ele>519.0</ele>
    </trkpt>
    <trkpt lat="43.438267708" lon="11.30669117">
      <ele>519.0</ele>
    </trkpt>
    <trkpt lat="43.438568115" lon="11.307678223">
      <ele>520.0</ele>
    </trkpt>
    <trkpt lat="43.438396454" lon="11.308064461">
      <ele>517.0</ele>
    </trkpt>
    <trkpt lat="43.438181877" lon="11.308193207">
      <ele>517.0</ele>
    </trkpt>
    <trkpt lat="43.437366486" lon="11.307678223">
      <ele>511.0</ele>
    </trkpt>
    <trkpt lat="43.436121941" lon="11.306562424">
      <ele>507.0</ele>
    </trkpt>
    <trkpt lat="43.435907364" lon="11.306519508">
      <ele>509.0</ele>
    </trkpt>
    <trkpt lat="43.43539238" lon="11.306734085">
      <ele>506.0</ele>
    </trkpt>
    <trkpt lat="43.434405327" lon="11.307678223">
      <ele>499.0</ele>
    </trkpt>
    <trkpt lat="43.433589935" lon="11.30797863">
      <ele>493.0</ele>
    </trkpt>
    <trkpt lat="43.433375359" lon="11.308150291">
      <ele>492.0</ele>
    </trkpt>
    <trkpt lat="43.43290329" lon="11.308836937">
      <ele>490.0</ele>
    </trkpt>
    <trkpt lat="43.432645798" lon="11.309051514">
      <ele>488.0</ele>
    </trkpt>
    <trkpt lat="43.431916237" lon="11.309223175">
      <ele>483.0</ele>
    </trkpt>
    <trkpt lat="43.431272507" lon="11.309866905">
      <ele>492.0</ele>
    </trkpt>
    <trkpt lat="43.43105793" lon="11.309738159">
      <ele>490.0</ele>
    </trkpt>
    <trkpt lat="43.430671692" lon="11.308879852">
      <ele>480.0</ele>
    </trkpt>
    <trkpt lat="43.430500031" lon="11.307506561">
      <ele>468.0</ele>
    </trkpt>
    <trkpt lat="43.429813385" lon="11.30604744">
      <ele>462.0</ele>
    </trkpt>
    <trkpt lat="43.429598808" lon="11.304931641">
      <ele>451.0</ele>
    </trkpt>
    <trkpt lat="43.42921257" lon="11.304545403">
      <ele>448.0</ele>
    </trkpt>
    <trkpt lat="43.428826332" lon="11.304459572">
      <ele>443.0</ele>
    </trkpt>
    <trkpt lat="43.428440094" lon="11.304802895">
      <ele>442.0</ele>
    </trkpt>
    <trkpt lat="43.428311348" lon="11.305360794">
      <ele>442.0</ele>
    </trkpt>
    <trkpt lat="43.428311348" lon="11.306090355">
      <ele>446.0</ele>
    </trkpt>
    <trkpt lat="43.428268433" lon="11.306347847">
      <ele>447.0</ele>
    </trkpt>
    <trkpt lat="43.428182602" lon="11.306476593">
      <ele>447.0</ele>
    </trkpt>
    <trkpt lat="43.428010941" lon="11.306476593">
      <ele>446.0</ele>
    </trkpt>
    <trkpt lat="43.427839279" lon="11.306390762">
      <ele>444.0</ele>
    </trkpt>
    <trkpt lat="43.427324295" lon="11.306004524">
      <ele>434.0</ele>
    </trkpt>
    <trkpt lat="43.426938057" lon="11.305532455">
      <ele>428.0</ele>
    </trkpt>
    <trkpt lat="43.42672348" lon="11.305060387">
      <ele>424.0</ele>
    </trkpt>
    <trkpt lat="43.425993919" lon="11.305789948">
      <ele>423.0</ele>
    </trkpt>
    <trkpt lat="43.424406052" lon="11.305832863">
      <ele>410.0</ele>
    </trkpt>
    <trkpt lat="43.42414856" lon="11.306004524">
      <ele>408.0</ele>
    </trkpt>
    <trkpt lat="43.423719406" lon="11.30613327">
      <ele>405.0</ele>
    </trkpt>
    <trkpt lat="43.423418999" lon="11.30604744">
      <ele>402.0</ele>
    </trkpt>
    <trkpt lat="43.423075676" lon="11.305704117">
      <ele>400.0</ele>
    </trkpt>
    <trkpt lat="43.422861099" lon="11.305747032">
      <ele>399.0</ele>
    </trkpt>
    <trkpt lat="43.422818184" lon="11.306004524">
      <ele>398.0</ele>
    </trkpt>
    <trkpt lat="43.423247337" lon="11.306605339">
      <ele>399.0</ele>
    </trkpt>
    <trkpt lat="43.423204422" lon="11.307034492">
      <ele>401.0</ele>
    </trkpt>
    <trkpt lat="43.423075676" lon="11.307163239">
      <ele>401.0</ele>
    </trkpt>
    <trkpt lat="43.422646523" lon="11.307120323">
      <ele>398.0</ele>
    </trkpt>
    <trkpt lat="43.419857025" lon="11.306476593">
      <ele>385.0</ele>
    </trkpt>
    <trkpt lat="43.419213295" lon="11.306219101">
      <ele>384.0</ele>
    </trkpt>
    <trkpt lat="43.418397903" lon="11.306176186">
      <ele>384.0</ele>
    </trkpt>
    <trkpt lat="43.417067528" lon="11.306433678">
      <ele>370.0</ele>
    </trkpt>
    <trkpt lat="43.414363861" lon="11.305747032">
      <ele>352.0</ele>
    </trkpt>
    <trkpt lat="43.412947655" lon="11.305189133">
      <ele>341.0</ele>
    </trkpt>
    <trkpt lat="43.411831856" lon="11.305103302">
      <ele>335.0</ele>
    </trkpt>
    <trkpt lat="43.409986496" lon="11.304588318">
      <ele>325.0</ele>
    </trkpt>
    <trkpt lat="43.409600258" lon="11.304545403">
      <ele>323.0</ele>
    </trkpt>
    <trkpt lat="43.40865612" lon="11.304888725">
      <ele>322.0</ele>
    </trkpt>
    <trkpt lat="43.407840729" lon="11.30484581">
      <ele>320.0</ele>
    </trkpt>
    <trkpt lat="43.407626152" lon="11.304931641">
      <ele>321.0</ele>
    </trkpt>
    <trkpt lat="43.40681076" lon="11.305532455">
      <ele>318.0</ele>
    </trkpt>
    <trkpt lat="43.406381607" lon="11.305747032">
      <ele>315.0</ele>
    </trkpt>
    <trkpt lat="43.404793739" lon="11.306304932">
      <ele>305.0</ele>
    </trkpt>
    <trkpt lat="43.404364586" lon="11.306390762">
      <ele>303.0</ele>
    </trkpt>
    <trkpt lat="43.403806686" lon="11.306390762">
      <ele>298.0</ele>
    </trkpt>
    <trkpt lat="43.403248787" lon="11.306562424">
      <ele>291.0</ele>
    </trkpt>
    <trkpt lat="43.402862549" lon="11.306347847">
      <ele>290.0</ele>
    </trkpt>
    <trkpt lat="43.402647972" lon="11.306090355">
      <ele>292.0</ele>
    </trkpt>
    <trkpt lat="43.402433395" lon="11.306004524">
      <ele>291.0</ele>
    </trkpt>
    <trkpt lat="43.402261734" lon="11.306004524">
      <ele>291.0</ele>
    </trkpt>
    <trkpt lat="43.401575089" lon="11.306262016">
      <ele>286.0</ele>
    </trkpt>
    <trkpt lat="43.400974274" lon="11.306004524">
      <ele>282.0</ele>
    </trkpt>
    <trkpt lat="43.399815559" lon="11.306004524">
      <ele>277.0</ele>
    </trkpt>
    <trkpt lat="43.399000168" lon="11.305704117">
      <ele>273.0</ele>
    </trkpt>
    <trkpt lat="43.398227692" lon="11.305961609">
      <ele>271.0</ele>
    </trkpt>
    <trkpt lat="43.39805603" lon="11.306304932">
      <ele>274.0</ele>
    </trkpt>
    <trkpt lat="43.397455215" lon="11.308450699">
      <ele>285.0</ele>
    </trkpt>
    <trkpt lat="43.397326469" lon="11.309394836">
      <ele>289.0</ele>
    </trkpt>
    <trkpt lat="43.397068977" lon="11.309652328">
      <ele>293.0</ele>
    </trkpt>
    <trkpt lat="43.396468163" lon="11.309952736">
      <ele>298.0</ele>
    </trkpt>
    <trkpt lat="43.395953178" lon="11.310338974">
      <ele>303.0</ele>
    </trkpt>
    <trkpt lat="43.395695686" lon="11.310381889">
      <ele>306.0</ele>
    </trkpt>
    <trkpt lat="43.39556694" lon="11.310210228">
      <ele>307.0</ele>
    </trkpt>
    <trkpt lat="43.395438194" lon="11.309995651">
      <ele>308.0</ele>
    </trkpt>
    <trkpt lat="43.395395279" lon="11.309695244">
      <ele>312.0</ele>
    </trkpt>
    <trkpt lat="43.395438194" lon="11.309480667">
      <ele>313.0</ele>
    </trkpt>
    <trkpt lat="43.395953178" lon="11.309309006">
      <ele>310.0</ele>
    </trkpt>
    <trkpt lat="43.396339417" lon="11.309051514">
      <ele>308.0</ele>
    </trkpt>
    <trkpt lat="43.396511078" lon="11.308836937">
      <ele>307.0</ele>
    </trkpt>
    <trkpt lat="43.396639824" lon="11.30853653">
      <ele>306.0</ele>
    </trkpt>
    <trkpt lat="43.396425247" lon="11.308279037">
      <ele>310.0</ele>
    </trkpt>
    <trkpt lat="43.395824432" lon="11.308021545">
      <ele>321.0</ele>
    </trkpt>
    <trkpt lat="43.395609856" lon="11.307892799">
      <ele>324.0</ele>
    </trkpt>
    <trkpt lat="43.39548111" lon="11.307721138">
      <ele>326.0</ele>
    </trkpt>
    <trkpt lat="43.395438194" lon="11.307249069">
      <ele>329.0</ele>
    </trkpt>
    <trkpt lat="43.395695686" lon="11.306648254">
      <ele>330.0</ele>
    </trkpt>
    <trkpt lat="43.395738602" lon="11.306304932">
      <ele>331.0</ele>
    </trkpt>
    <trkpt lat="43.395695686" lon="11.30613327">
      <ele>332.0</ele>
    </trkpt>
    <trkpt lat="43.395524025" lon="11.305961609">
      <ele>333.0</ele>
    </trkpt>
    <trkpt lat="43.395309448" lon="11.305918694">
      <ele>334.0</ele>
    </trkpt>
    <trkpt lat="43.39492321" lon="11.306176186">
      <ele>337.0</ele>
    </trkpt>
    <trkpt lat="43.394708633" lon="11.306605339">
      <ele>338.0</ele>
    </trkpt>
    <trkpt lat="43.394751549" lon="11.306905746">
      <ele>339.0</ele>
    </trkpt>
    <trkpt lat="43.393721581" lon="11.308279037">
      <ele>341.0</ele>
    </trkpt>
    <trkpt lat="43.393249512" lon="11.308708191">
      <ele>345.0</ele>
    </trkpt>
    <trkpt lat="43.392906189" lon="11.308965683">
      <ele>346.0</ele>
    </trkpt>
    <trkpt lat="43.392004967" lon="11.309437752">
      <ele>346.0</ele>
    </trkpt>
    <trkpt lat="43.391404152" lon="11.310038567">
      <ele>342.0</ele>
    </trkpt>
    <trkpt lat="43.390760422" lon="11.310424805">
      <ele>339.0</ele>
    </trkpt>
    <trkpt lat="43.39050293" lon="11.310510635">
      <ele>339.0</ele>
    </trkpt>
    <trkpt lat="43.390073776" lon="11.310381889">
      <ele>338.0</ele>
    </trkpt>
    <trkpt lat="43.389430046" lon="11.310081482">
      <ele>341.0</ele>
    </trkpt>
    <trkpt lat="43.387928009" lon="11.308665276">
      <ele>343.0</ele>
    </trkpt>
    <trkpt lat="43.387584686" lon="11.308450699">
      <ele>343.0</ele>
    </trkpt>
    <trkpt lat="43.38737011" lon="11.308407784">
      <ele>345.0</ele>
    </trkpt>
    <trkpt lat="43.386940956" lon="11.308751106">
      <ele>345.0</ele>
    </trkpt>
    <trkpt lat="43.386511803" lon="11.309351921">
      <ele>342.0</ele>
    </trkpt>
    <trkpt lat="43.385396004" lon="11.310639381">
      <ele>342.0</ele>
    </trkpt>
    <trkpt lat="43.38488102" lon="11.311154366">
      <ele>343.0</ele>
    </trkpt>
    <trkpt lat="43.384666443" lon="11.311626434">
      <ele>342.0</ele>
    </trkpt>
    <trkpt lat="43.384838104" lon="11.312527657">
      <ele>338.0</ele>
    </trkpt>
    <trkpt lat="43.384795189" lon="11.312828064">
      <ele>337.0</ele>
    </trkpt>
    <trkpt lat="43.384537697" lon="11.31295681">
      <ele>337.0</ele>
    </trkpt>
    <trkpt lat="43.384108543" lon="11.312441826">
      <ele>339.0</ele>
    </trkpt>
    <trkpt lat="43.38367939" lon="11.311326027">
      <ele>339.0</ele>
    </trkpt>
    <trkpt lat="43.383421898" lon="11.31102562">
      <ele>336.0</ele>
    </trkpt>
    <trkpt lat="43.382306099" lon="11.310725212">
      <ele>329.0</ele>
    </trkpt>
    <trkpt lat="43.380675316" lon="11.309781075">
      <ele>327.0</ele>
    </trkpt>
    <trkpt lat="43.380374908" lon="11.309738159">
      <ele>328.0</ele>
    </trkpt>
    <trkpt lat="43.378272057" lon="11.30982399">
      <ele>332.0</ele>
    </trkpt>
    <trkpt lat="43.377799988" lon="11.309695244">
      <ele>333.0</ele>
    </trkpt>
    <trkpt lat="43.377070427" lon="11.309351921">
      <ele>334.0</ele>
    </trkpt>
    <trkpt lat="43.376684189" lon="11.30926609">
      <ele>336.0</ele>
    </trkpt>
    <trkpt lat="43.376040459" lon="11.309223175">
      <ele>334.0</ele>
    </trkpt>
    <trkpt lat="43.375267982" lon="11.309351921">
      <ele>335.0</ele>
    </trkpt>
    <trkpt lat="43.374323845" lon="11.309394836">
      <ele>337.0</ele>
    </trkpt>
    <trkpt lat="43.373980522" lon="11.309523582">
      <ele>338.0</ele>
    </trkpt>
    <trkpt lat="43.373680115" lon="11.309781075">
      <ele>338.0</ele>
    </trkpt>
    <trkpt lat="43.373508453" lon="11.310081482">
      <ele>338.0</ele>
    </trkpt>
    <trkpt lat="43.373422623" lon="11.311197281">
      <ele>347.0</ele>
    </trkpt>
    <trkpt lat="43.373336792" lon="11.311411858">
      <ele>347.0</ele>
    </trkpt>
    <trkpt lat="43.373165131" lon="11.311540604">
      <ele>347.0</ele>
    </trkpt>
    <trkpt lat="43.372349739" lon="11.311841011">
      <ele>346.0</ele>
    </trkpt>
    <trkpt lat="43.372220993" lon="11.311841011">
      <ele>347.0</ele>
    </trkpt>
    <trkpt lat="43.371620178" lon="11.311368942">
      <ele>344.0</ele>
    </trkpt>
    <trkpt lat="43.37123394" lon="11.311326027">
      <ele>347.0</ele>
    </trkpt>
    <trkpt lat="43.370933533" lon="11.311497688">
      <ele>350.0</ele>
    </trkpt>
    <trkpt lat="43.370676041" lon="11.311883926">
      <ele>349.0</ele>
    </trkpt>
    <trkpt lat="43.370504379" lon="11.31231308">
      <ele>348.0</ele>
    </trkpt>
    <trkpt lat="43.370118141" lon="11.312785149">
      <ele>344.0</ele>
    </trkpt>
    <trkpt lat="43.369860649" lon="11.312913895">
      <ele>342.0</ele>
    </trkpt>
    <trkpt lat="43.368959427" lon="11.31295681">
      <ele>338.0</ele>
    </trkpt>
    <trkpt lat="43.368616104" lon="11.312870979">
      <ele>336.0</ele>
    </trkpt>
    <trkpt lat="43.368144035" lon="11.312870979">
      <ele>334.0</ele>
    </trkpt>
    <trkpt lat="43.367114067" lon="11.313085556">
      <ele>335.0</ele>
    </trkpt>
    <trkpt lat="43.365998268" lon="11.312785149">
      <ele>339.0</ele>
    </trkpt>
    <trkpt lat="43.364281654" lon="11.312527657">
      <ele>339.0</ele>
    </trkpt>
    <trkpt lat="43.362994194" lon="11.31175518">
      <ele>336.0</ele>
    </trkpt>
    <trkpt lat="43.362650871" lon="11.311798096">
      <ele>337.0</ele>
    </trkpt>
    <trkpt lat="43.361449242" lon="11.312484741">
      <ele>334.0</ele>
    </trkpt>
    <trkpt lat="43.359732628" lon="11.313943863">
      <ele>340.0</ele>
    </trkpt>
    <trkpt lat="43.359518051" lon="11.314287186">
      <ele>341.0</ele>
    </trkpt>
    <trkpt lat="43.359260559" lon="11.314501762">
      <ele>342.0</ele>
    </trkpt>
    <trkpt lat="43.358831406" lon="11.314716339">
      <ele>345.0</ele>
    </trkpt>
    <trkpt lat="43.357200623" lon="11.314759254">
      <ele>351.0</ele>
    </trkpt>
    <trkpt lat="43.356471062" lon="11.314716339">
      <ele>352.0</ele>
    </trkpt>
    <trkpt lat="43.356127739" lon="11.314630508">
      <ele>352.0</ele>
    </trkpt>
    <trkpt lat="43.354110718" lon="11.313385963">
      <ele>348.0</ele>
    </trkpt>
    <trkpt lat="43.353123665" lon="11.313042641">
      <ele>352.0</ele>
    </trkpt>
    <trkpt lat="43.351621628" lon="11.312828064">
      <ele>355.0</ele>
    </trkpt>
    <trkpt lat="43.350977898" lon="11.312613487">
      <ele>355.0</ele>
    </trkpt>
    <trkpt lat="43.349733353" lon="11.312355995">
      <ele>363.0</ele>
    </trkpt>
    <trkpt lat="43.349132538" lon="11.31231308">
      <ele>367.0</ele>
    </trkpt>
    <trkpt lat="43.349078977" lon="11.312257759">
      <ele>365.44</ele>
    </trkpt>
    <trkpt lat="43.348625014" lon="11.311702291">
      <ele>362.55</ele>
    </trkpt>
    <trkpt lat="43.347875588" lon="11.310107466">
      <ele>356.31</ele>
    </trkpt>
    <trkpt lat="43.34744459" lon="11.309459293">
      <ele>352.94</ele>
    </trkpt>
    <trkpt lat="43.347260859" lon="11.308981776">
      <ele>351.98</ele>
    </trkpt>
    <trkpt lat="43.347065309" lon="11.308922097">
      <ele>351.5</ele>
    </trkpt>
    <trkpt lat="43.346379586" lon="11.308214245">
      <ele>345.73</ele>
    </trkpt>
    <trkpt lat="43.344828514" lon="11.306996187">
      <ele>338.04</ele>
    </trkpt>
    <trkpt lat="43.344638078" lon="11.306572314">
      <ele>338.52</ele>
    </trkpt>
    <trkpt lat="43.344251588" lon="11.306526382">
      <ele>339.96</ele>
    </trkpt>
    <trkpt lat="43.343395796" lon="11.305904025">
      <ele>339.0</ele>
    </trkpt>
    <trkpt lat="43.343395796" lon="11.305904025">
      <ele>339.0</ele>
    </trkpt>
    <trkpt lat="43.342739325" lon="11.305969069">
      <ele>337.0</ele>
    </trkpt>
    <trkpt lat="43.342523575" lon="11.305854321">
      <ele>336.0</ele>
    </trkpt>
    <trkpt lat="43.342266083" lon="11.305961609">
      <ele>336.0</ele>
    </trkpt>
    <trkpt lat="43.34155798" lon="11.306004524">
      <ele>337.0</ele>
    </trkpt>
    <trkpt lat="43.340055943" lon="11.305832863">
      <ele>341.0</ele>
    </trkpt>
    <trkpt lat="43.338940144" lon="11.305918694">
      <ele>346.0</ele>
    </trkpt>
    <trkpt lat="43.33878994" lon="11.30604744">
      <ele>348.0</ele>
    </trkpt>
    <trkpt lat="43.338489532" lon="11.306648254">
      <ele>348.0</ele>
    </trkpt>
    <trkpt lat="43.338360786" lon="11.306798458">
      <ele>349.0</ele>
    </trkpt>
    <trkpt lat="43.33758831" lon="11.307077408">
      <ele>347.0</ele>
    </trkpt>
    <trkpt lat="43.336257935" lon="11.307892799">
      <ele>349.0</ele>
    </trkpt>
    <trkpt lat="43.334434032" lon="11.309330463">
      <ele>343.0</ele>
    </trkpt>
    <trkpt lat="43.332717419" lon="11.311326027">
      <ele>344.0</ele>
    </trkpt>
    <trkpt lat="43.332309723" lon="11.312291622">
      <ele>343.0</ele>
    </trkpt>
    <trkpt lat="43.332180977" lon="11.312420368">
      <ele>343.0</ele>
    </trkpt>
    <trkpt lat="43.332138062" lon="11.312720776">
      <ele>342.0</ele>
    </trkpt>
    <trkpt lat="43.332266808" lon="11.31295681">
      <ele>340.0</ele>
    </trkpt>
    <trkpt lat="43.332052231" lon="11.314759254">
      <ele>332.0</ele>
    </trkpt>
    <trkpt lat="43.331880569" lon="11.315338612">
      <ele>333.0</ele>
    </trkpt>
    <trkpt lat="43.330572825" lon="11.318089049">
      <ele>335.0</ele>
    </trkpt>
    <trkpt lat="43.330614567" lon="11.318128109">
      <ele>335.0</ele>
    </trkpt>
    <trkpt lat="43.330572825" lon="11.318089049">
      <ele>335.0</ele>
    </trkpt>
    <trkpt lat="43.329241276" lon="11.320874691">
      <ele>343.0</ele>
    </trkpt>
    <trkpt lat="43.329069614" lon="11.321604252">
      <ele>343.0</ele>
    </trkpt>
    <trkpt lat="43.328726292" lon="11.322183609">
      <ele>341.0</ele>
    </trkpt>
    <trkpt lat="43.328082561" lon="11.324350834">
      <ele>344.0</ele>
    </trkpt>
    <trkpt lat="43.327674866" lon="11.325380802">
      <ele>345.0</ele>
    </trkpt>
    <trkpt lat="43.32754612" lon="11.325166225">
      <ele>345.0</ele>
    </trkpt>
    <trkpt lat="43.327353001" lon="11.325058937">
      <ele>345.0</ele>
    </trkpt>
    <trkpt lat="43.327331543" lon="11.325209141">
      <ele>346.0</ele>
    </trkpt>
    <trkpt lat="43.327438831" lon="11.325423717">
      <ele>346.0</ele>
    </trkpt>
    <trkpt lat="43.327331543" lon="11.325488091">
      <ele>346.0</ele>
    </trkpt>
    <trkpt lat="43.327353001" lon="11.325616837">
      <ele>346.0</ele>
    </trkpt>
    <trkpt lat="43.326129913" lon="11.326518059">
      <ele>344.0</ele>
    </trkpt>
    <trkpt lat="43.325529099" lon="11.327290535">
      <ele>345.0</ele>
    </trkpt>
    <trkpt lat="43.325495403" lon="11.327312831">
      <ele>345.0</ele>
    </trkpt>
    <trkpt lat="43.325464725" lon="11.327226162">
      <ele>345.0</ele>
    </trkpt>
    <trkpt lat="43.325495403" lon="11.327312831">
      <ele>345.0</ele>
    </trkpt>
    <trkpt lat="43.32542181" lon="11.327376366">
      <ele>345.0</ele>
    </trkpt>
    <trkpt lat="43.324713707" lon="11.327698231">
      <ele>345.0</ele>
    </trkpt>
    <trkpt lat="43.324649334" lon="11.327397823">
      <ele>346.0</ele>
    </trkpt>
    <trkpt lat="43.324456215" lon="11.327161789">
      <ele>346.0</ele>
    </trkpt>
    <trkpt lat="43.324241638" lon="11.327226162">
      <ele>346.0</ele>
    </trkpt>
    <trkpt lat="43.324048519" lon="11.327204704">
      <ele>346.0</ele>
    </trkpt>
    <trkpt lat="43.321709633" lon="11.32797718">
      <ele>339.0</ele>
    </trkpt>
    <trkpt lat="43.321452141" lon="11.328020096">
      <ele>340.0</ele>
    </trkpt>
    <trkpt lat="43.321430683" lon="11.327934265">
      <ele>339.0</ele>
    </trkpt>
    <trkpt lat="43.321452141" lon="11.328020096">
      <ele>340.0</ele>
    </trkpt>
    <trkpt lat="43.321409225" lon="11.328020096">
      <ele>340.0</ele>
    </trkpt>
    <trkpt lat="43.321280479" lon="11.327912807">
      <ele>340.0</ele>
    </trkpt>
    <trkpt lat="43.320422173" lon="11.326732635">
      <ele>333.0</ele>
    </trkpt>
    <trkpt lat="43.320336342" lon="11.326925755">
      <ele>333.0</ele>
    </trkpt>
    <trkpt lat="43.320508003" lon="11.327569485">
      <ele>336.0</ele>
    </trkpt>
    <trkpt lat="43.320379257" lon="11.328663826">
      <ele>333.0</ele>
    </trkpt>
    <trkpt lat="43.320422173" lon="11.32889986">
      <ele>335.0</ele>
    </trkpt>
    <trkpt lat="43.320829868" lon="11.329607964">
      <ele>342.0</ele>
    </trkpt>
    <trkpt lat="43.320829868" lon="11.329693794">
      <ele>342.0</ele>
    </trkpt>
    <trkpt lat="43.320615292" lon="11.330080032">
      <ele>341.0</ele>
    </trkpt>
    <trkpt lat="43.320508003" lon="11.330165863">
      <ele>341.0</ele>
    </trkpt>
    <trkpt lat="43.319864273" lon="11.330358982">
      <ele>340.0</ele>
    </trkpt>
    <trkpt lat="43.319349289" lon="11.330208778">
      <ele>338.0</ele>
    </trkpt>
    <trkpt lat="43.319113255" lon="11.330251694">
      <ele>339.0</ele>
    </trkpt>
    <trkpt lat="43.318812847" lon="11.330766678">
      <ele>342.0</ele>
    </trkpt>
    <trkpt lat="43.31915617" lon="11.33130312">
      <ele>340.0</ele>
    </trkpt>
    <trkpt lat="43.319242001" lon="11.331818104">
      <ele>339.0</ele>
    </trkpt>
    <trkpt lat="43.319048882" lon="11.331861019">
      <ele>337.0</ele>
    </trkpt>
    <trkpt lat="43.319048882" lon="11.331925392">
      <ele>337.0</ele>
    </trkpt>
  </trkseg>
</trk>
</gpx>
