<?xml version="1.0"?>
<gpx xmlns="http://www.topografix.com/GPX/1/1" xmlns:xsi="http://www.w3.org/2001/XMLSchema-instance" xmlns:wptx1="http://www.garmin.com/xmlschemas/WaypointExtension/v1" xmlns:gpxtrx="http://www.garmin.com/xmlschemas/GpxExtensions/v3" xmlns:gpxtpx="http://www.garmin.com/xmlschemas/TrackPointExtension/v1" xmlns:gpxx="http://www.garmin.com/xmlschemas/GpxExtensions/v3" xmlns:trp="http://www.garmin.com/xmlschemas/TripExtensions/v1" xmlns:adv="http://www.garmin.com/xmlschemas/AdventuresExtensions/v1" xmlns:prs="http://www.garmin.com/xmlschemas/PressureExtension/v1" xmlns:tmd="http://www.garmin.com/xmlschemas/TripMetaDataExtensions/v1" xmlns:vptm="http://www.garmin.com/xmlschemas/ViaPointTransportationModeExtensions/v1" xmlns:ctx="http://www.garmin.com/xmlschemas/CreationTimeExtension/v1" xmlns:gpxacc="http://www.garmin.com/xmlschemas/AccelerationExtension/v1" xmlns:gpxpx="http://www.garmin.com/xmlschemas/PowerExtension/v1" xmlns:vidx1="http://www.garmin.com/xmlschemas/VideoExtension/v1" creator="Garmin Desktop App" version="1.1" xsi:schemaLocation="http://www.topografix.com/GPX/1/1 http://www.topografix.com/GPX/1/1/gpx.xsd http://www.garmin.com/xmlschemas/WaypointExtension/v1 http://www8.garmin.com/xmlschemas/WaypointExtensionv1.xsd http://www.garmin.com/xmlschemas/TrackPointExtension/v1 http://www.garmin.com/xmlschemas/TrackPointExtensionv1.xsd http://www.garmin.com/xmlschemas/GpxExtensions/v3 http://www8.garmin.com/xmlschemas/GpxExtensionsv3.xsd http://www.garmin.com/xmlschemas/ActivityExtension/v1 http://www8.garmin.com/xmlschemas/ActivityExtensionv1.xsd http://www.garmin.com/xmlschemas/AdventuresExtensions/v1 http://www8.garmin.com/xmlschemas/AdventuresExtensionv1.xsd http://www.garmin.com/xmlschemas/PressureExtension/v1 http://www.garmin.com/xmlschemas/PressureExtensionv1.xsd http://www.garmin.com/xmlschemas/TripExtensions/v1 http://www.garmin.com/xmlschemas/TripExtensionsv1.xsd http://www.garmin.com/xmlschemas/TripMetaDataExtensions/v1 http://www.garmin.com/xmlschemas/TripMetaDataExtensionsv1.xsd http://www.garmin.com/xmlschemas/ViaPointTransportationModeExtensions/v1 http://www.garmin.com/xmlschemas/ViaPointTransportationModeExtensionsv1.xsd http://www.garmin.com/xmlschemas/CreationTimeExtension/v1 http://www.garmin.com/xmlschemas/CreationTimeExtensionsv1.xsd http://www.garmin.com/xmlschemas/AccelerationExtension/v1 http://www.garmin.com/xmlschemas/AccelerationExtensionv1.xsd http://www.garmin.com/xmlschemas/PowerExtension/v1 http://www.garmin.com/xmlschemas/PowerExtensionv1.xsd http://www.garmin.com/xmlschemas/VideoExtension/v1 http://www.garmin.com/xmlschemas/VideoExtensionv1.xsd">

  <metadata>
    <link href="http://www.garmin.com">
      <text>Garmin International</text>
    </link>
    <time>2017-03-07T08:01:43Z</time>
    <bounds maxlat="44.189095878973603" maxlon="7.538487911224365" minlat="43.71458301320672" minlon="6.431255014613271"/>
  </metadata>

  <wpt lat="43.838349021971226" lon="7.195444023236632">
    <time>2015-03-25T10:03:49Z</time>
    <name>Al Boucle d'Or</name>
    <cmt>1 Chemin des Traverses, Roquette Sur Var La, www.camping-alboucledor.com, 04 93 73 91 35</cmt>
    <desc>1 Chemin des Traverses, Roquette Sur Var La, www.camping-alboucledor.com, 04 93 73 91 35</desc>
    <sym>Campground</sym>
    <type>user</type>
    <extensions>
      <gpxx:WaypointExtension>
        <gpxx:DisplayMode>SymbolOnly</gpxx:DisplayMode>
      </gpxx:WaypointExtension>
      <wptx1:WaypointExtension>
        <wptx1:DisplayMode>SymbolOnly</wptx1:DisplayMode>
      </wptx1:WaypointExtension>
      <ctx:CreationTimeExtension>
        <ctx:CreationTime>2015-03-25T10:03:49Z</ctx:CreationTime>
      </ctx:CreationTimeExtension>
    </extensions>
  </wpt>

  <wpt lat="43.942973613739014" lon="7.517309188842773">
    <time>2015-03-25T09:39:07Z</time>
    <name>Azur &amp; Merveilles</name>
    <cmt>Azur &amp; Merveilles
Breil-Sur-Roya, Provence-Alpes-Côte D'azur, France
04 93 62 47 04</cmt>
    <desc>Azur &amp; Merveilles
Breil-Sur-Roya, Provence-Alpes-Côte D'azur, France
04 93 62 47 04</desc>
    <sym>Campground</sym>
    <type>user</type>
    <extensions>
      <gpxx:WaypointExtension>
        <gpxx:DisplayMode>SymbolOnly</gpxx:DisplayMode>
        <gpxx:PhoneNumber>04 93 62 47 04</gpxx:PhoneNumber>
      </gpxx:WaypointExtension>
      <wptx1:WaypointExtension>
        <wptx1:DisplayMode>SymbolOnly</wptx1:DisplayMode>
        <wptx1:PhoneNumber>04 93 62 47 04</wptx1:PhoneNumber>
      </wptx1:WaypointExtension>
      <ctx:CreationTimeExtension>
        <ctx:CreationTime>2015-03-25T09:39:07Z</ctx:CreationTime>
      </ctx:CreationTimeExtension>
    </extensions>
  </wpt>

  <wpt lat="44.064625035971403" lon="7.257138015702367">
    <time>2015-03-25T10:03:49Z</time>
    <name>Camping A La Ferme Saint-joseph</name>
    <cmt>Route de Nice, Saint-Martin-Vésubie, www.camping-alafermestjoseph.com, 06 70 51 90 14</cmt>
    <desc>Route de Nice, Saint-Martin-Vésubie, www.camping-alafermestjoseph.com, 06 70 51 90 14</desc>
    <sym>Campground</sym>
    <type>user</type>
    <extensions>
      <gpxx:WaypointExtension>
        <gpxx:DisplayMode>SymbolOnly</gpxx:DisplayMode>
      </gpxx:WaypointExtension>
      <wptx1:WaypointExtension>
        <wptx1:DisplayMode>SymbolOnly</wptx1:DisplayMode>
      </wptx1:WaypointExtension>
      <ctx:CreationTimeExtension>
        <ctx:CreationTime>2015-03-25T10:03:49Z</ctx:CreationTime>
      </ctx:CreationTimeExtension>
    </extensions>
  </wpt>

  <wpt lat="43.947690026834607" lon="7.006100015714765">
    <time>2015-03-25T10:03:49Z</time>
    <name>Camping de L'Amitié</name>
    <cmt>Quartier Sou Villars, Touët-sur-Var, www.domainedelamitie.com, 04 93 05 74 32</cmt>
    <desc>Quartier Sou Villars, Touët-sur-Var, www.domainedelamitie.com, 04 93 05 74 32</desc>
    <sym>Campground</sym>
    <type>user</type>
    <extensions>
      <gpxx:WaypointExtension>
        <gpxx:DisplayMode>SymbolOnly</gpxx:DisplayMode>
      </gpxx:WaypointExtension>
      <wptx1:WaypointExtension>
        <wptx1:DisplayMode>SymbolOnly</wptx1:DisplayMode>
      </wptx1:WaypointExtension>
      <ctx:CreationTimeExtension>
        <ctx:CreationTime>2015-03-25T10:03:49Z</ctx:CreationTime>
      </ctx:CreationTimeExtension>
    </extensions>
  </wpt>

  <wpt lat="43.822719035670161" lon="6.431255014613271">
    <time>2015-03-25T10:03:49Z</time>
    <name>Camping des Gorges du Verdon</name>
    <cmt>Chasteuil, Castellane, www.camping-gorgesduverdon.com, 04 92 83 63 64</cmt>
    <desc>Chasteuil, Castellane, www.camping-gorgesduverdon.com, 04 92 83 63 64</desc>
    <sym>Campground</sym>
    <type>user</type>
    <extensions>
      <gpxx:WaypointExtension>
        <gpxx:DisplayMode>SymbolOnly</gpxx:DisplayMode>
      </gpxx:WaypointExtension>
      <wptx1:WaypointExtension>
        <wptx1:DisplayMode>SymbolOnly</wptx1:DisplayMode>
      </wptx1:WaypointExtension>
      <ctx:CreationTimeExtension>
        <ctx:CreationTime>2015-03-25T10:03:49Z</ctx:CreationTime>
      </ctx:CreationTimeExtension>
    </extensions>
  </wpt>

  <wpt lat="43.964684000238776" lon="6.795031037181616">
    <time>2015-03-25T10:03:49Z</time>
    <name>Camping Du Brec</name>
    <cmt>Le Brec, Entrevaux, www.camping-dubrec.com, 04 93 05 42 4</cmt>
    <desc>Le Brec, Entrevaux, www.camping-dubrec.com, 04 93 05 42 4</desc>
    <sym>Campground</sym>
    <type>user</type>
    <extensions>
      <gpxx:WaypointExtension>
        <gpxx:DisplayMode>SymbolOnly</gpxx:DisplayMode>
      </gpxx:WaypointExtension>
      <wptx1:WaypointExtension>
        <wptx1:DisplayMode>SymbolOnly</wptx1:DisplayMode>
      </wptx1:WaypointExtension>
      <ctx:CreationTimeExtension>
        <ctx:CreationTime>2015-03-25T10:03:49Z</ctx:CreationTime>
      </ctx:CreationTimeExtension>
    </extensions>
  </wpt>

  <wpt lat="43.859224990010262" lon="6.498241005465388">
    <time>2015-03-25T10:03:49Z</time>
    <name>Camping International Castellane</name>
    <cmt>Route Départementale 4085, Castellane, www.campinginternational.fr, 04 92 83 66 67</cmt>
    <desc>Route Départementale 4085, Castellane, www.campinginternational.fr, 04 92 83 66 67</desc>
    <sym>Campground</sym>
    <type>user</type>
    <extensions>
      <gpxx:WaypointExtension>
        <gpxx:DisplayMode>SymbolOnly</gpxx:DisplayMode>
      </gpxx:WaypointExtension>
      <wptx1:WaypointExtension>
        <wptx1:DisplayMode>SymbolOnly</wptx1:DisplayMode>
      </wptx1:WaypointExtension>
      <ctx:CreationTimeExtension>
        <ctx:CreationTime>2015-03-25T10:03:49Z</ctx:CreationTime>
      </ctx:CreationTimeExtension>
    </extensions>
  </wpt>

  <wpt lat="44.099283032119274" lon="6.987633006647229">
    <time>2015-03-25T10:03:49Z</time>
    <name>Camping Le Cians</name>
    <cmt>Route du Col de la Couillole, Beuil, www.camping-le-cians.fr, 04 93 02 57 29</cmt>
    <desc>Route du Col de la Couillole, Beuil, www.camping-le-cians.fr, 04 93 02 57 29</desc>
    <sym>Campground</sym>
    <type>user</type>
    <extensions>
      <gpxx:WaypointExtension>
        <gpxx:DisplayMode>SymbolOnly</gpxx:DisplayMode>
      </gpxx:WaypointExtension>
      <wptx1:WaypointExtension>
        <wptx1:DisplayMode>SymbolOnly</wptx1:DisplayMode>
      </wptx1:WaypointExtension>
      <ctx:CreationTimeExtension>
        <ctx:CreationTime>2015-03-25T10:03:49Z</ctx:CreationTime>
      </ctx:CreationTimeExtension>
    </extensions>
  </wpt>

  <wpt lat="44.015340032055974" lon="7.310329992324114">
    <time>2015-03-25T10:03:49Z</time>
    <name>Camping Les Templiers</name>
    <cmt>La Bourgade, Roquebillière, 04 93 03 40 28</cmt>
    <desc>La Bourgade, Roquebillière, 04 93 03 40 28</desc>
    <sym>Campground</sym>
    <type>user</type>
    <extensions>
      <gpxx:WaypointExtension>
        <gpxx:DisplayMode>SymbolOnly</gpxx:DisplayMode>
      </gpxx:WaypointExtension>
      <wptx1:WaypointExtension>
        <wptx1:DisplayMode>SymbolOnly</wptx1:DisplayMode>
      </wptx1:WaypointExtension>
      <ctx:CreationTimeExtension>
        <ctx:CreationTime>2015-03-25T10:03:49Z</ctx:CreationTime>
      </ctx:CreationTimeExtension>
    </extensions>
  </wpt>

  <wpt lat="43.71458301320672" lon="7.177182035520673">
    <time>2015-03-25T10:03:49Z</time>
    <name>Camping Magali</name>
    <cmt>1814 Route de la Baronne, Saint-Laurent-du-Var, www.camping-magali.com, 04 93 31 57 00</cmt>
    <desc>1814 Route de la Baronne, Saint-Laurent-du-Var, www.camping-magali.com, 04 93 31 57 00</desc>
    <sym>Campground</sym>
    <type>user</type>
    <extensions>
      <gpxx:WaypointExtension>
        <gpxx:DisplayMode>SymbolOnly</gpxx:DisplayMode>
      </gpxx:WaypointExtension>
      <wptx1:WaypointExtension>
        <wptx1:DisplayMode>SymbolOnly</wptx1:DisplayMode>
      </wptx1:WaypointExtension>
      <ctx:CreationTimeExtension>
        <ctx:CreationTime>2015-03-25T10:03:49Z</ctx:CreationTime>
      </ctx:CreationTimeExtension>
    </extensions>
  </wpt>

  <wpt lat="43.878879547119141" lon="7.443151473999023">
    <time>2015-03-25T09:39:00Z</time>
    <name>Camping Municipal</name>
    <cmt>Camping Municipal
Sospel, Provence-Alpes-Côte D'azur, France</cmt>
    <desc>Camping Municipal
Sospel, Provence-Alpes-Côte D'azur, France</desc>
    <sym>Campground</sym>
    <type>user</type>
    <extensions>
      <gpxx:WaypointExtension>
        <gpxx:DisplayMode>SymbolOnly</gpxx:DisplayMode>
      </gpxx:WaypointExtension>
      <wptx1:WaypointExtension>
        <wptx1:DisplayMode>SymbolOnly</wptx1:DisplayMode>
      </wptx1:WaypointExtension>
      <ctx:CreationTimeExtension>
        <ctx:CreationTime>2015-03-25T09:39:00Z</ctx:CreationTime>
      </ctx:CreationTimeExtension>
    </extensions>
  </wpt>

  <wpt lat="44.07057099044323" lon="7.210349980741739">
    <time>2015-03-25T10:03:49Z</time>
    <name>Camping Municipal de Valdeblore</name>
    <cmt>Soun Dal Pra, Valdeblore, www.colmiane.com, 04 93 02 78 85</cmt>
    <desc>Soun Dal Pra, Valdeblore, www.colmiane.com, 04 93 02 78 85</desc>
    <sym>Campground</sym>
    <type>user</type>
    <extensions>
      <gpxx:WaypointExtension>
        <gpxx:DisplayMode>SymbolOnly</gpxx:DisplayMode>
      </gpxx:WaypointExtension>
      <wptx1:WaypointExtension>
        <wptx1:DisplayMode>SymbolOnly</wptx1:DisplayMode>
      </wptx1:WaypointExtension>
      <ctx:CreationTimeExtension>
        <ctx:CreationTime>2015-03-25T10:03:49Z</ctx:CreationTime>
      </ctx:CreationTimeExtension>
    </extensions>
  </wpt>

  <wpt lat="43.9609320089221" lon="6.507778018712997">
    <time>2015-03-25T10:03:49Z</time>
    <name>Camping Municipal Les Iscles</name>
    <cmt>Route de Nice, Saint-André-les-Alpes, camping-les-iscles.com, 04 92 89 02 29</cmt>
    <desc>Route de Nice, Saint-André-les-Alpes, camping-les-iscles.com, 04 92 89 02 29</desc>
    <sym>Campground</sym>
    <type>user</type>
    <extensions>
      <gpxx:WaypointExtension>
        <gpxx:DisplayMode>SymbolOnly</gpxx:DisplayMode>
      </gpxx:WaypointExtension>
      <wptx1:WaypointExtension>
        <wptx1:DisplayMode>SymbolOnly</wptx1:DisplayMode>
      </wptx1:WaypointExtension>
      <ctx:CreationTimeExtension>
        <ctx:CreationTime>2015-03-25T10:03:49Z</ctx:CreationTime>
      </ctx:CreationTimeExtension>
    </extensions>
  </wpt>

  <wpt lat="43.779884995892644" lon="7.498000971972942">
    <time>2015-03-25T10:03:49Z</time>
    <name>Camping Municipal Saint Michel</name>
    <cmt>Plateau Saint Michel, Route des Ciappes de Castellar, Menton, www.menton.fr, 04 93 35 81 23</cmt>
    <desc>Plateau Saint Michel, Route des Ciappes de Castellar, Menton, www.menton.fr, 04 93 35 81 23</desc>
    <sym>Campground</sym>
    <type>user</type>
    <extensions>
      <gpxx:WaypointExtension>
        <gpxx:DisplayMode>SymbolOnly</gpxx:DisplayMode>
      </gpxx:WaypointExtension>
      <wptx1:WaypointExtension>
        <wptx1:DisplayMode>SymbolOnly</wptx1:DisplayMode>
      </wptx1:WaypointExtension>
      <ctx:CreationTimeExtension>
        <ctx:CreationTime>2015-03-25T10:03:49Z</ctx:CreationTime>
      </ctx:CreationTimeExtension>
    </extensions>
  </wpt>

  <wpt lat="43.779122829437256" lon="7.497889995574951">
    <time>2015-03-25T09:39:34Z</time>
    <name>Camping Municipal St Michel</name>
    <cmt>Camping Municipal St Michel
Menton, Provence-Alpes-Côte D'azur, France</cmt>
    <desc>Camping Municipal St Michel
Menton, Provence-Alpes-Côte D'azur, France</desc>
    <sym>Campground</sym>
    <type>user</type>
    <extensions>
      <gpxx:WaypointExtension>
        <gpxx:DisplayMode>SymbolOnly</gpxx:DisplayMode>
      </gpxx:WaypointExtension>
      <wptx1:WaypointExtension>
        <wptx1:DisplayMode>SymbolOnly</wptx1:DisplayMode>
      </wptx1:WaypointExtension>
      <ctx:CreationTimeExtension>
        <ctx:CreationTime>2015-03-25T09:39:34Z</ctx:CreationTime>
      </ctx:CreationTimeExtension>
    </extensions>
  </wpt>

  <wpt lat="43.795335022732615" lon="6.437496012076735">
    <time>2015-03-25T10:03:49Z</time>
    <name>Camping Municipal1</name>
    <cmt>Carajuan, Rougon, camping-gorgesduverdon-carajuan-rougon.com, 04 92 83 70 94</cmt>
    <desc>Carajuan, Rougon, camping-gorgesduverdon-carajuan-rougon.com, 04 92 83 70 94</desc>
    <sym>Campground</sym>
    <type>user</type>
    <extensions>
      <gpxx:WaypointExtension>
        <gpxx:DisplayMode>SymbolOnly</gpxx:DisplayMode>
      </gpxx:WaypointExtension>
      <wptx1:WaypointExtension>
        <wptx1:DisplayMode>SymbolOnly</wptx1:DisplayMode>
      </wptx1:WaypointExtension>
      <ctx:CreationTimeExtension>
        <ctx:CreationTime>2015-03-25T10:03:49Z</ctx:CreationTime>
      </ctx:CreationTimeExtension>
    </extensions>
  </wpt>

  <wpt lat="44.149112021550536" lon="6.762701030820608">
    <time>2015-03-25T10:03:49Z</time>
    <name>Camping-Gites Le Prieuré</name>
    <cmt>Les Blancs, Saint-Martin Entraunes, le-prieure.com, 04 93 05 54 99</cmt>
    <desc>Les Blancs, Saint-Martin Entraunes, le-prieure.com, 04 93 05 54 99</desc>
    <sym>Campground</sym>
    <type>user</type>
    <extensions>
      <gpxx:WaypointExtension>
        <gpxx:DisplayMode>SymbolOnly</gpxx:DisplayMode>
      </gpxx:WaypointExtension>
      <wptx1:WaypointExtension>
        <wptx1:DisplayMode>SymbolOnly</wptx1:DisplayMode>
      </wptx1:WaypointExtension>
      <ctx:CreationTimeExtension>
        <ctx:CreationTime>2015-03-25T10:03:49Z</ctx:CreationTime>
      </ctx:CreationTimeExtension>
    </extensions>
  </wpt>

  <wpt lat="43.816545009613037" lon="7.342686653137207">
    <time>2015-03-25T09:39:12Z</time>
    <name>Campsite1</name>
    <cmt>Campsite
Contes, Provence-Alpes-Côte D'azur, France</cmt>
    <desc>Campsite
Contes, Provence-Alpes-Côte D'azur, France</desc>
    <sym>Campground</sym>
    <type>user</type>
    <extensions>
      <gpxx:WaypointExtension>
        <gpxx:DisplayMode>SymbolOnly</gpxx:DisplayMode>
      </gpxx:WaypointExtension>
      <wptx1:WaypointExtension>
        <wptx1:DisplayMode>SymbolOnly</wptx1:DisplayMode>
      </wptx1:WaypointExtension>
      <ctx:CreationTimeExtension>
        <ctx:CreationTime>2015-03-25T09:39:12Z</ctx:CreationTime>
      </ctx:CreationTimeExtension>
    </extensions>
  </wpt>

  <wpt lat="43.942844867706299" lon="7.282476425170898">
    <time>2015-03-25T09:39:17Z</time>
    <name>Campsite2</name>
    <cmt>Campsite
Lantosque, Provence-Alpes-Côte D'azur, France</cmt>
    <desc>Campsite
Lantosque, Provence-Alpes-Côte D'azur, France</desc>
    <sym>Campground</sym>
    <type>user</type>
    <extensions>
      <gpxx:WaypointExtension>
        <gpxx:DisplayMode>SymbolOnly</gpxx:DisplayMode>
      </gpxx:WaypointExtension>
      <wptx1:WaypointExtension>
        <wptx1:DisplayMode>SymbolOnly</wptx1:DisplayMode>
      </wptx1:WaypointExtension>
      <ctx:CreationTimeExtension>
        <ctx:CreationTime>2015-03-25T09:39:17Z</ctx:CreationTime>
      </ctx:CreationTimeExtension>
    </extensions>
  </wpt>

  <wpt lat="43.948123455047607" lon="7.415406703948975">
    <time>2015-03-25T09:39:20Z</time>
    <name>Campsite3</name>
    <cmt>Campsite
Moulinet, Provence-Alpes-Côte D'azur, France</cmt>
    <desc>Campsite
Moulinet, Provence-Alpes-Côte D'azur, France</desc>
    <sym>Campground</sym>
    <type>user</type>
    <extensions>
      <gpxx:WaypointExtension>
        <gpxx:DisplayMode>SymbolOnly</gpxx:DisplayMode>
      </gpxx:WaypointExtension>
      <wptx1:WaypointExtension>
        <wptx1:DisplayMode>SymbolOnly</wptx1:DisplayMode>
      </wptx1:WaypointExtension>
      <ctx:CreationTimeExtension>
        <ctx:CreationTime>2015-03-25T09:39:20Z</ctx:CreationTime>
      </ctx:CreationTimeExtension>
    </extensions>
  </wpt>

  <wpt lat="43.788092136383057" lon="7.443022727966309">
    <time>2015-03-25T09:39:22Z</time>
    <name>Campsite4</name>
    <cmt>Campsite
Gorbio, Provence-Alpes-Côte D'azur, France</cmt>
    <desc>Campsite
Gorbio, Provence-Alpes-Côte D'azur, France</desc>
    <sym>Campground</sym>
    <type>user</type>
    <extensions>
      <gpxx:WaypointExtension>
        <gpxx:DisplayMode>SymbolOnly</gpxx:DisplayMode>
      </gpxx:WaypointExtension>
      <wptx1:WaypointExtension>
        <wptx1:DisplayMode>SymbolOnly</wptx1:DisplayMode>
      </wptx1:WaypointExtension>
      <ctx:CreationTimeExtension>
        <ctx:CreationTime>2015-03-25T09:39:22Z</ctx:CreationTime>
      </ctx:CreationTimeExtension>
    </extensions>
  </wpt>

  <wpt lat="43.787641525268555" lon="7.442958354949951">
    <time>2015-03-25T09:39:24Z</time>
    <name>Campsite5</name>
    <cmt>Campsite
Gorbio, Provence-Alpes-Côte D'azur, France</cmt>
    <desc>Campsite
Gorbio, Provence-Alpes-Côte D'azur, France</desc>
    <sym>Campground</sym>
    <type>user</type>
    <extensions>
      <gpxx:WaypointExtension>
        <gpxx:DisplayMode>SymbolOnly</gpxx:DisplayMode>
      </gpxx:WaypointExtension>
      <wptx1:WaypointExtension>
        <wptx1:DisplayMode>SymbolOnly</wptx1:DisplayMode>
      </wptx1:WaypointExtension>
      <ctx:CreationTimeExtension>
        <ctx:CreationTime>2015-03-25T09:39:24Z</ctx:CreationTime>
      </ctx:CreationTimeExtension>
    </extensions>
  </wpt>

  <wpt lat="44.189095878973603" lon="7.043337039649487">
    <time>2015-03-25T10:03:49Z</time>
    <name>Caravaneige du Lac des Neiges</name>
    <sym>Campground</sym>
    <type>user</type>
    <extensions>
      <gpxx:WaypointExtension>
        <gpxx:DisplayMode>SymbolOnly</gpxx:DisplayMode>
      </gpxx:WaypointExtension>
      <wptx1:WaypointExtension>
        <wptx1:DisplayMode>SymbolOnly</wptx1:DisplayMode>
      </wptx1:WaypointExtension>
      <ctx:CreationTimeExtension>
        <ctx:CreationTime>2015-03-25T10:03:49Z</ctx:CreationTime>
      </ctx:CreationTimeExtension>
    </extensions>
  </wpt>

  <wpt lat="43.839053018018603" lon="6.493935976177454">
    <time>2015-03-25T10:03:49Z</time>
    <name>Castel-Domaine du Verdon</name>
    <cmt>D952, 04120 Castellane, Francewww.camp-du-verdon.com04 92 83 61 29</cmt>
    <desc>D952, 04120 Castellane, Francewww.camp-du-verdon.com04 92 83 61 29</desc>
    <sym>Campground</sym>
    <type>user</type>
    <extensions>
      <gpxx:WaypointExtension>
        <gpxx:DisplayMode>SymbolOnly</gpxx:DisplayMode>
      </gpxx:WaypointExtension>
      <wptx1:WaypointExtension>
        <wptx1:DisplayMode>SymbolOnly</wptx1:DisplayMode>
      </wptx1:WaypointExtension>
      <ctx:CreationTimeExtension>
        <ctx:CreationTime>2015-03-25T10:03:49Z</ctx:CreationTime>
      </ctx:CreationTimeExtension>
    </extensions>
  </wpt>

  <wpt lat="43.896785974502563" lon="7.416390990838408">
    <time>2015-03-25T10:03:49Z</time>
    <name>Domaine Sainte-Madeleine</name>
    <cmt>Route du Moulinet, Sospel, www.camping-sainte-madeleine.com, 04 93 04 10 48</cmt>
    <desc>Route du Moulinet, Sospel, www.camping-sainte-madeleine.com, 04 93 04 10 48</desc>
    <sym>Campground</sym>
    <type>user</type>
    <extensions>
      <gpxx:WaypointExtension>
        <gpxx:DisplayMode>SymbolOnly</gpxx:DisplayMode>
      </gpxx:WaypointExtension>
      <wptx1:WaypointExtension>
        <wptx1:DisplayMode>SymbolOnly</wptx1:DisplayMode>
      </wptx1:WaypointExtension>
      <ctx:CreationTimeExtension>
        <ctx:CreationTime>2015-03-25T10:03:49Z</ctx:CreationTime>
      </ctx:CreationTimeExtension>
    </extensions>
  </wpt>

  <wpt lat="43.745570993050933" lon="7.158786021173">
    <time>2015-03-25T10:03:49Z</time>
    <name>Les Cent Chênes</name>
    <cmt>1205 Route de Gattières, Saint-Jeannet, www.camping-lescentchenes.com, 04 93 24 44 26</cmt>
    <desc>1205 Route de Gattières, Saint-Jeannet, www.camping-lescentchenes.com, 04 93 24 44 26</desc>
    <sym>Campground</sym>
    <type>user</type>
    <extensions>
      <gpxx:WaypointExtension>
        <gpxx:DisplayMode>SymbolOnly</gpxx:DisplayMode>
      </gpxx:WaypointExtension>
      <wptx1:WaypointExtension>
        <wptx1:DisplayMode>SymbolOnly</wptx1:DisplayMode>
      </wptx1:WaypointExtension>
      <ctx:CreationTimeExtension>
        <ctx:CreationTime>2015-03-25T10:03:49Z</ctx:CreationTime>
      </ctx:CreationTimeExtension>
    </extensions>
  </wpt>

  <wpt lat="44.062066040933132" lon="7.251622974872589">
    <time>2015-03-25T10:03:49Z</time>
    <name>Les Champouns</name>
    <cmt>Route de Venanson, Saint-Martin-Vésubie, www.champouns.com, 04 93 03 23 72</cmt>
    <desc>Route de Venanson, Saint-Martin-Vésubie, www.champouns.com, 04 93 03 23 72</desc>
    <sym>Campground</sym>
    <type>user</type>
    <extensions>
      <gpxx:WaypointExtension>
        <gpxx:DisplayMode>SymbolOnly</gpxx:DisplayMode>
      </gpxx:WaypointExtension>
      <wptx1:WaypointExtension>
        <wptx1:DisplayMode>SymbolOnly</wptx1:DisplayMode>
      </wptx1:WaypointExtension>
      <ctx:CreationTimeExtension>
        <ctx:CreationTime>2015-03-25T10:03:49Z</ctx:CreationTime>
      </ctx:CreationTimeExtension>
    </extensions>
  </wpt>

  <wpt lat="43.723139762878418" lon="7.336099147796631">
    <time>2015-03-25T09:39:37Z</time>
    <name>Les Romarins</name>
    <cmt>Les Romarins
Èze, Provence-Alpes-Côte D'azur, France</cmt>
    <desc>Les Romarins
Èze, Provence-Alpes-Côte D'azur, France</desc>
    <sym>Campground</sym>
    <type>user</type>
    <extensions>
      <gpxx:WaypointExtension>
        <gpxx:DisplayMode>SymbolOnly</gpxx:DisplayMode>
      </gpxx:WaypointExtension>
      <wptx1:WaypointExtension>
        <wptx1:DisplayMode>SymbolOnly</wptx1:DisplayMode>
      </wptx1:WaypointExtension>
      <ctx:CreationTimeExtension>
        <ctx:CreationTime>2015-03-25T09:39:37Z</ctx:CreationTime>
      </ctx:CreationTimeExtension>
    </extensions>
  </wpt>

  <wpt lat="43.884007930755615" lon="7.426114082336426">
    <time>2015-03-25T09:38:55Z</time>
    <name>Masfle</name>
    <cmt>Masfle
Sospel, Provence-Alpes-Côte D'azur, France</cmt>
    <desc>Masfle
Sospel, Provence-Alpes-Côte D'azur, France</desc>
    <sym>Campground</sym>
    <type>user</type>
    <extensions>
      <gpxx:WaypointExtension>
        <gpxx:DisplayMode>SymbolOnly</gpxx:DisplayMode>
      </gpxx:WaypointExtension>
      <wptx1:WaypointExtension>
        <wptx1:DisplayMode>SymbolOnly</wptx1:DisplayMode>
      </wptx1:WaypointExtension>
      <ctx:CreationTimeExtension>
        <ctx:CreationTime>2015-03-25T09:38:55Z</ctx:CreationTime>
      </ctx:CreationTimeExtension>
    </extensions>
  </wpt>

  <wpt lat="43.832337856292725" lon="7.17780590057373">
    <time>2015-03-25T09:39:04Z</time>
    <name>Moulin Nou (Fermée)</name>
    <cmt>Moulin Nou (Fermée)
Gilette, Provence-Alpes-Côte D'azur, France</cmt>
    <desc>Moulin Nou (Fermée)
Gilette, Provence-Alpes-Côte D'azur, France</desc>
    <sym>Campground</sym>
    <type>user</type>
    <extensions>
      <gpxx:WaypointExtension>
        <gpxx:DisplayMode>SymbolOnly</gpxx:DisplayMode>
      </gpxx:WaypointExtension>
      <wptx1:WaypointExtension>
        <wptx1:DisplayMode>SymbolOnly</wptx1:DisplayMode>
      </wptx1:WaypointExtension>
      <ctx:CreationTimeExtension>
        <ctx:CreationTime>2015-03-25T09:39:04Z</ctx:CreationTime>
      </ctx:CreationTimeExtension>
    </extensions>
  </wpt>

  <wpt lat="43.786053657531738" lon="7.538487911224365">
    <time>2015-03-25T09:39:39Z</time>
    <name>Villeuropa</name>
    <cmt>Villeuropa
Ventimiglia, Liguria, Italia
+39 0184 38057</cmt>
    <desc>Villeuropa
Ventimiglia, Liguria, Italia
+39 0184 38057</desc>
    <sym>Campground</sym>
    <type>user</type>
    <extensions>
      <gpxx:WaypointExtension>
        <gpxx:DisplayMode>SymbolOnly</gpxx:DisplayMode>
        <gpxx:PhoneNumber>+39 0184 38057</gpxx:PhoneNumber>
      </gpxx:WaypointExtension>
      <wptx1:WaypointExtension>
        <wptx1:DisplayMode>SymbolOnly</wptx1:DisplayMode>
        <wptx1:PhoneNumber>+39 0184 38057</wptx1:PhoneNumber>
      </wptx1:WaypointExtension>
      <ctx:CreationTimeExtension>
        <ctx:CreationTime>2015-03-25T09:39:39Z</ctx:CreationTime>
      </ctx:CreationTimeExtension>
    </extensions>
  </wpt>

</gpx>
