<?xml version="1.0"?>
<gpx creator="GPS Visualizer http://www.gpsvisualizer.com/" version="1.1" xmlns="http://www.topografix.com/GPX/1/1" xmlns:xsi="http://www.w3.org/2001/XMLSchema-instance" xsi:schemaLocation="http://www.topografix.com/GPX/1/1 http://www.topografix.com/GPX/1/1/gpx.xsd">

  

  <trk>
    <name>FVG1A&amp;D2 Tarvisio-Kranjska-Gora</name>
<desc>From http://www.italy-cycling-guide.info/</desc>
 
    <trkseg>
      <trkpt lat="46.504856050014496" lon="13.580496311187744">
        <ele>752.027140000000031</ele>
        <time>2010-01-01T00:00:00Z</time>
      </trkpt>
      <trkpt lat="46.504803998395801" lon="13.581839678809047">
        <ele>752.628460000000018</ele>
        <time>2010-01-01T00:00:23Z</time>
      </trkpt>
      <trkpt lat="46.504451120272279" lon="13.583490159362555">
        <ele>750.228460000000041</ele>
        <time>2010-01-01T00:00:52Z</time>
      </trkpt>
      <trkpt lat="46.504376772791147" lon="13.584517613053322">
        <ele>749.413069999999948</ele>
        <time>2010-01-01T00:01:10Z</time>
      </trkpt>
      <trkpt lat="46.504497053101659" lon="13.585370387881994">
        <ele>748.485379999999964</ele>
        <time>2010-01-01T00:01:25Z</time>
      </trkpt>
      <trkpt lat="46.504844985902309" lon="13.586788605898619">
        <ele>746.673840000000041</ele>
        <time>2010-01-01T00:01:51Z</time>
      </trkpt>
      <trkpt lat="46.505031986162066" lon="13.588563222438097">
        <ele>745.30768999999998</ele>
        <time>2010-01-01T00:02:21Z</time>
      </trkpt>
      <trkpt lat="46.505378158763051" lon="13.590135332196951">
        <ele>741.350760000000037</ele>
        <time>2010-01-01T00:02:50Z</time>
      </trkpt>
      <trkpt lat="46.505637662485242" lon="13.593461103737354">
        <ele>740.017690000000016</ele>
        <time>2010-01-01T00:03:47Z</time>
      </trkpt>
      <trkpt lat="46.505769928917289" lon="13.594095529988408">
        <ele>739.759230000000002</ele>
        <time>2010-01-01T00:03:58Z</time>
      </trkpt>
      <trkpt lat="46.506018619984388" lon="13.594693243503571">
        <ele>739.168459999999982</ele>
        <time>2010-01-01T00:04:10Z</time>
      </trkpt>
      <trkpt lat="46.507066776975989" lon="13.596167117357254">
        <ele>738.319229999999948</ele>
        <time>2010-01-01T00:04:46Z</time>
      </trkpt>
      <trkpt lat="46.507428959012032" lon="13.596836915239692">
        <ele>737.802299999999946</ele>
        <time>2010-01-01T00:05:01Z</time>
      </trkpt>
      <trkpt lat="46.507655521854758" lon="13.597725480794907">
        <ele>737.359230000000025</ele>
        <time>2010-01-01T00:05:17Z</time>
      </trkpt>
      <trkpt lat="46.507874708622694" lon="13.599883317947388">
        <ele>741.055380000000014</ele>
        <time>2010-01-01T00:05:55Z</time>
      </trkpt>
      <trkpt lat="46.507436083629727" lon="13.6010224185884">
        <ele>739.760760000000005</ele>
        <time>2010-01-01T00:06:17Z</time>
      </trkpt>
      <trkpt lat="46.506834514439106" lon="13.601921796798706">
        <ele>742.200759999999946</ele>
        <time>2010-01-01T00:06:38Z</time>
      </trkpt>
      <trkpt lat="46.506189107894897" lon="13.602708857506514">
        <ele>745.196149999999989</ele>
        <time>2010-01-01T00:06:59Z</time>
      </trkpt>
      <trkpt lat="46.505998000502586" lon="13.603189643472433">
        <ele>748.486920000000055</ele>
        <time>2010-01-01T00:07:09Z</time>
      </trkpt>
      <trkpt lat="46.505971597507596" lon="13.603484770283103">
        <ele>750.7423</ele>
        <time>2010-01-01T00:07:14Z</time>
      </trkpt>
      <trkpt lat="46.506149126216769" lon="13.604024732485414">
        <ele>753.550759999999968</ele>
        <time>2010-01-01T00:07:24Z</time>
      </trkpt>
      <trkpt lat="46.506150299683213" lon="13.605601536110044">
        <ele>753.034610000000043</ele>
        <time>2010-01-01T00:07:51Z</time>
      </trkpt>
      <trkpt lat="46.506295725703239" lon="13.605840085074306">
        <ele>752.259230000000002</ele>
        <time>2010-01-01T00:07:57Z</time>
      </trkpt>
      <trkpt lat="46.506965942680836" lon="13.60639538615942">
        <ele>750.558459999999968</ele>
        <time>2010-01-01T00:08:16Z</time>
      </trkpt>
      <trkpt lat="46.507057975977659" lon="13.606674754992127">
        <ele>750.115379999999959</ele>
        <time>2010-01-01T00:08:21Z</time>
      </trkpt>
      <trkpt lat="46.507081277668476" lon="13.607238605618477">
        <ele>750.521529999999984</ele>
        <time>2010-01-01T00:08:31Z</time>
      </trkpt>
      <trkpt lat="46.507152775302529" lon="13.607394341379404">
        <ele>750.816919999999982</ele>
        <time>2010-01-01T00:08:34Z</time>
      </trkpt>
      <trkpt lat="46.508010663092136" lon="13.608696470037103">
        <ele>751.703070000000025</ele>
        <time>2010-01-01T00:09:05Z</time>
      </trkpt>
      <trkpt lat="46.508747348561883" lon="13.609481602907181">
        <ele>750.55768999999998</ele>
        <time>2010-01-01T00:09:28Z</time>
      </trkpt>
      <trkpt lat="46.509214472025633" lon="13.61011971719563">
        <ele>753.108460000000036</ele>
        <time>2010-01-01T00:09:44Z</time>
      </trkpt>
      <trkpt lat="46.509473640471697" lon="13.610650878399611">
        <ele>752.774610000000052</ele>
        <time>2010-01-01T00:09:55Z</time>
      </trkpt>
      <trkpt lat="46.509663742035627" lon="13.611395191401243">
        <ele>749.965379999999982</ele>
        <time>2010-01-01T00:10:08Z</time>
      </trkpt>
      <trkpt lat="46.509921737015247" lon="13.612090470269322">
        <ele>745.899229999999989</ele>
        <time>2010-01-01T00:10:22Z</time>
      </trkpt>
      <trkpt lat="46.509770108386874" lon="13.61250420100987">
        <ele>743.939989999999966</ele>
        <time>2010-01-01T00:10:30Z</time>
      </trkpt>
      <trkpt lat="46.50961940176785" lon="13.612698074430227">
        <ele>743.386150000000043</ele>
        <time>2010-01-01T00:10:35Z</time>
      </trkpt>
      <trkpt lat="46.509434245526791" lon="13.612800501286983">
        <ele>743.386150000000043</ele>
        <time>2010-01-01T00:10:40Z</time>
      </trkpt>
      <trkpt lat="46.509127132594585" lon="13.61282967031002">
        <ele>744.568459999999959</ele>
        <time>2010-01-01T00:10:48Z</time>
      </trkpt>
      <trkpt lat="46.508745085448027" lon="13.61305489204824">
        <ele>747.637690000000021</ele>
        <time>2010-01-01T00:10:58Z</time>
      </trkpt>
      <trkpt lat="46.508299252018332" lon="13.613843880593777">
        <ele>752.257690000000025</ele>
        <time>2010-01-01T00:11:15Z</time>
      </trkpt>
      <trkpt lat="46.507701119408011" lon="13.615077193826437">
        <ele>755.582300000000032</ele>
        <time>2010-01-01T00:11:41Z</time>
      </trkpt>
      <trkpt lat="46.50733700953424" lon="13.616700768470764">
        <ele>757.802299999999946</ele>
        <time>2010-01-01T00:12:10Z</time>
      </trkpt>
      <trkpt lat="46.507123773917556" lon="13.617320777848363">
        <ele>759.208459999999945</ele>
        <time>2010-01-01T00:12:22Z</time>
      </trkpt>
      <trkpt lat="46.506431177258492" lon="13.61858082935214">
        <ele>764.276920000000018</ele>
        <time>2010-01-01T00:12:50Z</time>
      </trkpt>
      <trkpt lat="46.505814520642161" lon="13.619309300556779">
        <ele>761.837689999999952</ele>
        <time>2010-01-01T00:13:10Z</time>
      </trkpt>
      <trkpt lat="46.50266669690609" lon="13.622678238898516">
        <ele>759.764609999999948</ele>
        <time>2010-01-01T00:14:47Z</time>
      </trkpt>
      <trkpt lat="46.502247015014291" lon="13.622948555275798">
        <ele>761.20614999999998</ele>
        <time>2010-01-01T00:14:58Z</time>
      </trkpt>
      <trkpt lat="46.501700850203633" lon="13.623720360919833">
        <ele>764.608460000000036</ele>
        <time>2010-01-01T00:15:17Z</time>
      </trkpt>
      <trkpt lat="46.500924518331885" lon="13.624516390264034">
        <ele>767.972300000000018</ele>
        <time>2010-01-01T00:15:41Z</time>
      </trkpt>
      <trkpt lat="46.500596953555942" lon="13.624930372461677">
        <ele>769.118460000000027</ele>
        <time>2010-01-01T00:15:52Z</time>
      </trkpt>
      <trkpt lat="46.500240387395024" lon="13.625548789277673">
        <ele>772.185380000000009</ele>
        <time>2010-01-01T00:16:05Z</time>
      </trkpt>
      <trkpt lat="46.499657509848475" lon="13.627122491598129">
        <ele>774.106919999999946</ele>
        <time>2010-01-01T00:16:36Z</time>
      </trkpt>
      <trkpt lat="46.499166581779718" lon="13.628041986376047">
        <ele>776.805380000000014</ele>
        <time>2010-01-01T00:16:56Z</time>
      </trkpt>
      <trkpt lat="46.498568616807461" lon="13.628954272717237">
        <ele>779.72691999999995</ele>
        <time>2010-01-01T00:17:18Z</time>
      </trkpt>
      <trkpt lat="46.498052375391126" lon="13.629524493589997">
        <ele>780.614609999999971</ele>
        <time>2010-01-01T00:17:34Z</time>
      </trkpt>
      <trkpt lat="46.49584935978055" lon="13.631350742653012">
        <ele>787.569989999999962</ele>
        <time>2010-01-01T00:18:37Z</time>
      </trkpt>
      <trkpt lat="46.495001194998622" lon="13.632249115034938">
        <ele>785.277690000000007</ele>
        <time>2010-01-01T00:19:03Z</time>
      </trkpt>
      <trkpt lat="46.494628954678774" lon="13.633044306188822">
        <ele>783.872299999999996</ele>
        <time>2010-01-01T00:19:19Z</time>
      </trkpt>
      <trkpt lat="46.493896879255772" lon="13.63492545671761">
        <ele>784.463070000000016</ele>
        <time>2010-01-01T00:19:56Z</time>
      </trkpt>
      <trkpt lat="46.492939162999392" lon="13.640228351578116">
        <ele>795.700759999999946</ele>
        <time>2010-01-01T00:21:30Z</time>
      </trkpt>
      <trkpt lat="46.492831455543637" lon="13.640972329303622">
        <ele>797.438459999999964</ele>
        <time>2010-01-01T00:21:43Z</time>
      </trkpt>
      <trkpt lat="46.49287261068821" lon="13.641296708956361">
        <ele>798.991530000000012</ele>
        <time>2010-01-01T00:21:49Z</time>
      </trkpt>
      <trkpt lat="46.492813602089882" lon="13.641341803595424">
        <ele>800.433840000000032</ele>
        <time>2010-01-01T00:21:51Z</time>
      </trkpt>
      <trkpt lat="46.492824498564005" lon="13.641479266807437">
        <ele>801.913069999999948</ele>
        <time>2010-01-01T00:21:53Z</time>
      </trkpt>
      <trkpt lat="46.493890173733234" lon="13.648997163400054">
        <ele>818.109230000000025</ele>
        <time>2010-01-01T00:24:04Z</time>
      </trkpt>
      <trkpt lat="46.493753213435411" lon="13.652569111436605">
        <ele>818.700759999999946</ele>
        <time>2010-01-01T00:25:06Z</time>
      </trkpt>
      <trkpt lat="46.493855975568295" lon="13.654986033216119">
        <ele>817.074610000000007</ele>
        <time>2010-01-01T00:25:47Z</time>
      </trkpt>
      <trkpt lat="46.494082119315863" lon="13.656488656997681">
        <ele>813.931529999999952</ele>
        <time>2010-01-01T00:26:14Z</time>
      </trkpt>
      <trkpt lat="46.494379593059421" lon="13.657963117584586">
        <ele>812.600760000000037</ele>
        <time>2010-01-01T00:26:40Z</time>
      </trkpt>
      <trkpt lat="46.494429633021355" lon="13.658587066456676">
        <ele>811.935380000000009</ele>
        <time>2010-01-01T00:26:51Z</time>
      </trkpt>
      <trkpt lat="46.494326367974281" lon="13.659559953957796">
        <ele>809.864609999999971</ele>
        <time>2010-01-01T00:27:08Z</time>
      </trkpt>
      <trkpt lat="46.493684900924563" lon="13.661721143871546">
        <ele>816.112300000000005</ele>
        <time>2010-01-01T00:27:48Z</time>
      </trkpt>
      <trkpt lat="46.4936294965446" lon="13.662063544616103">
        <ele>818.293069999999943</ele>
        <time>2010-01-01T00:27:54Z</time>
      </trkpt>
      <trkpt lat="46.493602674454451" lon="13.663328373804688">
        <ele>823.616149999999948</ele>
        <time>2010-01-01T00:28:16Z</time>
      </trkpt>
      <trkpt lat="46.493777437135577" lon="13.664504773914814">
        <ele>825.576149999999984</ele>
        <time>2010-01-01T00:28:36Z</time>
      </trkpt>
      <trkpt lat="46.493803504854441" lon="13.665132494643331">
        <ele>828.756150000000048</ele>
        <time>2010-01-01T00:28:47Z</time>
      </trkpt>
      <trkpt lat="46.493690432980657" lon="13.666038913652301">
        <ele>830.974609999999984</ele>
        <time>2010-01-01T00:29:03Z</time>
      </trkpt>
      <trkpt lat="46.493485998362303" lon="13.666676441207528">
        <ele>832.268460000000005</ele>
        <time>2010-01-01T00:29:15Z</time>
      </trkpt>
      <trkpt lat="46.49293664842844" lon="13.667972199618816">
        <ele>833.821530000000052</ele>
        <time>2010-01-01T00:29:41Z</time>
      </trkpt>
      <trkpt lat="46.492754509672523" lon="13.669049022719264">
        <ele>836.705379999999991</ele>
        <time>2010-01-01T00:30:00Z</time>
      </trkpt>
      <trkpt lat="46.492744032293558" lon="13.669900959357619">
        <ele>837.186919999999986</ele>
        <time>2010-01-01T00:30:14Z</time>
      </trkpt>
      <trkpt lat="46.492802789434791" lon="13.670392222702503">
        <ele>839.036150000000021</ele>
        <time>2010-01-01T00:30:23Z</time>
      </trkpt>
      <trkpt lat="46.493048630654812" lon="13.671405678614974">
        <ele>844.250760000000014</ele>
        <time>2010-01-01T00:30:41Z</time>
      </trkpt>
      <trkpt lat="46.49331433698535" lon="13.672190895304084">
        <ele>846.395380000000046</ele>
        <time>2010-01-01T00:30:56Z</time>
      </trkpt>
      <trkpt lat="46.493729660287499" lon="13.67316260933876">
        <ele>846.284610000000043</ele>
        <time>2010-01-01T00:31:16Z</time>
      </trkpt>
      <trkpt lat="46.493887240067124" lon="13.673821594566107">
        <ele>845.98923000000002</ele>
        <time>2010-01-01T00:31:28Z</time>
      </trkpt>
      <trkpt lat="46.493972567841411" lon="13.674795487895608">
        <ele>846.802299999999946</ele>
        <time>2010-01-01T00:31:45Z</time>
      </trkpt>
      <trkpt lat="46.493795961141586" lon="13.678061915561557">
        <ele>849.906150000000025</ele>
        <time>2010-01-01T00:32:41Z</time>
      </trkpt>
      <trkpt lat="46.493949517607689" lon="13.679883135482669">
        <ele>852.716149999999971</ele>
        <time>2010-01-01T00:33:12Z</time>
      </trkpt>
      <trkpt lat="46.494218409061432" lon="13.681012513116002">
        <ele>853.012299999999982</ele>
        <time>2010-01-01T00:33:33Z</time>
      </trkpt>
      <trkpt lat="46.495004715397954" lon="13.683087453246117">
        <ele>853.531529999999975</ele>
        <time>2010-01-01T00:34:13Z</time>
      </trkpt>
      <trkpt lat="46.49567442946136" lon="13.685536393895745">
        <ele>853.679229999999961</ele>
        <time>2010-01-01T00:34:58Z</time>
      </trkpt>
      <trkpt lat="46.495856065303087" lon="13.686406435444951">
        <ele>853.789999999999964</ele>
        <time>2010-01-01T00:35:14Z</time>
      </trkpt>
      <trkpt lat="46.495782220736146" lon="13.687377562746406">
        <ele>854.823840000000018</ele>
        <time>2010-01-01T00:35:31Z</time>
      </trkpt>
      <trkpt lat="46.495980117470026" lon="13.689256785437465">
        <ele>855.156150000000025</ele>
        <time>2010-01-01T00:36:03Z</time>
      </trkpt>
      <trkpt lat="46.496231406927109" lon="13.690000511705875">
        <ele>855.488460000000032</ele>
        <time>2010-01-01T00:36:17Z</time>
      </trkpt>
      <trkpt lat="46.49629158899188" lon="13.690388174727559">
        <ele>855.414610000000039</ele>
        <time>2010-01-01T00:36:24Z</time>
      </trkpt>
      <trkpt lat="46.496404157951474" lon="13.690626220777631">
        <ele>855.082300000000032</ele>
        <time>2010-01-01T00:36:29Z</time>
      </trkpt>
      <trkpt lat="46.496378509327769" lon="13.690811628475785">
        <ele>855.008460000000014</ele>
        <time>2010-01-01T00:36:32Z</time>
      </trkpt>
      <trkpt lat="46.49650557897985" lon="13.6916777305305">
        <ele>854.085379999999986</ele>
        <time>2010-01-01T00:36:48Z</time>
      </trkpt>
      <trkpt lat="46.496478589251637" lon="13.692476525902748">
        <ele>853.863839999999982</ele>
        <time>2010-01-01T00:37:01Z</time>
      </trkpt>
      <trkpt lat="46.496713031083345" lon="13.694961508736014">
        <ele>852.903839999999946</ele>
        <time>2010-01-01T00:37:44Z</time>
      </trkpt>
      <trkpt lat="46.496715378016233" lon="13.696407973766327">
        <ele>852.830000000000041</ele>
        <time>2010-01-01T00:38:09Z</time>
      </trkpt>
      <trkpt lat="46.496051866561174" lon="13.702471861615777">
        <ele>852.902299999999968</ele>
        <time>2010-01-01T00:39:54Z</time>
      </trkpt>
      <trkpt lat="46.495774341747165" lon="13.703765524551272">
        <ele>853.605379999999968</ele>
        <time>2010-01-01T00:40:17Z</time>
      </trkpt>
      <trkpt lat="46.493223225697875" lon="13.711153836920857">
        <ele>855.082300000000032</ele>
        <time>2010-01-01T00:42:39Z</time>
      </trkpt>
      <trkpt lat="46.492959866300225" lon="13.711597574874759">
        <ele>855.894609999999943</ele>
        <time>2010-01-01T00:42:49Z</time>
      </trkpt>
      <trkpt lat="46.491768127307296" lon="13.715002723038197">
        <ele>856.300759999999968</ele>
        <time>2010-01-01T00:43:54Z</time>
      </trkpt>
      <trkpt lat="46.491400664672256" lon="13.716394118964672">
        <ele>856.116149999999948</ele>
        <time>2010-01-01T00:44:20Z</time>
      </trkpt>
      <trkpt lat="46.490949634462595" lon="13.717280253767967">
        <ele>855.746920000000046</ele>
        <time>2010-01-01T00:44:39Z</time>
      </trkpt>
      <trkpt lat="46.490806052461267" lon="13.718014508485794">
        <ele>855.37769000000003</ele>
        <time>2010-01-01T00:44:56Z</time>
      </trkpt>
      <trkpt lat="46.490726927295327" lon="13.719393331557512">
        <ele>855.673070000000052</ele>
        <time>2010-01-01T00:45:16Z</time>
      </trkpt>
      <trkpt lat="46.49092884734273" lon="13.720932081341743">
        <ele>856.596149999999966</ele>
        <time>2010-01-01T00:45:43Z</time>
      </trkpt>
      <trkpt lat="46.492856852710247" lon="13.725525615736842">
        <ele>855.894609999999943</ele>
        <time>2010-01-01T00:47:15Z</time>
      </trkpt>
      <trkpt lat="46.492927428334951" lon="13.726524151861668">
        <ele>854.97153000000003</ele>
        <time>2010-01-01T00:47:30Z</time>
      </trkpt>
      <trkpt lat="46.492805723100901" lon="13.727873135358095">
        <ele>848.907690000000002</ele>
        <time>2010-01-01T00:47:58Z</time>
      </trkpt>
      <trkpt lat="46.492558205500245" lon="13.728800090029836">
        <ele>843.656920000000014</ele>
        <time>2010-01-01T00:48:12Z</time>
      </trkpt>
      <trkpt lat="46.492176912724972" lon="13.729681363329291">
        <ele>839.959230000000048</ele>
        <time>2010-01-01T00:48:30Z</time>
      </trkpt>
      <trkpt lat="46.490466753020883" lon="13.732984168455005">
        <ele>845.176919999999996</ele>
        <time>2010-01-01T00:49:40Z</time>
      </trkpt>
      <trkpt lat="46.490159723907709" lon="13.733480796217918">
        <ele>844.881529999999998</ele>
        <time>2010-01-01T00:49:56Z</time>
      </trkpt>
      <trkpt lat="46.490067187696695" lon="13.734784098342061">
        <ele>845.139999999999986</ele>
        <time>2010-01-01T00:50:13Z</time>
      </trkpt>
      <trkpt lat="46.490136003121734" lon="13.736059907823801">
        <ele>845.804610000000025</ele>
        <time>2010-01-01T00:50:35Z</time>
      </trkpt>
      <trkpt lat="46.49105055257678" lon="13.740893332287669">
        <ele>845.029229999999984</ele>
        <time>2010-01-01T00:52:01Z</time>
      </trkpt>
      <trkpt lat="46.491248197853565" lon="13.74315083026886">
        <ele>845.139999999999986</ele>
        <time>2010-01-01T00:52:40Z</time>
      </trkpt>
      <trkpt lat="46.490786354988813" lon="13.751879241317511">
        <ele>844.806150000000002</ele>
        <time>2010-01-01T00:55:10Z</time>
      </trkpt>
      <trkpt lat="46.490309927612543" lon="13.754040263593197">
        <ele>844.028459999999995</ele>
        <time>2010-01-01T00:55:48Z</time>
      </trkpt>
      <trkpt lat="46.490183025598526" lon="13.75502111390233">
        <ele>839.737690000000043</ele>
        <time>2010-01-01T00:56:05Z</time>
      </trkpt>
      <trkpt lat="46.490291319787502" lon="13.757824106141925">
        <ele>837.260760000000005</ele>
        <time>2010-01-01T00:56:54Z</time>
      </trkpt>
      <trkpt lat="46.490322416648269" lon="13.760495334863663">
        <ele>836.410759999999982</ele>
        <time>2010-01-01T00:57:39Z</time>
      </trkpt>
      <trkpt lat="46.490261815488338" lon="13.761131856590509">
        <ele>835.597689999999943</ele>
        <time>2010-01-01T00:57:50Z</time>
      </trkpt>
      <trkpt lat="46.489810282364488" lon="13.762472625821829">
        <ele>831.716919999999959</ele>
        <time>2010-01-01T00:58:16Z</time>
      </trkpt>
      <trkpt lat="46.489442735910416" lon="13.763807779178023">
        <ele>828.129230000000007</ele>
        <time>2010-01-01T00:58:41Z</time>
      </trkpt>
      <trkpt lat="46.4893036801368" lon="13.76468469388783">
        <ele>825.282299999999964</ele>
        <time>2010-01-01T00:58:56Z</time>
      </trkpt>
      <trkpt lat="46.489306194707751" lon="13.765081409364939">
        <ele>824.617690000000039</ele>
        <time>2010-01-01T00:59:03Z</time>
      </trkpt>
      <trkpt lat="46.489479364827275" lon="13.765729833394289">
        <ele>824.100760000000037</ele>
        <time>2010-01-01T00:59:15Z</time>
      </trkpt>
      <trkpt lat="46.489490931853652" lon="13.766315560787916">
        <ele>824.285380000000032</ele>
        <time>2010-01-01T00:59:25Z</time>
      </trkpt>
      <trkpt lat="46.489298231899738" lon="13.769892202690244">
        <ele>824.470000000000027</ele>
        <time>2010-01-01T01:00:26Z</time>
      </trkpt>
      <trkpt lat="46.489004027098417" lon="13.771571684628725">
        <ele>824.285380000000032</ele>
        <time>2010-01-01T01:00:56Z</time>
      </trkpt>
      <trkpt lat="46.488713845610619" lon="13.772554798051715">
        <ele>824.100760000000037</ele>
        <time>2010-01-01T01:01:14Z</time>
      </trkpt>
      <trkpt lat="46.488420059904456" lon="13.77329533919692">
        <ele>823.066919999999982</ele>
        <time>2010-01-01T01:01:29Z</time>
      </trkpt>
      <trkpt lat="46.488038431853056" lon="13.773933537304401">
        <ele>822.065380000000005</ele>
        <time>2010-01-01T01:01:43Z</time>
      </trkpt>
      <trkpt lat="46.487774318084121" lon="13.774239476770163">
        <ele>821.583070000000021</ele>
        <time>2010-01-01T01:01:52Z</time>
      </trkpt>
      <trkpt lat="46.487077614292502" lon="13.775548059493303">
        <ele>821.02615000000003</ele>
        <time>2010-01-01T01:02:20Z</time>
      </trkpt>
      <trkpt lat="46.486641755327582" lon="13.776732422411442">
        <ele>820.620000000000005</ele>
        <time>2010-01-01T01:02:43Z</time>
      </trkpt>
      <trkpt lat="46.485839774832129" lon="13.778102193027735">
        <ele>817.592300000000023</ele>
        <time>2010-01-01T01:03:14Z</time>
      </trkpt>
      <trkpt lat="46.484915837645531" lon="13.780236896127462">
        <ele>817.333840000000009</ele>
        <time>2010-01-01T01:03:57Z</time>
      </trkpt>
      <trkpt lat="46.484832605347037" lon="13.780685495585203">
        <ele>817.481530000000021</ele>
        <time>2010-01-01T01:04:05Z</time>
      </trkpt>
      <trkpt lat="46.484781391918659" lon="13.782212426885962">
        <ele>817.961530000000039</ele>
        <time>2010-01-01T01:04:31Z</time>
      </trkpt>
      <trkpt lat="46.484537729993463" lon="13.783215908333659">
        <ele>819.042850000000044</ele>
        <time>2010-01-01T01:04:49Z</time>
      </trkpt>
    </trkseg>
  </trk>

</gpx>
