<?xml version="1.0"?>
<gpx creator="GPS Visualizer http://www.gpsvisualizer.com/" version="1.1" xmlns="http://www.topografix.com/GPX/1/1" xmlns:xsi="http://www.w3.org/2001/XMLSchema-instance" xsi:schemaLocation="http://www.topografix.com/GPX/1/1 http://www.topografix.com/GPX/1/1/gpx.xsd">
<trk>
  <name>GTdM part 003</name>
  <trkseg>
    <trkpt lat="42.836003657" lon="11.589247221">
      <ele>720.0</ele>
    </trkpt>
    <trkpt lat="42.836101055" lon="11.589074135">
      <ele>721.0</ele>
    </trkpt>
    <trkpt lat="42.833418846" lon="11.587700844">
      <ele>696.0</ele>
    </trkpt>
    <trkpt lat="42.833032608" lon="11.588151455">
      <ele>692.0</ele>
    </trkpt>
    <trkpt lat="42.833054066" lon="11.588451862">
      <ele>692.0</ele>
    </trkpt>
    <trkpt lat="42.832775116" lon="11.588966846">
      <ele>689.0</ele>
    </trkpt>
    <trkpt lat="42.832560539" lon="11.589202881">
      <ele>686.0</ele>
    </trkpt>
    <trkpt lat="42.832152843" lon="11.589481831">
      <ele>678.0</ele>
    </trkpt>
    <trkpt lat="42.831981182" lon="11.58976078">
      <ele>674.0</ele>
    </trkpt>
    <trkpt lat="42.83200264" lon="11.590061188">
      <ele>672.0</ele>
    </trkpt>
    <trkpt lat="42.832474709" lon="11.590833664">
      <ele>671.0</ele>
    </trkpt>
    <trkpt lat="42.832539082" lon="11.591670513">
      <ele>666.0</ele>
    </trkpt>
    <trkpt lat="42.832474709" lon="11.591842175">
      <ele>665.0</ele>
    </trkpt>
    <trkpt lat="42.831959724" lon="11.592485905">
      <ele>656.0</ele>
    </trkpt>
    <trkpt lat="42.831938267" lon="11.592700481">
      <ele>654.0</ele>
    </trkpt>
    <trkpt lat="42.832109928" lon="11.593472958">
      <ele>653.0</ele>
    </trkpt>
    <trkpt lat="42.832131386" lon="11.59381628">
      <ele>651.0</ele>
    </trkpt>
    <trkpt lat="42.83200264" lon="11.594610214">
      <ele>645.0</ele>
    </trkpt>
    <trkpt lat="42.83144474" lon="11.595704556">
      <ele>633.0</ele>
    </trkpt>
    <trkpt lat="42.831423283" lon="11.596670151">
      <ele>630.0</ele>
    </trkpt>
    <trkpt lat="42.831337452" lon="11.596820354">
      <ele>627.0</ele>
    </trkpt>
    <trkpt lat="42.831208706" lon="11.596841812">
      <ele>624.0</ele>
    </trkpt>
    <trkpt lat="42.831144333" lon="11.596755981">
      <ele>624.0</ele>
    </trkpt>
    <trkpt lat="42.830972672" lon="11.594631672">
      <ele>623.0</ele>
    </trkpt>
    <trkpt lat="42.830908298" lon="11.594481468">
      <ele>622.0</ele>
    </trkpt>
    <trkpt lat="42.83080101" lon="11.594395638">
      <ele>620.0</ele>
    </trkpt>
    <trkpt lat="42.830672264" lon="11.594460011">
      <ele>617.0</ele>
    </trkpt>
    <trkpt lat="42.829706669" lon="11.59714222">
      <ele>597.0</ele>
    </trkpt>
    <trkpt lat="42.829492092" lon="11.597249508">
      <ele>593.0</ele>
    </trkpt>
    <trkpt lat="42.829363346" lon="11.597206593">
      <ele>592.0</ele>
    </trkpt>
    <trkpt lat="42.829148769" lon="11.596927643">
      <ele>590.0</ele>
    </trkpt>
    <trkpt lat="42.828805447" lon="11.596155167">
      <ele>586.0</ele>
    </trkpt>
    <trkpt lat="42.82831192" lon="11.594588757">
      <ele>576.0</ele>
    </trkpt>
    <trkpt lat="42.827260494" lon="11.593494415">
      <ele>565.0</ele>
    </trkpt>
    <trkpt lat="42.826638222" lon="11.593279839">
      <ele>559.0</ele>
    </trkpt>
    <trkpt lat="42.826058865" lon="11.592442989">
      <ele>556.0</ele>
    </trkpt>
    <trkpt lat="42.825114727" lon="11.592078209">
      <ele>546.0</ele>
    </trkpt>
    <trkpt lat="42.824578285" lon="11.591627598">
      <ele>544.0</ele>
    </trkpt>
    <trkpt lat="42.824363708" lon="11.591713428">
      <ele>541.0</ele>
    </trkpt>
    <trkpt lat="42.824106216" lon="11.59216404">
      <ele>539.0</ele>
    </trkpt>
    <trkpt lat="42.823827267" lon="11.592872143">
      <ele>541.0</ele>
    </trkpt>
    <trkpt lat="42.823591232" lon="11.593000889">
      <ele>542.0</ele>
    </trkpt>
    <trkpt lat="42.823312283" lon="11.593000889">
      <ele>542.0</ele>
    </trkpt>
    <trkpt lat="42.822518349" lon="11.59280777">
      <ele>539.0</ele>
    </trkpt>
    <trkpt lat="42.821724415" lon="11.59280777">
      <ele>534.0</ele>
    </trkpt>
    <trkpt lat="42.81992197" lon="11.592872143">
      <ele>530.0</ele>
    </trkpt>
    <trkpt lat="42.817862034" lon="11.59308672">
      <ele>526.0</ele>
    </trkpt>
    <trkpt lat="42.817647457" lon="11.593000889">
      <ele>527.0</ele>
    </trkpt>
    <trkpt lat="42.817411423" lon="11.592657566">
      <ele>528.0</ele>
    </trkpt>
    <trkpt lat="42.817153931" lon="11.592099667">
      <ele>527.0</ele>
    </trkpt>
    <trkpt lat="42.816402912" lon="11.591155529">
      <ele>527.0</ele>
    </trkpt>
    <trkpt lat="42.815587521" lon="11.590340137">
      <ele>527.0</ele>
    </trkpt>
    <trkpt lat="42.814149857" lon="11.589288712">
      <ele>521.0</ele>
    </trkpt>
    <trkpt lat="42.813827991" lon="11.588859558">
      <ele>520.0</ele>
    </trkpt>
    <trkpt lat="42.813398838" lon="11.588494778">
      <ele>519.0</ele>
    </trkpt>
    <trkpt lat="42.8124547" lon="11.587486267">
      <ele>518.0</ele>
    </trkpt>
    <trkpt lat="42.811682224" lon="11.587293148">
      <ele>521.0</ele>
    </trkpt>
    <trkpt lat="42.810952663" lon="11.586177349">
      <ele>522.0</ele>
    </trkpt>
    <trkpt lat="42.810630798" lon="11.586027145">
      <ele>524.0</ele>
    </trkpt>
    <trkpt lat="42.806360722" lon="11.586177349">
      <ele>550.0</ele>
    </trkpt>
    <trkpt lat="42.805609703" lon="11.585662365">
      <ele>552.0</ele>
    </trkpt>
    <trkpt lat="42.804687023" lon="11.585597992">
      <ele>558.0</ele>
    </trkpt>
    <trkpt lat="42.804172039" lon="11.585683823">
      <ele>560.0</ele>
    </trkpt>
    <trkpt lat="42.803635597" lon="11.585469246">
      <ele>558.0</ele>
    </trkpt>
    <trkpt lat="42.803399563" lon="11.585512161">
      <ele>560.0</ele>
    </trkpt>
    <trkpt lat="42.803378105" lon="11.585855484">
      <ele>566.0</ele>
    </trkpt>
    <trkpt lat="42.803442478" lon="11.586134434">
      <ele>570.0</ele>
    </trkpt>
    <trkpt lat="42.803549767" lon="11.58634901">
      <ele>573.0</ele>
    </trkpt>
    <trkpt lat="42.803807259" lon="11.586585045">
      <ele>577.0</ele>
    </trkpt>
    <trkpt lat="42.804043293" lon="11.587314606">
      <ele>585.0</ele>
    </trkpt>
    <trkpt lat="42.804386616" lon="11.588001251">
      <ele>591.0</ele>
    </trkpt>
    <trkpt lat="42.80462265" lon="11.58810854">
      <ele>593.0</ele>
    </trkpt>
    <trkpt lat="42.804987431" lon="11.588172913">
      <ele>595.0</ele>
    </trkpt>
    <trkpt lat="42.80526638" lon="11.588151455">
      <ele>595.0</ele>
    </trkpt>
    <trkpt lat="42.805759907" lon="11.587936878">
      <ele>593.0</ele>
    </trkpt>
    <trkpt lat="42.806124687" lon="11.588323116">
      <ele>596.0</ele>
    </trkpt>
    <trkpt lat="42.806339264" lon="11.588687897">
      <ele>600.0</ele>
    </trkpt>
    <trkpt lat="42.806253433" lon="11.589696407">
      <ele>615.0</ele>
    </trkpt>
    <trkpt lat="42.80610323" lon="11.589932442">
      <ele>617.0</ele>
    </trkpt>
    <trkpt lat="42.805438042" lon="11.590104103">
      <ele>617.0</ele>
    </trkpt>
    <trkpt lat="42.805073261" lon="11.590125561">
      <ele>616.0</ele>
    </trkpt>
    <trkpt lat="42.8049016" lon="11.590383053">
      <ele>617.0</ele>
    </trkpt>
    <trkpt lat="42.804665565" lon="11.591091156">
      <ele>624.0</ele>
    </trkpt>
    <trkpt lat="42.80397892" lon="11.592421532">
      <ele>640.0</ele>
    </trkpt>
    <trkpt lat="42.803893089" lon="11.592850685">
      <ele>649.0</ele>
    </trkpt>
    <trkpt lat="42.804214954" lon="11.592979431">
      <ele>644.0</ele>
    </trkpt>
    <trkpt lat="42.804987431" lon="11.592743397">
      <ele>639.0</ele>
    </trkpt>
    <trkpt lat="42.805137634" lon="11.59280777">
      <ele>641.0</ele>
    </trkpt>
    <trkpt lat="42.805695534" lon="11.593365669">
      <ele>650.0</ele>
    </trkpt>
    <trkpt lat="42.806210518" lon="11.5934515">
      <ele>657.0</ele>
    </trkpt>
    <trkpt lat="42.806940079" lon="11.5934515">
      <ele>660.0</ele>
    </trkpt>
    <trkpt lat="42.807927132" lon="11.594417095">
      <ele>667.0</ele>
    </trkpt>
    <trkpt lat="42.808506489" lon="11.595082283">
      <ele>670.0</ele>
    </trkpt>
    <trkpt lat="42.809300423" lon="11.595811844">
      <ele>674.0</ele>
    </trkpt>
    <trkpt lat="42.809364796" lon="11.596155167">
      <ele>677.0</ele>
    </trkpt>
    <trkpt lat="42.80932188" lon="11.596541405">
      <ele>683.0</ele>
    </trkpt>
    <trkpt lat="42.809193134" lon="11.596734524">
      <ele>686.0</ele>
    </trkpt>
    <trkpt lat="42.808463573" lon="11.596627235">
      <ele>690.0</ele>
    </trkpt>
    <trkpt lat="42.808291912" lon="11.596648693">
      <ele>691.0</ele>
    </trkpt>
    <trkpt lat="42.806811333" lon="11.597528458">
      <ele>703.0</ele>
    </trkpt>
    <trkpt lat="42.806510925" lon="11.597807407">
      <ele>705.0</ele>
    </trkpt>
    <trkpt lat="42.805888653" lon="11.598815918">
      <ele>716.0</ele>
    </trkpt>
    <trkpt lat="42.805695534" lon="11.598987579">
      <ele>720.0</ele>
    </trkpt>
    <trkpt lat="42.805094719" lon="11.59907341">
      <ele>726.0</ele>
    </trkpt>
    <trkpt lat="42.804794312" lon="11.599051952">
      <ele>732.0</ele>
    </trkpt>
    <trkpt lat="42.804644108" lon="11.598966122">
      <ele>734.0</ele>
    </trkpt>
    <trkpt lat="42.803635597" lon="11.597957611">
      <ele>741.0</ele>
    </trkpt>
    <trkpt lat="42.803120613" lon="11.597163677">
      <ele>743.0</ele>
    </trkpt>
    <trkpt lat="42.802519798" lon="11.596713066">
      <ele>748.0</ele>
    </trkpt>
    <trkpt lat="42.802155018" lon="11.596455574">
      <ele>746.0</ele>
    </trkpt>
    <trkpt lat="42.801961899" lon="11.596391201">
      <ele>746.0</ele>
    </trkpt>
    <trkpt lat="42.801682949" lon="11.596434116">
      <ele>751.0</ele>
    </trkpt>
    <trkpt lat="42.80121088" lon="11.59630537">
      <ele>755.0</ele>
    </trkpt>
    <trkpt lat="42.799665928" lon="11.595125198">
      <ele>758.0</ele>
    </trkpt>
    <trkpt lat="42.799451351" lon="11.595060825">
      <ele>758.0</ele>
    </trkpt>
    <trkpt lat="42.799258232" lon="11.595082283">
      <ele>759.0</ele>
    </trkpt>
    <trkpt lat="42.797563076" lon="11.59630537">
      <ele>761.0</ele>
    </trkpt>
    <trkpt lat="42.797262669" lon="11.596713066">
      <ele>764.0</ele>
    </trkpt>
    <trkpt lat="42.797133923" lon="11.597034931">
      <ele>767.0</ele>
    </trkpt>
    <trkpt lat="42.796962261" lon="11.597206593">
      <ele>767.0</ele>
    </trkpt>
    <trkpt lat="42.796576023" lon="11.597313881">
      <ele>763.0</ele>
    </trkpt>
    <trkpt lat="42.795953751" lon="11.597657204">
      <ele>767.0</ele>
    </trkpt>
    <trkpt lat="42.79558897" lon="11.597507">
      <ele>762.0</ele>
    </trkpt>
    <trkpt lat="42.79531002" lon="11.597292423">
      <ele>760.0</ele>
    </trkpt>
    <trkpt lat="42.795138359" lon="11.597270966">
      <ele>760.0</ele>
    </trkpt>
    <trkpt lat="42.794902325" lon="11.597399712">
      <ele>761.0</ele>
    </trkpt>
    <trkpt lat="42.79430151" lon="11.598064899">
      <ele>766.0</ele>
    </trkpt>
    <trkpt lat="42.79365778" lon="11.599180698">
      <ele>778.0</ele>
    </trkpt>
    <trkpt lat="42.79374361" lon="11.59935236">
      <ele>781.0</ele>
    </trkpt>
    <trkpt lat="42.793596257" lon="11.5995692">
      <ele>783.0</ele>
    </trkpt>
    <trkpt lat="42.793679237" lon="11.599674225">
      <ele>785.0</ele>
    </trkpt>
    <trkpt lat="42.793596257" lon="11.5995692">
      <ele>783.0</ele>
    </trkpt>
    <trkpt lat="42.792971134" lon="11.600489616">
      <ele>783.0</ele>
    </trkpt>
    <trkpt lat="42.792327404" lon="11.601948738">
      <ele>786.0</ele>
    </trkpt>
    <trkpt lat="42.792305946" lon="11.602227688">
      <ele>787.0</ele>
    </trkpt>
    <trkpt lat="42.792477608" lon="11.60284996">
      <ele>793.0</ele>
    </trkpt>
    <trkpt lat="42.792499065" lon="11.603279114">
      <ele>795.0</ele>
    </trkpt>
    <trkpt lat="42.79209137" lon="11.603600979">
      <ele>791.0</ele>
    </trkpt>
    <trkpt lat="42.791790962" lon="11.603965759">
      <ele>791.0</ele>
    </trkpt>
    <trkpt lat="42.791512012" lon="11.604716778">
      <ele>797.0</ele>
    </trkpt>
    <trkpt lat="42.791318893" lon="11.605017185">
      <ele>798.0</ele>
    </trkpt>
    <trkpt lat="42.791061401" lon="11.605274677">
      <ele>799.0</ele>
    </trkpt>
    <trkpt lat="42.79024601" lon="11.605639458">
      <ele>794.0</ele>
    </trkpt>
    <trkpt lat="42.78996706" lon="11.605961323">
      <ele>795.0</ele>
    </trkpt>
    <trkpt lat="42.789580822" lon="11.60746336">
      <ele>806.0</ele>
    </trkpt>
    <trkpt lat="42.789301872" lon="11.607956886">
      <ele>809.0</ele>
    </trkpt>
    <trkpt lat="42.78904438" lon="11.607913971">
      <ele>806.0</ele>
    </trkpt>
    <trkpt lat="42.788701057" lon="11.607720852">
      <ele>802.0</ele>
    </trkpt>
    <trkpt lat="42.788228989" lon="11.60782814">
      <ele>804.0</ele>
    </trkpt>
    <trkpt lat="42.787885666" lon="11.608235836">
      <ele>808.0</ele>
    </trkpt>
    <trkpt lat="42.786490917" lon="11.609179974">
      <ele>805.0</ele>
    </trkpt>
    <trkpt lat="42.786362171" lon="11.609523296">
      <ele>802.0</ele>
    </trkpt>
    <trkpt lat="42.786340714" lon="11.610059738">
      <ele>795.0</ele>
    </trkpt>
    <trkpt lat="42.785954475" lon="11.610467434">
      <ele>794.0</ele>
    </trkpt>
    <trkpt lat="42.785439491" lon="11.610810757">
      <ele>795.0</ele>
    </trkpt>
    <trkpt lat="42.784945965" lon="11.611368656">
      <ele>793.0</ele>
    </trkpt>
    <trkpt lat="42.784795761" lon="11.611690521">
      <ele>791.0</ele>
    </trkpt>
    <trkpt lat="42.784581184" lon="11.613235474">
      <ele>791.0</ele>
    </trkpt>
    <trkpt lat="42.78434515" lon="11.614072323">
      <ele>790.0</ele>
    </trkpt>
    <trkpt lat="42.783873081" lon="11.615166664">
      <ele>785.0</ele>
    </trkpt>
    <trkpt lat="42.783594131" lon="11.6183424">
      <ele>763.0</ele>
    </trkpt>
    <trkpt lat="42.783637047" lon="11.618835926">
      <ele>763.0</ele>
    </trkpt>
    <trkpt lat="42.783937454" lon="11.620144844">
      <ele>763.0</ele>
    </trkpt>
    <trkpt lat="42.784216404" lon="11.620724201">
      <ele>766.0</ele>
    </trkpt>
    <trkpt lat="42.785396576" lon="11.62248373">
      <ele>772.0</ele>
    </trkpt>
    <trkpt lat="42.785696983" lon="11.622655392">
      <ele>775.0</ele>
    </trkpt>
    <trkpt lat="42.785825729" lon="11.622848511">
      <ele>778.0</ele>
    </trkpt>
    <trkpt lat="42.785890102" lon="11.623728275">
      <ele>785.0</ele>
    </trkpt>
    <trkpt lat="42.785804272" lon="11.624307632">
      <ele>786.0</ele>
    </trkpt>
    <trkpt lat="42.785868645" lon="11.624822617">
      <ele>787.0</ele>
    </trkpt>
    <trkpt lat="42.786018848" lon="11.625208855">
      <ele>789.0</ele>
    </trkpt>
    <trkpt lat="42.786061764" lon="11.625509262">
      <ele>789.0</ele>
    </trkpt>
    <trkpt lat="42.786083221" lon="11.626410484">
      <ele>792.0</ele>
    </trkpt>
    <trkpt lat="42.785482407" lon="11.628363132">
      <ele>801.0</ele>
    </trkpt>
    <trkpt lat="42.785310745" lon="11.628727913">
      <ele>801.0</ele>
    </trkpt>
    <trkpt lat="42.784838676" lon="11.629328728">
      <ele>796.0</ele>
    </trkpt>
    <trkpt lat="42.784645557" lon="11.630358696">
      <ele>800.0</ele>
    </trkpt>
    <trkpt lat="42.784430981" lon="11.631088257">
      <ele>796.0</ele>
    </trkpt>
    <trkpt lat="42.784452438" lon="11.631302834">
      <ele>795.0</ele>
    </trkpt>
    <trkpt lat="42.784667015" lon="11.631860733">
      <ele>800.0</ele>
    </trkpt>
    <trkpt lat="42.784366608" lon="11.633212566">
      <ele>799.0</ele>
    </trkpt>
    <trkpt lat="42.78434515" lon="11.633512974">
      <ele>800.0</ele>
    </trkpt>
    <trkpt lat="42.784516811" lon="11.634113789">
      <ele>805.0</ele>
    </trkpt>
    <trkpt lat="42.784516811" lon="11.634349823">
      <ele>808.0</ele>
    </trkpt>
    <trkpt lat="42.784302235" lon="11.634864807">
      <ele>811.0</ele>
    </trkpt>
    <trkpt lat="42.783594131" lon="11.635293961">
      <ele>808.0</ele>
    </trkpt>
    <trkpt lat="42.783014774" lon="11.635401249">
      <ele>806.0</ele>
    </trkpt>
    <trkpt lat="42.782628536" lon="11.635808945">
      <ele>807.0</ele>
    </trkpt>
    <trkpt lat="42.782585621" lon="11.636002064">
      <ele>807.0</ele>
    </trkpt>
    <trkpt lat="42.782649994" lon="11.636238098">
      <ele>809.0</ele>
    </trkpt>
    <trkpt lat="42.782564163" lon="11.637010574">
      <ele>808.0</ele>
    </trkpt>
    <trkpt lat="42.782821655" lon="11.637589931">
      <ele>814.0</ele>
    </trkpt>
    <trkpt lat="42.782800198" lon="11.638469696">
      <ele>811.0</ele>
    </trkpt>
    <trkpt lat="42.782993317" lon="11.639564037">
      <ele>814.0</ele>
    </trkpt>
    <trkpt lat="42.783122063" lon="11.639778614">
      <ele>816.0</ele>
    </trkpt>
    <trkpt lat="42.783336639" lon="11.639950275">
      <ele>821.0</ele>
    </trkpt>
    <trkpt lat="42.783594131" lon="11.640272141">
      <ele>823.0</ele>
    </trkpt>
    <trkpt lat="42.783851624" lon="11.640787125">
      <ele>822.0</ele>
    </trkpt>
    <trkpt lat="42.783873081" lon="11.641581059">
      <ele>814.0</ele>
    </trkpt>
    <trkpt lat="42.783937454" lon="11.641860008">
      <ele>813.0</ele>
    </trkpt>
    <trkpt lat="42.784366608" lon="11.642460823">
      <ele>815.0</ele>
    </trkpt>
    <trkpt lat="42.784538269" lon="11.642975807">
      <ele>816.0</ele>
    </trkpt>
    <trkpt lat="42.784559727" lon="11.643576622">
      <ele>814.0</ele>
    </trkpt>
    <trkpt lat="42.784280777" lon="11.64424181">
      <ele>808.0</ele>
    </trkpt>
    <trkpt lat="42.7840662" lon="11.645185947">
      <ele>807.0</ele>
    </trkpt>
    <trkpt lat="42.784152031" lon="11.645615101">
      <ele>808.0</ele>
    </trkpt>
    <trkpt lat="42.784216404" lon="11.646580696">
      <ele>804.0</ele>
    </trkpt>
    <trkpt lat="42.78398037" lon="11.646924019">
      <ele>803.0</ele>
    </trkpt>
    <trkpt lat="42.78342247" lon="11.646602154">
      <ele>800.0</ele>
    </trkpt>
    <trkpt lat="42.782821655" lon="11.646666527">
      <ele>798.0</ele>
    </trkpt>
    <trkpt lat="42.781748772" lon="11.646580696">
      <ele>789.0</ele>
    </trkpt>
    <trkpt lat="42.781405449" lon="11.646687984">
      <ele>787.0</ele>
    </trkpt>
    <trkpt lat="42.780032158" lon="11.647782326">
      <ele>787.0</ele>
    </trkpt>
    <trkpt lat="42.779538631" lon="11.648275852">
      <ele>782.0</ele>
    </trkpt>
    <trkpt lat="42.779409885" lon="11.648533344">
      <ele>782.0</ele>
    </trkpt>
    <trkpt lat="42.779431343" lon="11.64930582">
      <ele>793.0</ele>
    </trkpt>
    <trkpt lat="42.779324055" lon="11.649520397">
      <ele>792.0</ele>
    </trkpt>
    <trkpt lat="42.779152393" lon="11.649627686">
      <ele>788.0</ele>
    </trkpt>
    <trkpt lat="42.778744698" lon="11.649649143">
      <ele>785.0</ele>
    </trkpt>
    <trkpt lat="42.778573036" lon="11.64958477">
      <ele>783.0</ele>
    </trkpt>
    <trkpt lat="42.778337002" lon="11.649284363">
      <ele>775.0</ele>
    </trkpt>
    <trkpt lat="42.777628899" lon="11.647846699">
      <ele>759.0</ele>
    </trkpt>
    <trkpt lat="42.777285576" lon="11.647546291">
      <ele>754.0</ele>
    </trkpt>
    <trkpt lat="42.777070999" lon="11.647503376">
      <ele>753.0</ele>
    </trkpt>
    <trkpt lat="42.776405811" lon="11.647632122">
      <ele>755.0</ele>
    </trkpt>
    <trkpt lat="42.776255608" lon="11.647610664">
      <ele>754.0</ele>
    </trkpt>
    <trkpt lat="42.774281502" lon="11.64608717">
      <ele>744.0</ele>
    </trkpt>
    <trkpt lat="42.773916721" lon="11.644906998">
      <ele>728.0</ele>
    </trkpt>
    <trkpt lat="42.77374506" lon="11.644649506">
      <ele>723.0</ele>
    </trkpt>
    <trkpt lat="42.773444653" lon="11.644392014">
      <ele>719.0</ele>
    </trkpt>
    <trkpt lat="42.772951126" lon="11.644306183">
      <ele>715.0</ele>
    </trkpt>
    <trkpt lat="42.772264481" lon="11.644284725">
      <ele>710.0</ele>
    </trkpt>
    <trkpt lat="42.772028446" lon="11.643447876">
      <ele>701.0</ele>
    </trkpt>
    <trkpt lat="42.771663666" lon="11.642739773">
      <ele>697.0</ele>
    </trkpt>
    <trkpt lat="42.771170139" lon="11.643340588">
      <ele>696.0</ele>
    </trkpt>
    <trkpt lat="42.769582272" lon="11.64359808">
      <ele>687.0</ele>
    </trkpt>
    <trkpt lat="42.768959999" lon="11.643812656">
      <ele>683.0</ele>
    </trkpt>
    <trkpt lat="42.768423557" lon="11.644070148">
      <ele>680.0</ele>
    </trkpt>
    <trkpt lat="42.768247537" lon="11.643551895">
      <ele>673.0</ele>
    </trkpt>
    <trkpt lat="42.768616676" lon="11.64331913">
      <ele>674.0</ele>
    </trkpt>
    <trkpt lat="42.7840662" lon="11.646838188">
      <ele>803.0</ele>
    </trkpt>
    <trkpt lat="42.783293724" lon="11.646580696">
      <ele>799.0</ele>
    </trkpt>
    <trkpt lat="42.78277874" lon="11.646623611">
      <ele>797.0</ele>
    </trkpt>
    <trkpt lat="42.781705856" lon="11.646580696">
      <ele>789.0</ele>
    </trkpt>
    <trkpt lat="42.781147957" lon="11.646838188">
      <ele>788.0</ele>
    </trkpt>
    <trkpt lat="42.780418396" lon="11.647439003">
      <ele>789.0</ele>
    </trkpt>
    <trkpt lat="42.779560089" lon="11.648254395">
      <ele>783.0</ele>
    </trkpt>
    <trkpt lat="42.779474258" lon="11.648468971">
      <ele>783.0</ele>
    </trkpt>
    <trkpt lat="42.779431343" lon="11.649241447">
      <ele>792.0</ele>
    </trkpt>
    <trkpt lat="42.779302597" lon="11.649541855">
      <ele>791.0</ele>
    </trkpt>
    <trkpt lat="42.779130936" lon="11.649670601">
      <ele>789.0</ele>
    </trkpt>
    <trkpt lat="42.778701782" lon="11.649627686">
      <ele>785.0</ele>
    </trkpt>
    <trkpt lat="42.778487206" lon="11.64949894">
      <ele>781.0</ele>
    </trkpt>
    <trkpt lat="42.778186798" lon="11.649069786">
      <ele>773.0</ele>
    </trkpt>
    <trkpt lat="42.777628899" lon="11.647911072">
      <ele>760.0</ele>
    </trkpt>
    <trkpt lat="42.777285576" lon="11.647481918">
      <ele>753.0</ele>
    </trkpt>
    <trkpt lat="42.776384354" lon="11.647610664">
      <ele>754.0</ele>
    </trkpt>
    <trkpt lat="42.776169777" lon="11.647567749">
      <ele>753.0</ele>
    </trkpt>
    <trkpt lat="42.774324417" lon="11.646065712">
      <ele>743.0</ele>
    </trkpt>
    <trkpt lat="42.773852348" lon="11.644821167">
      <ele>727.0</ele>
    </trkpt>
    <trkpt lat="42.773509026" lon="11.644392014">
      <ele>719.0</ele>
    </trkpt>
    <trkpt lat="42.773165703" lon="11.644263268">
      <ele>716.0</ele>
    </trkpt>
    <trkpt lat="42.772951126" lon="11.644306183">
      <ele>715.0</ele>
    </trkpt>
    <trkpt lat="42.772307396" lon="11.644263268">
      <ele>710.0</ele>
    </trkpt>
    <trkpt lat="42.772135735" lon="11.643791199">
      <ele>704.0</ele>
    </trkpt>
    <trkpt lat="42.772135735" lon="11.643576622">
      <ele>703.0</ele>
    </trkpt>
    <trkpt lat="42.77162075" lon="11.64276123">
      <ele>697.0</ele>
    </trkpt>
    <trkpt lat="42.771492004" lon="11.642847061">
      <ele>696.0</ele>
    </trkpt>
    <trkpt lat="42.771234512" lon="11.64331913">
      <ele>696.0</ele>
    </trkpt>
    <trkpt lat="42.770462036" lon="11.643447876">
      <ele>691.0</ele>
    </trkpt>
    <trkpt lat="42.769989967" lon="11.643147469">
      <ele>685.0</ele>
    </trkpt>
    <trkpt lat="42.769260406" lon="11.643147469">
      <ele>680.0</ele>
    </trkpt>
    <trkpt lat="42.769088745" lon="11.643061638">
      <ele>677.0</ele>
    </trkpt>
    <trkpt lat="42.768917084" lon="11.642718315">
      <ele>672.0</ele>
    </trkpt>
    <trkpt lat="42.768745422" lon="11.642589569">
      <ele>669.0</ele>
    </trkpt>
    <trkpt lat="42.768659592" lon="11.6426754">
      <ele>669.0</ele>
    </trkpt>
    <trkpt lat="42.7678442" lon="11.643018723">
      <ele>665.0</ele>
    </trkpt>
    <trkpt lat="42.767071724" lon="11.64276123">
      <ele>657.0</ele>
    </trkpt>
    <trkpt lat="42.766342163" lon="11.642632484">
      <ele>652.0</ele>
    </trkpt>
    <trkpt lat="42.766041756" lon="11.642332077">
      <ele>647.0</ele>
    </trkpt>
    <trkpt lat="42.765741348" lon="11.642374992">
      <ele>646.0</ele>
    </trkpt>
    <trkpt lat="42.76535511" lon="11.642718315">
      <ele>645.0</ele>
    </trkpt>
    <trkpt lat="42.765054703" lon="11.64276123">
      <ele>642.0</ele>
    </trkpt>
    <trkpt lat="42.764925957" lon="11.6426754">
      <ele>640.0</ele>
    </trkpt>
    <trkpt lat="42.764325142" lon="11.641387939">
      <ele>631.0</ele>
    </trkpt>
    <trkpt lat="42.76342392" lon="11.640615463">
      <ele>629.0</ele>
    </trkpt>
    <trkpt lat="42.763209343" lon="11.640272141">
      <ele>628.0</ele>
    </trkpt>
    <trkpt lat="42.763166428" lon="11.640014648">
      <ele>628.0</ele>
    </trkpt>
    <trkpt lat="42.763552666" lon="11.637997627">
      <ele>613.0</ele>
    </trkpt>
    <trkpt lat="42.763552666" lon="11.637482643">
      <ele>612.0</ele>
    </trkpt>
    <trkpt lat="42.763166428" lon="11.635937691">
      <ele>602.0</ele>
    </trkpt>
    <trkpt lat="42.762994766" lon="11.635680199">
      <ele>598.0</ele>
    </trkpt>
    <trkpt lat="42.761063576" lon="11.634178162">
      <ele>582.0</ele>
    </trkpt>
    <trkpt lat="42.760806084" lon="11.634349823">
      <ele>578.0</ele>
    </trkpt>
    <trkpt lat="42.760677338" lon="11.634521484">
      <ele>575.0</ele>
    </trkpt>
    <trkpt lat="42.759261131" lon="11.637268066">
      <ele>552.0</ele>
    </trkpt>
    <trkpt lat="42.759218216" lon="11.637525558">
      <ele>552.0</ele>
    </trkpt>
    <trkpt lat="42.759304047" lon="11.639113426">
      <ele>557.0</ele>
    </trkpt>
    <trkpt lat="42.758917809" lon="11.639971733">
      <ele>558.0</ele>
    </trkpt>
    <trkpt lat="42.758617401" lon="11.639928818">
      <ele>556.0</ele>
    </trkpt>
    <trkpt lat="42.757029533" lon="11.639370918">
      <ele>554.0</ele>
    </trkpt>
    <trkpt lat="42.756900787" lon="11.639370918">
      <ele>555.0</ele>
    </trkpt>
    <trkpt lat="42.756257057" lon="11.639757156">
      <ele>562.0</ele>
    </trkpt>
    <trkpt lat="42.75604248" lon="11.639800072">
      <ele>564.0</ele>
    </trkpt>
    <trkpt lat="42.755913734" lon="11.639757156">
      <ele>564.0</ele>
    </trkpt>
    <trkpt lat="42.75475502" lon="11.638212204">
      <ele>570.0</ele>
    </trkpt>
    <trkpt lat="42.753338814" lon="11.637439728">
      <ele>577.0</ele>
    </trkpt>
    <trkpt lat="42.752995491" lon="11.637010574">
      <ele>582.0</ele>
    </trkpt>
    <trkpt lat="42.752008438" lon="11.636195183">
      <ele>588.0</ele>
    </trkpt>
    <trkpt lat="42.751836777" lon="11.636152267">
      <ele>590.0</ele>
    </trkpt>
    <trkpt lat="42.751665115" lon="11.636195183">
      <ele>593.0</ele>
    </trkpt>
    <trkpt lat="42.751536369" lon="11.636323929">
      <ele>595.0</ele>
    </trkpt>
    <trkpt lat="42.751364708" lon="11.637268066">
      <ele>603.0</ele>
    </trkpt>
    <trkpt lat="42.750935555" lon="11.638040543">
      <ele>610.0</ele>
    </trkpt>
    <trkpt lat="42.750635147" lon="11.638298035">
      <ele>612.0</ele>
    </trkpt>
    <trkpt lat="42.749862671" lon="11.637868881">
      <ele>607.0</ele>
    </trkpt>
    <trkpt lat="42.749261856" lon="11.638040543">
      <ele>610.0</ele>
    </trkpt>
    <trkpt lat="42.748703957" lon="11.63834095">
      <ele>615.0</ele>
    </trkpt>
    <trkpt lat="42.748446465" lon="11.638383865">
      <ele>615.0</ele>
    </trkpt>
    <trkpt lat="42.747631073" lon="11.638212204">
      <ele>616.0</ele>
    </trkpt>
    <trkpt lat="42.746300697" lon="11.638169289">
      <ele>619.0</ele>
    </trkpt>
    <trkpt lat="42.745528221" lon="11.637954712">
      <ele>619.0</ele>
    </trkpt>
    <trkpt lat="42.744498253" lon="11.638083458">
      <ele>617.0</ele>
    </trkpt>
    <trkpt lat="42.744369507" lon="11.638169289">
      <ele>618.0</ele>
    </trkpt>
    <trkpt lat="42.742824554" lon="11.640486717">
      <ele>625.0</ele>
    </trkpt>
    <trkpt lat="42.742824554" lon="11.641430855">
      <ele>635.0</ele>
    </trkpt>
    <trkpt lat="42.742695808" lon="11.641817093">
      <ele>638.0</ele>
    </trkpt>
    <trkpt lat="42.742438316" lon="11.6421175">
      <ele>639.0</ele>
    </trkpt>
    <trkpt lat="42.740936279" lon="11.642804146">
      <ele>634.0</ele>
    </trkpt>
    <trkpt lat="42.740335464" lon="11.643147469">
      <ele>631.0</ele>
    </trkpt>
    <trkpt lat="42.739949226" lon="11.643190384">
      <ele>625.0</ele>
    </trkpt>
    <trkpt lat="42.738575935" lon="11.6426754">
      <ele>611.0</ele>
    </trkpt>
    <trkpt lat="42.737674713" lon="11.6426754">
      <ele>608.0</ele>
    </trkpt>
    <trkpt lat="42.736473083" lon="11.643018723">
      <ele>604.0</ele>
    </trkpt>
    <trkpt lat="42.735958099" lon="11.642847061">
      <ele>597.0</ele>
    </trkpt>
    <trkpt lat="42.735700607" lon="11.642889977">
      <ele>596.0</ele>
    </trkpt>
    <trkpt lat="42.734370232" lon="11.643404961">
      <ele>592.0</ele>
    </trkpt>
    <trkpt lat="42.73419857" lon="11.643404961">
      <ele>590.0</ele>
    </trkpt>
    <trkpt lat="42.733726501" lon="11.643061638">
      <ele>587.0</ele>
    </trkpt>
    <trkpt lat="42.733168602" lon="11.642889977">
      <ele>585.0</ele>
    </trkpt>
    <trkpt lat="42.732653618" lon="11.643018723">
      <ele>584.0</ele>
    </trkpt>
    <trkpt lat="42.732310295" lon="11.643190384">
      <ele>582.0</ele>
    </trkpt>
    <trkpt lat="42.731924057" lon="11.643791199">
      <ele>585.0</ele>
    </trkpt>
    <trkpt lat="42.731666565" lon="11.644048691">
      <ele>585.0</ele>
    </trkpt>
    <trkpt lat="42.731494904" lon="11.644091606">
      <ele>585.0</ele>
    </trkpt>
    <trkpt lat="42.730894089" lon="11.643919945">
      <ele>579.0</ele>
    </trkpt>
    <trkpt lat="42.730722427" lon="11.644005775">
      <ele>579.0</ele>
    </trkpt>
    <trkpt lat="42.730250359" lon="11.644434929">
      <ele>578.0</ele>
    </trkpt>
    <trkpt lat="42.730121613" lon="11.644949913">
      <ele>578.0</ele>
    </trkpt>
    <trkpt lat="42.730293274" lon="11.646366119">
      <ele>576.0</ele>
    </trkpt>
    <trkpt lat="42.729477882" lon="11.648340225">
      <ele>566.0</ele>
    </trkpt>
    <trkpt lat="42.729520798" lon="11.649928093">
      <ele>576.0</ele>
    </trkpt>
    <trkpt lat="42.729477882" lon="11.650185585">
      <ele>577.0</ele>
    </trkpt>
    <trkpt lat="42.728662491" lon="11.651301384">
      <ele>567.0</ele>
    </trkpt>
    <trkpt lat="42.728104591" lon="11.652503014">
      <ele>566.0</ele>
    </trkpt>
    <trkpt lat="42.72608757" lon="11.654005051">
      <ele>558.0</ele>
    </trkpt>
    <trkpt lat="42.725872993" lon="11.654262543">
      <ele>559.0</ele>
    </trkpt>
    <trkpt lat="42.724928856" lon="11.656107903">
      <ele>557.0</ele>
    </trkpt>
    <trkpt lat="42.724757195" lon="11.656279564">
      <ele>557.0</ele>
    </trkpt>
    <trkpt lat="42.72415638" lon="11.656751633">
      <ele>554.0</ele>
    </trkpt>
    <trkpt lat="42.722997665" lon="11.657137871">
      <ele>549.0</ele>
    </trkpt>
    <trkpt lat="42.722654343" lon="11.657395363">
      <ele>548.0</ele>
    </trkpt>
    <trkpt lat="42.722139359" lon="11.657910347">
      <ele>545.0</ele>
    </trkpt>
    <trkpt lat="42.722053528" lon="11.658082008">
      <ele>545.0</ele>
    </trkpt>
    <trkpt lat="42.721967697" lon="11.6588974">
      <ele>549.0</ele>
    </trkpt>
    <trkpt lat="42.721838951" lon="11.659197807">
      <ele>549.0</ele>
    </trkpt>
    <trkpt lat="42.721581459" lon="11.659455299">
      <ele>548.0</ele>
    </trkpt>
    <trkpt lat="42.72102356" lon="11.659626961">
      <ele>544.0</ele>
    </trkpt>
    <trkpt lat="42.72046566" lon="11.66009903">
      <ele>540.0</ele>
    </trkpt>
    <trkpt lat="42.720293999" lon="11.660399437">
      <ele>539.0</ele>
    </trkpt>
    <trkpt lat="42.719950676" lon="11.661429405">
      <ele>535.0</ele>
    </trkpt>
    <trkpt lat="42.719521523" lon="11.663489342">
      <ele>537.0</ele>
    </trkpt>
    <trkpt lat="42.719435692" lon="11.663703918">
      <ele>537.0</ele>
    </trkpt>
    <trkpt lat="42.718877792" lon="11.66451931">
      <ele>540.0</ele>
    </trkpt>
    <trkpt lat="42.718148232" lon="11.664948463">
      <ele>542.0</ele>
    </trkpt>
    <trkpt lat="42.717375755" lon="11.666278839">
      <ele>544.0</ele>
    </trkpt>
    <trkpt lat="42.717204094" lon="11.6664505">
      <ele>546.0</ele>
    </trkpt>
    <trkpt lat="42.717075348" lon="11.6664505">
      <ele>546.0</ele>
    </trkpt>
    <trkpt lat="42.716474533" lon="11.666665077">
      <ele>546.0</ele>
    </trkpt>
    <trkpt lat="42.715830803" lon="11.667094231">
      <ele>550.0</ele>
    </trkpt>
    <trkpt lat="42.715659142" lon="11.667265892">
      <ele>549.0</ele>
    </trkpt>
    <trkpt lat="42.71548748" lon="11.667523384">
      <ele>549.0</ele>
    </trkpt>
    <trkpt lat="42.715015411" lon="11.669154167">
      <ele>554.0</ele>
    </trkpt>
    <trkpt lat="42.714028358" lon="11.670184135">
      <ele>550.0</ele>
    </trkpt>
    <trkpt lat="42.712697983" lon="11.671085358">
      <ele>554.0</ele>
    </trkpt>
    <trkpt lat="42.712569237" lon="11.671299934">
      <ele>556.0</ele>
    </trkpt>
    <trkpt lat="42.712011337" lon="11.67391777">
      <ele>563.0</ele>
    </trkpt>
    <trkpt lat="42.711796761" lon="11.674346924">
      <ele>562.0</ele>
    </trkpt>
    <trkpt lat="42.711410522" lon="11.674690247">
      <ele>558.0</ele>
    </trkpt>
    <trkpt lat="42.710938454" lon="11.674947739">
      <ele>552.0</ele>
    </trkpt>
    <trkpt lat="42.710723877" lon="11.675162315">
      <ele>549.0</ele>
    </trkpt>
    <trkpt lat="42.710294724" lon="11.676278114">
      <ele>547.0</ele>
    </trkpt>
    <trkpt lat="42.710123062" lon="11.677308083">
      <ele>548.0</ele>
    </trkpt>
    <trkpt lat="42.709650993" lon="11.678509712">
      <ele>538.0</ele>
    </trkpt>
    <trkpt lat="42.709479332" lon="11.679496765">
      <ele>531.0</ele>
    </trkpt>
    <trkpt lat="42.709608078" lon="11.679754257">
      <ele>532.0</ele>
    </trkpt>
    <trkpt lat="42.710123062" lon="11.680355072">
      <ele>537.0</ele>
    </trkpt>
    <trkpt lat="42.710380554" lon="11.681084633">
      <ele>534.0</ele>
    </trkpt>
    <trkpt lat="42.710595131" lon="11.681256294">
      <ele>537.0</ele>
    </trkpt>
    <trkpt lat="42.711238861" lon="11.681427956">
      <ele>551.0</ele>
    </trkpt>
    <trkpt lat="42.712097168" lon="11.68194294">
      <ele>558.0</ele>
    </trkpt>
    <trkpt lat="42.71235466" lon="11.682372093">
      <ele>553.0</ele>
    </trkpt>
    <trkpt lat="42.71235466" lon="11.682629585">
      <ele>552.0</ele>
    </trkpt>
    <trkpt lat="42.712182999" lon="11.682887077">
      <ele>555.0</ele>
    </trkpt>
    <trkpt lat="42.712011337" lon="11.682929993">
      <ele>554.0</ele>
    </trkpt>
    <trkpt lat="42.711367607" lon="11.682500839">
      <ele>540.0</ele>
    </trkpt>
    <trkpt lat="42.711110115" lon="11.682457924">
      <ele>538.0</ele>
    </trkpt>
    <trkpt lat="42.710251808" lon="11.683058739">
      <ele>537.0</ele>
    </trkpt>
    <trkpt lat="42.709951401" lon="11.683616638">
      <ele>542.0</ele>
    </trkpt>
    <trkpt lat="42.709050179" lon="11.685762405">
      <ele>548.0</ele>
    </trkpt>
    <trkpt lat="42.708792686" lon="11.686105728">
      <ele>549.0</ele>
    </trkpt>
    <trkpt lat="42.70866394" lon="11.686191559">
      <ele>548.0</ele>
    </trkpt>
    <trkpt lat="42.707719803" lon="11.68627739">
      <ele>537.0</ele>
    </trkpt>
    <trkpt lat="42.707419395" lon="11.686577797">
      <ele>532.0</ele>
    </trkpt>
    <trkpt lat="42.70673275" lon="11.687693596">
      <ele>522.0</ele>
    </trkpt>
    <trkpt lat="42.706432343" lon="11.687865257">
      <ele>520.0</ele>
    </trkpt>
    <trkpt lat="42.704930305" lon="11.688294411">
      <ele>502.0</ele>
    </trkpt>
    <trkpt lat="42.704672813" lon="11.688508987">
      <ele>500.0</ele>
    </trkpt>
    <trkpt lat="42.704586983" lon="11.688766479">
      <ele>498.0</ele>
    </trkpt>
    <trkpt lat="42.704586983" lon="11.689066887">
      <ele>497.0</ele>
    </trkpt>
    <trkpt lat="42.704715729" lon="11.689968109">
      <ele>495.0</ele>
    </trkpt>
    <trkpt lat="42.705016136" lon="11.691384315">
      <ele>494.0</ele>
    </trkpt>
    <trkpt lat="42.705230713" lon="11.691641808">
      <ele>494.0</ele>
    </trkpt>
    <trkpt lat="42.707247734" lon="11.693100929">
      <ele>497.0</ele>
    </trkpt>
    <trkpt lat="42.707462311" lon="11.693444252">
      <ele>497.0</ele>
    </trkpt>
    <trkpt lat="42.707505226" lon="11.693744659">
      <ele>495.0</ele>
    </trkpt>
    <trkpt lat="42.707333565" lon="11.69567585">
      <ele>491.0</ele>
    </trkpt>
    <trkpt lat="42.70802021" lon="11.698379517">
      <ele>499.0</ele>
    </trkpt>
    <trkpt lat="42.70802021" lon="11.698594093">
      <ele>499.0</ele>
    </trkpt>
    <trkpt lat="42.707633972" lon="11.699023247">
      <ele>493.0</ele>
    </trkpt>
    <trkpt lat="42.705101967" lon="11.701383591">
      <ele>466.0</ele>
    </trkpt>
    <trkpt lat="42.704758644" lon="11.702413559">
      <ele>463.0</ele>
    </trkpt>
    <trkpt lat="42.703642845" lon="11.70314312">
      <ele>455.0</ele>
    </trkpt>
    <trkpt lat="42.702913284" lon="11.703915596">
      <ele>450.0</ele>
    </trkpt>
    <trkpt lat="42.70175457" lon="11.703658104">
      <ele>441.0</ele>
    </trkpt>
    <trkpt lat="42.700166702" lon="11.703743935">
      <ele>423.0</ele>
    </trkpt>
    <trkpt lat="42.700037956" lon="11.703915596">
      <ele>421.0</ele>
    </trkpt>
    <trkpt lat="42.699522972" lon="11.705117226">
      <ele>423.0</ele>
    </trkpt>
    <trkpt lat="42.699351311" lon="11.705117226">
      <ele>422.0</ele>
    </trkpt>
    <trkpt lat="42.698020935" lon="11.704730988">
      <ele>413.0</ele>
    </trkpt>
    <trkpt lat="42.696690559" lon="11.70498848">
      <ele>397.0</ele>
    </trkpt>
    <trkpt lat="42.696089745" lon="11.705160141">
      <ele>395.0</ele>
    </trkpt>
    <trkpt lat="42.695102692" lon="11.704902649">
      <ele>386.0</ele>
    </trkpt>
    <trkpt lat="42.694244385" lon="11.70443058">
      <ele>382.0</ele>
    </trkpt>
    <trkpt lat="42.693171501" lon="11.704645157">
      <ele>367.0</ele>
    </trkpt>
    <trkpt lat="42.692828178" lon="11.704602242">
      <ele>372.0</ele>
    </trkpt>
    <trkpt lat="42.691369057" lon="11.703615189">
      <ele>382.0</ele>
    </trkpt>
    <trkpt lat="42.690382004" lon="11.702713966">
      <ele>391.0</ele>
    </trkpt>
    <trkpt lat="42.68986702" lon="11.702113152">
      <ele>398.0</ele>
    </trkpt>
    <trkpt lat="42.688708305" lon="11.700525284">
      <ele>401.0</ele>
    </trkpt>
    <trkpt lat="42.687935829" lon="11.699237823">
      <ele>405.0</ele>
    </trkpt>
    <trkpt lat="42.687807083" lon="11.699109077">
      <ele>407.0</ele>
    </trkpt>
    <trkpt lat="42.687592506" lon="11.699023247">
      <ele>412.0</ele>
    </trkpt>
    <trkpt lat="42.687420845" lon="11.699066162">
      <ele>415.0</ele>
    </trkpt>
    <trkpt lat="42.687206268" lon="11.699194908">
      <ele>416.0</ele>
    </trkpt>
    <trkpt lat="42.687034607" lon="11.6994524">
      <ele>415.0</ele>
    </trkpt>
    <trkpt lat="42.686691284" lon="11.700439453">
      <ele>415.0</ele>
    </trkpt>
    <trkpt lat="42.686562538" lon="11.700525284">
      <ele>415.0</ele>
    </trkpt>
    <trkpt lat="42.686476707" lon="11.700825691">
      <ele>416.0</ele>
    </trkpt>
    <trkpt lat="42.68737793" lon="11.701555252">
      <ele>418.0</ele>
    </trkpt>
    <trkpt lat="42.687764168" lon="11.70194149">
      <ele>418.0</ele>
    </trkpt>
    <trkpt lat="42.687849998" lon="11.702198982">
      <ele>418.0</ele>
    </trkpt>
    <trkpt lat="42.687935829" lon="11.702756882">
      <ele>418.0</ele>
    </trkpt>
    <trkpt lat="42.687549591" lon="11.705245972">
      <ele>414.0</ele>
    </trkpt>
    <trkpt lat="42.687420845" lon="11.705675125">
      <ele>413.0</ele>
    </trkpt>
    <trkpt lat="42.686648369" lon="11.706662178">
      <ele>414.0</ele>
    </trkpt>
    <trkpt lat="42.686219215" lon="11.70691967">
      <ele>411.0</ele>
    </trkpt>
    <trkpt lat="42.685661316" lon="11.707177162">
      <ele>406.0</ele>
    </trkpt>
    <trkpt lat="42.685017586" lon="11.70691967">
      <ele>390.0</ele>
    </trkpt>
    <trkpt lat="42.684845924" lon="11.70691967">
      <ele>386.0</ele>
    </trkpt>
    <trkpt lat="42.684760094" lon="11.707091331">
      <ele>387.0</ele>
    </trkpt>
    <trkpt lat="42.684845924" lon="11.707820892">
      <ele>393.0</ele>
    </trkpt>
    <trkpt lat="42.685017586" lon="11.708421707">
      <ele>395.0</ele>
    </trkpt>
    <trkpt lat="42.685403824" lon="11.708979607">
      <ele>394.0</ele>
    </trkpt>
    <trkpt lat="42.685360909" lon="11.709151268">
      <ele>392.0</ele>
    </trkpt>
    <trkpt lat="42.685275078" lon="11.709194183">
      <ele>391.0</ele>
    </trkpt>
    <trkpt lat="42.685146332" lon="11.709151268">
      <ele>390.0</ele>
    </trkpt>
    <trkpt lat="42.68488884" lon="11.708850861">
      <ele>387.0</ele>
    </trkpt>
    <trkpt lat="42.684588432" lon="11.707949638">
      <ele>383.0</ele>
    </trkpt>
    <trkpt lat="42.683944702" lon="11.707305908">
      <ele>370.0</ele>
    </trkpt>
    <trkpt lat="42.683901787" lon="11.707177162">
      <ele>368.0</ele>
    </trkpt>
    <trkpt lat="42.683815956" lon="11.706748009">
      <ele>366.0</ele>
    </trkpt>
    <trkpt lat="42.683858871" lon="11.706533432">
      <ele>361.0</ele>
    </trkpt>
    <trkpt lat="42.684373856" lon="11.706490517">
      <ele>367.0</ele>
    </trkpt>
    <trkpt lat="42.684416771" lon="11.706404686">
      <ele>364.0</ele>
    </trkpt>
    <trkpt lat="42.684373856" lon="11.706233025">
      <ele>356.0</ele>
    </trkpt>
    <trkpt lat="42.684288025" lon="11.706190109">
      <ele>352.0</ele>
    </trkpt>
    <trkpt lat="42.683815956" lon="11.70627594">
      <ele>349.0</ele>
    </trkpt>
    <trkpt lat="42.683343887" lon="11.706104279">
      <ele>338.0</ele>
    </trkpt>
    <trkpt lat="42.683129311" lon="11.706147194">
      <ele>333.0</ele>
    </trkpt>
    <trkpt lat="42.682914734" lon="11.706404686">
      <ele>334.0</ele>
    </trkpt>
    <trkpt lat="42.682700157" lon="11.707348824">
      <ele>329.0</ele>
    </trkpt>
    <trkpt lat="42.682957649" lon="11.707777977">
      <ele>330.0</ele>
    </trkpt>
    <trkpt lat="42.683215141" lon="11.707906723">
      <ele>336.0</ele>
    </trkpt>
    <trkpt lat="42.683429718" lon="11.707906723">
      <ele>343.0</ele>
    </trkpt>
    <trkpt lat="42.683601379" lon="11.708078384">
      <ele>344.0</ele>
    </trkpt>
    <trkpt lat="42.683730125" lon="11.708378792">
      <ele>342.0</ele>
    </trkpt>
    <trkpt lat="42.683944702" lon="11.709365845">
      <ele>344.0</ele>
    </trkpt>
    <trkpt lat="42.683901787" lon="11.709580421">
      <ele>343.0</ele>
    </trkpt>
    <trkpt lat="42.683601379" lon="11.710138321">
      <ele>333.0</ele>
    </trkpt>
    <trkpt lat="42.683429718" lon="11.710224152">
      <ele>327.0</ele>
    </trkpt>
    <trkpt lat="42.682828903" lon="11.709151268">
      <ele>303.0</ele>
    </trkpt>
    <trkpt lat="42.681670189" lon="11.710009575">
      <ele>339.0</ele>
    </trkpt>
    <trkpt lat="42.681627274" lon="11.710181236">
      <ele>340.0</ele>
    </trkpt>
    <trkpt lat="42.681627274" lon="11.711597443">
      <ele>340.0</ele>
    </trkpt>
    <trkpt lat="42.681498528" lon="11.711683273">
      <ele>347.0</ele>
    </trkpt>
    <trkpt lat="42.681412697" lon="11.711511612">
      <ele>350.0</ele>
    </trkpt>
    <trkpt lat="42.681541443" lon="11.711082458">
      <ele>342.0</ele>
    </trkpt>
    <trkpt lat="42.681498528" lon="11.710910797">
      <ele>343.0</ele>
    </trkpt>
    <trkpt lat="42.681369781" lon="11.710953712">
      <ele>350.0</ele>
    </trkpt>
    <trkpt lat="42.681326866" lon="11.711468697">
      <ele>355.0</ele>
    </trkpt>
    <trkpt lat="42.681412697" lon="11.711983681">
      <ele>356.0</ele>
    </trkpt>
    <trkpt lat="42.68184185" lon="11.713013649">
      <ele>358.0</ele>
    </trkpt>
    <trkpt lat="42.68184185" lon="11.713228226">
      <ele>364.0</ele>
    </trkpt>
    <trkpt lat="42.68175602" lon="11.713228226">
      <ele>366.0</ele>
    </trkpt>
    <trkpt lat="42.681241035" lon="11.711940765">
      <ele>364.0</ele>
    </trkpt>
    <trkpt lat="42.68119812" lon="11.711554527">
      <ele>362.0</ele>
    </trkpt>
    <trkpt lat="42.681155205" lon="11.711468697">
      <ele>364.0</ele>
    </trkpt>
    <trkpt lat="42.681069374" lon="11.711468697">
      <ele>368.0</ele>
    </trkpt>
    <trkpt lat="42.681112289" lon="11.711983681">
      <ele>371.0</ele>
    </trkpt>
    <trkpt lat="42.681884766" lon="11.713786125">
      <ele>375.0</ele>
    </trkpt>
    <trkpt lat="42.681412697" lon="11.714086533">
      <ele>387.0</ele>
    </trkpt>
    <trkpt lat="42.680983543" lon="11.712841988">
      <ele>388.0</ele>
    </trkpt>
    <trkpt lat="42.680854797" lon="11.712627411">
      <ele>393.0</ele>
    </trkpt>
    <trkpt lat="42.680768967" lon="11.712670326">
      <ele>395.0</ele>
    </trkpt>
    <trkpt lat="42.680854797" lon="11.714215279">
      <ele>400.0</ele>
    </trkpt>
    <trkpt lat="42.681949139" lon="11.718463898">
      <ele>415.0</ele>
    </trkpt>
    <trkpt lat="42.682056427" lon="11.719429493">
      <ele>418.0</ele>
    </trkpt>
    <trkpt lat="42.682313919" lon="11.720609665">
      <ele>419.0</ele>
    </trkpt>
    <trkpt lat="42.682099342" lon="11.726081371">
      <ele>434.0</ele>
    </trkpt>
    <trkpt lat="42.681627274" lon="11.727712154">
      <ele>439.0</ele>
    </trkpt>
    <trkpt lat="42.680983543" lon="11.728892326">
      <ele>443.0</ele>
    </trkpt>
    <trkpt lat="42.680661678" lon="11.729300022">
      <ele>446.0</ele>
    </trkpt>
    <trkpt lat="42.678945065" lon="11.730566025">
      <ele>450.0</ele>
    </trkpt>
    <trkpt lat="42.678558826" lon="11.73208952">
      <ele>453.0</ele>
    </trkpt>
    <trkpt lat="42.678408623" lon="11.732218266">
      <ele>454.0</ele>
    </trkpt>
    <trkpt lat="42.675790787" lon="11.733398438">
      <ele>460.0</ele>
    </trkpt>
    <trkpt lat="42.675619125" lon="11.733548641">
      <ele>461.0</ele>
    </trkpt>
    <trkpt lat="42.674760818" lon="11.735007763">
      <ele>468.0</ele>
    </trkpt>
    <trkpt lat="42.674074173" lon="11.736917496">
      <ele>470.0</ele>
    </trkpt>
    <trkpt lat="42.673001289" lon="11.739406586">
      <ele>468.0</ele>
    </trkpt>
    <trkpt lat="42.671928406" lon="11.741573811">
      <ele>478.0</ele>
    </trkpt>
    <trkpt lat="42.671284676" lon="11.743633747">
      <ele>485.0</ele>
    </trkpt>
    <trkpt lat="42.670855522" lon="11.745285988">
      <ele>486.0</ele>
    </trkpt>
    <trkpt lat="42.670984268" lon="11.746594906">
      <ele>487.0</ele>
    </trkpt>
    <trkpt lat="42.670619488" lon="11.748976707">
      <ele>483.0</ele>
    </trkpt>
    <trkpt lat="42.670061588" lon="11.750264168">
      <ele>482.0</ele>
    </trkpt>
    <trkpt lat="42.669804096" lon="11.751637459">
      <ele>483.0</ele>
    </trkpt>
    <trkpt lat="42.669718266" lon="11.752924919">
      <ele>486.0</ele>
    </trkpt>
    <trkpt lat="42.670018673" lon="11.754319668">
      <ele>486.0</ele>
    </trkpt>
    <trkpt lat="42.669975758" lon="11.756079197">
      <ele>491.0</ele>
    </trkpt>
    <trkpt lat="42.669804096" lon="11.757216454">
      <ele>486.0</ele>
    </trkpt>
    <trkpt lat="42.669847012" lon="11.758868694">
      <ele>486.0</ele>
    </trkpt>
    <trkpt lat="42.67031908" lon="11.760520935">
      <ele>490.0</ele>
    </trkpt>
    <trkpt lat="42.670276165" lon="11.761035919">
      <ele>488.0</ele>
    </trkpt>
    <trkpt lat="42.669911385" lon="11.761915684">
      <ele>483.0</ele>
    </trkpt>
    <trkpt lat="42.669632435" lon="11.762151718">
      <ele>481.0</ele>
    </trkpt>
    <trkpt lat="42.66931057" lon="11.762259007">
      <ele>481.0</ele>
    </trkpt>
    <trkpt lat="42.66903162" lon="11.762259007">
      <ele>483.0</ele>
    </trkpt>
    <trkpt lat="42.668945789" lon="11.762344837">
      <ele>482.0</ele>
    </trkpt>
    <trkpt lat="42.668774128" lon="11.762387753">
      <ele>482.0</ele>
    </trkpt>
    <trkpt lat="42.668538094" lon="11.762387753">
      <ele>482.0</ele>
    </trkpt>
    <trkpt lat="42.668988705" lon="11.762988567">
      <ele>477.0</ele>
    </trkpt>
    <trkpt lat="42.669117451" lon="11.763653755">
      <ele>477.0</ele>
    </trkpt>
    <trkpt lat="42.668817043" lon="11.763739586">
      <ele>477.0</ele>
    </trkpt>
    <trkpt lat="42.668495178" lon="11.763739586">
      <ele>476.0</ele>
    </trkpt>
    <trkpt lat="42.668495178" lon="11.76361084">
      <ele>476.0</ele>
    </trkpt>
    <trkpt lat="42.668495178" lon="11.763739586">
      <ele>476.0</ele>
    </trkpt>
    <trkpt lat="42.668409348" lon="11.763739586">
      <ele>476.0</ele>
    </trkpt>
    <trkpt lat="42.667937279" lon="11.76361084">
      <ele>478.0</ele>
    </trkpt>
    <trkpt lat="42.667422295" lon="11.763310432">
      <ele>479.0</ele>
    </trkpt>
    <trkpt lat="42.666800022" lon="11.763203144">
      <ele>483.0</ele>
    </trkpt>
    <trkpt lat="42.66561985" lon="11.762623787">
      <ele>487.0</ele>
    </trkpt>
    <trkpt lat="42.665383816" lon="11.762387753">
      <ele>488.0</ele>
    </trkpt>
    <trkpt lat="42.665319443" lon="11.761872768">
      <ele>488.0</ele>
    </trkpt>
    <trkpt lat="42.665405273" lon="11.761314869">
      <ele>491.0</ele>
    </trkpt>
    <trkpt lat="42.663066387" lon="11.760306358">
      <ele>494.0</ele>
    </trkpt>
    <trkpt lat="42.658474445" lon="11.759769917">
      <ele>488.0</ele>
    </trkpt>
    <trkpt lat="42.657079697" lon="11.758954525">
      <ele>486.0</ele>
    </trkpt>
    <trkpt lat="42.654590607" lon="11.757323742">
      <ele>486.0</ele>
    </trkpt>
    <trkpt lat="42.653238773" lon="11.7567873">
      <ele>482.0</ele>
    </trkpt>
    <trkpt lat="42.6531744" lon="11.756808758">
      <ele>483.0</ele>
    </trkpt>
    <trkpt lat="42.65308857" lon="11.756722927">
      <ele>482.0</ele>
    </trkpt>
    <trkpt lat="42.652895451" lon="11.756701469">
      <ele>483.0</ele>
    </trkpt>
    <trkpt lat="42.652552128" lon="11.756808758">
      <ele>484.0</ele>
    </trkpt>
    <trkpt lat="42.650578022" lon="11.756637096">
      <ele>483.0</ele>
    </trkpt>
    <trkpt lat="42.648260593" lon="11.755886078">
      <ele>495.0</ele>
    </trkpt>
    <trkpt lat="42.648046017" lon="11.75586462">
      <ele>494.0</ele>
    </trkpt>
    <trkpt lat="42.647767067" lon="11.755907536">
      <ele>494.0</ele>
    </trkpt>
    <trkpt lat="42.646501064" lon="11.75642252">
      <ele>489.0</ele>
    </trkpt>
    <trkpt lat="42.646157742" lon="11.756465435">
      <ele>488.0</ele>
    </trkpt>
    <trkpt lat="42.645857334" lon="11.75642252">
      <ele>488.0</ele>
    </trkpt>
    <trkpt lat="42.643561363" lon="11.755263805">
      <ele>496.0</ele>
    </trkpt>
    <trkpt lat="42.642767429" lon="11.754684448">
      <ele>498.0</ele>
    </trkpt>
    <trkpt lat="42.638754845" lon="11.750864983">
      <ele>476.0</ele>
    </trkpt>
    <trkpt lat="42.638261318" lon="11.750478745">
      <ele>480.0</ele>
    </trkpt>
    <trkpt lat="42.63787508" lon="11.750307083">
      <ele>481.0</ele>
    </trkpt>
    <trkpt lat="42.636909485" lon="11.750049591">
      <ele>477.0</ele>
    </trkpt>
    <trkpt lat="42.636609077" lon="11.749749184">
      <ele>477.0</ele>
    </trkpt>
    <trkpt lat="42.635042667" lon="11.746509075">
      <ele>472.0</ele>
    </trkpt>
    <trkpt lat="42.634887099" lon="11.746141361">
      <ele>471.0</ele>
    </trkpt>
    <trkpt lat="42.634943342" lon="11.746097775">
      <ele>471.0</ele>
    </trkpt>
    <trkpt lat="42.634887099" lon="11.746141361">
      <ele>471.0</ele>
    </trkpt>
    <trkpt lat="42.634656429" lon="11.745500565">
      <ele>470.0</ele>
    </trkpt>
    <trkpt lat="42.634248734" lon="11.742153168">
      <ele>466.0</ele>
    </trkpt>
    <trkpt lat="42.633111477" lon="11.736724377">
      <ele>468.0</ele>
    </trkpt>
    <trkpt lat="42.632982731" lon="11.735179424">
      <ele>466.0</ele>
    </trkpt>
    <trkpt lat="42.633497715" lon="11.727626324">
      <ele>457.0</ele>
    </trkpt>
    <trkpt lat="42.6334548" lon="11.726982594">
      <ele>455.0</ele>
    </trkpt>
    <trkpt lat="42.632381916" lon="11.720845699">
      <ele>440.0</ele>
    </trkpt>
    <trkpt lat="42.632231712" lon="11.719923019">
      <ele>437.0</ele>
    </trkpt>
    <trkpt lat="42.632210255" lon="11.719450951">
      <ele>435.0</ele>
    </trkpt>
    <trkpt lat="42.632510662" lon="11.716983318">
      <ele>423.0</ele>
    </trkpt>
    <trkpt lat="42.632811069" lon="11.715159416">
      <ele>418.0</ele>
    </trkpt>
    <trkpt lat="42.632832527" lon="11.714451313">
      <ele>417.0</ele>
    </trkpt>
    <trkpt lat="42.632424831" lon="11.713678837">
      <ele>416.0</ele>
    </trkpt>
    <trkpt lat="42.631695271" lon="11.712627411">
      <ele>413.0</ele>
    </trkpt>
    <trkpt lat="42.62847662" lon="11.708657742">
      <ele>399.0</ele>
    </trkpt>
    <trkpt lat="42.627875805" lon="11.707885265">
      <ele>396.0</ele>
    </trkpt>
    <trkpt lat="42.627682686" lon="11.70747757">
      <ele>394.0</ele>
    </trkpt>
    <trkpt lat="42.62755394" lon="11.70563221">
      <ele>390.0</ele>
    </trkpt>
    <trkpt lat="42.627511024" lon="11.703014374">
      <ele>382.0</ele>
    </trkpt>
    <trkpt lat="42.627210617" lon="11.701920033">
      <ele>378.0</ele>
    </trkpt>
    <trkpt lat="42.62635231" lon="11.699602604">
      <ele>371.0</ele>
    </trkpt>
    <trkpt lat="42.626287937" lon="11.699259281">
      <ele>370.0</ele>
    </trkpt>
    <trkpt lat="42.626309395" lon="11.696898937">
      <ele>363.0</ele>
    </trkpt>
    <trkpt lat="42.626717091" lon="11.694989204">
      <ele>362.0</ele>
    </trkpt>
    <trkpt lat="42.627360821" lon="11.693315506">
      <ele>362.0</ele>
    </trkpt>
    <trkpt lat="42.628240585" lon="11.690547466">
      <ele>356.0</ele>
    </trkpt>
    <trkpt lat="42.628583908" lon="11.687779427">
      <ele>350.0</ele>
    </trkpt>
    <trkpt lat="42.629163265" lon="11.686127186">
      <ele>344.0</ele>
    </trkpt>
    <trkpt lat="42.629613876" lon="11.685526371">
      <ele>344.0</ele>
    </trkpt>
    <trkpt lat="42.62976408" lon="11.684947014">
      <ele>342.0</ele>
    </trkpt>
    <trkpt lat="42.629935741" lon="11.683359146">
      <ele>339.0</ele>
    </trkpt>
    <trkpt lat="42.629849911" lon="11.68258667">
      <ele>337.0</ele>
    </trkpt>
    <trkpt lat="42.629849911" lon="11.679325104">
      <ele>332.0</ele>
    </trkpt>
    <trkpt lat="42.62976408" lon="11.678509712">
      <ele>327.0</ele>
    </trkpt>
    <trkpt lat="42.628755569" lon="11.675376892">
      <ele>326.0</ele>
    </trkpt>
    <trkpt lat="42.628712654" lon="11.675097942">
      <ele>325.0</ele>
    </trkpt>
    <trkpt lat="42.628755569" lon="11.673016548">
      <ele>318.0</ele>
    </trkpt>
    <trkpt lat="42.628304958" lon="11.667158604">
      <ele>315.0</ele>
    </trkpt>
    <trkpt lat="42.627854347" lon="11.663446426">
      <ele>307.0</ele>
    </trkpt>
    <trkpt lat="42.627618313" lon="11.662137508">
      <ele>305.0</ele>
    </trkpt>
    <trkpt lat="42.627811432" lon="11.661944389">
      <ele>305.0</ele>
    </trkpt>
    <trkpt lat="42.62770297" lon="11.661696453">
      <ele>305.0</ele>
    </trkpt>
    <trkpt lat="42.627811432" lon="11.661944389">
      <ele>305.0</ele>
    </trkpt>
    <trkpt lat="42.628133297" lon="11.662180424">
      <ele>305.0</ele>
    </trkpt>
    <trkpt lat="42.629463673" lon="11.662974358">
      <ele>306.0</ele>
    </trkpt>
    <trkpt lat="42.629721165" lon="11.663017273">
      <ele>306.0</ele>
    </trkpt>
    <trkpt lat="42.630472183" lon="11.662716866">
      <ele>295.0</ele>
    </trkpt>
    <trkpt lat="42.630665302" lon="11.66258812">
      <ele>292.0</ele>
    </trkpt>
    <trkpt lat="42.630836964" lon="11.662223339">
      <ele>293.0</ele>
    </trkpt>
    <trkpt lat="42.630901337" lon="11.662287712">
      <ele>289.0</ele>
    </trkpt>
    <trkpt lat="42.630708218" lon="11.662781239">
      <ele>290.0</ele>
    </trkpt>
    <trkpt lat="42.63068676" lon="11.665914059">
      <ele>279.0</ele>
    </trkpt>
    <trkpt lat="42.630729675" lon="11.666193008">
      <ele>281.0</ele>
    </trkpt>
    <trkpt lat="42.631759644" lon="11.667695045">
      <ele>253.0</ele>
    </trkpt>
    <trkpt lat="42.632081509" lon="11.668317318">
      <ele>250.0</ele>
    </trkpt>
    <trkpt lat="42.632060051" lon="11.66893959">
      <ele>246.0</ele>
    </trkpt>
    <trkpt lat="42.632446289" lon="11.670162678">
      <ele>244.0</ele>
    </trkpt>
    <trkpt lat="42.633647919" lon="11.669733524">
      <ele>267.0</ele>
    </trkpt>
    <trkpt lat="42.633798122" lon="11.669518948">
      <ele>267.0</ele>
    </trkpt>
    <trkpt lat="42.63381958" lon="11.669089794">
      <ele>261.0</ele>
    </trkpt>
    <trkpt lat="42.633926868" lon="11.669003963">
      <ele>267.0</ele>
    </trkpt>
    <trkpt lat="42.633991241" lon="11.66913271">
      <ele>269.0</ele>
    </trkpt>
    <trkpt lat="42.633948326" lon="11.669583321">
      <ele>275.0</ele>
    </trkpt>
    <trkpt lat="42.633862495" lon="11.66977644">
      <ele>276.0</ele>
    </trkpt>
    <trkpt lat="42.633562088" lon="11.670076847">
      <ele>273.0</ele>
    </trkpt>
    <trkpt lat="42.632918358" lon="11.670441628">
      <ele>268.0</ele>
    </trkpt>
    <trkpt lat="42.632682323" lon="11.67078495">
      <ele>273.0</ele>
    </trkpt>
    <trkpt lat="42.63261795" lon="11.671042442">
      <ele>275.0</ele>
    </trkpt>
    <trkpt lat="42.632703781" lon="11.671772003">
      <ele>290.0</ele>
    </trkpt>
    <trkpt lat="42.632768154" lon="11.671814919">
      <ele>293.0</ele>
    </trkpt>
    <trkpt lat="42.632811069" lon="11.671729088">
      <ele>294.0</ele>
    </trkpt>
    <trkpt lat="42.632708643" lon="11.67108167">
      <ele>279.0</ele>
    </trkpt>
    <trkpt lat="42.632811069" lon="11.671729088">
      <ele>294.0</ele>
    </trkpt>
    <trkpt lat="42.632768154" lon="11.671814919">
      <ele>293.0</ele>
    </trkpt>
    <trkpt lat="42.632703781" lon="11.671772003">
      <ele>290.0</ele>
    </trkpt>
    <trkpt lat="42.63261795" lon="11.671042442">
      <ele>275.0</ele>
    </trkpt>
    <trkpt lat="42.632682323" lon="11.67078495">
      <ele>273.0</ele>
    </trkpt>
    <trkpt lat="42.632918358" lon="11.670441628">
      <ele>268.0</ele>
    </trkpt>
    <trkpt lat="42.633562088" lon="11.670076847">
      <ele>273.0</ele>
    </trkpt>
    <trkpt lat="42.633862495" lon="11.66977644">
      <ele>276.0</ele>
    </trkpt>
    <trkpt lat="42.633948326" lon="11.669583321">
      <ele>275.0</ele>
    </trkpt>
    <trkpt lat="42.633991241" lon="11.66913271">
      <ele>269.0</ele>
    </trkpt>
    <trkpt lat="42.633519173" lon="11.667845249">
      <ele>261.0</ele>
    </trkpt>
    <trkpt lat="42.632660866" lon="11.66636467">
      <ele>250.0</ele>
    </trkpt>
    <trkpt lat="42.632424831" lon="11.665785313">
      <ele>245.0</ele>
    </trkpt>
    <trkpt lat="42.63225317" lon="11.664862633">
      <ele>243.0</ele>
    </trkpt>
    <trkpt lat="42.632317543" lon="11.66424036">
      <ele>244.0</ele>
    </trkpt>
    <trkpt lat="42.632296085" lon="11.663575172">
      <ele>239.0</ele>
    </trkpt>
    <trkpt lat="42.632424831" lon="11.663017273">
      <ele>233.0</ele>
    </trkpt>
    <trkpt lat="42.632939816" lon="11.662180424">
      <ele>233.0</ele>
    </trkpt>
    <trkpt lat="42.633197308" lon="11.661450863">
      <ele>227.0</ele>
    </trkpt>
    <trkpt lat="42.633347511" lon="11.66082859">
      <ele>222.0</ele>
    </trkpt>
    <trkpt lat="42.633411884" lon="11.659841537">
      <ele>211.0</ele>
    </trkpt>
    <trkpt lat="42.633519173" lon="11.65954113">
      <ele>209.0</ele>
    </trkpt>
    <trkpt lat="42.633798122" lon="11.659111977">
      <ele>205.0</ele>
    </trkpt>
    <trkpt lat="42.634506226" lon="11.6583395">
      <ele>220.0</ele>
    </trkpt>
    <trkpt lat="42.634828091" lon="11.658768654">
      <ele>228.0</ele>
    </trkpt>
    <trkpt lat="42.634828091" lon="11.658875942">
      <ele>226.0</ele>
    </trkpt>
    <trkpt lat="42.635214329" lon="11.659562588">
      <ele>231.0</ele>
    </trkpt>
    <trkpt lat="42.635879517" lon="11.66110754">
      <ele>237.0</ele>
    </trkpt>
    <trkpt lat="42.636115551" lon="11.661965847">
      <ele>242.0</ele>
    </trkpt>
    <trkpt lat="42.636115551" lon="11.662824154">
      <ele>243.0</ele>
    </trkpt>
    <trkpt lat="42.636222839" lon="11.663253307">
      <ele>248.0</ele>
    </trkpt>
    <trkpt lat="42.637209892" lon="11.665012836">
      <ele>252.0</ele>
    </trkpt>
    <trkpt lat="42.637574673" lon="11.665270329">
      <ele>255.0</ele>
    </trkpt>
    <trkpt lat="42.637853622" lon="11.665334702">
      <ele>255.0</ele>
    </trkpt>
    <trkpt lat="42.63916254" lon="11.664927006">
      <ele>275.0</ele>
    </trkpt>
    <trkpt lat="42.639484406" lon="11.664948463">
      <ele>277.0</ele>
    </trkpt>
    <trkpt lat="42.64036417" lon="11.665291786">
      <ele>279.0</ele>
    </trkpt>
    <trkpt lat="42.640686035" lon="11.665291786">
      <ele>284.0</ele>
    </trkpt>
    <trkpt lat="42.640986443" lon="11.665377617">
      <ele>289.0</ele>
    </trkpt>
    <trkpt lat="42.64128685" lon="11.665999889">
      <ele>283.0</ele>
    </trkpt>
    <trkpt lat="42.642917633" lon="11.666986942">
      <ele>298.0</ele>
    </trkpt>
    <trkpt lat="42.643260956" lon="11.667265892">
      <ele>301.0</ele>
    </trkpt>
    <trkpt lat="42.643926144" lon="11.668381691">
      <ele>311.0</ele>
    </trkpt>
    <trkpt lat="42.644162178" lon="11.668639183">
      <ele>317.0</ele>
    </trkpt>
    <trkpt lat="42.644333839" lon="11.668725014">
      <ele>319.0</ele>
    </trkpt>
    <trkpt lat="42.645084858" lon="11.668617725">
      <ele>328.0</ele>
    </trkpt>
    <trkpt lat="42.646243572" lon="11.668317318">
      <ele>332.0</ele>
    </trkpt>
    <trkpt lat="42.646865845" lon="11.66829586">
      <ele>333.0</ele>
    </trkpt>
    <trkpt lat="42.647423744" lon="11.668488979">
      <ele>336.0</ele>
    </trkpt>
    <trkpt lat="42.647767067" lon="11.668703556">
      <ele>335.0</ele>
    </trkpt>
    <trkpt lat="42.648260593" lon="11.669282913">
      <ele>337.0</ele>
    </trkpt>
    <trkpt lat="42.649569511" lon="11.67198658">
      <ele>344.0</ele>
    </trkpt>
    <trkpt lat="42.649869919" lon="11.672372818">
      <ele>344.0</ele>
    </trkpt>
    <trkpt lat="42.650234699" lon="11.672587395">
      <ele>345.0</ele>
    </trkpt>
    <trkpt lat="42.65280962" lon="11.672780514">
      <ele>350.0</ele>
    </trkpt>
    <trkpt lat="42.653346062" lon="11.672973633">
      <ele>351.0</ele>
    </trkpt>
    <trkpt lat="42.653775215" lon="11.673231125">
      <ele>353.0</ele>
    </trkpt>
    <trkpt lat="42.65501976" lon="11.674497128">
      <ele>360.0</ele>
    </trkpt>
    <trkpt lat="42.655642033" lon="11.674733162">
      <ele>360.0</ele>
    </trkpt>
    <trkpt lat="42.656178474" lon="11.674690247">
      <ele>360.0</ele>
    </trkpt>
    <trkpt lat="42.656736374" lon="11.674304008">
      <ele>362.0</ele>
    </trkpt>
    <trkpt lat="42.659590244" lon="11.670956612">
      <ele>368.0</ele>
    </trkpt>
    <trkpt lat="42.659826279" lon="11.670763493">
      <ele>367.0</ele>
    </trkpt>
    <trkpt lat="42.659847736" lon="11.670677662">
      <ele>367.0</ele>
    </trkpt>
    <trkpt lat="42.65815258" lon="11.664905548">
      <ele>342.0</ele>
    </trkpt>
    <trkpt lat="42.658088207" lon="11.664433479">
      <ele>340.0</ele>
    </trkpt>
    <trkpt lat="42.658088207" lon="11.664090157">
      <ele>339.0</ele>
    </trkpt>
    <trkpt lat="42.658259869" lon="11.663081646">
      <ele>332.0</ele>
    </trkpt>
    <trkpt lat="42.658195496" lon="11.661579609">
      <ele>320.0</ele>
    </trkpt>
    <trkpt lat="42.658281326" lon="11.661214828">
      <ele>316.0</ele>
    </trkpt>
    <trkpt lat="42.658817768" lon="11.660506725">
      <ele>311.0</ele>
    </trkpt>
    <trkpt lat="42.659096718" lon="11.660013199">
      <ele>304.0</ele>
    </trkpt>
    <trkpt lat="42.659397125" lon="11.65926218">
      <ele>299.0</ele>
    </trkpt>
    <trkpt lat="42.659611702" lon="11.6583395">
      <ele>293.0</ele>
    </trkpt>
    <trkpt lat="42.659654617" lon="11.657373905">
      <ele>293.0</ele>
    </trkpt>
    <trkpt lat="42.659547329" lon="11.656515598">
      <ele>291.0</ele>
    </trkpt>
    <trkpt lat="42.659440041" lon="11.65612936">
      <ele>289.0</ele>
    </trkpt>
    <trkpt lat="42.659204006" lon="11.65548563">
      <ele>289.0</ele>
    </trkpt>
    <trkpt lat="42.658603191" lon="11.654326916">
      <ele>288.0</ele>
    </trkpt>
    <trkpt lat="42.658452988" lon="11.653854847">
      <ele>287.0</ele>
    </trkpt>
    <trkpt lat="42.658281326" lon="11.650700569">
      <ele>275.0</ele>
    </trkpt>
    <trkpt lat="42.658109665" lon="11.650207043">
      <ele>271.0</ele>
    </trkpt>
    <trkpt lat="42.657744884" lon="11.64949894">
      <ele>271.0</ele>
    </trkpt>
    <trkpt lat="42.6577878" lon="11.64921999">
      <ele>270.0</ele>
    </trkpt>
    <trkpt lat="42.65806675" lon="11.648833752">
      <ele>268.0</ele>
    </trkpt>
    <trkpt lat="42.65815258" lon="11.648147106">
      <ele>269.0</ele>
    </trkpt>
    <trkpt lat="42.658131123" lon="11.647932529">
      <ele>270.0</ele>
    </trkpt>
    <trkpt lat="42.658023834" lon="11.64801836">
      <ele>273.0</ele>
    </trkpt>
    <trkpt lat="42.657916546" lon="11.648490429">
      <ele>273.0</ele>
    </trkpt>
    <trkpt lat="42.657744884" lon="11.648640633">
      <ele>275.0</ele>
    </trkpt>
    <trkpt lat="42.657573223" lon="11.648426056">
      <ele>281.0</ele>
    </trkpt>
    <trkpt lat="42.657358646" lon="11.648383141">
      <ele>281.0</ele>
    </trkpt>
    <trkpt lat="42.657101154" lon="11.645936966">
      <ele>287.0</ele>
    </trkpt>
    <trkpt lat="42.657122612" lon="11.645228863">
      <ele>286.0</ele>
    </trkpt>
    <trkpt lat="42.657165527" lon="11.64516449">
      <ele>286.0</ele>
    </trkpt>
    <trkpt lat="42.657216908" lon="11.645176979">
      <ele>287.0</ele>
    </trkpt>
    <trkpt lat="42.657122612" lon="11.645894051">
      <ele>287.0</ele>
    </trkpt>
    <trkpt lat="42.657208443" lon="11.646194458">
      <ele>287.0</ele>
    </trkpt>
    <trkpt lat="42.657337189" lon="11.647224426">
      <ele>284.0</ele>
    </trkpt>
    <trkpt lat="42.657423019" lon="11.648855209">
      <ele>277.0</ele>
    </trkpt>
    <trkpt lat="42.65750885" lon="11.649198532">
      <ele>274.0</ele>
    </trkpt>
    <trkpt lat="42.657766342" lon="11.649327278">
      <ele>270.0</ele>
    </trkpt>
    <trkpt lat="42.65815258" lon="11.648812294">
      <ele>266.0</ele>
    </trkpt>
    <trkpt lat="42.658238411" lon="11.64700985">
      <ele>274.0</ele>
    </trkpt>
    <trkpt lat="42.658495903" lon="11.646323204">
      <ele>272.0</ele>
    </trkpt>
    <trkpt lat="42.658667564" lon="11.645636559">
      <ele>267.0</ele>
    </trkpt>
    <trkpt lat="42.658538818" lon="11.642932892">
      <ele>267.0</ele>
    </trkpt>
    <trkpt lat="42.657809258" lon="11.641860008">
      <ele>268.0</ele>
    </trkpt>
    <trkpt lat="42.657294273" lon="11.640915871">
      <ele>264.0</ele>
    </trkpt>
    <trkpt lat="42.656736374" lon="11.64018631">
      <ele>263.0</ele>
    </trkpt>
    <trkpt lat="42.656178474" lon="11.639027596">
      <ele>240.0</ele>
    </trkpt>
    <trkpt lat="42.656006813" lon="11.63898468">
      <ele>241.0</ele>
    </trkpt>
    <trkpt lat="42.655749321" lon="11.639370918">
      <ele>249.0</ele>
    </trkpt>
    <trkpt lat="42.655148506" lon="11.641731262">
      <ele>260.0</ele>
    </trkpt>
    <trkpt lat="42.654976845" lon="11.641860008">
      <ele>256.0</ele>
    </trkpt>
    <trkpt lat="42.654805183" lon="11.641774178">
      <ele>259.0</ele>
    </trkpt>
    <trkpt lat="42.654719353" lon="11.641559601">
      <ele>259.0</ele>
    </trkpt>
    <trkpt lat="42.654719353" lon="11.641345024">
      <ele>258.0</ele>
    </trkpt>
    <trkpt lat="42.655620575" lon="11.638813019">
      <ele>241.0</ele>
    </trkpt>
    <trkpt lat="42.657122612" lon="11.637439728">
      <ele>233.0</ele>
    </trkpt>
    <trkpt lat="42.657251358" lon="11.637268066">
      <ele>235.0</ele>
    </trkpt>
    <trkpt lat="42.657723427" lon="11.636281013">
      <ele>232.0</ele>
    </trkpt>
    <trkpt lat="42.658195496" lon="11.634778976">
      <ele>228.0</ele>
    </trkpt>
    <trkpt lat="42.65815258" lon="11.634521484">
      <ele>230.0</ele>
    </trkpt>
    <trkpt lat="42.65750885" lon="11.633877754">
      <ele>225.0</ele>
    </trkpt>
    <trkpt lat="42.657251358" lon="11.633405685">
      <ele>226.0</ele>
    </trkpt>
    <trkpt lat="42.655491829" lon="11.629457474">
      <ele>230.0</ele>
    </trkpt>
    <trkpt lat="42.65501976" lon="11.628899574">
      <ele>223.0</ele>
    </trkpt>
    <trkpt lat="42.654805183" lon="11.628556252">
      <ele>223.0</ele>
    </trkpt>
    <trkpt lat="42.654762268" lon="11.628127098">
      <ele>224.0</ele>
    </trkpt>
    <trkpt lat="42.65501976" lon="11.627397537">
      <ele>229.0</ele>
    </trkpt>
    <trkpt lat="42.654976845" lon="11.624994278">
      <ele>228.0</ele>
    </trkpt>
    <trkpt lat="42.65557766" lon="11.62332058">
      <ele>230.0</ele>
    </trkpt>
    <trkpt lat="42.655749321" lon="11.623106003">
      <ele>230.0</ele>
    </trkpt>
    <trkpt lat="42.659826279" lon="11.621603966">
      <ele>222.0</ele>
    </trkpt>
    <trkpt lat="42.65999794" lon="11.621432304">
      <ele>223.0</ele>
    </trkpt>
    <trkpt lat="42.660126686" lon="11.621088982">
      <ele>219.0</ele>
    </trkpt>
    <trkpt lat="42.660126686" lon="11.618900299">
      <ele>210.0</ele>
    </trkpt>
    <trkpt lat="42.660083771" lon="11.617612839">
      <ele>214.0</ele>
    </trkpt>
    <trkpt lat="42.65999794" lon="11.616969109">
      <ele>217.0</ele>
    </trkpt>
    <trkpt lat="42.659697533" lon="11.616711617">
      <ele>217.0</ele>
    </trkpt>
    <trkpt lat="42.655706406" lon="11.616926193">
      <ele>207.0</ele>
    </trkpt>
    <trkpt lat="42.655191422" lon="11.616883278">
      <ele>207.0</ele>
    </trkpt>
    <trkpt lat="42.654891014" lon="11.616668701">
      <ele>206.0</ele>
    </trkpt>
    <trkpt lat="42.652702332" lon="11.613922119">
      <ele>206.0</ele>
    </trkpt>
    <trkpt lat="42.649483681" lon="11.609244347">
      <ele>204.0</ele>
    </trkpt>
    <trkpt lat="42.646822929" lon="11.604394913">
      <ele>198.0</ele>
    </trkpt>
    <trkpt lat="42.646350861" lon="11.603322029">
      <ele>199.0</ele>
    </trkpt>
    <trkpt lat="42.646479607" lon="11.602721214">
      <ele>202.0</ele>
    </trkpt>
    <trkpt lat="42.646737099" lon="11.602506638">
      <ele>204.0</ele>
    </trkpt>
    <trkpt lat="42.648839951" lon="11.602034569">
      <ele>219.0</ele>
    </trkpt>
    <trkpt lat="42.649483681" lon="11.601819992">
      <ele>222.0</ele>
    </trkpt>
    <trkpt lat="42.649655342" lon="11.601519585">
      <ele>224.0</ele>
    </trkpt>
    <trkpt lat="42.649912834" lon="11.599459648">
      <ele>237.0</ele>
    </trkpt>
    <trkpt lat="42.64995575" lon="11.599330902">
      <ele>237.0</ele>
    </trkpt>
    <trkpt lat="42.650087429" lon="11.599236941">
      <ele>238.0</ele>
    </trkpt>
    <trkpt lat="42.650218271" lon="11.599575151">
      <ele>237.0</ele>
    </trkpt>
    <trkpt lat="42.650087429" lon="11.599236941">
      <ele>238.0</ele>
    </trkpt>
    <trkpt lat="42.650256157" lon="11.599116325">
      <ele>240.0</ele>
    </trkpt>
    <trkpt lat="42.649741173" lon="11.598901749">
      <ele>238.0</ele>
    </trkpt>
    <trkpt lat="42.648839951" lon="11.598043442">
      <ele>239.0</ele>
    </trkpt>
    <trkpt lat="42.648410797" lon="11.597399712">
      <ele>240.0</ele>
    </trkpt>
    <trkpt lat="42.647938728" lon="11.596541405">
      <ele>237.0</ele>
    </trkpt>
    <trkpt lat="42.64690876" lon="11.594395638">
      <ele>232.0</ele>
    </trkpt>
    <trkpt lat="42.646651268" lon="11.594266891">
      <ele>231.0</ele>
    </trkpt>
    <trkpt lat="42.645664215" lon="11.594438553">
      <ele>226.0</ele>
    </trkpt>
    <trkpt lat="42.644634247" lon="11.594953537">
      <ele>213.0</ele>
    </trkpt>
    <trkpt lat="42.644205093" lon="11.595039368">
      <ele>207.0</ele>
    </trkpt>
    <trkpt lat="42.642531395" lon="11.593966484">
      <ele>191.0</ele>
    </trkpt>
    <trkpt lat="42.641458511" lon="11.592679024">
      <ele>186.0</ele>
    </trkpt>
    <trkpt lat="42.640728951" lon="11.591091156">
      <ele>186.0</ele>
    </trkpt>
    <trkpt lat="42.639827728" lon="11.589889526">
      <ele>185.0</ele>
    </trkpt>
    <trkpt lat="42.639012337" lon="11.588215828">
      <ele>184.0</ele>
    </trkpt>
    <trkpt lat="42.638540268" lon="11.587486267">
      <ele>181.0</ele>
    </trkpt>
    <trkpt lat="42.637896538" lon="11.586799622">
      <ele>179.0</ele>
    </trkpt>
    <trkpt lat="42.637767792" lon="11.586456299">
      <ele>179.0</ele>
    </trkpt>
    <trkpt lat="42.637381554" lon="11.584568024">
      <ele>179.0</ele>
    </trkpt>
    <trkpt lat="42.636780739" lon="11.582422256">
      <ele>180.0</ele>
    </trkpt>
    <trkpt lat="42.636480331" lon="11.581950188">
      <ele>181.0</ele>
    </trkpt>
    <trkpt lat="42.635536194" lon="11.580963135">
      <ele>192.0</ele>
    </trkpt>
    <trkpt lat="42.634720802" lon="11.580619812">
      <ele>192.0</ele>
    </trkpt>
    <trkpt lat="42.632832527" lon="11.578602791">
      <ele>183.0</ele>
    </trkpt>
    <trkpt lat="42.629914284" lon="11.5766716">
      <ele>183.0</ele>
    </trkpt>
    <trkpt lat="42.629356384" lon="11.576499939">
      <ele>181.0</ele>
    </trkpt>
    <trkpt lat="42.627983093" lon="11.575813293">
      <ele>180.0</ele>
    </trkpt>
    <trkpt lat="42.625966072" lon="11.574611664">
      <ele>182.0</ele>
    </trkpt>
    <trkpt lat="42.625536919" lon="11.574139595">
      <ele>187.0</ele>
    </trkpt>
    <trkpt lat="42.624850273" lon="11.57353878">
      <ele>200.0</ele>
    </trkpt>
    <trkpt lat="42.624549866" lon="11.572980881">
      <ele>207.0</ele>
    </trkpt>
    <trkpt lat="42.62442112" lon="11.572852135">
      <ele>209.0</ele>
    </trkpt>
    <trkpt lat="42.623519897" lon="11.572337151">
      <ele>222.0</ele>
    </trkpt>
    <trkpt lat="42.622447014" lon="11.571264267">
      <ele>244.0</ele>
    </trkpt>
    <trkpt lat="42.621974945" lon="11.570534706">
      <ele>250.0</ele>
    </trkpt>
    <trkpt lat="42.621631622" lon="11.569590569">
      <ele>264.0</ele>
    </trkpt>
    <trkpt lat="42.621545792" lon="11.56920433">
      <ele>274.0</ele>
    </trkpt>
    <trkpt lat="42.622060776" lon="11.568946838">
      <ele>271.0</ele>
    </trkpt>
    <trkpt lat="42.622146606" lon="11.568775177">
      <ele>273.0</ele>
    </trkpt>
    <trkpt lat="42.622103691" lon="11.568260193">
      <ele>284.0</ele>
    </trkpt>
    <trkpt lat="42.622232437" lon="11.567788124">
      <ele>290.0</ele>
    </trkpt>
    <trkpt lat="42.622489929" lon="11.567530632">
      <ele>288.0</ele>
    </trkpt>
    <trkpt lat="42.622532845" lon="11.56727314">
      <ele>290.0</ele>
    </trkpt>
    <trkpt lat="42.622060776" lon="11.565856934">
      <ele>305.0</ele>
    </trkpt>
    <trkpt lat="42.621760368" lon="11.565642357">
      <ele>306.0</ele>
    </trkpt>
    <trkpt lat="42.621588707" lon="11.565599442">
      <ele>308.0</ele>
    </trkpt>
    <trkpt lat="42.620558739" lon="11.565814018">
      <ele>331.0</ele>
    </trkpt>
    <trkpt lat="42.618970871" lon="11.565384865">
      <ele>341.0</ele>
    </trkpt>
    <trkpt lat="42.61824131" lon="11.565513611">
      <ele>334.0</ele>
    </trkpt>
    <trkpt lat="42.617554665" lon="11.56542778">
      <ele>324.0</ele>
    </trkpt>
    <trkpt lat="42.617340088" lon="11.565299034">
      <ele>320.0</ele>
    </trkpt>
    <trkpt lat="42.61703968" lon="11.564483643">
      <ele>316.0</ele>
    </trkpt>
    <trkpt lat="42.616910934" lon="11.563882828">
      <ele>312.0</ele>
    </trkpt>
    <trkpt lat="42.61639595" lon="11.56358242">
      <ele>299.0</ele>
    </trkpt>
    <trkpt lat="42.615280151" lon="11.563067436">
      <ele>289.0</ele>
    </trkpt>
    <trkpt lat="42.614550591" lon="11.562552452">
      <ele>290.0</ele>
    </trkpt>
    <trkpt lat="42.613348961" lon="11.560921669">
      <ele>297.0</ele>
    </trkpt>
    <trkpt lat="42.612404823" lon="11.558990479">
      <ele>296.0</ele>
    </trkpt>
    <trkpt lat="42.611632347" lon="11.558218002">
      <ele>285.0</ele>
    </trkpt>
    <trkpt lat="42.611374855" lon="11.55731678">
      <ele>279.0</ele>
    </trkpt>
    <trkpt lat="42.610988617" lon="11.556630135">
      <ele>277.0</ele>
    </trkpt>
    <trkpt lat="42.610473633" lon="11.556200981">
      <ele>272.0</ele>
    </trkpt>
    <trkpt lat="42.606584178" lon="11.553957146">
      <ele>280.0</ele>
    </trkpt>
    <trkpt lat="42.606684342" lon="11.553640477">
      <ele>276.0</ele>
    </trkpt>
    <trkpt lat="42.606584178" lon="11.553957146">
      <ele>280.0</ele>
    </trkpt>
    <trkpt lat="42.606310844" lon="11.553797722">
      <ele>280.0</ele>
    </trkpt>
    <trkpt lat="42.606139183" lon="11.553840637">
      <ele>281.0</ele>
    </trkpt>
    <trkpt lat="42.606010437" lon="11.553583145">
      <ele>279.0</ele>
    </trkpt>
    <trkpt lat="42.605066299" lon="11.552424431">
      <ele>277.0</ele>
    </trkpt>
    <trkpt lat="42.604165077" lon="11.549935341">
      <ele>266.0</ele>
    </trkpt>
    <trkpt lat="42.604165077" lon="11.549420357">
      <ele>263.0</ele>
    </trkpt>
    <trkpt lat="42.6045084" lon="11.548047066">
      <ele>258.0</ele>
    </trkpt>
    <trkpt lat="42.604637146" lon="11.546545029">
      <ele>261.0</ele>
    </trkpt>
    <trkpt lat="42.604594231" lon="11.54542923">
      <ele>266.0</ele>
    </trkpt>
    <trkpt lat="42.604336739" lon="11.544914246">
      <ele>266.0</ele>
    </trkpt>
    <trkpt lat="42.6039505" lon="11.544656754">
      <ele>268.0</ele>
    </trkpt>
    <trkpt lat="42.601418495" lon="11.543841362">
      <ele>262.0</ele>
    </trkpt>
    <trkpt lat="42.600989342" lon="11.54358387">
      <ele>260.0</ele>
    </trkpt>
    <trkpt lat="42.598199844" lon="11.539850235">
      <ele>252.0</ele>
    </trkpt>
    <trkpt lat="42.59759903" lon="11.539163589">
      <ele>248.0</ele>
    </trkpt>
    <trkpt lat="42.597255707" lon="11.538906097">
      <ele>247.0</ele>
    </trkpt>
    <trkpt lat="42.596268654" lon="11.538434029">
      <ele>249.0</ele>
    </trkpt>
    <trkpt lat="42.595582008" lon="11.538004875">
      <ele>253.0</ele>
    </trkpt>
    <trkpt lat="42.594594955" lon="11.536931992">
      <ele>262.0</ele>
    </trkpt>
    <trkpt lat="42.59455204" lon="11.5366745">
      <ele>264.0</ele>
    </trkpt>
    <trkpt lat="42.594852448" lon="11.536030769">
      <ele>264.0</ele>
    </trkpt>
    <trkpt lat="42.594852448" lon="11.535773277">
      <ele>265.0</ele>
    </trkpt>
    <trkpt lat="42.594723701" lon="11.535344124">
      <ele>268.0</ele>
    </trkpt>
    <trkpt lat="42.594037056" lon="11.535000801">
      <ele>276.0</ele>
    </trkpt>
    <trkpt lat="42.593607903" lon="11.535301208">
      <ele>279.0</ele>
    </trkpt>
    <trkpt lat="42.59326458" lon="11.535258293">
      <ele>282.0</ele>
    </trkpt>
    <trkpt lat="42.592921257" lon="11.53427124">
      <ele>286.0</ele>
    </trkpt>
    <trkpt lat="42.592749596" lon="11.533970833">
      <ele>288.0</ele>
    </trkpt>
    <trkpt lat="42.592406273" lon="11.533756256">
      <ele>292.0</ele>
    </trkpt>
    <trkpt lat="42.591977119" lon="11.533885002">
      <ele>294.0</ele>
    </trkpt>
    <trkpt lat="42.591719627" lon="11.533842087">
      <ele>296.0</ele>
    </trkpt>
    <trkpt lat="42.590990067" lon="11.532940865">
      <ele>301.0</ele>
    </trkpt>
    <trkpt lat="42.59086132" lon="11.532125473">
      <ele>306.0</ele>
    </trkpt>
    <trkpt lat="42.590260506" lon="11.531052589">
      <ele>306.0</ele>
    </trkpt>
    <trkpt lat="42.589616776" lon="11.528949738">
      <ele>308.0</ele>
    </trkpt>
    <trkpt lat="42.58957386" lon="11.528606415">
      <ele>310.0</ele>
    </trkpt>
    <trkpt lat="42.589702606" lon="11.527576447">
      <ele>322.0</ele>
    </trkpt>
    <trkpt lat="42.589917183" lon="11.527447701">
      <ele>323.0</ele>
    </trkpt>
    <trkpt lat="42.590517998" lon="11.527490616">
      <ele>321.0</ele>
    </trkpt>
    <trkpt lat="42.590646744" lon="11.52736187">
      <ele>322.0</ele>
    </trkpt>
    <trkpt lat="42.590818405" lon="11.526589394">
      <ele>326.0</ele>
    </trkpt>
    <trkpt lat="42.590560913" lon="11.525259018">
      <ele>343.0</ele>
    </trkpt>
    <trkpt lat="42.59086132" lon="11.525001526">
      <ele>337.0</ele>
    </trkpt>
    <trkpt lat="42.590818405" lon="11.52422905">
      <ele>337.0</ele>
    </trkpt>
    <trkpt lat="42.589445114" lon="11.523456573">
      <ele>367.0</ele>
    </trkpt>
    <trkpt lat="42.589402199" lon="11.523327827">
      <ele>368.0</ele>
    </trkpt>
    <trkpt lat="42.589874268" lon="11.522769928">
      <ele>367.0</ele>
    </trkpt>
    <trkpt lat="42.590303421" lon="11.522855759">
      <ele>360.0</ele>
    </trkpt>
    <trkpt lat="42.590517998" lon="11.522727013">
      <ele>359.0</ele>
    </trkpt>
    <trkpt lat="42.590947151" lon="11.521911621">
      <ele>370.0</ele>
    </trkpt>
    <trkpt lat="42.591075897" lon="11.521053314">
      <ele>376.0</ele>
    </trkpt>
    <trkpt lat="42.590475082" lon="11.520066261">
      <ele>384.0</ele>
    </trkpt>
    <trkpt lat="42.590303421" lon="11.520023346">
      <ele>386.0</ele>
    </trkpt>
    <trkpt lat="42.589445114" lon="11.519465446">
      <ele>389.0</ele>
    </trkpt>
    <trkpt lat="42.589187622" lon="11.519422531">
      <ele>391.0</ele>
    </trkpt>
    <trkpt lat="42.588865757" lon="11.519572735">
      <ele>393.0</ele>
    </trkpt>
    <trkpt lat="42.588883191" lon="11.519429153">
      <ele>392.0</ele>
    </trkpt>
    <trkpt lat="42.589423656" lon="11.519551277">
      <ele>390.0</ele>
    </trkpt>
    <trkpt lat="42.590045929" lon="11.519851685">
      <ele>388.0</ele>
    </trkpt>
    <trkpt lat="42.590432167" lon="11.52017355">
      <ele>385.0</ele>
    </trkpt>
    <trkpt lat="42.593114376" lon="11.520516872">
      <ele>372.0</ele>
    </trkpt>
    <trkpt lat="42.593157291" lon="11.520688534">
      <ele>373.0</ele>
    </trkpt>
    <trkpt lat="42.59483099" lon="11.521782875">
      <ele>394.0</ele>
    </trkpt>
    <trkpt lat="42.5958395" lon="11.521997452">
      <ele>400.0</ele>
    </trkpt>
    <trkpt lat="42.596139908" lon="11.521954536">
      <ele>404.0</ele>
    </trkpt>
    <trkpt lat="42.597191334" lon="11.521482468">
      <ele>409.0</ele>
    </trkpt>
    <trkpt lat="42.597920895" lon="11.521074772">
      <ele>410.0</ele>
    </trkpt>
    <trkpt lat="42.598392963" lon="11.520731449">
      <ele>415.0</ele>
    </trkpt>
    <trkpt lat="42.599337101" lon="11.5198946">
      <ele>423.0</ele>
    </trkpt>
    <trkpt lat="42.602877617" lon="11.518113613">
      <ele>434.0</ele>
    </trkpt>
    <trkpt lat="42.603349686" lon="11.51777029">
      <ele>437.0</ele>
    </trkpt>
    <trkpt lat="42.604486942" lon="11.516160965">
      <ele>431.0</ele>
    </trkpt>
    <trkpt lat="42.606976032" lon="11.513028145">
      <ele>415.0</ele>
    </trkpt>
    <trkpt lat="42.607405186" lon="11.512556076">
      <ele>415.0</ele>
    </trkpt>
    <trkpt lat="42.608048916" lon="11.512577534">
      <ele>411.0</ele>
    </trkpt>
    <trkpt lat="42.608413696" lon="11.51242733">
      <ele>408.0</ele>
    </trkpt>
    <trkpt lat="42.608649731" lon="11.512212753">
      <ele>408.0</ele>
    </trkpt>
    <trkpt lat="42.609229088" lon="11.511483192">
      <ele>405.0</ele>
    </trkpt>
    <trkpt lat="42.609722614" lon="11.510367393">
      <ele>391.0</ele>
    </trkpt>
    <trkpt lat="42.609829903" lon="11.508929729">
      <ele>379.0</ele>
    </trkpt>
    <trkpt lat="42.609915733" lon="11.508672237">
      <ele>377.0</ele>
    </trkpt>
    <trkpt lat="42.611095905" lon="11.507298946">
      <ele>366.0</ele>
    </trkpt>
    <trkpt lat="42.611718178" lon="11.506869793">
      <ele>364.0</ele>
    </trkpt>
    <trkpt lat="42.61133194" lon="11.506376266">
      <ele>363.0</ele>
    </trkpt>
    <trkpt lat="42.611203194" lon="11.505775452">
      <ele>361.0</ele>
    </trkpt>
    <trkpt lat="42.611010075" lon="11.505324841">
      <ele>360.0</ele>
    </trkpt>
    <trkpt lat="42.610430717" lon="11.504638195">
      <ele>360.0</ele>
    </trkpt>
    <trkpt lat="42.610387802" lon="11.504251957">
      <ele>358.0</ele>
    </trkpt>
    <trkpt lat="42.610108852" lon="11.50395155">
      <ele>357.0</ele>
    </trkpt>
    <trkpt lat="42.609786987" lon="11.503736973">
      <ele>353.0</ele>
    </trkpt>
    <trkpt lat="42.609508038" lon="11.503179073">
      <ele>347.0</ele>
    </trkpt>
    <trkpt lat="42.608885765" lon="11.503264904">
      <ele>339.0</ele>
    </trkpt>
    <trkpt lat="42.608671188" lon="11.502835751">
      <ele>335.0</ele>
    </trkpt>
    <trkpt lat="42.609186172" lon="11.50090456">
      <ele>328.0</ele>
    </trkpt>
    <trkpt lat="42.609443665" lon="11.500453949">
      <ele>322.0</ele>
    </trkpt>
    <trkpt lat="42.609786987" lon="11.500217915">
      <ele>320.0</ele>
    </trkpt>
    <trkpt lat="42.610259056" lon="11.500282288">
      <ele>322.0</ele>
    </trkpt>
    <trkpt lat="42.610709667" lon="11.49998188">
      <ele>317.0</ele>
    </trkpt>
    <trkpt lat="42.610945702" lon="11.500003338">
      <ele>315.0</ele>
    </trkpt>
    <trkpt lat="42.611825466" lon="11.500582695">
      <ele>312.0</ele>
    </trkpt>
    <trkpt lat="42.612383366" lon="11.501355171">
      <ele>311.0</ele>
    </trkpt>
  </trkseg>
</trk>
</gpx>
