<?xml version="1.0"?>
<gpx creator="GPS Visualizer http://www.gpsvisualizer.com/" version="1.1" xmlns="http://www.topografix.com/GPX/1/1" xmlns:xsi="http://www.w3.org/2001/XMLSchema-instance" xsi:schemaLocation="http://www.topografix.com/GPX/1/1 http://www.topografix.com/GPX/1/1/gpx.xsd">
<trk>
  <name>GTdM Variant - Sovana To Manciano</name>
  <desc></desc>
  <trkseg>
    <trkpt lat="42.657165527" lon="11.64516449">
      <ele>286.0</ele>
    </trkpt>
    <trkpt lat="42.657122612" lon="11.645228863">
      <ele>286.0</ele>
    </trkpt>
    <trkpt lat="42.657101154" lon="11.645936966">
      <ele>287.0</ele>
    </trkpt>
    <trkpt lat="42.657423019" lon="11.649112701">
      <ele>275.0</ele>
    </trkpt>
    <trkpt lat="42.657744884" lon="11.649391651">
      <ele>271.0</ele>
    </trkpt>
    <trkpt lat="42.657744884" lon="11.64949894">
      <ele>271.0</ele>
    </trkpt>
    <trkpt lat="42.658109665" lon="11.650207043">
      <ele>271.0</ele>
    </trkpt>
    <trkpt lat="42.658281326" lon="11.650700569">
      <ele>275.0</ele>
    </trkpt>
    <trkpt lat="42.658452988" lon="11.653854847">
      <ele>287.0</ele>
    </trkpt>
    <trkpt lat="42.658603191" lon="11.654326916">
      <ele>288.0</ele>
    </trkpt>
    <trkpt lat="42.659204006" lon="11.65548563">
      <ele>289.0</ele>
    </trkpt>
    <trkpt lat="42.659440041" lon="11.65612936">
      <ele>289.0</ele>
    </trkpt>
    <trkpt lat="42.659547329" lon="11.656515598">
      <ele>291.0</ele>
    </trkpt>
    <trkpt lat="42.659654617" lon="11.657373905">
      <ele>293.0</ele>
    </trkpt>
    <trkpt lat="42.659611702" lon="11.6583395">
      <ele>293.0</ele>
    </trkpt>
    <trkpt lat="42.659397125" lon="11.65926218">
      <ele>299.0</ele>
    </trkpt>
    <trkpt lat="42.659096718" lon="11.660013199">
      <ele>304.0</ele>
    </trkpt>
    <trkpt lat="42.658817768" lon="11.660506725">
      <ele>311.0</ele>
    </trkpt>
    <trkpt lat="42.658281326" lon="11.661214828">
      <ele>316.0</ele>
    </trkpt>
    <trkpt lat="42.658195496" lon="11.661579609">
      <ele>320.0</ele>
    </trkpt>
    <trkpt lat="42.658259869" lon="11.663081646">
      <ele>332.0</ele>
    </trkpt>
    <trkpt lat="42.658088207" lon="11.664090157">
      <ele>339.0</ele>
    </trkpt>
    <trkpt lat="42.658088207" lon="11.664433479">
      <ele>340.0</ele>
    </trkpt>
    <trkpt lat="42.65815258" lon="11.664905548">
      <ele>342.0</ele>
    </trkpt>
    <trkpt lat="42.659783363" lon="11.670398712">
      <ele>367.0</ele>
    </trkpt>
    <trkpt lat="42.65971899" lon="11.670763493">
      <ele>367.0</ele>
    </trkpt>
    <trkpt lat="42.659590244" lon="11.670956612">
      <ele>368.0</ele>
    </trkpt>
    <trkpt lat="42.656736374" lon="11.674304008">
      <ele>362.0</ele>
    </trkpt>
    <trkpt lat="42.656178474" lon="11.674690247">
      <ele>360.0</ele>
    </trkpt>
    <trkpt lat="42.655642033" lon="11.674733162">
      <ele>360.0</ele>
    </trkpt>
    <trkpt lat="42.65501976" lon="11.674497128">
      <ele>360.0</ele>
    </trkpt>
    <trkpt lat="42.653775215" lon="11.673231125">
      <ele>353.0</ele>
    </trkpt>
    <trkpt lat="42.653346062" lon="11.672973633">
      <ele>351.0</ele>
    </trkpt>
    <trkpt lat="42.65280962" lon="11.672780514">
      <ele>350.0</ele>
    </trkpt>
    <trkpt lat="42.650234699" lon="11.672587395">
      <ele>345.0</ele>
    </trkpt>
    <trkpt lat="42.649869919" lon="11.672372818">
      <ele>344.0</ele>
    </trkpt>
    <trkpt lat="42.649569511" lon="11.67198658">
      <ele>344.0</ele>
    </trkpt>
    <trkpt lat="42.648260593" lon="11.669282913">
      <ele>337.0</ele>
    </trkpt>
    <trkpt lat="42.647767067" lon="11.668703556">
      <ele>335.0</ele>
    </trkpt>
    <trkpt lat="42.647423744" lon="11.668488979">
      <ele>336.0</ele>
    </trkpt>
    <trkpt lat="42.646865845" lon="11.66829586">
      <ele>333.0</ele>
    </trkpt>
    <trkpt lat="42.646243572" lon="11.668317318">
      <ele>332.0</ele>
    </trkpt>
    <trkpt lat="42.645084858" lon="11.668617725">
      <ele>328.0</ele>
    </trkpt>
    <trkpt lat="42.644333839" lon="11.668725014">
      <ele>319.0</ele>
    </trkpt>
    <trkpt lat="42.644162178" lon="11.668639183">
      <ele>317.0</ele>
    </trkpt>
    <trkpt lat="42.643926144" lon="11.668381691">
      <ele>311.0</ele>
    </trkpt>
    <trkpt lat="42.643260956" lon="11.667265892">
      <ele>301.0</ele>
    </trkpt>
    <trkpt lat="42.642917633" lon="11.666986942">
      <ele>298.0</ele>
    </trkpt>
    <trkpt lat="42.64128685" lon="11.665999889">
      <ele>283.0</ele>
    </trkpt>
    <trkpt lat="42.640986443" lon="11.665377617">
      <ele>289.0</ele>
    </trkpt>
    <trkpt lat="42.640686035" lon="11.665291786">
      <ele>284.0</ele>
    </trkpt>
    <trkpt lat="42.64036417" lon="11.665291786">
      <ele>279.0</ele>
    </trkpt>
    <trkpt lat="42.639484406" lon="11.664948463">
      <ele>277.0</ele>
    </trkpt>
    <trkpt lat="42.63916254" lon="11.664927006">
      <ele>275.0</ele>
    </trkpt>
    <trkpt lat="42.637853622" lon="11.665334702">
      <ele>255.0</ele>
    </trkpt>
    <trkpt lat="42.637574673" lon="11.665270329">
      <ele>255.0</ele>
    </trkpt>
    <trkpt lat="42.637209892" lon="11.665012836">
      <ele>252.0</ele>
    </trkpt>
    <trkpt lat="42.636222839" lon="11.663253307">
      <ele>248.0</ele>
    </trkpt>
    <trkpt lat="42.636115551" lon="11.662824154">
      <ele>243.0</ele>
    </trkpt>
    <trkpt lat="42.636115551" lon="11.661965847">
      <ele>242.0</ele>
    </trkpt>
    <trkpt lat="42.635879517" lon="11.66110754">
      <ele>237.0</ele>
    </trkpt>
    <trkpt lat="42.634978294" lon="11.659090519">
      <ele>226.0</ele>
    </trkpt>
    <trkpt lat="42.634699345" lon="11.658790112">
      <ele>223.0</ele>
    </trkpt>
    <trkpt lat="42.634484768" lon="11.658725739">
      <ele>217.0</ele>
    </trkpt>
    <trkpt lat="42.63409853" lon="11.658833027">
      <ele>206.0</ele>
    </trkpt>
    <trkpt lat="42.633798122" lon="11.659111977">
      <ele>205.0</ele>
    </trkpt>
    <trkpt lat="42.633519173" lon="11.65954113">
      <ele>209.0</ele>
    </trkpt>
    <trkpt lat="42.633411884" lon="11.659841537">
      <ele>211.0</ele>
    </trkpt>
    <trkpt lat="42.633347511" lon="11.66082859">
      <ele>222.0</ele>
    </trkpt>
    <trkpt lat="42.633197308" lon="11.661450863">
      <ele>227.0</ele>
    </trkpt>
    <trkpt lat="42.632939816" lon="11.662180424">
      <ele>233.0</ele>
    </trkpt>
    <trkpt lat="42.632424831" lon="11.663017273">
      <ele>233.0</ele>
    </trkpt>
    <trkpt lat="42.632296085" lon="11.663575172">
      <ele>239.0</ele>
    </trkpt>
    <trkpt lat="42.632317543" lon="11.66424036">
      <ele>244.0</ele>
    </trkpt>
    <trkpt lat="42.63225317" lon="11.664862633">
      <ele>243.0</ele>
    </trkpt>
    <trkpt lat="42.632424831" lon="11.665785313">
      <ele>245.0</ele>
    </trkpt>
    <trkpt lat="42.632660866" lon="11.66636467">
      <ele>250.0</ele>
    </trkpt>
    <trkpt lat="42.633519173" lon="11.667845249">
      <ele>261.0</ele>
    </trkpt>
    <trkpt lat="42.633926868" lon="11.669003963">
      <ele>267.0</ele>
    </trkpt>
    <trkpt lat="42.63381958" lon="11.669089794">
      <ele>261.0</ele>
    </trkpt>
    <trkpt lat="42.633798122" lon="11.669518948">
      <ele>267.0</ele>
    </trkpt>
    <trkpt lat="42.633647919" lon="11.669733524">
      <ele>267.0</ele>
    </trkpt>
    <trkpt lat="42.632446289" lon="11.670162678">
      <ele>244.0</ele>
    </trkpt>
    <trkpt lat="42.632060051" lon="11.66893959">
      <ele>246.0</ele>
    </trkpt>
    <trkpt lat="42.632081509" lon="11.668317318">
      <ele>250.0</ele>
    </trkpt>
    <trkpt lat="42.631759644" lon="11.667695045">
      <ele>253.0</ele>
    </trkpt>
    <trkpt lat="42.630729675" lon="11.666193008">
      <ele>281.0</ele>
    </trkpt>
    <trkpt lat="42.63068676" lon="11.665914059">
      <ele>279.0</ele>
    </trkpt>
    <trkpt lat="42.630708218" lon="11.662781239">
      <ele>290.0</ele>
    </trkpt>
    <trkpt lat="42.630901337" lon="11.662287712">
      <ele>289.0</ele>
    </trkpt>
    <trkpt lat="42.630836964" lon="11.662223339">
      <ele>293.0</ele>
    </trkpt>
    <trkpt lat="42.630665302" lon="11.66258812">
      <ele>292.0</ele>
    </trkpt>
    <trkpt lat="42.630472183" lon="11.662716866">
      <ele>295.0</ele>
    </trkpt>
    <trkpt lat="42.629721165" lon="11.663017273">
      <ele>306.0</ele>
    </trkpt>
    <trkpt lat="42.629463673" lon="11.662974358">
      <ele>306.0</ele>
    </trkpt>
    <trkpt lat="42.628133297" lon="11.662180424">
      <ele>305.0</ele>
    </trkpt>
    <trkpt lat="42.627897263" lon="11.662223339">
      <ele>305.0</ele>
    </trkpt>
    <trkpt lat="42.627725601" lon="11.66258812">
      <ele>305.0</ele>
    </trkpt>
    <trkpt lat="42.627618313" lon="11.662137508">
      <ele>305.0</ele>
    </trkpt>
    <trkpt lat="42.627403736" lon="11.661643982">
      <ele>306.0</ele>
    </trkpt>
    <trkpt lat="42.627192764" lon="11.661510458">
      <ele>306.0</ele>
    </trkpt>
    <trkpt lat="42.627152782" lon="11.661621099">
      <ele>305.0</ele>
    </trkpt>
    <trkpt lat="42.627192764" lon="11.661510458">
      <ele>306.0</ele>
    </trkpt>
    <trkpt lat="42.626438141" lon="11.661128998">
      <ele>306.0</ele>
    </trkpt>
    <trkpt lat="42.625365257" lon="11.660978794">
      <ele>303.0</ele>
    </trkpt>
    <trkpt lat="42.624464035" lon="11.661043167">
      <ele>303.0</ele>
    </trkpt>
    <trkpt lat="42.624077797" lon="11.660978794">
      <ele>303.0</ele>
    </trkpt>
    <trkpt lat="42.623519897" lon="11.660485268">
      <ele>300.0</ele>
    </trkpt>
    <trkpt lat="42.622640133" lon="11.659519672">
      <ele>296.0</ele>
    </trkpt>
    <trkpt lat="42.622189522" lon="11.658833027">
      <ele>294.0</ele>
    </trkpt>
    <trkpt lat="42.621953487" lon="11.658124924">
      <ele>294.0</ele>
    </trkpt>
    <trkpt lat="42.621030807" lon="11.657223701">
      <ele>290.0</ele>
    </trkpt>
    <trkpt lat="42.620193958" lon="11.655550003">
      <ele>296.0</ele>
    </trkpt>
    <trkpt lat="42.616846561" lon="11.651473045">
      <ele>294.0</ele>
    </trkpt>
    <trkpt lat="42.615945339" lon="11.650013924">
      <ele>293.0</ele>
    </trkpt>
    <trkpt lat="42.615001202" lon="11.646580696">
      <ele>284.0</ele>
    </trkpt>
    <trkpt lat="42.614099979" lon="11.644477844">
      <ele>281.0</ele>
    </trkpt>
    <trkpt lat="42.611224651" lon="11.638169289">
      <ele>268.0</ele>
    </trkpt>
    <trkpt lat="42.610452175" lon="11.636281013">
      <ele>270.0</ele>
    </trkpt>
    <trkpt lat="42.610065937" lon="11.633212566">
      <ele>269.0</ele>
    </trkpt>
    <trkpt lat="42.609357834" lon="11.631624699">
      <ele>264.0</ele>
    </trkpt>
    <trkpt lat="42.606654167" lon="11.626968384">
      <ele>254.0</ele>
    </trkpt>
    <trkpt lat="42.603135109" lon="11.621282101">
      <ele>244.0</ele>
    </trkpt>
    <trkpt lat="42.602083683" lon="11.619694233">
      <ele>246.0</ele>
    </trkpt>
    <trkpt lat="42.599551678" lon="11.617097855">
      <ele>239.0</ele>
    </trkpt>
    <trkpt lat="42.598993778" lon="11.616153717">
      <ele>238.0</ele>
    </trkpt>
    <trkpt lat="42.598500252" lon="11.613557339">
      <ele>227.0</ele>
    </trkpt>
    <trkpt lat="42.597942352" lon="11.612184048">
      <ele>217.0</ele>
    </trkpt>
    <trkpt lat="42.595860958" lon="11.608879566">
      <ele>203.0</ele>
    </trkpt>
    <trkpt lat="42.593500614" lon="11.60626173">
      <ele>195.0</ele>
    </trkpt>
    <trkpt lat="42.591547966" lon="11.603343487">
      <ele>175.0</ele>
    </trkpt>
    <trkpt lat="42.59141922" lon="11.602871418">
      <ele>171.0</ele>
    </trkpt>
    <trkpt lat="42.591450652" lon="11.60227404">
      <ele>168.0</ele>
    </trkpt>
    <trkpt lat="42.591487532" lon="11.60227756">
      <ele>169.0</ele>
    </trkpt>
    <trkpt lat="42.591450652" lon="11.60227404">
      <ele>168.0</ele>
    </trkpt>
    <trkpt lat="42.591462135" lon="11.602056026">
      <ele>166.0</ele>
    </trkpt>
    <trkpt lat="42.591912746" lon="11.60128355">
      <ele>165.0</ele>
    </trkpt>
    <trkpt lat="42.59335041" lon="11.600253582">
      <ele>161.0</ele>
    </trkpt>
    <trkpt lat="42.593436241" lon="11.59999609">
      <ele>157.0</ele>
    </trkpt>
    <trkpt lat="42.593650818" lon="11.598579884">
      <ele>160.0</ele>
    </trkpt>
    <trkpt lat="42.593994141" lon="11.597828865">
      <ele>169.0</ele>
    </trkpt>
    <trkpt lat="42.594766617" lon="11.59714222">
      <ele>167.0</ele>
    </trkpt>
    <trkpt lat="42.595238686" lon="11.596283913">
      <ele>165.0</ele>
    </trkpt>
    <trkpt lat="42.596054077" lon="11.594545841">
      <ele>165.0</ele>
    </trkpt>
    <trkpt lat="42.597663403" lon="11.593065262">
      <ele>161.0</ele>
    </trkpt>
    <trkpt lat="42.598779202" lon="11.591670513">
      <ele>161.0</ele>
    </trkpt>
    <trkpt lat="42.599766254" lon="11.587507725">
      <ele>190.0</ele>
    </trkpt>
    <trkpt lat="42.600302696" lon="11.586863995">
      <ele>193.0</ele>
    </trkpt>
    <trkpt lat="42.60137558" lon="11.586134434">
      <ele>200.0</ele>
    </trkpt>
    <trkpt lat="42.601783276" lon="11.585597992">
      <ele>205.0</ele>
    </trkpt>
    <trkpt lat="42.601933479" lon="11.585190296">
      <ele>208.0</ele>
    </trkpt>
    <trkpt lat="42.601826191" lon="11.584460735">
      <ele>213.0</ele>
    </trkpt>
    <trkpt lat="42.601332664" lon="11.583559513">
      <ele>225.0</ele>
    </trkpt>
    <trkpt lat="42.600860596" lon="11.582937241">
      <ele>234.0</ele>
    </trkpt>
    <trkpt lat="42.60081768" lon="11.582636833">
      <ele>233.0</ele>
    </trkpt>
    <trkpt lat="42.601010799" lon="11.582529545">
      <ele>232.0</ele>
    </trkpt>
    <trkpt lat="42.602491379" lon="11.582357883">
      <ele>229.0</ele>
    </trkpt>
    <trkpt lat="42.603006363" lon="11.582014561">
      <ele>229.0</ele>
    </trkpt>
    <trkpt lat="42.603285313" lon="11.581413746">
      <ele>234.0</ele>
    </trkpt>
    <trkpt lat="42.603478432" lon="11.580018997">
      <ele>235.0</ele>
    </trkpt>
    <trkpt lat="42.603435516" lon="11.579182148">
      <ele>232.0</ele>
    </trkpt>
    <trkpt lat="42.602984905" lon="11.578302383">
      <ele>240.0</ele>
    </trkpt>
    <trkpt lat="42.602920532" lon="11.577937603">
      <ele>244.0</ele>
    </trkpt>
    <trkpt lat="42.603113651" lon="11.577637196">
      <ele>244.0</ele>
    </trkpt>
    <trkpt lat="42.603800297" lon="11.577465534">
      <ele>240.0</ele>
    </trkpt>
    <trkpt lat="42.604379654" lon="11.576864719">
      <ele>240.0</ele>
    </trkpt>
    <trkpt lat="42.604594231" lon="11.576070786">
      <ele>241.0</ele>
    </trkpt>
    <trkpt lat="42.604486942" lon="11.575255394">
      <ele>245.0</ele>
    </trkpt>
    <trkpt lat="42.604272366" lon="11.574590206">
      <ele>248.0</ele>
    </trkpt>
    <trkpt lat="42.604250908" lon="11.574161053">
      <ele>245.0</ele>
    </trkpt>
    <trkpt lat="42.604444027" lon="11.573882103">
      <ele>245.0</ele>
    </trkpt>
    <trkpt lat="42.605366707" lon="11.573710442">
      <ele>244.0</ele>
    </trkpt>
    <trkpt lat="42.60579586" lon="11.57353878">
      <ele>246.0</ele>
    </trkpt>
    <trkpt lat="42.606096268" lon="11.572916508">
      <ele>245.0</ele>
    </trkpt>
    <trkpt lat="42.606310844" lon="11.571671963">
      <ele>242.0</ele>
    </trkpt>
    <trkpt lat="42.606096268" lon="11.570255756">
      <ele>250.0</ele>
    </trkpt>
    <trkpt lat="42.606139183" lon="11.569783688">
      <ele>252.0</ele>
    </trkpt>
    <trkpt lat="42.606375217" lon="11.569461823">
      <ele>252.0</ele>
    </trkpt>
    <trkpt lat="42.60699749" lon="11.56920433">
      <ele>250.0</ele>
    </trkpt>
    <trkpt lat="42.607297897" lon="11.568753719">
      <ele>253.0</ele>
    </trkpt>
    <trkpt lat="42.607405186" lon="11.568324566">
      <ele>255.0</ele>
    </trkpt>
    <trkpt lat="42.607405186" lon="11.567852497">
      <ele>255.0</ele>
    </trkpt>
    <trkpt lat="42.606890202" lon="11.565771103">
      <ele>263.0</ele>
    </trkpt>
    <trkpt lat="42.606825829" lon="11.564934254">
      <ele>263.0</ele>
    </trkpt>
    <trkpt lat="42.60736227" lon="11.563603878">
      <ele>263.0</ele>
    </trkpt>
    <trkpt lat="42.607383728" lon="11.562917233">
      <ele>263.0</ele>
    </trkpt>
    <trkpt lat="42.607254982" lon="11.562337875">
      <ele>266.0</ele>
    </trkpt>
    <trkpt lat="42.606503963" lon="11.56072855">
      <ele>284.0</ele>
    </trkpt>
    <trkpt lat="42.606418133" lon="11.560428143">
      <ele>286.0</ele>
    </trkpt>
    <trkpt lat="42.606482506" lon="11.559956074">
      <ele>286.0</ele>
    </trkpt>
    <trkpt lat="42.606933117" lon="11.558990479">
      <ele>286.0</ele>
    </trkpt>
    <trkpt lat="42.606954575" lon="11.558561325">
      <ele>287.0</ele>
    </trkpt>
    <trkpt lat="42.606868744" lon="11.558175087">
      <ele>287.0</ele>
    </trkpt>
    <trkpt lat="42.606461048" lon="11.557617188">
      <ele>288.0</ele>
    </trkpt>
    <trkpt lat="42.606203556" lon="11.55703783">
      <ele>290.0</ele>
    </trkpt>
    <trkpt lat="42.606332302" lon="11.555020809">
      <ele>285.0</ele>
    </trkpt>
    <trkpt lat="42.606310844" lon="11.554312706">
      <ele>284.0</ele>
    </trkpt>
    <trkpt lat="42.605044842" lon="11.552467346">
      <ele>277.0</ele>
    </trkpt>
    <trkpt lat="42.604272366" lon="11.550214291">
      <ele>267.0</ele>
    </trkpt>
    <trkpt lat="42.60414362" lon="11.549634933">
      <ele>264.0</ele>
    </trkpt>
    <trkpt lat="42.604465485" lon="11.547682285">
      <ele>257.0</ele>
    </trkpt>
    <trkpt lat="42.604637146" lon="11.545879841">
      <ele>266.0</ele>
    </trkpt>
    <trkpt lat="42.604572773" lon="11.545536518">
      <ele>266.0</ele>
    </trkpt>
    <trkpt lat="42.604401112" lon="11.545107365">
      <ele>266.0</ele>
    </trkpt>
    <trkpt lat="42.603971958" lon="11.544678211">
      <ele>268.0</ele>
    </trkpt>
    <trkpt lat="42.601439953" lon="11.543884277">
      <ele>262.0</ele>
    </trkpt>
    <trkpt lat="42.600967884" lon="11.543605328">
      <ele>260.0</ele>
    </trkpt>
    <trkpt lat="42.600538731" lon="11.543133259">
      <ele>258.0</ele>
    </trkpt>
    <trkpt lat="42.597792149" lon="11.539378166">
      <ele>249.0</ele>
    </trkpt>
    <trkpt lat="42.597234249" lon="11.538949013">
      <ele>247.0</ele>
    </trkpt>
    <trkpt lat="42.595646381" lon="11.538090706">
      <ele>252.0</ele>
    </trkpt>
    <trkpt lat="42.594616413" lon="11.536996365">
      <ele>261.0</ele>
    </trkpt>
    <trkpt lat="42.594530582" lon="11.536717415">
      <ele>264.0</ele>
    </trkpt>
    <trkpt lat="42.594745159" lon="11.536331177">
      <ele>264.0</ele>
    </trkpt>
    <trkpt lat="42.59483099" lon="11.53575182">
      <ele>265.0</ele>
    </trkpt>
    <trkpt lat="42.594702244" lon="11.535365582">
      <ele>268.0</ele>
    </trkpt>
    <trkpt lat="42.594380379" lon="11.535129547">
      <ele>272.0</ele>
    </trkpt>
    <trkpt lat="42.593972683" lon="11.535000801">
      <ele>277.0</ele>
    </trkpt>
    <trkpt lat="42.593436241" lon="11.535301208">
      <ele>281.0</ele>
    </trkpt>
    <trkpt lat="42.593243122" lon="11.535151005">
      <ele>283.0</ele>
    </trkpt>
    <trkpt lat="42.592942715" lon="11.534335613">
      <ele>286.0</ele>
    </trkpt>
    <trkpt lat="42.592642307" lon="11.534013748">
      <ele>288.0</ele>
    </trkpt>
    <trkpt lat="42.592127323" lon="11.533820629">
      <ele>293.0</ele>
    </trkpt>
    <trkpt lat="42.591590881" lon="11.533863544">
      <ele>296.0</ele>
    </trkpt>
    <trkpt lat="42.591161728" lon="11.533434391">
      <ele>298.0</ele>
    </trkpt>
    <trkpt lat="42.590625286" lon="11.532018185">
      <ele>304.0</ele>
    </trkpt>
    <trkpt lat="42.59013176" lon="11.530966759">
      <ele>305.0</ele>
    </trkpt>
    <trkpt lat="42.589423656" lon="11.528499126">
      <ele>312.0</ele>
    </trkpt>
    <trkpt lat="42.589659691" lon="11.527619362">
      <ele>321.0</ele>
    </trkpt>
    <trkpt lat="42.589917183" lon="11.527512074">
      <ele>322.0</ele>
    </trkpt>
    <trkpt lat="42.59049654" lon="11.527512074">
      <ele>321.0</ele>
    </trkpt>
    <trkpt lat="42.590625286" lon="11.527276039">
      <ele>323.0</ele>
    </trkpt>
    <trkpt lat="42.590711117" lon="11.526954174">
      <ele>325.0</ele>
    </trkpt>
    <trkpt lat="42.590582371" lon="11.525473595">
      <ele>341.0</ele>
    </trkpt>
    <trkpt lat="42.59077549" lon="11.525087357">
      <ele>338.0</ele>
    </trkpt>
    <trkpt lat="42.59077549" lon="11.52487278">
      <ele>338.0</ele>
    </trkpt>
    <trkpt lat="42.590754032" lon="11.524250507">
      <ele>338.0</ele>
    </trkpt>
    <trkpt lat="42.59013176" lon="11.523907185">
      <ele>355.0</ele>
    </trkpt>
    <trkpt lat="42.589466572" lon="11.523435116">
      <ele>367.0</ele>
    </trkpt>
    <trkpt lat="42.589402199" lon="11.523284912">
      <ele>368.0</ele>
    </trkpt>
    <trkpt lat="42.589831352" lon="11.522855759">
      <ele>366.0</ele>
    </trkpt>
    <trkpt lat="42.590174675" lon="11.522877216">
      <ele>361.0</ele>
    </trkpt>
    <trkpt lat="42.590625286" lon="11.522533894">
      <ele>362.0</ele>
    </trkpt>
    <trkpt lat="42.591011524" lon="11.52182579">
      <ele>370.0</ele>
    </trkpt>
    <trkpt lat="42.591032982" lon="11.521160603">
      <ele>375.0</ele>
    </trkpt>
    <trkpt lat="42.590947151" lon="11.520838737">
      <ele>378.0</ele>
    </trkpt>
    <trkpt lat="42.590432167" lon="11.52017355">
      <ele>385.0</ele>
    </trkpt>
    <trkpt lat="42.590045929" lon="11.519851685">
      <ele>388.0</ele>
    </trkpt>
    <trkpt lat="42.589423656" lon="11.519551277">
      <ele>390.0</ele>
    </trkpt>
    <trkpt lat="42.588530146" lon="11.519349525"></trkpt>
    <trkpt lat="42.588436604" lon="11.5193367">
      <ele>393.0</ele>
    </trkpt>
    <trkpt lat="42.588415146" lon="11.519079208">
      <ele>392.0</ele>
    </trkpt>
    <trkpt lat="42.5882864" lon="11.519036293">
      <ele>392.0</ele>
    </trkpt>
    <trkpt lat="42.588350773" lon="11.518714428">
      <ele>392.0</ele>
    </trkpt>
    <trkpt lat="42.588028908" lon="11.518456936">
      <ele>391.0</ele>
    </trkpt>
    <trkpt lat="42.587535381" lon="11.517748833">
      <ele>400.0</ele>
    </trkpt>
    <trkpt lat="42.587127686" lon="11.51740551">
      <ele>401.0</ele>
    </trkpt>
    <trkpt lat="42.586934566" lon="11.51712656">
      <ele>404.0</ele>
    </trkpt>
    <trkpt lat="42.58680582" lon="11.516804695">
      <ele>408.0</ele>
    </trkpt>
    <trkpt lat="42.586934566" lon="11.516804695">
      <ele>410.0</ele>
    </trkpt>
    <trkpt lat="42.587106228" lon="11.51704073">
      <ele>408.0</ele>
    </trkpt>
    <trkpt lat="42.587256432" lon="11.51712656">
      <ele>409.0</ele>
    </trkpt>
    <trkpt lat="42.587492466" lon="11.517105103">
      <ele>413.0</ele>
    </trkpt>
    <trkpt lat="42.58800745" lon="11.516890526">
      <ele>414.0</ele>
    </trkpt>
    <trkpt lat="42.588157654" lon="11.516718864">
      <ele>416.0</ele>
    </trkpt>
    <trkpt lat="42.588050365" lon="11.51648283">
      <ele>420.0</ele>
    </trkpt>
    <trkpt lat="42.588068219" lon="11.516273031">
      <ele>422.0</ele>
    </trkpt>
    <trkpt lat="42.587900162" lon="11.516246796">
      <ele>424.0</ele>
    </trkpt>
  </trkseg>
</trk>
</gpx>
