<?xml version="1.0"?>
<gpx creator="GPS Visualizer http://www.gpsvisualizer.com/" version="1.1" xmlns="http://www.topografix.com/GPX/1/1" xmlns:xsi="http://www.w3.org/2001/XMLSchema-instance" xsi:schemaLocation="http://www.topografix.com/GPX/1/1 http://www.topografix.com/GPX/1/1/gpx.xsd">
<trk>
  <name>GTdM part 005</name>
  <trkseg>
    <trkpt lat="42.752007348" lon="11.111860955">
      <ele>9.75</ele>
    </trkpt>
    <trkpt lat="42.751283739" lon="11.112150298">
      <ele>9.75</ele>
    </trkpt>
    <trkpt lat="42.749806931" lon="11.11206145">
      <ele>10.23</ele>
    </trkpt>
    <trkpt lat="42.748848964" lon="11.112078382">
      <ele>10.23</ele>
    </trkpt>
    <trkpt lat="42.748649977" lon="11.111989031">
      <ele>10.23</ele>
    </trkpt>
    <trkpt lat="42.748351414" lon="11.111646714">
      <ele>9.27</ele>
    </trkpt>
    <trkpt lat="42.74839391" lon="11.111566415">
      <ele>7.83</ele>
    </trkpt>
    <trkpt lat="42.748593902" lon="11.111635147">
      <ele>8.31</ele>
    </trkpt>
    <trkpt lat="42.748780064" lon="11.111546215">
      <ele>8.31</ele>
    </trkpt>
    <trkpt lat="42.74889892" lon="11.111338008">
      <ele>7.83</ele>
    </trkpt>
    <trkpt lat="42.749409294" lon="11.109472113">
      <ele>4.94</ele>
    </trkpt>
    <trkpt lat="42.749584476" lon="11.107785255">
      <ele>8.79</ele>
    </trkpt>
    <trkpt lat="42.749725124" lon="11.107610408">
      <ele>8.79</ele>
    </trkpt>
    <trkpt lat="42.750121001" lon="11.10769758">
      <ele>9.27</ele>
    </trkpt>
    <trkpt lat="42.750516795" lon="11.107666902">
      <ele>8.79</ele>
    </trkpt>
    <trkpt lat="42.751289858" lon="11.107516196">
      <ele>6.87</ele>
    </trkpt>
    <trkpt lat="42.751670312" lon="11.107311426">
      <ele>5.91</ele>
    </trkpt>
    <trkpt lat="42.751825545" lon="11.107084109">
      <ele>6.39</ele>
    </trkpt>
    <trkpt lat="42.751893774" lon="11.105735712">
      <ele>5.42</ele>
    </trkpt>
    <trkpt lat="42.751972061" lon="11.10587569">
      <ele>5.91</ele>
    </trkpt>
    <trkpt lat="42.75197491" lon="11.106121112">
      <ele>5.42</ele>
    </trkpt>
    <trkpt lat="42.752127377" lon="11.106225969">
      <ele>6.39</ele>
    </trkpt>
    <trkpt lat="42.752708914" lon="11.106204344">
      <ele>6.87</ele>
    </trkpt>
    <trkpt lat="42.754608169" lon="11.105271773">
      <ele>7.83</ele>
    </trkpt>
    <trkpt lat="42.755216025" lon="11.105066333">
      <ele>7.35</ele>
    </trkpt>
    <trkpt lat="42.75531292" lon="11.104975389">
      <ele>7.83</ele>
    </trkpt>
    <trkpt lat="42.753778445" lon="11.102134343">
      <ele>7.35</ele>
    </trkpt>
    <trkpt lat="42.752956431" lon="11.100671198">
      <ele>6.39</ele>
    </trkpt>
    <trkpt lat="42.752778651" lon="11.10049149">
      <ele>6.39</ele>
    </trkpt>
    <trkpt lat="42.752567511" lon="11.099989749">
      <ele>6.39</ele>
    </trkpt>
    <trkpt lat="42.752410769" lon="11.099782884">
      <ele>6.39</ele>
    </trkpt>
    <trkpt lat="42.752347989" lon="11.099488176">
      <ele>7.35</ele>
    </trkpt>
    <trkpt lat="42.752275569" lon="11.09747367">
      <ele>9.75</ele>
    </trkpt>
    <trkpt lat="42.752359724" lon="11.096987855">
      <ele>9.75</ele>
    </trkpt>
    <trkpt lat="42.752459217" lon="11.096765902">
      <ele>9.75</ele>
    </trkpt>
    <trkpt lat="42.752672788" lon="11.096734302">
      <ele>8.79</ele>
    </trkpt>
    <trkpt lat="42.752506072" lon="11.096483264">
      <ele>9.27</ele>
    </trkpt>
    <trkpt lat="42.751349621" lon="11.096397769">
      <ele>9.27</ele>
    </trkpt>
    <trkpt lat="42.750372794" lon="11.096399445">
      <ele>7.35</ele>
    </trkpt>
    <trkpt lat="42.75017607" lon="11.096312776">
      <ele>7.35</ele>
    </trkpt>
    <trkpt lat="42.750163581" lon="11.095204605">
      <ele>7.35</ele>
    </trkpt>
    <trkpt lat="42.750209933" lon="11.094964966">
      <ele>7.35</ele>
    </trkpt>
    <trkpt lat="42.750363573" lon="11.09477344">
      <ele>7.35</ele>
    </trkpt>
    <trkpt lat="42.750392826" lon="11.094565988">
      <ele>6.87</ele>
    </trkpt>
    <trkpt lat="42.750206664" lon="11.094514523">
      <ele>6.39</ele>
    </trkpt>
    <trkpt lat="42.750138436" lon="11.094279494">
      <ele>6.39</ele>
    </trkpt>
    <trkpt lat="42.749985717" lon="11.090754149">
      <ele>4.94</ele>
    </trkpt>
    <trkpt lat="42.749599982" lon="11.088812733">
      <ele>3.5</ele>
    </trkpt>
    <trkpt lat="42.746214112" lon="11.076424029">
      <ele>3.98</ele>
    </trkpt>
    <trkpt lat="42.746187374" lon="11.076173829">
      <ele>3.98</ele>
    </trkpt>
    <trkpt lat="42.746425588" lon="11.075775102">
      <ele>5.91</ele>
    </trkpt>
    <trkpt lat="42.746445453" lon="11.075536553">
      <ele>5.42</ele>
    </trkpt>
    <trkpt lat="42.745545488" lon="11.07311192">
      <ele>3.98</ele>
    </trkpt>
    <trkpt lat="42.743969271" lon="11.067665108">
      <ele>6.87</ele>
    </trkpt>
    <trkpt lat="42.742661359" lon="11.063397881">
      <ele>6.39</ele>
    </trkpt>
    <trkpt lat="42.742355252" lon="11.062701931">
      <ele>5.91</ele>
    </trkpt>
    <trkpt lat="42.741635581" lon="11.061362168">
      <ele>4.94</ele>
    </trkpt>
    <trkpt lat="42.741567353" lon="11.06019658">
      <ele>0.0</ele>
    </trkpt>
    <trkpt lat="42.742502941" lon="11.060044784">
      <ele>0.0</ele>
    </trkpt>
    <trkpt lat="42.742679631" lon="11.055614864">
      <ele>0.0</ele>
    </trkpt>
    <trkpt lat="42.738420032" lon="11.055655265">
      <ele>4.46</ele>
    </trkpt>
    <trkpt lat="42.737701619" lon="11.054032696">
      <ele>5.91</ele>
    </trkpt>
    <trkpt lat="42.726672208" lon="11.017110161">
      <ele>4.94</ele>
    </trkpt>
    <trkpt lat="42.726323102" lon="11.016154038">
      <ele>5.42</ele>
    </trkpt>
    <trkpt lat="42.726320084" lon="11.015649363">
      <ele>5.91</ele>
    </trkpt>
    <trkpt lat="42.72611632" lon="11.015197495">
      <ele>5.42</ele>
    </trkpt>
    <trkpt lat="42.726065107" lon="11.01493204">
      <ele>5.91</ele>
    </trkpt>
    <trkpt lat="42.726313295" lon="11.013700068">
      <ele>3.5</ele>
    </trkpt>
    <trkpt lat="42.726324275" lon="11.003937246">
      <ele>5.42</ele>
    </trkpt>
    <trkpt lat="42.726264261" lon="11.003425196">
      <ele>4.94</ele>
    </trkpt>
    <trkpt lat="42.725582812" lon="11.002101693">
      <ele>4.94</ele>
    </trkpt>
    <trkpt lat="42.722829105" lon="10.997435739">
      <ele>7.35</ele>
    </trkpt>
    <trkpt lat="42.72278267" lon="10.997193083">
      <ele>6.87</ele>
    </trkpt>
    <trkpt lat="42.72739389" lon="10.988568356">
      <ele>7.35</ele>
    </trkpt>
    <trkpt lat="42.728372309" lon="10.986523088">
      <ele>13.6</ele>
    </trkpt>
    <trkpt lat="42.729680557" lon="10.982911158">
      <ele>24.17</ele>
    </trkpt>
    <trkpt lat="42.729623644" lon="10.982641261">
      <ele>23.21</ele>
    </trkpt>
    <trkpt lat="42.728402652" lon="10.980869327">
      <ele>30.42</ele>
    </trkpt>
    <trkpt lat="42.725203196" lon="10.976521717">
      <ele>3.5</ele>
    </trkpt>
    <trkpt lat="42.724977219" lon="10.976427002">
      <ele>2.06</ele>
    </trkpt>
    <trkpt lat="42.724331394" lon="10.976435719">
      <ele>3.02</ele>
    </trkpt>
    <trkpt lat="42.724105082" lon="10.976362294">
      <ele>1.1</ele>
    </trkpt>
    <trkpt lat="42.723805346" lon="10.976003213">
      <ele>0.62</ele>
    </trkpt>
    <trkpt lat="42.723641815" lon="10.975955017">
      <ele>0.62</ele>
    </trkpt>
    <trkpt lat="42.723343419" lon="10.976321558">
      <ele>2.54</ele>
    </trkpt>
    <trkpt lat="42.723184917" lon="10.976384673">
      <ele>2.06</ele>
    </trkpt>
    <trkpt lat="42.722898424" lon="10.976001453">
      <ele>3.02</ele>
    </trkpt>
    <trkpt lat="42.722898256" lon="10.97578059">
      <ele>3.02</ele>
    </trkpt>
    <trkpt lat="42.724908488" lon="10.973182954">
      <ele>4.46</ele>
    </trkpt>
    <trkpt lat="42.725088112" lon="10.973246824">
      <ele>4.46</ele>
    </trkpt>
    <trkpt lat="42.725536628" lon="10.973773543">
      <ele>8.79</ele>
    </trkpt>
    <trkpt lat="42.72580862" lon="10.973761221">
      <ele>11.67</ele>
    </trkpt>
    <trkpt lat="42.725990256" lon="10.97359769">
      <ele>13.12</ele>
    </trkpt>
    <trkpt lat="42.726451177" lon="10.973070888">
      <ele>19.84</ele>
    </trkpt>
    <trkpt lat="42.727175541" lon="10.972069418">
      <ele>17.44</ele>
    </trkpt>
    <trkpt lat="42.729012603" lon="10.969353095">
      <ele>14.08</ele>
    </trkpt>
    <trkpt lat="42.729495903" lon="10.96875295">
      <ele>11.19</ele>
    </trkpt>
    <trkpt lat="42.729700841" lon="10.968616996">
      <ele>11.67</ele>
    </trkpt>
    <trkpt lat="42.730117505" lon="10.968567207">
      <ele>11.19</ele>
    </trkpt>
    <trkpt lat="42.730518999" lon="10.968653541">
      <ele>9.75</ele>
    </trkpt>
    <trkpt lat="42.733899923" lon="10.970966276">
      <ele>7.35</ele>
    </trkpt>
    <trkpt lat="42.734102597" lon="10.97107918">
      <ele>6.39</ele>
    </trkpt>
    <trkpt lat="42.734271325" lon="10.970986309">
      <ele>5.91</ele>
    </trkpt>
    <trkpt lat="42.735859193" lon="10.966892838">
      <ele>7.83</ele>
    </trkpt>
    <trkpt lat="42.736032531" lon="10.96639093">
      <ele>7.35</ele>
    </trkpt>
    <trkpt lat="42.736064382" lon="10.966101503">
      <ele>6.39</ele>
    </trkpt>
    <trkpt lat="42.736389516" lon="10.965262307">
      <ele>5.91</ele>
    </trkpt>
    <trkpt lat="42.755521042" lon="10.919056479">
      <ele>7.35</ele>
    </trkpt>
    <trkpt lat="42.755719777" lon="10.91854535">
      <ele>7.83</ele>
    </trkpt>
    <trkpt lat="42.755912645" lon="10.917692995">
      <ele>7.83</ele>
    </trkpt>
    <trkpt lat="42.761097774" lon="10.890999064">
      <ele>7.83</ele>
    </trkpt>
    <trkpt lat="42.761386614" lon="10.886537293">
      <ele>5.91</ele>
    </trkpt>
    <trkpt lat="42.76158887" lon="10.886074025">
      <ele>6.39</ele>
    </trkpt>
    <trkpt lat="42.761736894" lon="10.885901777">
      <ele>5.91</ele>
    </trkpt>
    <trkpt lat="42.763783" lon="10.884307204">
      <ele>6.87</ele>
    </trkpt>
    <trkpt lat="42.763354182" lon="10.883368012">
      <ele>3.5</ele>
    </trkpt>
    <trkpt lat="42.763227783" lon="10.8828511">
      <ele>2.54</ele>
    </trkpt>
    <trkpt lat="42.762797372" lon="10.882295044">
      <ele>2.54</ele>
    </trkpt>
    <trkpt lat="42.762578856" lon="10.881797243">
      <ele>3.02</ele>
    </trkpt>
    <trkpt lat="42.762234695" lon="10.880812118">
      <ele>3.98</ele>
    </trkpt>
    <trkpt lat="42.762024393" lon="10.87970973">
      <ele>4.94</ele>
    </trkpt>
    <trkpt lat="42.762034368" lon="10.879128193">
      <ele>5.42</ele>
    </trkpt>
    <trkpt lat="42.763021169" lon="10.876800623">
      <ele>1.58</ele>
    </trkpt>
    <trkpt lat="42.763938904" lon="10.879125595">
      <ele>52.0</ele>
    </trkpt>
    <trkpt lat="42.764022807" lon="10.879463218">
      <ele>50.0</ele>
    </trkpt>
    <trkpt lat="42.764625549" lon="10.879211426">
      <ele>51.0</ele>
    </trkpt>
    <trkpt lat="42.764754295" lon="10.879275799">
      <ele>49.0</ele>
    </trkpt>
    <trkpt lat="42.764818668" lon="10.879426003">
      <ele>45.0</ele>
    </trkpt>
    <trkpt lat="42.765011787" lon="10.879318714">
      <ele>46.0</ele>
    </trkpt>
    <trkpt lat="42.765741348" lon="10.879104137">
      <ele>52.0</ele>
    </trkpt>
    <trkpt lat="42.766234875" lon="10.87908268">
      <ele>58.0</ele>
    </trkpt>
    <trkpt lat="42.766406536" lon="10.879125595">
      <ele>61.0</ele>
    </trkpt>
    <trkpt lat="42.76655674" lon="10.879318714">
      <ele>59.0</ele>
    </trkpt>
    <trkpt lat="42.766599655" lon="10.879297256">
      <ele>60.0</ele>
    </trkpt>
    <trkpt lat="42.767436504" lon="10.88064909">
      <ele>49.0</ele>
    </trkpt>
    <trkpt lat="42.767693996" lon="10.881185532">
      <ele>40.0</ele>
    </trkpt>
    <trkpt lat="42.767779827" lon="10.881636143">
      <ele>32.0</ele>
    </trkpt>
    <trkpt lat="42.767586708" lon="10.882709026">
      <ele>20.0</ele>
    </trkpt>
    <trkpt lat="42.767651081" lon="10.883245468">
      <ele>14.0</ele>
    </trkpt>
    <trkpt lat="42.768080235" lon="10.88414669">
      <ele>6.0</ele>
    </trkpt>
    <trkpt lat="42.768294811" lon="10.884447098">
      <ele>6.0</ele>
    </trkpt>
    <trkpt lat="42.768681049" lon="10.884833336">
      <ele>4.0</ele>
    </trkpt>
    <trkpt lat="42.768702507" lon="10.884962082">
      <ele>4.0</ele>
    </trkpt>
    <trkpt lat="42.768638134" lon="10.885176659">
      <ele>3.0</ele>
    </trkpt>
    <trkpt lat="42.768702507" lon="10.885326862">
      <ele>3.0</ele>
    </trkpt>
    <trkpt lat="42.768831253" lon="10.885369778">
      <ele>3.0</ele>
    </trkpt>
    <trkpt lat="42.768917084" lon="10.885326862">
      <ele>3.0</ele>
    </trkpt>
    <trkpt lat="42.768981457" lon="10.885155201">
      <ele>3.0</ele>
    </trkpt>
    <trkpt lat="42.769067287" lon="10.885090828">
      <ele>4.0</ele>
    </trkpt>
    <trkpt lat="42.769260406" lon="10.885090828">
      <ele>4.0</ele>
    </trkpt>
    <trkpt lat="42.770268917" lon="10.885777473">
      <ele>4.0</ele>
    </trkpt>
    <trkpt lat="42.77162075" lon="10.886485577">
      <ele>4.0</ele>
    </trkpt>
    <trkpt lat="42.771878242" lon="10.886678696">
      <ele>7.0</ele>
    </trkpt>
    <trkpt lat="42.7724576" lon="10.887429714">
      <ele>7.0</ele>
    </trkpt>
    <trkpt lat="42.773058414" lon="10.887966156">
      <ele>9.0</ele>
    </trkpt>
    <trkpt lat="42.773079872" lon="10.888373852">
      <ele>6.0</ele>
    </trkpt>
    <trkpt lat="42.773251534" lon="10.888888836">
      <ele>5.0</ele>
    </trkpt>
    <trkpt lat="42.773509026" lon="10.889103413">
      <ele>4.0</ele>
    </trkpt>
    <trkpt lat="42.774131298" lon="10.889468193">
      <ele>5.0</ele>
    </trkpt>
    <trkpt lat="42.774324417" lon="10.889661312">
      <ele>5.0</ele>
    </trkpt>
    <trkpt lat="42.775247097" lon="10.890820026">
      <ele>7.0</ele>
    </trkpt>
    <trkpt lat="42.776126862" lon="10.891742706">
      <ele>7.0</ele>
    </trkpt>
    <trkpt lat="42.776298523" lon="10.892193317">
      <ele>7.0</ele>
    </trkpt>
    <trkpt lat="42.7765131" lon="10.892193317">
      <ele>8.0</ele>
    </trkpt>
    <trkpt lat="42.777585983" lon="10.893352032">
      <ele>9.0</ele>
    </trkpt>
    <trkpt lat="42.77780056" lon="10.89401722">
      <ele>11.0</ele>
    </trkpt>
    <trkpt lat="42.777886391" lon="10.895240307">
      <ele>8.0</ele>
    </trkpt>
    <trkpt lat="42.778658867" lon="10.897536278">
      <ele>8.0</ele>
    </trkpt>
    <trkpt lat="42.778916359" lon="10.899317265">
      <ele>8.0</ele>
    </trkpt>
    <trkpt lat="42.779238224" lon="10.900948048">
      <ele>6.0</ele>
    </trkpt>
    <trkpt lat="42.77936697" lon="10.901355743">
      <ele>6.0</ele>
    </trkpt>
    <trkpt lat="42.779860497" lon="10.902149677">
      <ele>5.0</ele>
    </trkpt>
    <trkpt lat="42.780375481" lon="10.903823376">
      <ele>5.0</ele>
    </trkpt>
    <trkpt lat="42.780911922" lon="10.905025005">
      <ele>6.0</ele>
    </trkpt>
    <trkpt lat="42.781040668" lon="10.905389786">
      <ele>6.0</ele>
    </trkpt>
    <trkpt lat="42.781190872" lon="10.90618372">
      <ele>6.0</ele>
    </trkpt>
    <trkpt lat="42.781727314" lon="10.907793045">
      <ele>6.0</ele>
    </trkpt>
    <trkpt lat="42.78222084" lon="10.908544064">
      <ele>5.0</ele>
    </trkpt>
    <trkpt lat="42.782886028" lon="10.909080505">
      <ele>5.0</ele>
    </trkpt>
    <trkpt lat="42.783808708" lon="10.910346508">
      <ele>4.0</ele>
    </trkpt>
    <trkpt lat="42.784430981" lon="10.911355019">
      <ele>4.0</ele>
    </trkpt>
    <trkpt lat="42.784538269" lon="10.911397934">
      <ele>4.0</ele>
    </trkpt>
    <trkpt lat="42.785396576" lon="10.911355019">
      <ele>4.0</ele>
    </trkpt>
    <trkpt lat="42.788014412" lon="10.912213326">
      <ele>5.0</ele>
    </trkpt>
    <trkpt lat="42.790009975" lon="10.912749767">
      <ele>6.0</ele>
    </trkpt>
    <trkpt lat="42.790288925" lon="10.912878513">
      <ele>6.0</ele>
    </trkpt>
    <trkpt lat="42.791705132" lon="10.914316177">
      <ele>5.0</ele>
    </trkpt>
    <trkpt lat="42.793250084" lon="10.915474892">
      <ele>7.0</ele>
    </trkpt>
    <trkpt lat="42.796554565" lon="10.919530392">
      <ele>13.0</ele>
    </trkpt>
    <trkpt lat="42.796812057" lon="10.919744968">
      <ele>13.0</ele>
    </trkpt>
    <trkpt lat="42.79771328" lon="10.92019558">
      <ele>13.0</ele>
    </trkpt>
    <trkpt lat="42.798399925" lon="10.920624733">
      <ele>13.0</ele>
    </trkpt>
    <trkpt lat="42.798764706" lon="10.920946598">
      <ele>12.0</ele>
    </trkpt>
    <trkpt lat="42.800438404" lon="10.922899246">
      <ele>12.0</ele>
    </trkpt>
    <trkpt lat="42.801060677" lon="10.923907757">
      <ele>13.0</ele>
    </trkpt>
    <trkpt lat="42.801318169" lon="10.924229622">
      <ele>13.0</ele>
    </trkpt>
    <trkpt lat="42.802648544" lon="10.925130844">
      <ele>17.0</ele>
    </trkpt>
    <trkpt lat="42.803163528" lon="10.925774574">
      <ele>20.0</ele>
    </trkpt>
    <trkpt lat="42.807497978" lon="10.928370953">
      <ele>31.0</ele>
    </trkpt>
    <trkpt lat="42.807884216" lon="10.928564072">
      <ele>32.0</ele>
    </trkpt>
    <trkpt lat="42.808463573" lon="10.928649902">
      <ele>34.0</ele>
    </trkpt>
    <trkpt lat="42.808721066" lon="10.928757191">
      <ele>34.0</ele>
    </trkpt>
    <trkpt lat="42.809858322" lon="10.929980278">
      <ele>34.0</ele>
    </trkpt>
    <trkpt lat="42.810308933" lon="10.930194855">
      <ele>36.0</ele>
    </trkpt>
    <trkpt lat="42.811038494" lon="10.930752754">
      <ele>36.0</ele>
    </trkpt>
    <trkpt lat="42.812905312" lon="10.931546688">
      <ele>38.0</ele>
    </trkpt>
    <trkpt lat="42.813484669" lon="10.931997299">
      <ele>38.0</ele>
    </trkpt>
    <trkpt lat="42.813827991" lon="10.932190418">
      <ele>38.0</ele>
    </trkpt>
    <trkpt lat="42.81421423" lon="10.932641029">
      <ele>38.0</ele>
    </trkpt>
    <trkpt lat="42.814664841" lon="10.933327675">
      <ele>36.0</ele>
    </trkpt>
    <trkpt lat="42.816016674" lon="10.934743881">
      <ele>37.0</ele>
    </trkpt>
    <trkpt lat="42.816402912" lon="10.935623646">
      <ele>36.0</ele>
    </trkpt>
    <trkpt lat="42.817196846" lon="10.936975479">
      <ele>36.0</ele>
    </trkpt>
    <trkpt lat="42.817389965" lon="10.937619209">
      <ele>36.0</ele>
    </trkpt>
    <trkpt lat="42.817583084" lon="10.938713551">
      <ele>36.0</ele>
    </trkpt>
    <trkpt lat="42.817926407" lon="10.939614773">
      <ele>36.0</ele>
    </trkpt>
    <trkpt lat="42.818291187" lon="10.940301418">
      <ele>37.0</ele>
    </trkpt>
    <trkpt lat="42.81955719" lon="10.942254066">
      <ele>42.0</ele>
    </trkpt>
    <trkpt lat="42.819986343" lon="10.943026543">
      <ele>43.0</ele>
    </trkpt>
    <trkpt lat="42.820544243" lon="10.943627357">
      <ele>46.0</ele>
    </trkpt>
    <trkpt lat="42.821338177" lon="10.944700241">
      <ele>46.0</ele>
    </trkpt>
    <trkpt lat="42.821660042" lon="10.945000648">
      <ele>46.0</ele>
    </trkpt>
    <trkpt lat="42.822024822" lon="10.945193768">
      <ele>49.0</ele>
    </trkpt>
    <trkpt lat="42.821917534" lon="10.945944786">
      <ele>50.0</ele>
    </trkpt>
    <trkpt lat="42.821832206" lon="10.946008572">
      <ele>51.0</ele>
    </trkpt>
    <trkpt lat="42.82453537" lon="10.94701767">
      <ele>51.0</ele>
    </trkpt>
    <trkpt lat="42.824964523" lon="10.946674347">
      <ele>51.0</ele>
    </trkpt>
    <trkpt lat="42.825479507" lon="10.946073532">
      <ele>52.0</ele>
    </trkpt>
    <trkpt lat="42.825651169" lon="10.946159363">
      <ele>53.0</ele>
    </trkpt>
    <trkpt lat="42.828655243" lon="10.945858955">
      <ele>58.0</ele>
    </trkpt>
    <trkpt lat="42.829170227" lon="10.945858955">
      <ele>59.0</ele>
    </trkpt>
    <trkpt lat="42.83264637" lon="10.945558548">
      <ele>73.0</ele>
    </trkpt>
    <trkpt lat="42.832903862" lon="10.945472717">
      <ele>73.0</ele>
    </trkpt>
    <trkpt lat="42.833633423" lon="10.945386887">
      <ele>75.0</ele>
    </trkpt>
    <trkpt lat="42.834062576" lon="10.945558548">
      <ele>77.0</ele>
    </trkpt>
    <trkpt lat="42.835650444" lon="10.947232246">
      <ele>88.0</ele>
    </trkpt>
    <trkpt lat="42.836251259" lon="10.947790146">
      <ele>90.0</ele>
    </trkpt>
    <trkpt lat="42.838439941" lon="10.948648453">
      <ele>97.0</ele>
    </trkpt>
    <trkpt lat="42.839813232" lon="10.948691368">
      <ele>100.0</ele>
    </trkpt>
    <trkpt lat="42.840628624" lon="10.948476791">
      <ele>105.0</ele>
    </trkpt>
    <trkpt lat="42.841744423" lon="10.948390961">
      <ele>109.0</ele>
    </trkpt>
    <trkpt lat="42.844319344" lon="10.946803093">
      <ele>106.0</ele>
    </trkpt>
    <trkpt lat="42.844877243" lon="10.946631432">
      <ele>100.0</ele>
    </trkpt>
    <trkpt lat="42.845306396" lon="10.946717262">
      <ele>96.0</ele>
    </trkpt>
    <trkpt lat="42.847752571" lon="10.948176384">
      <ele>80.0</ele>
    </trkpt>
    <trkpt lat="42.848267555" lon="10.948348045">
      <ele>79.0</ele>
    </trkpt>
    <trkpt lat="42.848653793" lon="10.948348045">
      <ele>77.0</ele>
    </trkpt>
    <trkpt lat="42.85264492" lon="10.947575569">
      <ele>71.0</ele>
    </trkpt>
    <trkpt lat="42.853417397" lon="10.947489738">
      <ele>70.0</ele>
    </trkpt>
    <trkpt lat="42.854790688" lon="10.9476614">
      <ele>69.0</ele>
    </trkpt>
    <trkpt lat="42.855091095" lon="10.947575569">
      <ele>68.0</ele>
    </trkpt>
    <trkpt lat="42.857880592" lon="10.945944786">
      <ele>55.0</ele>
    </trkpt>
    <trkpt lat="42.860240936" lon="10.946245193">
      <ele>48.0</ele>
    </trkpt>
    <trkpt lat="42.86067009" lon="10.946502686">
      <ele>47.0</ele>
    </trkpt>
    <trkpt lat="42.861657143" lon="10.947403908">
      <ele>45.0</ele>
    </trkpt>
    <trkpt lat="42.86251545" lon="10.948090553">
      <ele>42.0</ele>
    </trkpt>
    <trkpt lat="42.86444664" lon="10.94894886">
      <ele>39.0</ele>
    </trkpt>
    <trkpt lat="42.865433693" lon="10.949077606">
      <ele>38.0</ele>
    </trkpt>
    <trkpt lat="42.865991592" lon="10.949077606">
      <ele>37.0</ele>
    </trkpt>
    <trkpt lat="42.867493629" lon="10.948905945">
      <ele>36.0</ele>
    </trkpt>
    <trkpt lat="42.867965698" lon="10.948777199">
      <ele>36.0</ele>
    </trkpt>
    <trkpt lat="42.868995667" lon="10.948648453">
      <ele>36.0</ele>
    </trkpt>
    <trkpt lat="42.869381905" lon="10.948734283">
      <ele>35.0</ele>
    </trkpt>
    <trkpt lat="42.869768143" lon="10.94894886">
      <ele>34.0</ele>
    </trkpt>
    <trkpt lat="42.870240211" lon="10.949378014">
      <ele>31.0</ele>
    </trkpt>
    <trkpt lat="42.872643471" lon="10.953326225">
      <ele>34.0</ele>
    </trkpt>
    <trkpt lat="42.872900963" lon="10.95392704">
      <ele>32.0</ele>
    </trkpt>
    <trkpt lat="42.873244286" lon="10.955042839">
      <ele>31.0</ele>
    </trkpt>
    <trkpt lat="42.873716354" lon="10.957446098">
      <ele>28.0</ele>
    </trkpt>
    <trkpt lat="42.874016762" lon="10.958046913">
      <ele>27.0</ele>
    </trkpt>
    <trkpt lat="42.880239487" lon="10.966458321">
      <ele>26.0</ele>
    </trkpt>
    <trkpt lat="42.880582809" lon="10.967102051">
      <ele>24.0</ele>
    </trkpt>
    <trkpt lat="42.880754471" lon="10.967831612">
      <ele>23.0</ele>
    </trkpt>
    <trkpt lat="42.880883217" lon="10.969762802">
      <ele>25.0</ele>
    </trkpt>
    <trkpt lat="42.881183624" lon="10.971007347">
      <ele>25.0</ele>
    </trkpt>
    <trkpt lat="42.882599831" lon="10.972981453">
      <ele>19.0</ele>
    </trkpt>
    <trkpt lat="42.883415222" lon="10.974225998">
      <ele>20.0</ele>
    </trkpt>
    <trkpt lat="42.883844376" lon="10.975084305">
      <ele>24.0</ele>
    </trkpt>
    <trkpt lat="42.884144783" lon="10.976028442">
      <ele>18.0</ele>
    </trkpt>
    <trkpt lat="42.885217667" lon="10.977573395">
      <ele>14.0</ele>
    </trkpt>
    <trkpt lat="42.88564682" lon="10.978088379">
      <ele>14.0</ele>
    </trkpt>
    <trkpt lat="42.887063026" lon="10.979375839">
      <ele>15.0</ele>
    </trkpt>
    <trkpt lat="42.887964249" lon="10.980062485">
      <ele>15.0</ele>
    </trkpt>
    <trkpt lat="42.887921333" lon="10.980620384">
      <ele>15.0</ele>
    </trkpt>
    <trkpt lat="42.888007164" lon="10.980877876">
      <ele>14.0</ele>
    </trkpt>
    <trkpt lat="42.888264656" lon="10.981135368">
      <ele>14.0</ele>
    </trkpt>
    <trkpt lat="42.889080048" lon="10.981264114">
      <ele>13.0</ele>
    </trkpt>
    <trkpt lat="42.890067101" lon="10.98130703">
      <ele>16.0</ele>
    </trkpt>
    <trkpt lat="42.890195847" lon="10.98139286">
      <ele>16.0</ele>
    </trkpt>
    <trkpt lat="42.890453339" lon="10.981822014">
      <ele>16.0</ele>
    </trkpt>
    <trkpt lat="42.892298698" lon="10.995640755">
      <ele>14.0</ele>
    </trkpt>
    <trkpt lat="42.892255783" lon="10.996112823">
      <ele>15.0</ele>
    </trkpt>
    <trkpt lat="42.892127037" lon="10.996584892">
      <ele>16.0</ele>
    </trkpt>
    <trkpt lat="42.891612053" lon="10.997786522">
      <ele>13.0</ele>
    </trkpt>
    <trkpt lat="42.891483307" lon="10.998344421">
      <ele>14.0</ele>
    </trkpt>
    <trkpt lat="42.891483307" lon="10.998601913">
      <ele>13.0</ele>
    </trkpt>
    <trkpt lat="42.893371582" lon="11.002550125">
      <ele>14.0</ele>
    </trkpt>
    <trkpt lat="42.893500328" lon="11.003193855">
      <ele>13.0</ele>
    </trkpt>
    <trkpt lat="42.893457413" lon="11.003451347">
      <ele>12.0</ele>
    </trkpt>
    <trkpt lat="42.893500328" lon="11.003665924">
      <ele>12.0</ele>
    </trkpt>
    <trkpt lat="42.893629074" lon="11.003751755">
      <ele>12.0</ele>
    </trkpt>
    <trkpt lat="42.894186974" lon="11.003880501">
      <ele>14.0</ele>
    </trkpt>
    <trkpt lat="42.894787788" lon="11.004867554">
      <ele>13.0</ele>
    </trkpt>
    <trkpt lat="42.89495945" lon="11.004867554">
      <ele>14.0</ele>
    </trkpt>
    <trkpt lat="42.895216942" lon="11.004695892">
      <ele>15.0</ele>
    </trkpt>
    <trkpt lat="42.905302048" lon="11.0049963">
      <ele>29.0</ele>
    </trkpt>
    <trkpt lat="42.90555954" lon="11.005125046">
      <ele>31.0</ele>
    </trkpt>
    <trkpt lat="42.90564537" lon="11.005253792">
      <ele>32.0</ele>
    </trkpt>
    <trkpt lat="42.905859947" lon="11.005983353">
      <ele>36.0</ele>
    </trkpt>
    <trkpt lat="42.905988693" lon="11.006197929">
      <ele>37.0</ele>
    </trkpt>
    <trkpt lat="42.906761169" lon="11.00684166">
      <ele>42.0</ele>
    </trkpt>
    <trkpt lat="42.907018661" lon="11.00692749">
      <ele>44.0</ele>
    </trkpt>
    <trkpt lat="42.90749073" lon="11.006712914">
      <ele>50.0</ele>
    </trkpt>
    <trkpt lat="42.907791138" lon="11.006712914">
      <ele>49.0</ele>
    </trkpt>
    <trkpt lat="42.908477783" lon="11.006498337">
      <ele>49.0</ele>
    </trkpt>
    <trkpt lat="42.90869236" lon="11.006326675">
      <ele>51.0</ele>
    </trkpt>
    <trkpt lat="42.908949852" lon="11.006669998">
      <ele>49.0</ele>
    </trkpt>
    <trkpt lat="42.909293175" lon="11.007528305">
      <ele>44.0</ele>
    </trkpt>
    <trkpt lat="42.909550667" lon="11.007957458">
      <ele>42.0</ele>
    </trkpt>
    <trkpt lat="42.909765244" lon="11.008172035">
      <ele>41.0</ele>
    </trkpt>
    <trkpt lat="42.911653519" lon="11.00941658">
      <ele>28.0</ele>
    </trkpt>
    <trkpt lat="42.911996841" lon="11.009588242">
      <ele>27.0</ele>
    </trkpt>
    <trkpt lat="42.912898064" lon="11.009888649">
      <ele>25.0</ele>
    </trkpt>
    <trkpt lat="42.912812233" lon="11.010103226">
      <ele>24.0</ele>
    </trkpt>
    <trkpt lat="42.911438942" lon="11.012291908">
      <ele>17.0</ele>
    </trkpt>
    <trkpt lat="42.910881042" lon="11.0125494">
      <ele>17.0</ele>
    </trkpt>
    <trkpt lat="42.91053772" lon="11.012935638">
      <ele>17.0</ele>
    </trkpt>
    <trkpt lat="42.910494804" lon="11.013579369">
      <ele>16.0</ele>
    </trkpt>
    <trkpt lat="42.910580635" lon="11.014866829">
      <ele>14.0</ele>
    </trkpt>
    <trkpt lat="42.910795212" lon="11.015381813">
      <ele>14.0</ele>
    </trkpt>
    <trkpt lat="42.911310196" lon="11.015810966">
      <ele>16.0</ele>
    </trkpt>
    <trkpt lat="42.911782265" lon="11.016411781">
      <ele>18.0</ele>
    </trkpt>
    <trkpt lat="42.912125587" lon="11.017055511">
      <ele>20.0</ele>
    </trkpt>
    <trkpt lat="42.912125587" lon="11.017227173">
      <ele>20.0</ele>
    </trkpt>
    <trkpt lat="42.91246891" lon="11.018042564">
      <ele>20.0</ele>
    </trkpt>
    <trkpt lat="42.912597656" lon="11.018214226">
      <ele>20.0</ele>
    </trkpt>
    <trkpt lat="42.916502953" lon="11.021003723">
      <ele>25.0</ele>
    </trkpt>
    <trkpt lat="42.916502953" lon="11.021561623">
      <ele>22.0</ele>
    </trkpt>
    <trkpt lat="42.916631699" lon="11.021518707">
      <ele>22.0</ele>
    </trkpt>
    <trkpt lat="42.917275429" lon="11.021561623">
      <ele>24.0</ele>
    </trkpt>
    <trkpt lat="42.921009064" lon="11.024179459">
      <ele>23.0</ele>
    </trkpt>
    <trkpt lat="42.922468185" lon="11.025123596">
      <ele>22.0</ele>
    </trkpt>
    <trkpt lat="42.923026085" lon="11.025295258">
      <ele>21.0</ele>
    </trkpt>
    <trkpt lat="42.92371273" lon="11.025338173">
      <ele>22.0</ele>
    </trkpt>
    <trkpt lat="42.929120064" lon="11.025252342">
      <ele>22.0</ele>
    </trkpt>
    <trkpt lat="42.929463387" lon="11.025295258">
      <ele>24.0</ele>
    </trkpt>
    <trkpt lat="42.930793762" lon="11.025896072">
      <ele>27.0</ele>
    </trkpt>
    <trkpt lat="42.931051254" lon="11.026067734">
      <ele>27.0</ele>
    </trkpt>
    <trkpt lat="42.931866646" lon="11.027140617">
      <ele>23.0</ele>
    </trkpt>
    <trkpt lat="42.932209969" lon="11.027312279">
      <ele>24.0</ele>
    </trkpt>
    <trkpt lat="42.935686111" lon="11.027226448">
      <ele>28.0</ele>
    </trkpt>
    <trkpt lat="42.93615818" lon="11.027312279">
      <ele>29.0</ele>
    </trkpt>
    <trkpt lat="42.936758995" lon="11.027097702">
      <ele>32.0</ele>
    </trkpt>
    <trkpt lat="42.937145233" lon="11.02684021">
      <ele>34.0</ele>
    </trkpt>
    <trkpt lat="42.937445641" lon="11.026453972">
      <ele>35.0</ele>
    </trkpt>
    <trkpt lat="42.938690186" lon="11.024136543">
      <ele>41.0</ele>
    </trkpt>
    <trkpt lat="42.939248085" lon="11.023321152">
      <ele>32.0</ele>
    </trkpt>
    <trkpt lat="42.939505577" lon="11.02306366">
      <ele>33.0</ele>
    </trkpt>
    <trkpt lat="42.940149307" lon="11.022763252">
      <ele>35.0</ele>
    </trkpt>
    <trkpt lat="42.940835953" lon="11.022634506">
      <ele>36.0</ele>
    </trkpt>
    <trkpt lat="42.943882942" lon="11.022591591">
      <ele>43.0</ele>
    </trkpt>
    <trkpt lat="42.944741249" lon="11.022806168">
      <ele>42.0</ele>
    </trkpt>
    <trkpt lat="42.945127487" lon="11.02314949">
      <ele>41.0</ele>
    </trkpt>
    <trkpt lat="42.945771217" lon="11.023921967">
      <ele>37.0</ele>
    </trkpt>
    <trkpt lat="42.946457863" lon="11.025037766">
      <ele>36.0</ele>
    </trkpt>
    <trkpt lat="42.947573662" lon="11.026368141">
      <ele>32.0</ele>
    </trkpt>
    <trkpt lat="42.948517799" lon="11.027612686">
      <ele>32.0</ele>
    </trkpt>
    <trkpt lat="42.945941873" lon="11.023132475">
      <ele>40.0</ele>
    </trkpt>
    <trkpt lat="42.946629524" lon="11.020724773">
      <ele>47.0</ele>
    </trkpt>
    <trkpt lat="42.947208881" lon="11.019716263">
      <ele>42.0</ele>
    </trkpt>
    <trkpt lat="42.948517799" lon="11.015896797">
      <ele>32.0</ele>
    </trkpt>
    <trkpt lat="42.951908112" lon="11.006498337">
      <ele>32.0</ele>
    </trkpt>
    <trkpt lat="42.953753471" lon="11.002120972">
      <ele>35.0</ele>
    </trkpt>
    <trkpt lat="42.954289913" lon="11.000726223">
      <ele>36.0</ele>
    </trkpt>
    <trkpt lat="42.954697609" lon="11.000339985">
      <ele>38.0</ele>
    </trkpt>
    <trkpt lat="42.955598831" lon="10.999975204">
      <ele>39.0</ele>
    </trkpt>
    <trkpt lat="42.955813408" lon="10.99973917">
      <ele>40.0</ele>
    </trkpt>
    <trkpt lat="42.956049442" lon="10.999009609">
      <ele>44.0</ele>
    </trkpt>
    <trkpt lat="42.956264019" lon="10.997357368">
      <ele>51.0</ele>
    </trkpt>
    <trkpt lat="42.956264019" lon="10.995855331">
      <ele>55.0</ele>
    </trkpt>
    <trkpt lat="42.955920696" lon="10.995082855">
      <ele>57.0</ele>
    </trkpt>
    <trkpt lat="42.956886292" lon="10.991005898">
      <ele>44.0</ele>
    </trkpt>
    <trkpt lat="42.957530022" lon="10.989375114">
      <ele>44.0</ele>
    </trkpt>
    <trkpt lat="42.957808971" lon="10.989074707">
      <ele>44.0</ele>
    </trkpt>
    <trkpt lat="42.959032059" lon="10.988023281">
      <ele>47.0</ele>
    </trkpt>
    <trkpt lat="42.961027622" lon="10.985555649">
      <ele>46.0</ele>
    </trkpt>
    <trkpt lat="42.961778641" lon="10.984826088">
      <ele>46.0</ele>
    </trkpt>
    <trkpt lat="42.963130474" lon="10.98388195">
      <ele>47.0</ele>
    </trkpt>
    <trkpt lat="42.96353817" lon="10.983409882">
      <ele>49.0</ele>
    </trkpt>
    <trkpt lat="42.963666916" lon="10.983066559">
      <ele>49.0</ele>
    </trkpt>
    <trkpt lat="42.963795662" lon="10.981221199">
      <ele>49.0</ele>
    </trkpt>
    <trkpt lat="42.96390295" lon="10.980792046">
      <ele>49.0</ele>
    </trkpt>
    <trkpt lat="42.964074612" lon="10.980405807">
      <ele>48.0</ele>
    </trkpt>
    <trkpt lat="42.972422317" lon="10.966357486">
      <ele>55.0</ele>
    </trkpt>
    <trkpt lat="42.971391678" lon="10.963754654">
      <ele>66.0</ele>
    </trkpt>
    <trkpt lat="42.970232964" lon="10.961136818">
      <ele>72.0</ele>
    </trkpt>
    <trkpt lat="42.969760895" lon="10.959935188">
      <ele>73.0</ele>
    </trkpt>
    <trkpt lat="42.969760895" lon="10.958948135">
      <ele>68.0</ele>
    </trkpt>
    <trkpt lat="42.969503403" lon="10.956287384">
      <ele>75.0</ele>
    </trkpt>
    <trkpt lat="42.969503403" lon="10.955729485">
      <ele>73.0</ele>
    </trkpt>
    <trkpt lat="42.969846725" lon="10.95272541">
      <ele>69.0</ele>
    </trkpt>
    <trkpt lat="42.969546318" lon="10.946674347">
      <ele>68.0</ele>
    </trkpt>
    <trkpt lat="42.969460487" lon="10.945944786">
      <ele>68.0</ele>
    </trkpt>
    <trkpt lat="42.969288826" lon="10.945386887">
      <ele>68.0</ele>
    </trkpt>
    <trkpt lat="42.968988419" lon="10.944828987">
      <ele>69.0</ele>
    </trkpt>
    <trkpt lat="42.968645096" lon="10.944442749">
      <ele>70.0</ele>
    </trkpt>
    <trkpt lat="42.968087196" lon="10.944099426">
      <ele>71.0</ele>
    </trkpt>
    <trkpt lat="42.965040207" lon="10.942854881">
      <ele>80.0</ele>
    </trkpt>
    <trkpt lat="42.964010239" lon="10.942339897">
      <ele>85.0</ele>
    </trkpt>
    <trkpt lat="42.964224815" lon="10.94212532">
      <ele>85.0</ele>
    </trkpt>
    <trkpt lat="42.965168953" lon="10.941781998">
      <ele>79.0</ele>
    </trkpt>
    <trkpt lat="42.965426445" lon="10.941567421">
      <ele>77.0</ele>
    </trkpt>
    <trkpt lat="42.965555191" lon="10.941267014">
      <ele>77.0</ele>
    </trkpt>
    <trkpt lat="42.965683937" lon="10.939936638">
      <ele>76.0</ele>
    </trkpt>
    <trkpt lat="42.965812683" lon="10.939679146">
      <ele>76.0</ele>
    </trkpt>
    <trkpt lat="42.966070175" lon="10.939421654">
      <ele>77.0</ele>
    </trkpt>
    <trkpt lat="42.968473434" lon="10.938477516">
      <ele>81.0</ele>
    </trkpt>
    <trkpt lat="42.968816757" lon="10.938262939">
      <ele>81.0</ele>
    </trkpt>
    <trkpt lat="42.969245911" lon="10.937790871">
      <ele>80.0</ele>
    </trkpt>
    <trkpt lat="42.969546318" lon="10.937275887">
      <ele>80.0</ele>
    </trkpt>
    <trkpt lat="42.970490456" lon="10.934185982">
      <ele>80.0</ele>
    </trkpt>
    <trkpt lat="42.97044754" lon="10.932812691">
      <ele>81.0</ele>
    </trkpt>
    <trkpt lat="42.970490456" lon="10.932297707">
      <ele>81.0</ele>
    </trkpt>
    <trkpt lat="42.970705032" lon="10.931911469">
      <ele>81.0</ele>
    </trkpt>
    <trkpt lat="42.971692085" lon="10.930838585">
      <ele>80.0</ele>
    </trkpt>
    <trkpt lat="42.972593307" lon="10.929465294">
      <ele>82.0</ele>
    </trkpt>
    <trkpt lat="42.973966599" lon="10.927920341">
      <ele>81.0</ele>
    </trkpt>
    <trkpt lat="42.974224091" lon="10.927705765">
      <ele>82.0</ele>
    </trkpt>
    <trkpt lat="42.974438667" lon="10.927619934">
      <ele>82.0</ele>
    </trkpt>
    <trkpt lat="42.974610329" lon="10.927619934">
      <ele>82.0</ele>
    </trkpt>
    <trkpt lat="42.975897789" lon="10.927963257">
      <ele>85.0</ele>
    </trkpt>
    <trkpt lat="42.976112366" lon="10.927963257">
      <ele>85.0</ele>
    </trkpt>
    <trkpt lat="42.976326942" lon="10.927834511">
      <ele>86.0</ele>
    </trkpt>
    <trkpt lat="42.976498604" lon="10.927619934">
      <ele>86.0</ele>
    </trkpt>
    <trkpt lat="42.978901863" lon="10.9227705">
      <ele>104.0</ele>
    </trkpt>
    <trkpt lat="42.979159355" lon="10.922384262">
      <ele>105.0</ele>
    </trkpt>
    <trkpt lat="42.979459763" lon="10.922083855">
      <ele>106.0</ele>
    </trkpt>
    <trkpt lat="42.981390953" lon="10.920581818">
      <ele>116.0</ele>
    </trkpt>
    <trkpt lat="42.983794212" lon="10.916676521">
      <ele>138.0</ele>
    </trkpt>
    <trkpt lat="42.984223366" lon="10.916204453">
      <ele>139.0</ele>
    </trkpt>
    <trkpt lat="42.98473835" lon="10.915904045">
      <ele>140.0</ele>
    </trkpt>
    <trkpt lat="42.98593998" lon="10.915045738">
      <ele>141.0</ele>
    </trkpt>
    <trkpt lat="42.987012863" lon="10.913114548">
      <ele>146.0</ele>
    </trkpt>
    <trkpt lat="42.987656593" lon="10.91217041">
      <ele>145.0</ele>
    </trkpt>
    <trkpt lat="42.988557816" lon="10.911440849">
      <ele>148.0</ele>
    </trkpt>
    <trkpt lat="42.989501953" lon="10.910925865">
      <ele>149.0</ele>
    </trkpt>
    <trkpt lat="42.991175652" lon="10.909209251">
      <ele>154.0</ele>
    </trkpt>
    <trkpt lat="42.991690636" lon="10.908050537">
      <ele>157.0</ele>
    </trkpt>
    <trkpt lat="42.991819382" lon="10.907320976">
      <ele>158.0</ele>
    </trkpt>
    <trkpt lat="42.991862297" lon="10.906720161">
      <ele>157.0</ele>
    </trkpt>
    <trkpt lat="42.991604805" lon="10.905604362">
      <ele>158.0</ele>
    </trkpt>
    <trkpt lat="42.991476059" lon="10.904746056">
      <ele>160.0</ele>
    </trkpt>
    <trkpt lat="42.992377281" lon="10.898909569">
      <ele>171.0</ele>
    </trkpt>
    <trkpt lat="42.992548943" lon="10.89871645">
      <ele>172.0</ele>
    </trkpt>
    <trkpt lat="42.994072437" lon="10.897622108">
      <ele>184.0</ele>
    </trkpt>
    <trkpt lat="42.994673252" lon="10.897450447">
      <ele>187.0</ele>
    </trkpt>
    <trkpt lat="42.994995117" lon="10.897450447">
      <ele>189.0</ele>
    </trkpt>
    <trkpt lat="42.995188236" lon="10.89751482">
      <ele>189.0</ele>
    </trkpt>
    <trkpt lat="42.995960712" lon="10.89815855">
      <ele>193.0</ele>
    </trkpt>
    <trkpt lat="42.996840477" lon="10.898222923">
      <ele>200.0</ele>
    </trkpt>
    <trkpt lat="42.997226715" lon="10.898051262">
      <ele>202.0</ele>
    </trkpt>
    <trkpt lat="42.997977734" lon="10.897321701">
      <ele>205.0</ele>
    </trkpt>
    <trkpt lat="42.998342514" lon="10.897042751">
      <ele>208.0</ele>
    </trkpt>
    <trkpt lat="42.998921871" lon="10.896914005">
      <ele>212.0</ele>
    </trkpt>
    <trkpt lat="42.999651432" lon="10.896463394">
      <ele>214.0</ele>
    </trkpt>
    <trkpt lat="43.000123501" lon="10.896356106">
      <ele>217.0</ele>
    </trkpt>
    <trkpt lat="43.000788689" lon="10.896463394">
      <ele>222.0</ele>
    </trkpt>
    <trkpt lat="43.001003265" lon="10.896248817">
      <ele>220.0</ele>
    </trkpt>
    <trkpt lat="43.001260757" lon="10.896162987">
      <ele>220.0</ele>
    </trkpt>
    <trkpt lat="43.002119064" lon="10.896077156">
      <ele>227.0</ele>
    </trkpt>
    <trkpt lat="43.00224781" lon="10.896012783">
      <ele>227.0</ele>
    </trkpt>
    <trkpt lat="43.002440929" lon="10.895626545">
      <ele>224.0</ele>
    </trkpt>
    <trkpt lat="43.002505302" lon="10.895283222">
      <ele>222.0</ele>
    </trkpt>
    <trkpt lat="43.002676964" lon="10.895175934">
      <ele>222.0</ele>
    </trkpt>
    <trkpt lat="43.002955914" lon="10.895154476">
      <ele>223.0</ele>
    </trkpt>
    <trkpt lat="43.003213406" lon="10.895240307">
      <ele>226.0</ele>
    </trkpt>
    <trkpt lat="43.003706932" lon="10.895497799">
      <ele>229.0</ele>
    </trkpt>
    <trkpt lat="43.004050255" lon="10.895862579">
      <ele>234.0</ele>
    </trkpt>
    <trkpt lat="43.004286289" lon="10.895991325">
      <ele>236.0</ele>
    </trkpt>
    <trkpt lat="43.004715443" lon="10.896141529">
      <ele>237.0</ele>
    </trkpt>
    <trkpt lat="43.005037308" lon="10.896184444">
      <ele>237.0</ele>
    </trkpt>
    <trkpt lat="43.005230427" lon="10.896077156">
      <ele>235.0</ele>
    </trkpt>
    <trkpt lat="43.005037308" lon="10.896184444">
      <ele>237.0</ele>
    </trkpt>
    <trkpt lat="43.005723953" lon="10.896785259">
      <ele>242.0</ele>
    </trkpt>
    <trkpt lat="43.006732464" lon="10.897536278">
      <ele>245.0</ele>
    </trkpt>
    <trkpt lat="43.006882668" lon="10.898416042">
      <ele>253.0</ele>
    </trkpt>
    <trkpt lat="43.006947041" lon="10.898501873">
      <ele>253.0</ele>
    </trkpt>
    <trkpt lat="43.007376194" lon="10.898609161">
      <ele>251.0</ele>
    </trkpt>
    <trkpt lat="43.007483482" lon="10.89871645">
      <ele>251.0</ele>
    </trkpt>
    <trkpt lat="43.007719517" lon="10.899381638">
      <ele>253.0</ele>
    </trkpt>
    <trkpt lat="43.008084297" lon="10.899960995">
      <ele>255.0</ele>
    </trkpt>
    <trkpt lat="43.00814867" lon="10.900433064">
      <ele>255.0</ele>
    </trkpt>
    <trkpt lat="43.008084297" lon="10.90120554">
      <ele>252.0</ele>
    </trkpt>
    <trkpt lat="43.008127213" lon="10.901978016">
      <ele>249.0</ele>
    </trkpt>
    <trkpt lat="43.008234501" lon="10.902428627">
      <ele>246.0</ele>
    </trkpt>
    <trkpt lat="43.008663654" lon="10.903201103">
      <ele>242.0</ele>
    </trkpt>
    <trkpt lat="43.0087924" lon="10.903222561">
      <ele>243.0</ele>
    </trkpt>
    <trkpt lat="43.009393215" lon="10.90285778">
      <ele>250.0</ele>
    </trkpt>
    <trkpt lat="43.009543419" lon="10.902493">
      <ele>254.0</ele>
    </trkpt>
    <trkpt lat="43.009672165" lon="10.902364254">
      <ele>255.0</ele>
    </trkpt>
    <trkpt lat="43.009757996" lon="10.902364254">
      <ele>255.0</ele>
    </trkpt>
    <trkpt lat="43.009951115" lon="10.902793407">
      <ele>250.0</ele>
    </trkpt>
    <trkpt lat="43.009929657" lon="10.903737545">
      <ele>238.0</ele>
    </trkpt>
    <trkpt lat="43.00999403" lon="10.903952122">
      <ele>234.0</ele>
    </trkpt>
    <trkpt lat="43.010187149" lon="10.903973579">
      <ele>233.0</ele>
    </trkpt>
    <trkpt lat="43.010315895" lon="10.903866291">
      <ele>233.0</ele>
    </trkpt>
    <trkpt lat="43.010401726" lon="10.90369463">
      <ele>234.0</ele>
    </trkpt>
    <trkpt lat="43.010509014" lon="10.90313673">
      <ele>240.0</ele>
    </trkpt>
    <trkpt lat="43.010895252" lon="10.902900696">
      <ele>239.0</ele>
    </trkpt>
    <trkpt lat="43.011088371" lon="10.902664661">
      <ele>241.0</ele>
    </trkpt>
    <trkpt lat="43.011410236" lon="10.901935101">
      <ele>244.0</ele>
    </trkpt>
    <trkpt lat="43.011732101" lon="10.901677608">
      <ele>243.0</ele>
    </trkpt>
    <trkpt lat="43.01192522" lon="10.901656151">
      <ele>244.0</ele>
    </trkpt>
    <trkpt lat="43.012096882" lon="10.901806355">
      <ele>244.0</ele>
    </trkpt>
    <trkpt lat="43.012161255" lon="10.902063847">
      <ele>245.0</ele>
    </trkpt>
    <trkpt lat="43.012075424" lon="10.902407169">
      <ele>243.0</ele>
    </trkpt>
    <trkpt lat="43.011302948" lon="10.904295444">
      <ele>235.0</ele>
    </trkpt>
    <trkpt lat="43.011217117" lon="10.904810429">
      <ele>231.0</ele>
    </trkpt>
    <trkpt lat="43.011174202" lon="10.905861855">
      <ele>224.0</ele>
    </trkpt>
    <trkpt lat="43.011260033" lon="10.906076431">
      <ele>224.0</ele>
    </trkpt>
    <trkpt lat="43.011496067" lon="10.906205177">
      <ele>227.0</ele>
    </trkpt>
    <trkpt lat="43.012075424" lon="10.906848907">
      <ele>221.0</ele>
    </trkpt>
    <trkpt lat="43.012268543" lon="10.906891823">
      <ele>221.0</ele>
    </trkpt>
    <trkpt lat="43.012740612" lon="10.906398296">
      <ele>232.0</ele>
    </trkpt>
    <trkpt lat="43.012869358" lon="10.906376839">
      <ele>233.0</ele>
    </trkpt>
    <trkpt lat="43.012976646" lon="10.906505585">
      <ele>231.0</ele>
    </trkpt>
    <trkpt lat="43.012998104" lon="10.906720161">
      <ele>229.0</ele>
    </trkpt>
    <trkpt lat="43.012654781" lon="10.907535553">
      <ele>217.0</ele>
    </trkpt>
    <trkpt lat="43.012633324" lon="10.907793045">
      <ele>214.0</ele>
    </trkpt>
    <trkpt lat="43.013212681" lon="10.908544064">
      <ele>215.0</ele>
    </trkpt>
    <trkpt lat="43.013470173" lon="10.909209251">
      <ele>211.0</ele>
    </trkpt>
    <trkpt lat="43.013534546" lon="10.909509659">
      <ele>209.0</ele>
    </trkpt>
    <trkpt lat="43.013513088" lon="10.910604">
      <ele>196.0</ele>
    </trkpt>
    <trkpt lat="43.013577461" lon="10.910797119">
      <ele>193.0</ele>
    </trkpt>
    <trkpt lat="43.013856411" lon="10.910861492">
      <ele>191.0</ele>
    </trkpt>
    <trkpt lat="43.014307022" lon="10.910668373">
      <ele>193.0</ele>
    </trkpt>
    <trkpt lat="43.014993668" lon="10.910260677">
      <ele>198.0</ele>
    </trkpt>
    <trkpt lat="43.015358448" lon="10.910260677">
      <ele>198.0</ele>
    </trkpt>
    <trkpt lat="43.016238213" lon="10.910024643">
      <ele>200.0</ele>
    </trkpt>
    <trkpt lat="43.016431332" lon="10.910046101">
      <ele>199.0</ele>
    </trkpt>
    <trkpt lat="43.016581535" lon="10.910153389">
      <ele>198.0</ele>
    </trkpt>
    <trkpt lat="43.016602993" lon="10.911183357">
      <ele>197.0</ele>
    </trkpt>
    <trkpt lat="43.016581535" lon="10.911269188">
      <ele>197.0</ele>
    </trkpt>
    <trkpt lat="43.016431332" lon="10.911355019">
      <ele>196.0</ele>
    </trkpt>
    <trkpt lat="43.016302586" lon="10.911355019">
      <ele>195.0</ele>
    </trkpt>
    <trkpt lat="43.016216755" lon="10.911440849">
      <ele>195.0</ele>
    </trkpt>
    <trkpt lat="43.016195297" lon="10.911762714">
      <ele>197.0</ele>
    </trkpt>
    <trkpt lat="43.016345501" lon="10.911827087">
      <ele>199.0</ele>
    </trkpt>
    <trkpt lat="43.016924858" lon="10.911762714">
      <ele>203.0</ele>
    </trkpt>
    <trkpt lat="43.017203808" lon="10.912148952">
      <ele>213.0</ele>
    </trkpt>
    <trkpt lat="43.017311096" lon="10.912148952">
      <ele>214.0</ele>
    </trkpt>
    <trkpt lat="43.017504215" lon="10.911784172">
      <ele>208.0</ele>
    </trkpt>
    <trkpt lat="43.018212318" lon="10.911676884">
      <ele>213.0</ele>
    </trkpt>
    <trkpt lat="43.018405437" lon="10.911762714">
      <ele>216.0</ele>
    </trkpt>
    <trkpt lat="43.018555641" lon="10.912277699">
      <ele>229.0</ele>
    </trkpt>
    <trkpt lat="43.018620014" lon="10.912299156">
      <ele>230.0</ele>
    </trkpt>
    <trkpt lat="43.018834591" lon="10.912063122">
      <ele>226.0</ele>
    </trkpt>
    <trkpt lat="43.019113541" lon="10.911998749">
      <ele>226.0</ele>
    </trkpt>
    <trkpt lat="43.019435406" lon="10.912148952">
      <ele>232.0</ele>
    </trkpt>
    <trkpt lat="43.019714355" lon="10.912470818">
      <ele>243.0</ele>
    </trkpt>
    <trkpt lat="43.019800186" lon="10.912406445">
      <ele>242.0</ele>
    </trkpt>
    <trkpt lat="43.019821644" lon="10.912299156">
      <ele>239.0</ele>
    </trkpt>
    <trkpt lat="43.020079136" lon="10.912106037">
      <ele>237.0</ele>
    </trkpt>
    <trkpt lat="43.020422459" lon="10.912127495">
      <ele>239.0</ele>
    </trkpt>
    <trkpt lat="43.020745749" lon="10.912269065">
      <ele>243.0</ele>
    </trkpt>
    <trkpt lat="43.021066189" lon="10.912470818">
      <ele>246.0</ele>
    </trkpt>
    <trkpt lat="43.021109104" lon="10.912578106">
      <ele>247.0</ele>
    </trkpt>
    <trkpt lat="43.020980358" lon="10.913307667">
      <ele>260.0</ele>
    </trkpt>
    <trkpt lat="43.021001816" lon="10.913608074">
      <ele>265.0</ele>
    </trkpt>
    <trkpt lat="43.021087646" lon="10.914058685">
      <ele>271.0</ele>
    </trkpt>
    <trkpt lat="43.021259308" lon="10.91438055">
      <ele>273.0</ele>
    </trkpt>
    <trkpt lat="43.021345139" lon="10.914337635">
      <ele>272.0</ele>
    </trkpt>
    <trkpt lat="43.021495342" lon="10.913779736">
      <ele>262.0</ele>
    </trkpt>
    <trkpt lat="43.021903038" lon="10.913136005">
      <ele>255.0</ele>
    </trkpt>
    <trkpt lat="43.022053242" lon="10.913071632">
      <ele>257.0</ele>
    </trkpt>
    <trkpt lat="43.022246361" lon="10.913136005">
      <ele>262.0</ele>
    </trkpt>
    <trkpt lat="43.022546768" lon="10.913414955">
      <ele>271.0</ele>
    </trkpt>
    <trkpt lat="43.023040295" lon="10.914144516">
      <ele>282.0</ele>
    </trkpt>
    <trkpt lat="43.023061752" lon="10.914359093">
      <ele>284.0</ele>
    </trkpt>
    <trkpt lat="43.023169041" lon="10.914487839">
      <ele>286.0</ele>
    </trkpt>
    <trkpt lat="43.023254871" lon="10.914402008">
      <ele>285.0</ele>
    </trkpt>
    <trkpt lat="43.023297787" lon="10.913865566">
      <ele>281.0</ele>
    </trkpt>
    <trkpt lat="43.023061752" lon="10.912427902">
      <ele>271.0</ele>
    </trkpt>
    <trkpt lat="43.023233414" lon="10.912084579">
      <ele>269.0</ele>
    </trkpt>
    <trkpt lat="43.023512363" lon="10.911955833">
      <ele>271.0</ele>
    </trkpt>
    <trkpt lat="43.023748398" lon="10.911998749">
      <ele>274.0</ele>
    </trkpt>
    <trkpt lat="43.024091721" lon="10.912234783">
      <ele>283.0</ele>
    </trkpt>
    <trkpt lat="43.024799824" lon="10.912921429">
      <ele>294.0</ele>
    </trkpt>
    <trkpt lat="43.024992943" lon="10.913243294">
      <ele>299.0</ele>
    </trkpt>
    <trkpt lat="43.025186062" lon="10.913758278">
      <ele>305.0</ele>
    </trkpt>
    <trkpt lat="43.025314808" lon="10.914402008">
      <ele>313.0</ele>
    </trkpt>
    <trkpt lat="43.025550842" lon="10.914423466">
      <ele>312.0</ele>
    </trkpt>
    <trkpt lat="43.026022911" lon="10.914123058">
      <ele>305.0</ele>
    </trkpt>
    <trkpt lat="43.026173115" lon="10.914144516">
      <ele>307.0</ele>
    </trkpt>
    <trkpt lat="43.026409149" lon="10.914337635">
      <ele>312.0</ele>
    </trkpt>
    <trkpt lat="43.026666641" lon="10.914423466">
      <ele>315.0</ele>
    </trkpt>
    <trkpt lat="43.026795387" lon="10.914552212">
      <ele>318.0</ele>
    </trkpt>
    <trkpt lat="43.026902676" lon="10.914552212">
      <ele>318.0</ele>
    </trkpt>
    <trkpt lat="43.027203083" lon="10.913994312">
      <ele>310.0</ele>
    </trkpt>
    <trkpt lat="43.027310371" lon="10.913887024">
      <ele>309.0</ele>
    </trkpt>
    <trkpt lat="43.02741766" lon="10.913908482">
      <ele>310.0</ele>
    </trkpt>
    <trkpt lat="43.027589321" lon="10.914080143">
      <ele>315.0</ele>
    </trkpt>
    <trkpt lat="43.027846813" lon="10.914959908">
      <ele>330.0</ele>
    </trkpt>
    <trkpt lat="43.027954102" lon="10.915045738">
      <ele>332.0</ele>
    </trkpt>
    <trkpt lat="43.028104305" lon="10.914981365">
      <ele>331.0</ele>
    </trkpt>
    <trkpt lat="43.028383255" lon="10.914702415">
      <ele>333.0</ele>
    </trkpt>
    <trkpt lat="43.028447628" lon="10.914444923">
      <ele>333.0</ele>
    </trkpt>
    <trkpt lat="43.02842617" lon="10.913414955">
      <ele>327.0</ele>
    </trkpt>
    <trkpt lat="43.028469086" lon="10.913071632">
      <ele>326.0</ele>
    </trkpt>
    <trkpt lat="43.028576374" lon="10.912899971">
      <ele>327.0</ele>
    </trkpt>
    <trkpt lat="43.028898239" lon="10.912706852">
      <ele>332.0</ele>
    </trkpt>
    <trkpt lat="43.029241562" lon="10.912706852">
      <ele>337.0</ele>
    </trkpt>
    <trkpt lat="43.029692173" lon="10.912921429">
      <ele>342.0</ele>
    </trkpt>
    <trkpt lat="43.029863834" lon="10.913071632">
      <ele>346.0</ele>
    </trkpt>
    <trkpt lat="43.030164242" lon="10.913565159">
      <ele>357.0</ele>
    </trkpt>
    <trkpt lat="43.03027153" lon="10.91365099">
      <ele>359.0</ele>
    </trkpt>
    <trkpt lat="43.030722141" lon="10.913500786">
      <ele>360.0</ele>
    </trkpt>
    <trkpt lat="43.031129837" lon="10.913543701">
      <ele>365.0</ele>
    </trkpt>
    <trkpt lat="43.031280041" lon="10.913200378">
      <ele>363.0</ele>
    </trkpt>
    <trkpt lat="43.031258583" lon="10.913050175">
      <ele>361.0</ele>
    </trkpt>
    <trkpt lat="43.031044006" lon="10.912749767">
      <ele>354.0</ele>
    </trkpt>
    <trkpt lat="43.031044006" lon="10.912599564">
      <ele>353.0</ele>
    </trkpt>
    <trkpt lat="43.031129837" lon="10.912492275">
      <ele>354.0</ele>
    </trkpt>
    <trkpt lat="43.031430244" lon="10.91244936">
      <ele>360.0</ele>
    </trkpt>
    <trkpt lat="43.031644821" lon="10.912320614">
      <ele>363.0</ele>
    </trkpt>
    <trkpt lat="43.03248167" lon="10.911183357">
      <ele>373.0</ele>
    </trkpt>
    <trkpt lat="43.03276062" lon="10.910153389">
      <ele>373.0</ele>
    </trkpt>
    <trkpt lat="43.032975197" lon="10.909016132">
      <ele>374.0</ele>
    </trkpt>
    <trkpt lat="43.033018112" lon="10.908908844">
      <ele>375.0</ele>
    </trkpt>
    <trkpt lat="43.033168316" lon="10.908844471">
      <ele>376.0</ele>
    </trkpt>
    <trkpt lat="43.033275604" lon="10.908844471">
      <ele>377.0</ele>
    </trkpt>
    <trkpt lat="43.033533096" lon="10.909209251">
      <ele>378.0</ele>
    </trkpt>
    <trkpt lat="43.033640385" lon="10.909488201">
      <ele>379.0</ele>
    </trkpt>
    <trkpt lat="43.0336833" lon="10.909745693">
      <ele>381.0</ele>
    </trkpt>
    <trkpt lat="43.033661842" lon="10.910668373">
      <ele>390.0</ele>
    </trkpt>
    <trkpt lat="43.033769131" lon="10.911097527">
      <ele>393.0</ele>
    </trkpt>
    <trkpt lat="43.033897877" lon="10.911204815">
      <ele>394.0</ele>
    </trkpt>
    <trkpt lat="43.034262657" lon="10.911333561">
      <ele>394.0</ele>
    </trkpt>
    <trkpt lat="43.034412861" lon="10.911505222">
      <ele>393.0</ele>
    </trkpt>
    <trkpt lat="43.034627438" lon="10.912878513">
      <ele>403.0</ele>
    </trkpt>
    <trkpt lat="43.034734726" lon="10.913071632">
      <ele>405.0</ele>
    </trkpt>
    <trkpt lat="43.034863472" lon="10.913200378">
      <ele>406.0</ele>
    </trkpt>
    <trkpt lat="43.035120964" lon="10.913264751">
      <ele>407.0</ele>
    </trkpt>
    <trkpt lat="43.035764694" lon="10.913071632">
      <ele>408.0</ele>
    </trkpt>
    <trkpt lat="43.036022186" lon="10.913136005">
      <ele>409.0</ele>
    </trkpt>
    <trkpt lat="43.036687374" lon="10.913715363">
      <ele>413.0</ele>
    </trkpt>
    <trkpt lat="43.036880493" lon="10.91373682">
      <ele>415.0</ele>
    </trkpt>
    <trkpt lat="43.037116528" lon="10.91365099">
      <ele>415.0</ele>
    </trkpt>
    <trkpt lat="43.038060665" lon="10.912857056">
      <ele>412.0</ele>
    </trkpt>
    <trkpt lat="43.038532734" lon="10.912921429">
      <ele>419.0</ele>
    </trkpt>
    <trkpt lat="43.038640022" lon="10.912899971">
      <ele>420.0</ele>
    </trkpt>
    <trkpt lat="43.038790226" lon="10.912749767">
      <ele>420.0</ele>
    </trkpt>
    <trkpt lat="43.03894043" lon="10.912320614">
      <ele>418.0</ele>
    </trkpt>
    <trkpt lat="43.038983345" lon="10.911848545">
      <ele>417.0</ele>
    </trkpt>
    <trkpt lat="43.038983345" lon="10.911569595">
      <ele>416.0</ele>
    </trkpt>
    <trkpt lat="43.038897514" lon="10.911355019">
      <ele>415.0</ele>
    </trkpt>
    <trkpt lat="43.038897514" lon="10.91088295">
      <ele>417.0</ele>
    </trkpt>
    <trkpt lat="43.038983345" lon="10.910582542">
      <ele>418.0</ele>
    </trkpt>
    <trkpt lat="43.039391041" lon="10.910024643">
      <ele>416.0</ele>
    </trkpt>
    <trkpt lat="43.039627075" lon="10.90996027">
      <ele>415.0</ele>
    </trkpt>
    <trkpt lat="43.039777279" lon="10.909981728">
      <ele>415.0</ele>
    </trkpt>
    <trkpt lat="43.039970398" lon="10.910153389">
      <ele>415.0</ele>
    </trkpt>
    <trkpt lat="43.040335178" lon="10.910646915">
      <ele>415.0</ele>
    </trkpt>
    <trkpt lat="43.040571213" lon="10.910711288">
      <ele>415.0</ele>
    </trkpt>
    <trkpt lat="43.041214943" lon="10.910432339">
      <ele>411.0</ele>
    </trkpt>
    <trkpt lat="43.041815758" lon="10.910410881">
      <ele>409.0</ele>
    </trkpt>
    <trkpt lat="43.042094707" lon="10.910260677">
      <ele>407.0</ele>
    </trkpt>
    <trkpt lat="43.042480946" lon="10.909895897">
      <ele>403.0</ele>
    </trkpt>
    <trkpt lat="43.042824268" lon="10.909252167">
      <ele>401.0</ele>
    </trkpt>
    <trkpt lat="43.043425083" lon="10.907170773">
      <ele>397.0</ele>
    </trkpt>
    <trkpt lat="43.043532372" lon="10.90618372">
      <ele>401.0</ele>
    </trkpt>
    <trkpt lat="43.043832779" lon="10.905475616">
      <ele>405.0</ele>
    </trkpt>
    <trkpt lat="43.044090271" lon="10.905003548">
      <ele>407.0</ele>
    </trkpt>
    <trkpt lat="43.04428339" lon="10.904767513">
      <ele>407.0</ele>
    </trkpt>
    <trkpt lat="43.044669628" lon="10.904445648">
      <ele>406.0</ele>
    </trkpt>
    <trkpt lat="43.045012951" lon="10.903952122">
      <ele>405.0</ele>
    </trkpt>
    <trkpt lat="43.046987057" lon="10.900497437">
      <ele>408.0</ele>
    </trkpt>
    <trkpt lat="43.047716618" lon="10.899381638">
      <ele>406.0</ele>
    </trkpt>
    <trkpt lat="43.047738075" lon="10.899252892">
      <ele>406.0</ele>
    </trkpt>
    <trkpt lat="43.050720692" lon="10.894210339">
      <ele>404.0</ele>
    </trkpt>
  </trkseg>
</trk>
</gpx>
