<?xml version="1.0"?>
<gpx creator="GPS Visualizer http://www.gpsvisualizer.com/" version="1.0" xmlns="http://www.topografix.com/GPX/1/0" xmlns:xsi="http://www.w3.org/2001/XMLSchema-instance" xsi:schemaLocation="http://www.topografix.com/GPX/1/0 http://www.topografix.com/GPX/1/0/gpx.xsd">
<wpt lat="43.233196987" lon="11.220581029">
  <ele>263.4</ele>
    <name>1579</name>
  <sym>Drinking Water</sym>
  <type>user</type>
</wpt>
<wpt lat="43.252889011" lon="11.279700017">
  <ele>233.6</ele>
    <name>1580</name>
  <sym>Drinking Water</sym>
  <type>user</type>
</wpt>
<wpt lat="43.257412976" lon="11.285324022">
  <ele>255.9</ele>
    <name>15812</name>
  <sym>Drinking Water</sym>
  <type>user</type>
</wpt>
<wpt lat="43.223624015" lon="11.333101038">
  <ele>291.9</ele>
    <name>1582</name>
  <sym>Drinking Water</sym>
  <type>user</type>
</wpt>
<wpt lat="43.223817972" lon="11.333193993">
  <ele>283.5</ele>
    <name>1583</name>
  <sym>Bar</sym>
  <type>user</type>
</wpt>
<wpt lat="43.160198992" lon="11.38849997">
  <ele>303.5</ele>
    <name>1584</name>
  <sym>Restroom</sym>
  <type>user</type>
</wpt>
<wpt lat="43.16756702" lon="11.390817985">
  <ele>293.5</ele>
    <name>1585</name>
  <sym>Drinking Water</sym>
  <type>user</type>
</wpt>
<wpt lat="43.183812993" lon="11.370585999">
  <ele>305.5</ele>
    <name>1586</name>
  <sym>Picnic Area</sym>
  <type>user</type>
</wpt>
<wpt lat="43.18426" lon="11.366981026">
  <ele>297.5</ele>
    <name>1587</name>
  <sym>Picnic Area</sym>
  <type>user</type>
</wpt>
<wpt lat="43.100301996" lon="11.250269981">
  <ele>433.4</ele>
    <name>1588</name>
  <sym>Drinking Water</sym>
  <type>user</type>
</wpt>
<wpt lat="43.099759016" lon="11.250349022">
  <ele>435.4</ele>
    <name>1589</name>
  <sym>Bar</sym>
  <type>user</type>
</wpt>
<wpt lat="43.13446898" lon="11.243026005">
  <ele>450.7</ele>
    <name>1590</name>
  <sym>Picnic Area</sym>
  <type>user</type>
</wpt>
<wpt lat="43.149398994" lon="11.154620983">
  <ele>303.0</ele>
    <name>1591</name>
  <sym>Drinking Water</sym>
  <type>user</type>
</wpt>
<wpt lat="43.149279971" lon="11.152814012">
  <ele>302.7</ele>
    <name>1592</name>
  <sym>Bar</sym>
  <type>user</type>
</wpt>
<wpt lat="43.13934599" lon="11.180371027">
  <ele>370.2</ele>
    <name>1593</name>
  <sym>Drinking Water</sym>
  <type>user</type>
</wpt>
<wpt lat="43.139266027" lon="11.179887978">
  <ele>369.9</ele>
    <name>1594</name>
  <sym>Bar</sym>
  <type>user</type>
</wpt>
<wpt lat="43.137496021" lon="11.178734042">
  <ele>385.7</ele>
    <name>1595</name>
  <sym>Drinking Water</sym>
  <type>user</type>
</wpt>
<wpt lat="43.139269967" lon="11.180347977">
  <ele>375.9</ele>
    <name>1596</name>
  <sym>Bar</sym>
  <type>user</type>
</wpt>
<wpt lat="43.149447022" lon="11.154642021">
    <name>Abbazia DI San Galgano</name>
  <sym>Scenic Area</sym>
  <type>user</type>
</wpt>
<wpt lat="43.119244007" lon="11.236015968">
  <ele>488.0</ele>
    <name>AG Le Fontanelle</name>
  <desc>0577 758103</desc>
  <url>http://www.lefontanelle.biz</url>
  <sym>Campground</sym>
  <type>user</type>
</wpt>
<wpt lat="43.152472973" lon="11.155456994">
    <name>Cappella DI San Galgano</name>
  <sym>Scenic Area</sym>
  <type>user</type>
</wpt>
<wpt lat="43.100118013" lon="11.250355979">
    <name>Iesa</name>
  <sym>Scenic Area</sym>
  <type>user</type>
</wpt>
<wpt lat="43.160945987" lon="11.387603022">
  <ele>318.2</ele>
    <name>Il Libridinoso</name>
  <sym>Restaurant</sym>
  <type>user</type>
</wpt>
<wpt lat="43.099091984" lon="11.250197981">
  <ele>431.5</ele>
    <name>L'Aia Di Gino</name>
  <sym>Restaurant</sym>
  <type>user</type>
</wpt>
<wpt lat="43.155000033" lon="11.332222028">
    <name>Le Soline (Casciano di Murlo)</name>
  <desc>0577 817410&lt;br />0577 818055&lt;br />camping@lesoline.it</desc>
  <url>http://www.lesoline.it</url>
  <sym>Campground</sym>
  <type>user</type>
</wpt>
<wpt lat="43.233171003" lon="11.220299983">
  <ele>257.1</ele>
    <name>Monastero Santa Mustiola</name>
  <desc>LUNEDI 9-12&lt;br />VENERDI 9-12&lt;br />ESCLUSO FESTIVI</desc>
  <sym>Scenic Area</sym>
  <type>user</type>
</wpt>
<wpt lat="43.160820007" lon="11.387994038">
    <name>Murlo - Antiquarium Poggio Civita</name>
  <sym>Scenic Area</sym>
  <type>user</type>
</wpt>
<wpt lat="43.251426034" lon="11.305589033">
  <ele>216.2</ele>
    <name>NO BIKES (Siena-Grosseto)</name>
  <sym>Skull and Crossbones</sym>
  <type>user</type>
</wpt>
<wpt lat="43.14871503" lon="11.17893504">
  <ele>331.1</ele>
    <name>Parco Roberto Ciulli</name>
  <sym>Scenic Area</sym>
  <type>user</type>
</wpt>
<wpt lat="43.239125004" lon="11.193463979">
    <name>Ponte della Pia</name>
  <desc>M1. Pth</desc>
  <sym>Scenic Area</sym>
  <type>user</type>
</wpt>
</gpx>
