<?xml version="1.0" encoding="UTF-8"?>
<gpx xmlns="http://www.topografix.com/GPX/1/1" xmlns:gpsies="http://www.gpsies.com/GPX/1/0" creator="GPSies http://www.gpsies.com - Laghidilombardia003-lagodigarlate-como" version="1.1" xmlns:xsi="http://www.w3.org/2001/XMLSchema-instance" xsi:schemaLocation="http://www.topografix.com/GPX/1/1 http://www.topografix.com/GPX/1/1/gpx.xsd http://www.gpsies.com/GPX/1/0 http://www.gpsies.com/gpsies.xsd">
  <metadata>
    <name>Laghi di Lombardia 003 - Lago di Garlate-Como</name>
    <link href="http://www.gpsies.com/">
      <text>Laghi di Lombardia 003 - Lago di Garlate-Como</text>
    </link>
      </metadata>
  <trk>
    <name>Laghidilombardia 003- Lago di Garlate-Como</name>
<desc>Generated by GPSies http://www.gpsies.com</desc>
    <trkseg>
      <trkpt lat="45.80140985" lon="9.415050521">
        <ele>201.00000</ele>
              </trkpt>
      <trkpt lat="45.80206087" lon="9.414404695">
        <ele>200.00000</ele>
              </trkpt>
      <trkpt lat="45.80257426" lon="9.413864566">
        <ele>199.00000</ele>
              </trkpt>
      <trkpt lat="45.80309704" lon="9.413401465">
        <ele>199.00000</ele>
              </trkpt>
      <trkpt lat="45.80348865" lon="9.413152020">
        <ele>199.00000</ele>
              </trkpt>
      <trkpt lat="45.80391269" lon="9.412928642">
        <ele>199.00000</ele>
              </trkpt>
      <trkpt lat="45.80418015" lon="9.412557575">
        <ele>198.00000</ele>
              </trkpt>
      <trkpt lat="45.80430094" lon="9.412018619">
        <ele>199.00000</ele>
              </trkpt>
      <trkpt lat="45.80433539" lon="9.411758696">
        <ele>199.00000</ele>
              </trkpt>
      <trkpt lat="45.80454108" lon="9.410610124">
        <ele>201.00000</ele>
              </trkpt>
      <trkpt lat="45.80461911" lon="9.410067144">
        <ele>200.00000</ele>
              </trkpt>
      <trkpt lat="45.80460445" lon="9.409787273">
        <ele>201.00000</ele>
              </trkpt>
      <trkpt lat="45.80466412" lon="9.409255860">
        <ele>201.00000</ele>
              </trkpt>
      <trkpt lat="45.80464711" lon="9.408672144">
        <ele>202.00000</ele>
              </trkpt>
      <trkpt lat="45.80465977" lon="9.407541677">
        <ele>201.00000</ele>
              </trkpt>
      <trkpt lat="45.80464602" lon="9.407275971">
        <ele>200.00000</ele>
              </trkpt>
      <trkpt lat="45.80466731" lon="9.406702984">
        <ele>200.00000</ele>
              </trkpt>
      <trkpt lat="45.80476982" lon="9.406124297">
        <ele>199.00000</ele>
              </trkpt>
      <trkpt lat="45.80496001" lon="9.405620964">
        <ele>198.00000</ele>
              </trkpt>
      <trkpt lat="45.80518841" lon="9.405191894">
        <ele>199.00000</ele>
              </trkpt>
      <trkpt lat="45.80535312" lon="9.405033811">
        <ele>199.00000</ele>
              </trkpt>
      <trkpt lat="45.80562913" lon="9.404709180">
        <ele>200.00000</ele>
              </trkpt>
      <trkpt lat="45.80574003" lon="9.404655536">
        <ele>200.00000</ele>
              </trkpt>
      <trkpt lat="45.80611545" lon="9.404416484">
        <ele>201.00000</ele>
              </trkpt>
      <trkpt lat="45.80650697" lon="9.404556797">
        <ele>201.00000</ele>
              </trkpt>
      <trkpt lat="45.80669263" lon="9.404520420">
        <ele>201.00000</ele>
              </trkpt>
      <trkpt lat="45.80696982" lon="9.404207691">
        <ele>202.00000</ele>
              </trkpt>
      <trkpt lat="45.80676731" lon="9.403703184">
        <ele>202.00000</ele>
              </trkpt>
      <trkpt lat="45.80659070" lon="9.403207059">
        <ele>202.00000</ele>
              </trkpt>
      <trkpt lat="45.80667612" lon="9.403007570">
        <ele>203.00000</ele>
              </trkpt>
      <trkpt lat="45.80609181" lon="9.402605993">
        <ele>209.00000</ele>
              </trkpt>
      <trkpt lat="45.80594991" lon="9.402147335">
        <ele>211.00000</ele>
              </trkpt>
      <trkpt lat="45.80619206" lon="9.401730168">
        <ele>213.00000</ele>
              </trkpt>
      <trkpt lat="45.80670772" lon="9.401364466">
        <ele>213.00000</ele>
              </trkpt>
      <trkpt lat="45.80665064" lon="9.400959871">
        <ele>215.00000</ele>
              </trkpt>
      <trkpt lat="45.80651963" lon="9.400522168">
        <ele>219.00000</ele>
              </trkpt>
      <trkpt lat="45.80675382" lon="9.399770144">
        <ele>224.00000</ele>
              </trkpt>
      <trkpt lat="45.80721574" lon="9.398879399">
        <ele>226.00000</ele>
              </trkpt>
      <trkpt lat="45.80755211" lon="9.398544374">
        <ele>227.00000</ele>
              </trkpt>
      <trkpt lat="45.80799191" lon="9.397997790">
        <ele>230.00000</ele>
              </trkpt>
      <trkpt lat="45.80819358" lon="9.397548688">
        <ele>237.00000</ele>
              </trkpt>
      <trkpt lat="45.80845098" lon="9.396546464">
        <ele>254.00000</ele>
              </trkpt>
      <trkpt lat="45.80864050" lon="9.396238597">
        <ele>258.00000</ele>
              </trkpt>
      <trkpt lat="45.80879322" lon="9.395640045">
        <ele>265.00000</ele>
              </trkpt>
      <trkpt lat="45.80902347" lon="9.395169401">
        <ele>267.00000</ele>
              </trkpt>
      <trkpt lat="45.80919052" lon="9.394661877">
        <ele>271.00000</ele>
              </trkpt>
      <trkpt lat="45.80945715" lon="9.394203303">
        <ele>274.00000</ele>
              </trkpt>
      <trkpt lat="45.80990357" lon="9.393546665">
        <ele>274.00000</ele>
              </trkpt>
      <trkpt lat="45.81009618" lon="9.393072333">
        <ele>276.00000</ele>
              </trkpt>
      <trkpt lat="45.81012577" lon="9.392495071">
        <ele>283.00000</ele>
              </trkpt>
      <trkpt lat="45.81046625" lon="9.392205057">
        <ele>285.00000</ele>
              </trkpt>
      <trkpt lat="45.81088827" lon="9.391590328">
        <ele>290.00000</ele>
              </trkpt>
      <trkpt lat="45.81105407" lon="9.391098730">
        <ele>295.00000</ele>
              </trkpt>
      <trkpt lat="45.81106371" lon="9.390522390">
        <ele>302.00000</ele>
              </trkpt>
      <trkpt lat="45.81105524" lon="9.389923838">
        <ele>307.00000</ele>
              </trkpt>
      <trkpt lat="45.81112431" lon="9.389661904">
        <ele>308.00000</ele>
              </trkpt>
      <trkpt lat="45.81123763" lon="9.389108698">
        <ele>310.00000</ele>
              </trkpt>
      <trkpt lat="45.81124895" lon="9.388467147">
        <ele>312.00000</ele>
              </trkpt>
      <trkpt lat="45.81153133" lon="9.388186438">
        <ele>310.00000</ele>
              </trkpt>
      <trkpt lat="45.81178061" lon="9.388215355">
        <ele>308.00000</ele>
              </trkpt>
      <trkpt lat="45.81197507" lon="9.387853760">
        <ele>310.00000</ele>
              </trkpt>
      <trkpt lat="45.81180224" lon="9.387408848">
        <ele>314.00000</ele>
              </trkpt>
      <trkpt lat="45.81163594" lon="9.386825468">
        <ele>319.00000</ele>
              </trkpt>
      <trkpt lat="45.81161222" lon="9.386221468">
        <ele>326.00000</ele>
              </trkpt>
      <trkpt lat="45.81206962" lon="9.385605901">
        <ele>330.00000</ele>
              </trkpt>
      <trkpt lat="45.81226986" lon="9.385134419">
        <ele>336.00000</ele>
              </trkpt>
      <trkpt lat="45.81233222" lon="9.384597139">
        <ele>341.00000</ele>
              </trkpt>
      <trkpt lat="45.81232736" lon="9.384075198">
        <ele>347.00000</ele>
              </trkpt>
      <trkpt lat="45.81247044" lon="9.383289059">
        <ele>348.00000</ele>
              </trkpt>
      <trkpt lat="45.81262936" lon="9.382812213">
        <ele>351.00000</ele>
              </trkpt>
      <trkpt lat="45.81292742" lon="9.382456569">
        <ele>352.00000</ele>
              </trkpt>
      <trkpt lat="45.81321241" lon="9.382060775">
        <ele>352.00000</ele>
              </trkpt>
      <trkpt lat="45.81326597" lon="9.381807977">
        <ele>353.00000</ele>
              </trkpt>
      <trkpt lat="45.81306598" lon="9.381324341">
        <ele>359.00000</ele>
              </trkpt>
      <trkpt lat="45.81301845" lon="9.380761664">
        <ele>363.00000</ele>
              </trkpt>
      <trkpt lat="45.81299641" lon="9.380210135">
        <ele>365.00000</ele>
              </trkpt>
      <trkpt lat="45.81293153" lon="9.379950547">
        <ele>366.00000</ele>
              </trkpt>
      <trkpt lat="45.81260564" lon="9.379688361">
        <ele>371.00000</ele>
              </trkpt>
      <trkpt lat="45.81266012" lon="9.379173293">
        <ele>373.00000</ele>
              </trkpt>
      <trkpt lat="45.81305902" lon="9.377953223">
        <ele>373.00000</ele>
              </trkpt>
      <trkpt lat="45.81324644" lon="9.377537984">
        <ele>373.00000</ele>
              </trkpt>
      <trkpt lat="45.81363955" lon="9.377561621">
        <ele>371.00000</ele>
              </trkpt>
      <trkpt lat="45.81381406" lon="9.377350062">
        <ele>371.00000</ele>
              </trkpt>
      <trkpt lat="45.81355154" lon="9.376644641">
        <ele>372.00000</ele>
              </trkpt>
      <trkpt lat="45.81349387" lon="9.376103337">
        <ele>375.00000</ele>
              </trkpt>
      <trkpt lat="45.81378120" lon="9.375702263">
        <ele>375.00000</ele>
              </trkpt>
      <trkpt lat="45.81414272" lon="9.375358941">
        <ele>374.00000</ele>
              </trkpt>
      <trkpt lat="45.81451219" lon="9.375191051">
        <ele>372.00000</ele>
              </trkpt>
      <trkpt lat="45.81510152" lon="9.375202534">
        <ele>369.00000</ele>
              </trkpt>
      <trkpt lat="45.81540570" lon="9.374874718">
        <ele>365.00000</ele>
              </trkpt>
      <trkpt lat="45.81517704" lon="9.374447911">
        <ele>363.00000</ele>
              </trkpt>
      <trkpt lat="45.81467019" lon="9.373041596">
        <ele>356.00000</ele>
              </trkpt>
      <trkpt lat="45.81448579" lon="9.372342545">
        <ele>353.00000</ele>
              </trkpt>
      <trkpt lat="45.81436811" lon="9.371850611">
        <ele>354.00000</ele>
              </trkpt>
      <trkpt lat="45.81430239" lon="9.371503936">
        <ele>353.00000</ele>
              </trkpt>
      <trkpt lat="45.81415235" lon="9.371006721">
        <ele>355.00000</ele>
              </trkpt>
      <trkpt lat="45.81393292" lon="9.370549656">
        <ele>354.00000</ele>
              </trkpt>
      <trkpt lat="45.81329145" lon="9.369389936">
        <ele>344.00000</ele>
              </trkpt>
      <trkpt lat="45.81300487" lon="9.368958435">
        <ele>343.00000</ele>
              </trkpt>
      <trkpt lat="45.81173208" lon="9.367756890">
        <ele>350.00000</ele>
              </trkpt>
      <trkpt lat="45.81135146" lon="9.367429157">
        <ele>343.00000</ele>
              </trkpt>
      <trkpt lat="45.81093295" lon="9.367231344">
        <ele>339.00000</ele>
              </trkpt>
      <trkpt lat="45.81013944" lon="9.367191027">
        <ele>338.00000</ele>
              </trkpt>
      <trkpt lat="45.80993961" lon="9.367201086">
        <ele>338.00000</ele>
              </trkpt>
      <trkpt lat="45.80925347" lon="9.367265878">
        <ele>332.00000</ele>
              </trkpt>
      <trkpt lat="45.80866648" lon="9.367433851">
        <ele>331.00000</ele>
              </trkpt>
      <trkpt lat="45.80822635" lon="9.367486238">
        <ele>330.00000</ele>
              </trkpt>
      <trkpt lat="45.80776526" lon="9.367422452">
        <ele>328.00000</ele>
              </trkpt>
      <trkpt lat="45.80733795" lon="9.367301166">
        <ele>328.00000</ele>
              </trkpt>
      <trkpt lat="45.80703319" lon="9.366901181">
        <ele>329.00000</ele>
              </trkpt>
      <trkpt lat="45.80689807" lon="9.366676630">
        <ele>329.00000</ele>
              </trkpt>
      <trkpt lat="45.80666430" lon="9.366165753">
        <ele>326.00000</ele>
              </trkpt>
      <trkpt lat="45.80649163" lon="9.365693433">
        <ele>324.00000</ele>
              </trkpt>
      <trkpt lat="45.80616432" lon="9.365380285">
        <ele>322.00000</ele>
              </trkpt>
      <trkpt lat="45.80483721" lon="9.364546034">
        <ele>319.00000</ele>
              </trkpt>
      <trkpt lat="45.80398335" lon="9.364291476">
        <ele>318.00000</ele>
              </trkpt>
      <trkpt lat="45.80378159" lon="9.364146720">
        <ele>318.00000</ele>
              </trkpt>
      <trkpt lat="45.80233664" lon="9.362743925">
        <ele>306.00000</ele>
              </trkpt>
      <trkpt lat="45.80166743" lon="9.361728625">
        <ele>302.00000</ele>
              </trkpt>
      <trkpt lat="45.80133039" lon="9.361358899">
        <ele>304.00000</ele>
              </trkpt>
      <trkpt lat="45.80082572" lon="9.360955310">
        <ele>303.00000</ele>
              </trkpt>
      <trkpt lat="45.80048616" lon="9.360623303">
        <ele>301.00000</ele>
              </trkpt>
      <trkpt lat="45.80019917" lon="9.360440578">
        <ele>302.00000</ele>
              </trkpt>
      <trkpt lat="45.79694020" lon="9.358141254">
        <ele>300.00000</ele>
              </trkpt>
      <trkpt lat="45.79657022" lon="9.357973700">
        <ele>301.00000</ele>
              </trkpt>
      <trkpt lat="45.79633612" lon="9.357944615">
        <ele>300.00000</ele>
              </trkpt>
      <trkpt lat="45.79598416" lon="9.357711933">
        <ele>297.00000</ele>
              </trkpt>
      <trkpt lat="45.79567512" lon="9.357235506">
        <ele>294.00000</ele>
              </trkpt>
      <trkpt lat="45.79529156" lon="9.356949934">
        <ele>292.00000</ele>
              </trkpt>
      <trkpt lat="45.79486191" lon="9.356744997">
        <ele>293.00000</ele>
              </trkpt>
      <trkpt lat="45.79470584" lon="9.356569647">
        <ele>295.00000</ele>
              </trkpt>
      <trkpt lat="45.79459302" lon="9.355985932">
        <ele>292.00000</ele>
              </trkpt>
      <trkpt lat="45.79457399" lon="9.355390816">
        <ele>294.00000</ele>
              </trkpt>
      <trkpt lat="45.79449704" lon="9.354838533">
        <ele>297.00000</ele>
              </trkpt>
      <trkpt lat="45.79431960" lon="9.354301253">
        <ele>298.00000</ele>
              </trkpt>
      <trkpt lat="45.79418926" lon="9.354060105">
        <ele>299.00000</ele>
              </trkpt>
      <trkpt lat="45.79391199" lon="9.353747209">
        <ele>297.00000</ele>
              </trkpt>
      <trkpt lat="45.79359406" lon="9.353440767">
        <ele>291.00000</ele>
              </trkpt>
      <trkpt lat="45.79335442" lon="9.353049332">
        <ele>288.00000</ele>
              </trkpt>
      <trkpt lat="45.79299316" lon="9.352836851">
        <ele>287.00000</ele>
              </trkpt>
      <trkpt lat="45.79237282" lon="9.352546585">
        <ele>283.00000</ele>
              </trkpt>
      <trkpt lat="45.79207551" lon="9.351884331">
        <ele>283.00000</ele>
              </trkpt>
      <trkpt lat="45.79181383" lon="9.351351745">
        <ele>280.00000</ele>
              </trkpt>
      <trkpt lat="45.79150747" lon="9.350546495">
        <ele>278.00000</ele>
              </trkpt>
      <trkpt lat="45.79147998" lon="9.349998822">
        <ele>276.00000</ele>
              </trkpt>
      <trkpt lat="45.79150546" lon="9.349456513">
        <ele>276.00000</ele>
              </trkpt>
      <trkpt lat="45.79158525" lon="9.348736759">
        <ele>275.00000</ele>
              </trkpt>
      <trkpt lat="45.79155927" lon="9.348436687">
        <ele>274.00000</ele>
              </trkpt>
      <trkpt lat="45.79146975" lon="9.347908208">
        <ele>276.00000</ele>
              </trkpt>
      <trkpt lat="45.79125459" lon="9.346106434">
        <ele>280.00000</ele>
              </trkpt>
      <trkpt lat="45.79120069" lon="9.345795465">
        <ele>280.00000</ele>
              </trkpt>
      <trkpt lat="45.79125652" lon="9.344246322">
        <ele>275.00000</ele>
              </trkpt>
      <trkpt lat="45.79136481" lon="9.343651793">
        <ele>275.00000</ele>
              </trkpt>
      <trkpt lat="45.79148802" lon="9.342815531">
        <ele>273.00000</ele>
              </trkpt>
      <trkpt lat="45.79149942" lon="9.342189822">
        <ele>270.00000</ele>
              </trkpt>
      <trkpt lat="45.79175801" lon="9.341685315">
        <ele>270.00000</ele>
              </trkpt>
      <trkpt lat="45.79211767" lon="9.341418435">
        <ele>271.00000</ele>
              </trkpt>
      <trkpt lat="45.79230199" lon="9.341309722">
        <ele>272.00000</ele>
              </trkpt>
      <trkpt lat="45.79262796" lon="9.341085255">
        <ele>272.00000</ele>
              </trkpt>
      <trkpt lat="45.79286232" lon="9.340610001">
        <ele>272.00000</ele>
              </trkpt>
      <trkpt lat="45.79305192" lon="9.340078672">
        <ele>273.00000</ele>
              </trkpt>
      <trkpt lat="45.79327287" lon="9.339615739">
        <ele>274.00000</ele>
              </trkpt>
      <trkpt lat="45.79341310" lon="9.339412646">
        <ele>273.00000</ele>
              </trkpt>
      <trkpt lat="45.79327940" lon="9.339066473">
        <ele>272.00000</ele>
              </trkpt>
      <trkpt lat="45.79294522" lon="9.338766066">
        <ele>270.00000</ele>
              </trkpt>
      <trkpt lat="45.79265789" lon="9.338346803">
        <ele>269.00000</ele>
              </trkpt>
      <trkpt lat="45.79243585" lon="9.337915051">
        <ele>270.00000</ele>
              </trkpt>
      <trkpt lat="45.79255898" lon="9.337700055">
        <ele>271.00000</ele>
              </trkpt>
      <trkpt lat="45.79285209" lon="9.337296131">
        <ele>271.00000</ele>
              </trkpt>
      <trkpt lat="45.79312250" lon="9.336868990">
        <ele>271.00000</ele>
              </trkpt>
      <trkpt lat="45.79383521" lon="9.335978245">
        <ele>269.00000</ele>
              </trkpt>
      <trkpt lat="45.79408113" lon="9.335552277">
        <ele>269.00000</ele>
              </trkpt>
      <trkpt lat="45.79413453" lon="9.334968309">
        <ele>268.00000</ele>
              </trkpt>
      <trkpt lat="45.79397435" lon="9.334136489">
        <ele>266.00000</ele>
              </trkpt>
      <trkpt lat="45.79382875" lon="9.333547828">
        <ele>264.00000</ele>
              </trkpt>
      <trkpt lat="45.79303046" lon="9.331775307">
        <ele>264.00000</ele>
              </trkpt>
      <trkpt lat="45.79285327" lon="9.331284714">
        <ele>264.00000</ele>
              </trkpt>
      <trkpt lat="45.79312778" lon="9.330928483">
        <ele>263.00000</ele>
              </trkpt>
      <trkpt lat="45.79331201" lon="9.330473262">
        <ele>261.00000</ele>
              </trkpt>
      <trkpt lat="45.79299157" lon="9.330070931">
        <ele>262.00000</ele>
              </trkpt>
      <trkpt lat="45.79251020" lon="9.329526023">
        <ele>265.00000</ele>
              </trkpt>
      <trkpt lat="45.79224516" lon="9.329162333">
        <ele>265.00000</ele>
              </trkpt>
      <trkpt lat="45.79188893" lon="9.328787410">
        <ele>264.00000</ele>
              </trkpt>
      <trkpt lat="45.79156086" lon="9.328401172">
        <ele>264.00000</ele>
              </trkpt>
      <trkpt lat="45.79140999" lon="9.328181147">
        <ele>263.00000</ele>
              </trkpt>
      <trkpt lat="45.79091093" lon="9.327209517">
        <ele>263.00000</ele>
              </trkpt>
      <trkpt lat="45.79054875" lon="9.326546592">
        <ele>266.00000</ele>
              </trkpt>
      <trkpt lat="45.79037005" lon="9.325957177">
        <ele>265.00000</ele>
              </trkpt>
      <trkpt lat="45.79015111" lon="9.325412856">
        <ele>264.00000</ele>
              </trkpt>
      <trkpt lat="45.78917898" lon="9.324026657">
        <ele>267.00000</ele>
              </trkpt>
      <trkpt lat="45.78886675" lon="9.323688950">
        <ele>266.00000</ele>
              </trkpt>
      <trkpt lat="45.78819897" lon="9.323031054">
        <ele>265.00000</ele>
              </trkpt>
      <trkpt lat="45.78773142" lon="9.322530403">
        <ele>262.00000</ele>
              </trkpt>
      <trkpt lat="45.78712633" lon="9.321711743">
        <ele>263.00000</ele>
              </trkpt>
      <trkpt lat="45.78650079" lon="9.320665765">
        <ele>267.00000</ele>
              </trkpt>
      <trkpt lat="45.78626040" lon="9.320242647">
        <ele>267.00000</ele>
              </trkpt>
      <trkpt lat="45.78602428" lon="9.319783654">
        <ele>265.00000</ele>
              </trkpt>
      <trkpt lat="45.78587491" lon="9.319576621">
        <ele>264.00000</ele>
              </trkpt>
      <trkpt lat="45.78566067" lon="9.319133134">
        <ele>263.00000</ele>
              </trkpt>
      <trkpt lat="45.78539958" lon="9.318704903">
        <ele>264.00000</ele>
              </trkpt>
      <trkpt lat="45.78490077" lon="9.317792700">
        <ele>268.00000</ele>
              </trkpt>
      <trkpt lat="45.78477219" lon="9.317599749">
        <ele>268.00000</ele>
              </trkpt>
      <trkpt lat="45.78441387" lon="9.317259695">
        <ele>268.00000</ele>
              </trkpt>
      <trkpt lat="45.78403970" lon="9.317023912">
        <ele>268.00000</ele>
              </trkpt>
      <trkpt lat="45.78393082" lon="9.316512113">
        <ele>269.00000</ele>
              </trkpt>
      <trkpt lat="45.78382101" lon="9.316163761">
        <ele>268.00000</ele>
              </trkpt>
      <trkpt lat="45.78286196" lon="9.316441453">
        <ele>269.00000</ele>
              </trkpt>
      <trkpt lat="45.78256356" lon="9.316767593">
        <ele>270.00000</ele>
              </trkpt>
      <trkpt lat="45.78231638" lon="9.317155256">
        <ele>267.00000</ele>
              </trkpt>
      <trkpt lat="45.78171707" lon="9.318182040">
        <ele>266.00000</ele>
              </trkpt>
      <trkpt lat="45.78147592" lon="9.318625526">
        <ele>267.00000</ele>
              </trkpt>
      <trkpt lat="45.78135279" lon="9.318846892">
        <ele>267.00000</ele>
              </trkpt>
      <trkpt lat="45.78111223" lon="9.318542461">
        <ele>268.00000</ele>
              </trkpt>
      <trkpt lat="45.78098399" lon="9.317976012">
        <ele>268.00000</ele>
              </trkpt>
      <trkpt lat="45.78080034" lon="9.316844539">
        <ele>267.00000</ele>
              </trkpt>
      <trkpt lat="45.78073899" lon="9.316591909">
        <ele>267.00000</ele>
              </trkpt>
      <trkpt lat="45.78058526" lon="9.316080445">
        <ele>267.00000</ele>
              </trkpt>
      <trkpt lat="45.78034244" lon="9.315583650">
        <ele>266.00000</ele>
              </trkpt>
      <trkpt lat="45.78005435" lon="9.315101271">
        <ele>265.00000</ele>
              </trkpt>
      <trkpt lat="45.77969687" lon="9.314429629">
        <ele>265.00000</ele>
              </trkpt>
      <trkpt lat="45.77931096" lon="9.313426148">
        <ele>266.00000</ele>
              </trkpt>
      <trkpt lat="45.77914802" lon="9.312878390">
        <ele>265.00000</ele>
              </trkpt>
      <trkpt lat="45.77901902" lon="9.312101891">
        <ele>264.00000</ele>
              </trkpt>
      <trkpt lat="45.77857126" lon="9.310228452">
        <ele>264.00000</ele>
              </trkpt>
      <trkpt lat="45.77845450" lon="9.309668289">
        <ele>266.00000</ele>
              </trkpt>
      <trkpt lat="45.77831846" lon="9.309137463">
        <ele>268.00000</ele>
              </trkpt>
      <trkpt lat="45.77819935" lon="9.308574786">
        <ele>265.00000</ele>
              </trkpt>
      <trkpt lat="45.77788026" lon="9.308507731">
        <ele>264.00000</ele>
              </trkpt>
      <trkpt lat="45.77769627" lon="9.308524243">
        <ele>263.00000</ele>
              </trkpt>
      <trkpt lat="45.77741649" lon="9.308056114">
        <ele>264.00000</ele>
              </trkpt>
      <trkpt lat="45.77702530" lon="9.307960644">
        <ele>265.00000</ele>
              </trkpt>
      <trkpt lat="45.77661911" lon="9.307968439">
        <ele>266.00000</ele>
              </trkpt>
      <trkpt lat="45.77630337" lon="9.307765597">
        <ele>269.00000</ele>
              </trkpt>
      <trkpt lat="45.77624084" lon="9.307513134">
        <ele>270.00000</ele>
              </trkpt>
      <trkpt lat="45.77679757" lon="9.306625826">
        <ele>266.00000</ele>
              </trkpt>
      <trkpt lat="45.77705573" lon="9.306262303">
        <ele>269.00000</ele>
              </trkpt>
      <trkpt lat="45.77741682" lon="9.306331705">
        <ele>270.00000</ele>
              </trkpt>
      <trkpt lat="45.77759720" lon="9.306424241">
        <ele>270.00000</ele>
              </trkpt>
      <trkpt lat="45.77798025" lon="9.306584671">
        <ele>272.00000</ele>
              </trkpt>
      <trkpt lat="45.77836113" lon="9.306806204">
        <ele>274.00000</ele>
              </trkpt>
      <trkpt lat="45.77873839" lon="9.306910978">
        <ele>273.00000</ele>
              </trkpt>
      <trkpt lat="45.77910888" lon="9.306698748">
        <ele>272.00000</ele>
              </trkpt>
      <trkpt lat="45.77931683" lon="9.306551897">
        <ele>272.00000</ele>
              </trkpt>
      <trkpt lat="45.77970164" lon="9.306369340">
        <ele>273.00000</ele>
              </trkpt>
      <trkpt lat="45.78007363" lon="9.306050492">
        <ele>272.00000</ele>
              </trkpt>
      <trkpt lat="45.78054268" lon="9.305460909">
        <ele>266.00000</ele>
              </trkpt>
      <trkpt lat="45.78115314" lon="9.304990600">
        <ele>264.00000</ele>
              </trkpt>
      <trkpt lat="45.78116219" lon="9.304393222">
        <ele>263.00000</ele>
              </trkpt>
      <trkpt lat="45.78128482" lon="9.303817721">
        <ele>263.00000</ele>
              </trkpt>
      <trkpt lat="45.78255694" lon="9.298239899">
        <ele>262.00000</ele>
              </trkpt>
      <trkpt lat="45.78311216" lon="9.295728849">
        <ele>264.00000</ele>
              </trkpt>
      <trkpt lat="45.78325456" lon="9.295230377">
        <ele>263.00000</ele>
              </trkpt>
      <trkpt lat="45.78337426" lon="9.294674908">
        <ele>265.00000</ele>
              </trkpt>
      <trkpt lat="45.78344282" lon="9.293877035">
        <ele>271.00000</ele>
              </trkpt>
      <trkpt lat="45.78346353" lon="9.293236657">
        <ele>273.00000</ele>
              </trkpt>
      <trkpt lat="45.78368296" lon="9.292804319">
        <ele>274.00000</ele>
              </trkpt>
      <trkpt lat="45.78388530" lon="9.292468288">
        <ele>274.00000</ele>
              </trkpt>
      <trkpt lat="45.78344819" lon="9.291877364">
        <ele>273.00000</ele>
              </trkpt>
      <trkpt lat="45.78364474" lon="9.291458856">
        <ele>271.00000</ele>
              </trkpt>
      <trkpt lat="45.78592906" lon="9.288901453">
        <ele>270.00000</ele>
              </trkpt>
      <trkpt lat="45.78622486" lon="9.288530554">
        <ele>273.00000</ele>
              </trkpt>
      <trkpt lat="45.78644254" lon="9.288080111">
        <ele>276.00000</ele>
              </trkpt>
      <trkpt lat="45.78661294" lon="9.287293720">
        <ele>276.00000</ele>
              </trkpt>
      <trkpt lat="45.78657497" lon="9.286781083">
        <ele>276.00000</ele>
              </trkpt>
      <trkpt lat="45.78618178" lon="9.284902950">
        <ele>281.00000</ele>
              </trkpt>
      <trkpt lat="45.78604716" lon="9.284383691">
        <ele>282.00000</ele>
              </trkpt>
      <trkpt lat="45.78599126" lon="9.283843897">
        <ele>283.00000</ele>
              </trkpt>
      <trkpt lat="45.78604096" lon="9.283235957">
        <ele>284.00000</ele>
              </trkpt>
      <trkpt lat="45.78618999" lon="9.282645452">
        <ele>284.00000</ele>
              </trkpt>
      <trkpt lat="45.78777182" lon="9.278273619">
        <ele>277.00000</ele>
              </trkpt>
      <trkpt lat="45.78784634" lon="9.277970278">
        <ele>276.00000</ele>
              </trkpt>
      <trkpt lat="45.78794508" lon="9.277358148">
        <ele>273.00000</ele>
              </trkpt>
      <trkpt lat="45.78830659" lon="9.274772750">
        <ele>268.00000</ele>
              </trkpt>
      <trkpt lat="45.78842762" lon="9.274092223">
        <ele>270.00000</ele>
              </trkpt>
      <trkpt lat="45.78859074" lon="9.273561732">
        <ele>271.00000</ele>
              </trkpt>
      <trkpt lat="45.78877807" lon="9.273164346">
        <ele>273.00000</ele>
              </trkpt>
      <trkpt lat="45.78968784" lon="9.271646467">
        <ele>282.00000</ele>
              </trkpt>
      <trkpt lat="45.78980091" lon="9.271401381">
        <ele>282.00000</ele>
              </trkpt>
      <trkpt lat="45.78991927" lon="9.270802494">
        <ele>282.00000</ele>
              </trkpt>
      <trkpt lat="45.78993670" lon="9.270175863">
        <ele>281.00000</ele>
              </trkpt>
      <trkpt lat="45.78966337" lon="9.267614269">
        <ele>289.00000</ele>
              </trkpt>
      <trkpt lat="45.78941560" lon="9.265038007">
        <ele>284.00000</ele>
              </trkpt>
      <trkpt lat="45.78934435" lon="9.264503577">
        <ele>285.00000</ele>
              </trkpt>
      <trkpt lat="45.78887631" lon="9.261687342">
        <ele>288.00000</ele>
              </trkpt>
      <trkpt lat="45.78885703" lon="9.261120138">
        <ele>287.00000</ele>
              </trkpt>
      <trkpt lat="45.78889575" lon="9.260524772">
        <ele>286.00000</ele>
              </trkpt>
      <trkpt lat="45.78894898" lon="9.259000942">
        <ele>284.00000</ele>
              </trkpt>
      <trkpt lat="45.78897672" lon="9.257808113">
        <ele>280.00000</ele>
              </trkpt>
      <trkpt lat="45.78897513" lon="9.257293129">
        <ele>279.00000</ele>
              </trkpt>
      <trkpt lat="45.78909088" lon="9.256759788">
        <ele>277.00000</ele>
              </trkpt>
      <trkpt lat="45.78916657" lon="9.256505398">
        <ele>276.00000</ele>
              </trkpt>
      <trkpt lat="45.78925274" lon="9.255872899">
        <ele>273.00000</ele>
              </trkpt>
      <trkpt lat="45.78924721" lon="9.255228666">
        <ele>271.00000</ele>
              </trkpt>
      <trkpt lat="45.78919465" lon="9.254658445">
        <ele>271.00000</ele>
              </trkpt>
      <trkpt lat="45.78899382" lon="9.253132687">
        <ele>272.00000</ele>
              </trkpt>
      <trkpt lat="45.78867732" lon="9.251097729">
        <ele>269.00000</ele>
              </trkpt>
      <trkpt lat="45.78857498" lon="9.250544356">
        <ele>268.00000</ele>
              </trkpt>
      <trkpt lat="45.78822763" lon="9.249213896">
        <ele>272.00000</ele>
              </trkpt>
      <trkpt lat="45.78812965" lon="9.248683322">
        <ele>271.00000</ele>
              </trkpt>
      <trkpt lat="45.78797291" lon="9.247564757">
        <ele>268.00000</ele>
              </trkpt>
      <trkpt lat="45.78798548" lon="9.247285304">
        <ele>268.00000</ele>
              </trkpt>
      <trkpt lat="45.78792974" lon="9.247266529">
        <ele>269.00000</ele>
              </trkpt>
      <trkpt lat="45.78754618" lon="9.244141001">
        <ele>265.00000</ele>
              </trkpt>
      <trkpt lat="45.78758415" lon="9.243588969">
        <ele>263.00000</ele>
              </trkpt>
      <trkpt lat="45.78725726" lon="9.243300883">
        <ele>262.00000</ele>
              </trkpt>
      <trkpt lat="45.78714435" lon="9.243059903">
        <ele>262.00000</ele>
              </trkpt>
      <trkpt lat="45.78697831" lon="9.242552043">
        <ele>263.00000</ele>
              </trkpt>
      <trkpt lat="45.78711250" lon="9.242049548">
        <ele>263.00000</ele>
              </trkpt>
      <trkpt lat="45.78751140" lon="9.242115765">
        <ele>262.00000</ele>
              </trkpt>
      <trkpt lat="45.78786109" lon="9.242269406">
        <ele>262.00000</ele>
              </trkpt>
      <trkpt lat="45.78798707" lon="9.242050219">
        <ele>262.00000</ele>
              </trkpt>
      <trkpt lat="45.78799051" lon="9.241492152">
        <ele>262.00000</ele>
              </trkpt>
      <trkpt lat="45.78804398" lon="9.240945735">
        <ele>262.00000</ele>
              </trkpt>
      <trkpt lat="45.78811163" lon="9.239454595">
        <ele>261.00000</ele>
              </trkpt>
      <trkpt lat="45.78797316" lon="9.239094927">
        <ele>261.00000</ele>
              </trkpt>
      <trkpt lat="45.78761198" lon="9.238964086">
        <ele>262.00000</ele>
              </trkpt>
      <trkpt lat="45.78721216" lon="9.238998536">
        <ele>263.00000</ele>
              </trkpt>
      <trkpt lat="45.78665468" lon="9.239321323">
        <ele>265.00000</ele>
              </trkpt>
      <trkpt lat="45.78671964" lon="9.239337919">
        <ele>264.00000</ele>
              </trkpt>
      <trkpt lat="45.78618169" lon="9.239412602">
        <ele>267.00000</ele>
              </trkpt>
      <trkpt lat="45.78627448" lon="9.239280419">
        <ele>267.00000</ele>
              </trkpt>
      <trkpt lat="45.78661738" lon="9.239063076">
        <ele>266.00000</ele>
              </trkpt>
      <trkpt lat="45.78700622" lon="9.238891163">
        <ele>264.00000</ele>
              </trkpt>
      <trkpt lat="45.78737293" lon="9.238796532">
        <ele>262.00000</ele>
              </trkpt>
      <trkpt lat="45.78754375" lon="9.238372072">
        <ele>261.00000</ele>
              </trkpt>
      <trkpt lat="45.78761458" lon="9.238120615">
        <ele>261.00000</ele>
              </trkpt>
      <trkpt lat="45.78772304" lon="9.237549137">
        <ele>263.00000</ele>
              </trkpt>
      <trkpt lat="45.78790602" lon="9.236436020">
        <ele>267.00000</ele>
              </trkpt>
      <trkpt lat="45.78802152" lon="9.235568493">
        <ele>272.00000</ele>
              </trkpt>
      <trkpt lat="45.78815647" lon="9.235005062">
        <ele>274.00000</ele>
              </trkpt>
      <trkpt lat="45.78835906" lon="9.234458142">
        <ele>271.00000</ele>
              </trkpt>
      <trkpt lat="45.78851957" lon="9.233781974">
        <ele>270.00000</ele>
              </trkpt>
      <trkpt lat="45.78858872" lon="9.233044534">
        <ele>270.00000</ele>
              </trkpt>
      <trkpt lat="45.78847867" lon="9.232606664">
        <ele>271.00000</ele>
              </trkpt>
      <trkpt lat="45.78828941" lon="9.232059074">
        <ele>271.00000</ele>
              </trkpt>
      <trkpt lat="45.78818857" lon="9.231364214">
        <ele>269.00000</ele>
              </trkpt>
      <trkpt lat="45.78796905" lon="9.230690393">
        <ele>271.00000</ele>
              </trkpt>
      <trkpt lat="45.78778926" lon="9.230396524">
        <ele>275.00000</ele>
              </trkpt>
      <trkpt lat="45.78753369" lon="9.229778526">
        <ele>276.00000</ele>
              </trkpt>
      <trkpt lat="45.78753353" lon="9.229193301">
        <ele>271.00000</ele>
              </trkpt>
      <trkpt lat="45.78735482" lon="9.228376904">
        <ele>269.00000</ele>
              </trkpt>
      <trkpt lat="45.78727486" lon="9.227683469">
        <ele>269.00000</ele>
              </trkpt>
      <trkpt lat="45.78689122" lon="9.226685268">
        <ele>277.00000</ele>
              </trkpt>
      <trkpt lat="45.78655393" lon="9.226116053">
        <ele>280.00000</ele>
              </trkpt>
      <trkpt lat="45.78632418" lon="9.225450446">
        <ele>278.00000</ele>
              </trkpt>
      <trkpt lat="45.78576000" lon="9.223610870">
        <ele>270.00000</ele>
              </trkpt>
      <trkpt lat="45.78554978" lon="9.223039057">
        <ele>271.00000</ele>
              </trkpt>
      <trkpt lat="45.78482776" lon="9.221423612">
        <ele>275.00000</ele>
              </trkpt>
      <trkpt lat="45.78458997" lon="9.220767896">
        <ele>278.00000</ele>
              </trkpt>
      <trkpt lat="45.78427632" lon="9.220112767">
        <ele>280.00000</ele>
              </trkpt>
      <trkpt lat="45.78416400" lon="9.219466019">
        <ele>276.00000</ele>
              </trkpt>
      <trkpt lat="45.78396627" lon="9.218933517">
        <ele>276.00000</ele>
              </trkpt>
      <trkpt lat="45.78383451" lon="9.218642916">
        <ele>277.00000</ele>
              </trkpt>
      <trkpt lat="45.78338759" lon="9.217486549">
        <ele>273.00000</ele>
              </trkpt>
      <trkpt lat="45.78302708" lon="9.216840052">
        <ele>276.00000</ele>
              </trkpt>
      <trkpt lat="45.78293781" lon="9.216540232">
        <ele>275.00000</ele>
              </trkpt>
      <trkpt lat="45.78203609" lon="9.214913304">
        <ele>275.00000</ele>
              </trkpt>
      <trkpt lat="45.78185755" lon="9.214308047">
        <ele>267.00000</ele>
              </trkpt>
      <trkpt lat="45.78176342" lon="9.214060781">
        <ele>264.00000</ele>
              </trkpt>
      <trkpt lat="45.78143091" lon="9.213750483">
        <ele>268.00000</ele>
              </trkpt>
      <trkpt lat="45.78069088" lon="9.212997201">
        <ele>277.00000</ele>
              </trkpt>
      <trkpt lat="45.78017019" lon="9.212268395">
        <ele>274.00000</ele>
              </trkpt>
      <trkpt lat="45.77993122" lon="9.211685936">
        <ele>271.00000</ele>
              </trkpt>
      <trkpt lat="45.77960274" lon="9.211118565">
        <ele>272.00000</ele>
              </trkpt>
      <trkpt lat="45.77881576" lon="9.210198400">
        <ele>273.00000</ele>
              </trkpt>
      <trkpt lat="45.77858702" lon="9.209995139">
        <ele>274.00000</ele>
              </trkpt>
      <trkpt lat="45.77819382" lon="9.209559699">
        <ele>271.00000</ele>
              </trkpt>
      <trkpt lat="45.77781119" lon="9.209491470">
        <ele>270.00000</ele>
              </trkpt>
      <trkpt lat="45.77724122" lon="9.209755752">
        <ele>278.00000</ele>
              </trkpt>
      <trkpt lat="45.77688289" lon="9.209562884">
        <ele>282.00000</ele>
              </trkpt>
      <trkpt lat="45.77654317" lon="9.209198355">
        <ele>284.00000</ele>
              </trkpt>
      <trkpt lat="45.77623095" lon="9.208786552">
        <ele>283.00000</ele>
              </trkpt>
      <trkpt lat="45.77590322" lon="9.208437530">
        <ele>281.00000</ele>
              </trkpt>
      <trkpt lat="45.77573625" lon="9.208226222">
        <ele>281.00000</ele>
              </trkpt>
      <trkpt lat="45.77539158" lon="9.207710400">
        <ele>281.00000</ele>
              </trkpt>
      <trkpt lat="45.77526301" lon="9.207119643">
        <ele>276.00000</ele>
              </trkpt>
      <trkpt lat="45.77539142" lon="9.206613376">
        <ele>269.00000</ele>
              </trkpt>
      <trkpt lat="45.77566408" lon="9.206248093">
        <ele>267.00000</ele>
              </trkpt>
      <trkpt lat="45.77584278" lon="9.206087160">
        <ele>266.00000</ele>
              </trkpt>
      <trkpt lat="45.77615736" lon="9.205711651">
        <ele>264.00000</ele>
              </trkpt>
      <trkpt lat="45.77636799" lon="9.205251233">
        <ele>264.00000</ele>
              </trkpt>
      <trkpt lat="45.77659950" lon="9.204692579">
        <ele>263.00000</ele>
              </trkpt>
      <trkpt lat="45.77677192" lon="9.204094363">
        <ele>263.00000</ele>
              </trkpt>
      <trkpt lat="45.77711365" lon="9.203295903">
        <ele>262.00000</ele>
              </trkpt>
      <trkpt lat="45.77795930" lon="9.201734689">
        <ele>262.00000</ele>
              </trkpt>
      <trkpt lat="45.77820455" lon="9.201336549">
        <ele>262.00000</ele>
              </trkpt>
      <trkpt lat="45.77851963" lon="9.200965901">
        <ele>264.00000</ele>
              </trkpt>
      <trkpt lat="45.77892590" lon="9.200389981">
        <ele>265.00000</ele>
              </trkpt>
      <trkpt lat="45.77953124" lon="9.199705682">
        <ele>267.00000</ele>
              </trkpt>
      <trkpt lat="45.77988605" lon="9.199592862">
        <ele>267.00000</ele>
              </trkpt>
      <trkpt lat="45.78030531" lon="9.199768379">
        <ele>267.00000</ele>
              </trkpt>
      <trkpt lat="45.78086128" lon="9.199782963">
        <ele>268.00000</ele>
              </trkpt>
      <trkpt lat="45.78169159" lon="9.199702832">
        <ele>268.00000</ele>
              </trkpt>
      <trkpt lat="45.78209359" lon="9.199829231">
        <ele>269.00000</ele>
              </trkpt>
      <trkpt lat="45.78249114" lon="9.200062332">
        <ele>270.00000</ele>
              </trkpt>
      <trkpt lat="45.78268912" lon="9.199666539">
        <ele>276.00000</ele>
              </trkpt>
      <trkpt lat="45.78295650" lon="9.199441652">
        <ele>282.00000</ele>
              </trkpt>
      <trkpt lat="45.78334190" lon="9.199701240">
        <ele>284.00000</ele>
              </trkpt>
      <trkpt lat="45.78354039" lon="9.199791597">
        <ele>288.00000</ele>
              </trkpt>
      <trkpt lat="45.78418378" lon="9.200382689">
        <ele>291.00000</ele>
              </trkpt>
      <trkpt lat="45.78462526" lon="9.200644204">
        <ele>291.00000</ele>
              </trkpt>
      <trkpt lat="45.78501619" lon="9.200846040">
        <ele>291.00000</ele>
              </trkpt>
      <trkpt lat="45.78519824" lon="9.200983587">
        <ele>293.00000</ele>
              </trkpt>
      <trkpt lat="45.78550351" lon="9.201309140">
        <ele>294.00000</ele>
              </trkpt>
      <trkpt lat="45.78579889" lon="9.201655983">
        <ele>294.00000</ele>
              </trkpt>
      <trkpt lat="45.78654538" lon="9.202205920">
        <ele>293.00000</ele>
              </trkpt>
      <trkpt lat="45.78672735" lon="9.202317567">
        <ele>293.00000</ele>
              </trkpt>
      <trkpt lat="45.78712223" lon="9.202483026">
        <ele>294.00000</ele>
              </trkpt>
      <trkpt lat="45.78747779" lon="9.202764993">
        <ele>294.00000</ele>
              </trkpt>
      <trkpt lat="45.78782245" lon="9.202918717">
        <ele>296.00000</ele>
              </trkpt>
      <trkpt lat="45.78845486" lon="9.203154584">
        <ele>300.00000</ele>
              </trkpt>
      <trkpt lat="45.78889424" lon="9.203240834">
        <ele>303.00000</ele>
              </trkpt>
      <trkpt lat="45.78936539" lon="9.203263632">
        <ele>308.00000</ele>
              </trkpt>
      <trkpt lat="45.78973906" lon="9.203341500">
        <ele>311.00000</ele>
              </trkpt>
      <trkpt lat="45.78991994" lon="9.203413417">
        <ele>311.00000</ele>
              </trkpt>
      <trkpt lat="45.79030266" lon="9.203492878">
        <ele>313.00000</ele>
              </trkpt>
      <trkpt lat="45.79067087" lon="9.203460440">
        <ele>316.00000</ele>
              </trkpt>
      <trkpt lat="45.79086961" lon="9.202994406">
        <ele>320.00000</ele>
              </trkpt>
      <trkpt lat="45.79069904" lon="9.202589225">
        <ele>322.00000</ele>
              </trkpt>
      <trkpt lat="45.79030458" lon="9.202022356">
        <ele>325.00000</ele>
              </trkpt>
      <trkpt lat="45.79043274" lon="9.200922567">
        <ele>329.00000</ele>
              </trkpt>
      <trkpt lat="45.79044389" lon="9.200347987">
        <ele>334.00000</ele>
              </trkpt>
      <trkpt lat="45.79036267" lon="9.199503092">
        <ele>340.00000</ele>
              </trkpt>
      <trkpt lat="45.79035412" lon="9.198937229">
        <ele>341.00000</ele>
              </trkpt>
      <trkpt lat="45.79064204" lon="9.198516039">
        <ele>337.00000</ele>
              </trkpt>
      <trkpt lat="45.79082409" lon="9.198081688">
        <ele>336.00000</ele>
              </trkpt>
      <trkpt lat="45.79083667" lon="9.196692556">
        <ele>337.00000</ele>
              </trkpt>
      <trkpt lat="45.79101285" lon="9.196220654">
        <ele>338.00000</ele>
              </trkpt>
      <trkpt lat="45.79111754" lon="9.196005994">
        <ele>338.00000</ele>
              </trkpt>
      <trkpt lat="45.79138853" lon="9.195613972">
        <ele>338.00000</ele>
              </trkpt>
      <trkpt lat="45.79171786" lon="9.195327563">
        <ele>339.00000</ele>
              </trkpt>
      <trkpt lat="45.79204802" lon="9.195015672">
        <ele>341.00000</ele>
              </trkpt>
      <trkpt lat="45.79254264" lon="9.194591045">
        <ele>348.00000</ele>
              </trkpt>
      <trkpt lat="45.79285771" lon="9.194248728">
        <ele>353.00000</ele>
              </trkpt>
      <trkpt lat="45.79312166" lon="9.193234518">
        <ele>359.00000</ele>
              </trkpt>
      <trkpt lat="45.79310640" lon="9.192770412">
        <ele>360.00000</ele>
              </trkpt>
      <trkpt lat="45.79319952" lon="9.192760689">
        <ele>361.00000</ele>
              </trkpt>
      <trkpt lat="45.79395205" lon="9.192466400">
        <ele>359.00000</ele>
              </trkpt>
      <trkpt lat="45.79487666" lon="9.192070439">
        <ele>365.00000</ele>
              </trkpt>
      <trkpt lat="45.79511856" lon="9.191689984">
        <ele>369.00000</ele>
              </trkpt>
      <trkpt lat="45.79534823" lon="9.191262507">
        <ele>371.00000</ele>
              </trkpt>
      <trkpt lat="45.79564620" lon="9.190980289">
        <ele>372.00000</ele>
              </trkpt>
      <trkpt lat="45.79620402" lon="9.190575359">
        <ele>379.00000</ele>
              </trkpt>
      <trkpt lat="45.79655547" lon="9.190458515">
        <ele>383.00000</ele>
              </trkpt>
      <trkpt lat="45.79693961" lon="9.190437393">
        <ele>385.00000</ele>
              </trkpt>
      <trkpt lat="45.79747622" lon="9.190202616">
        <ele>392.00000</ele>
              </trkpt>
      <trkpt lat="45.79777202" lon="9.189812606">
        <ele>397.00000</ele>
              </trkpt>
      <trkpt lat="45.79770564" lon="9.189419327">
        <ele>399.00000</ele>
              </trkpt>
      <trkpt lat="45.79675069" lon="9.188124239">
        <ele>406.00000</ele>
              </trkpt>
      <trkpt lat="45.79650183" lon="9.187726853">
        <ele>407.00000</ele>
              </trkpt>
      <trkpt lat="45.79660266" lon="9.187231063">
        <ele>411.00000</ele>
              </trkpt>
      <trkpt lat="45.79690047" lon="9.186867373">
        <ele>416.00000</ele>
              </trkpt>
      <trkpt lat="45.79770463" lon="9.185969000">
        <ele>420.00000</ele>
              </trkpt>
      <trkpt lat="45.79801610" lon="9.185586282">
        <ele>421.00000</ele>
              </trkpt>
      <trkpt lat="45.79818885" lon="9.185450579">
        <ele>422.00000</ele>
              </trkpt>
      <trkpt lat="45.79835146" lon="9.185055792">
        <ele>423.00000</ele>
              </trkpt>
      <trkpt lat="45.79812121" lon="9.183362144">
        <ele>418.00000</ele>
              </trkpt>
      <trkpt lat="45.79809196" lon="9.183062659">
        <ele>416.00000</ele>
              </trkpt>
      <trkpt lat="45.79819665" lon="9.181896820">
        <ele>413.00000</ele>
              </trkpt>
      <trkpt lat="45.79795592" lon="9.180800216">
        <ele>409.00000</ele>
              </trkpt>
      <trkpt lat="45.79793857" lon="9.180949917">
        <ele>409.00000</ele>
              </trkpt>
      <trkpt lat="45.79798584" lon="9.180941032">
        <ele>409.00000</ele>
              </trkpt>
      <trkpt lat="45.79769222" lon="9.179705707">
        <ele>408.00000</ele>
              </trkpt>
      <trkpt lat="45.79752878" lon="9.179146131">
        <ele>410.00000</ele>
              </trkpt>
      <trkpt lat="45.79647090" lon="9.175988249">
        <ele>411.00000</ele>
              </trkpt>
      <trkpt lat="45.79633243" lon="9.175454154">
        <ele>411.00000</ele>
              </trkpt>
      <trkpt lat="45.79634232" lon="9.174841521">
        <ele>411.00000</ele>
              </trkpt>
      <trkpt lat="45.79646721" lon="9.172790218">
        <ele>414.00000</ele>
              </trkpt>
      <trkpt lat="45.79636068" lon="9.172250004">
        <ele>411.00000</ele>
              </trkpt>
      <trkpt lat="45.79603152" lon="9.171403599">
        <ele>407.00000</ele>
              </trkpt>
      <trkpt lat="45.79593546" lon="9.170854501">
        <ele>407.00000</ele>
              </trkpt>
      <trkpt lat="45.79578484" lon="9.170337589">
        <ele>407.00000</ele>
              </trkpt>
      <trkpt lat="45.79575450" lon="9.169776672">
        <ele>407.00000</ele>
              </trkpt>
      <trkpt lat="45.79659721" lon="9.167444407">
        <ele>406.00000</ele>
              </trkpt>
      <trkpt lat="45.79668170" lon="9.167183227">
        <ele>407.00000</ele>
              </trkpt>
      <trkpt lat="45.79680592" lon="9.166638655">
        <ele>408.00000</ele>
              </trkpt>
      <trkpt lat="45.79689418" lon="9.166065417">
        <ele>409.00000</ele>
              </trkpt>
      <trkpt lat="45.79697524" lon="9.164701681">
        <ele>406.00000</ele>
              </trkpt>
      <trkpt lat="45.79689268" lon="9.165037460">
        <ele>406.00000</ele>
              </trkpt>
      <trkpt lat="45.79697742" lon="9.164495486">
        <ele>406.00000</ele>
              </trkpt>
      <trkpt lat="45.79710507" lon="9.162385175">
        <ele>402.00000</ele>
              </trkpt>
      <trkpt lat="45.79733306" lon="9.160404363">
        <ele>405.00000</ele>
              </trkpt>
      <trkpt lat="45.79740934" lon="9.159854091">
        <ele>407.00000</ele>
              </trkpt>
      <trkpt lat="45.79751738" lon="9.159283032">
        <ele>409.00000</ele>
              </trkpt>
      <trkpt lat="45.79772257" lon="9.158470407">
        <ele>410.00000</ele>
              </trkpt>
      <trkpt lat="45.79796271" lon="9.157363744">
        <ele>414.00000</ele>
              </trkpt>
      <trkpt lat="45.79815675" lon="9.157079597">
        <ele>415.00000</ele>
              </trkpt>
      <trkpt lat="45.79822909" lon="9.156865105">
        <ele>415.00000</ele>
              </trkpt>
      <trkpt lat="45.79849638" lon="9.156499402">
        <ele>416.00000</ele>
              </trkpt>
      <trkpt lat="45.79873946" lon="9.156131604">
        <ele>419.00000</ele>
              </trkpt>
      <trkpt lat="45.80021099" lon="9.153165416">
        <ele>425.00000</ele>
              </trkpt>
      <trkpt lat="45.80029916" lon="9.152894932">
        <ele>424.00000</ele>
              </trkpt>
      <trkpt lat="45.80039220" lon="9.152345834">
        <ele>423.00000</ele>
              </trkpt>
      <trkpt lat="45.80048122" lon="9.151188125">
        <ele>420.00000</ele>
              </trkpt>
      <trkpt lat="45.80054115" lon="9.150782106">
        <ele>419.00000</ele>
              </trkpt>
      <trkpt lat="45.80063151" lon="9.150525033">
        <ele>419.00000</ele>
              </trkpt>
      <trkpt lat="45.80167070" lon="9.148280527">
        <ele>422.00000</ele>
              </trkpt>
      <trkpt lat="45.80182442" lon="9.147759173">
        <ele>424.00000</ele>
              </trkpt>
      <trkpt lat="45.80172350" lon="9.147247541">
        <ele>422.00000</ele>
              </trkpt>
      <trkpt lat="45.80158201" lon="9.146712608">
        <ele>421.00000</ele>
              </trkpt>
      <trkpt lat="45.80155067" lon="9.146437263">
        <ele>421.00000</ele>
              </trkpt>
      <trkpt lat="45.80159534" lon="9.145865952">
        <ele>421.00000</ele>
              </trkpt>
      <trkpt lat="45.80175049" lon="9.145281063">
        <ele>421.00000</ele>
              </trkpt>
      <trkpt lat="45.80185552" lon="9.144728109">
        <ele>423.00000</ele>
              </trkpt>
      <trkpt lat="45.80177061" lon="9.144180016">
        <ele>423.00000</ele>
              </trkpt>
      <trkpt lat="45.80132947" lon="9.142898004">
        <ele>420.00000</ele>
              </trkpt>
      <trkpt lat="45.80115898" lon="9.142355360">
        <ele>420.00000</ele>
              </trkpt>
      <trkpt lat="45.80103526" lon="9.141841046">
        <ele>421.00000</ele>
              </trkpt>
      <trkpt lat="45.80102353" lon="9.141563437">
        <ele>421.00000</ele>
              </trkpt>
      <trkpt lat="45.80078976" lon="9.141178205">
        <ele>421.00000</ele>
              </trkpt>
      <trkpt lat="45.80060116" lon="9.140671938">
        <ele>421.00000</ele>
              </trkpt>
      <trkpt lat="45.80044409" lon="9.140153685">
        <ele>421.00000</ele>
              </trkpt>
      <trkpt lat="45.80034568" lon="9.139904323">
        <ele>421.00000</ele>
              </trkpt>
      <trkpt lat="45.80020906" lon="9.139404594">
        <ele>417.00000</ele>
              </trkpt>
      <trkpt lat="45.80030059" lon="9.138992708">
        <ele>414.00000</ele>
              </trkpt>
      <trkpt lat="45.80056965" lon="9.138613259">
        <ele>413.00000</ele>
              </trkpt>
      <trkpt lat="45.80086511" lon="9.138281838">
        <ele>414.00000</ele>
              </trkpt>
      <trkpt lat="45.80098715" lon="9.138057120">
        <ele>414.00000</ele>
              </trkpt>
      <trkpt lat="45.80119066" lon="9.137546494">
        <ele>413.00000</ele>
              </trkpt>
      <trkpt lat="45.80150758" lon="9.136530188">
        <ele>409.00000</ele>
              </trkpt>
      <trkpt lat="45.80168226" lon="9.136045547">
        <ele>408.00000</ele>
              </trkpt>
      <trkpt lat="45.80175225" lon="9.135792497">
        <ele>407.00000</ele>
              </trkpt>
      <trkpt lat="45.80186482" lon="9.135201992">
        <ele>405.00000</ele>
              </trkpt>
      <trkpt lat="45.80194286" lon="9.134592879">
        <ele>403.00000</ele>
              </trkpt>
      <trkpt lat="45.80204838" lon="9.134009918">
        <ele>401.00000</ele>
              </trkpt>
      <trkpt lat="45.80229112" lon="9.133187485">
        <ele>399.00000</ele>
              </trkpt>
      <trkpt lat="45.80233706" lon="9.132611062">
        <ele>393.00000</ele>
              </trkpt>
      <trkpt lat="45.80242607" lon="9.131971439">
        <ele>389.00000</ele>
              </trkpt>
      <trkpt lat="45.80264601" lon="9.131108941">
        <ele>390.00000</ele>
              </trkpt>
      <trkpt lat="45.80260695" lon="9.130811886">
        <ele>387.00000</ele>
              </trkpt>
      <trkpt lat="45.80258114" lon="9.130224063">
        <ele>383.00000</ele>
              </trkpt>
      <trkpt lat="45.80264828" lon="9.129647472">
        <ele>382.00000</ele>
              </trkpt>
      <trkpt lat="45.80264559" lon="9.129021428">
        <ele>377.00000</ele>
              </trkpt>
      <trkpt lat="45.80271751" lon="9.127583596">
        <ele>367.00000</ele>
              </trkpt>
      <trkpt lat="45.80277409" lon="9.126972220">
        <ele>364.00000</ele>
              </trkpt>
      <trkpt lat="45.80301599" lon="9.125510752">
        <ele>362.00000</ele>
              </trkpt>
      <trkpt lat="45.80307927" lon="9.124860987">
        <ele>360.00000</ele>
              </trkpt>
      <trkpt lat="45.80306938" lon="9.124199319">
        <ele>355.00000</ele>
              </trkpt>
      <trkpt lat="45.80316930" lon="9.123631194">
        <ele>352.00000</ele>
              </trkpt>
      <trkpt lat="45.80343551" lon="9.122844217">
        <ele>351.00000</ele>
              </trkpt>
      <trkpt lat="45.80378461" lon="9.121724730">
        <ele>348.00000</ele>
              </trkpt>
      <trkpt lat="45.80392124" lon="9.121160963">
        <ele>346.00000</ele>
              </trkpt>
      <trkpt lat="45.80396315" lon="9.120854940">
        <ele>344.00000</ele>
              </trkpt>
      <trkpt lat="45.80399064" lon="9.120319001">
        <ele>341.00000</ele>
              </trkpt>
      <trkpt lat="45.80412098" lon="9.119073702">
        <ele>337.00000</ele>
              </trkpt>
      <trkpt lat="45.80434779" lon="9.116489393">
        <ele>332.00000</ele>
              </trkpt>
      <trkpt lat="45.80445483" lon="9.115956639">
        <ele>334.00000</ele>
              </trkpt>
      <trkpt lat="45.80453873" lon="9.115678444">
        <ele>334.00000</ele>
              </trkpt>
      <trkpt lat="45.80467133" lon="9.115138063">
        <ele>333.00000</ele>
              </trkpt>
      <trkpt lat="45.80491382" lon="9.114753585">
        <ele>334.00000</ele>
              </trkpt>
      <trkpt lat="45.80507249" lon="9.114289730">
        <ele>335.00000</ele>
              </trkpt>
      <trkpt lat="45.80485666" lon="9.113853201">
        <ele>325.00000</ele>
              </trkpt>
      <trkpt lat="45.80469187" lon="9.113690089">
        <ele>321.00000</ele>
              </trkpt>
      <trkpt lat="45.80446891" lon="9.113169154">
        <ele>316.00000</ele>
              </trkpt>
      <trkpt lat="45.80418057" lon="9.112718794">
        <ele>312.00000</ele>
              </trkpt>
      <trkpt lat="45.80401193" lon="9.112209174">
        <ele>309.00000</ele>
              </trkpt>
      <trkpt lat="45.80397740" lon="9.111910024">
        <ele>308.00000</ele>
              </trkpt>
      <trkpt lat="45.80383842" lon="9.111289931">
        <ele>304.00000</ele>
              </trkpt>
      <trkpt lat="45.80350583" lon="9.110822388">
        <ele>296.00000</ele>
              </trkpt>
      <trkpt lat="45.80331967" lon="9.110295334">
        <ele>291.00000</ele>
              </trkpt>
      <trkpt lat="45.80347959" lon="9.109699465">
        <ele>291.00000</ele>
              </trkpt>
      <trkpt lat="45.80357716" lon="9.109410960">
        <ele>289.00000</ele>
              </trkpt>
      <trkpt lat="45.80367741" lon="9.108752729">
        <ele>281.00000</ele>
              </trkpt>
      <trkpt lat="45.80404889" lon="9.108540415">
        <ele>283.00000</ele>
              </trkpt>
      <trkpt lat="45.80442147" lon="9.108378142">
        <ele>283.00000</ele>
              </trkpt>
      <trkpt lat="45.80479849" lon="9.107663081">
        <ele>271.00000</ele>
              </trkpt>
      <trkpt lat="45.80512521" lon="9.107355969">
        <ele>267.00000</ele>
              </trkpt>
      <trkpt lat="45.80554498" lon="9.107160838">
        <ele>271.00000</ele>
              </trkpt>
      <trkpt lat="45.80562938" lon="9.106604866">
        <ele>272.00000</ele>
              </trkpt>
      <trkpt lat="45.80560390" lon="9.105926435">
        <ele>269.00000</ele>
              </trkpt>
      <trkpt lat="45.80556216" lon="9.105620495">
        <ele>266.00000</ele>
              </trkpt>
      <trkpt lat="45.80555588" lon="9.105067541">
        <ele>262.00000</ele>
              </trkpt>
      <trkpt lat="45.80567557" lon="9.104498829">
        <ele>261.00000</ele>
              </trkpt>
      <trkpt lat="45.80570717" lon="9.103899020">
        <ele>258.00000</ele>
              </trkpt>
      <trkpt lat="45.80570868" lon="9.103585034">
        <ele>256.00000</ele>
              </trkpt>
      <trkpt lat="45.80577774" lon="9.103032080">
        <ele>257.00000</ele>
              </trkpt>
      <trkpt lat="45.80580867" lon="9.102507289">
        <ele>259.00000</ele>
              </trkpt>
      <trkpt lat="45.80573206" lon="9.101940589">
        <ele>259.00000</ele>
              </trkpt>
      <trkpt lat="45.80582736" lon="9.101110361">
        <ele>257.00000</ele>
              </trkpt>
      <trkpt lat="45.80558840" lon="9.099909989">
        <ele>246.00000</ele>
              </trkpt>
      <trkpt lat="45.80543769" lon="9.099303307">
        <ele>240.00000</ele>
              </trkpt>
      <trkpt lat="45.80552168" lon="9.098709030">
        <ele>237.00000</ele>
              </trkpt>
      <trkpt lat="45.80582410" lon="9.097365913">
        <ele>232.00000</ele>
              </trkpt>
      <trkpt lat="45.80612769" lon="9.095840156">
        <ele>228.00000</ele>
              </trkpt>
      <trkpt lat="45.80635325" lon="9.095384012">
        <ele>227.00000</ele>
              </trkpt>
      <trkpt lat="45.80666908" lon="9.095006827">
        <ele>226.00000</ele>
              </trkpt>
      <trkpt lat="45.80717216" lon="9.094450520">
        <ele>225.00000</ele>
              </trkpt>
      <trkpt lat="45.80748095" lon="9.094071239">
        <ele>224.00000</ele>
              </trkpt>
      <trkpt lat="45.80758555" lon="9.093498587">
        <ele>221.00000</ele>
              </trkpt>
      <trkpt lat="45.80761372" lon="9.092890145">
        <ele>220.00000</ele>
              </trkpt>
      <trkpt lat="45.80748556" lon="9.092347584">
        <ele>219.00000</ele>
              </trkpt>
      <trkpt lat="45.80722069" lon="9.091668482">
        <ele>219.00000</ele>
              </trkpt>
      <trkpt lat="45.80712254" lon="9.091159282">
        <ele>218.00000</ele>
              </trkpt>
      <trkpt lat="45.80740945" lon="9.090749658">
        <ele>218.00000</ele>
              </trkpt>
      <trkpt lat="45.80786266" lon="9.090228723">
        <ele>218.00000</ele>
              </trkpt>
      <trkpt lat="45.80822987" lon="9.089835193">
        <ele>218.00000</ele>
              </trkpt>
      <trkpt lat="45.80856054" lon="9.089517518">
        <ele>217.00000</ele>
              </trkpt>
      <trkpt lat="45.80999753" lon="9.087940799">
        <ele>216.00000</ele>
              </trkpt>
      <trkpt lat="45.81010591" lon="9.087515501">
        <ele>216.00000</ele>
              </trkpt>
      <trkpt lat="45.80997481" lon="9.087315676">
        <ele>216.00000</ele>
              </trkpt>
      <trkpt lat="45.80982922" lon="9.086913513">
        <ele>215.00000</ele>
              </trkpt>
      <trkpt lat="45.81015980" lon="9.086625510">
        <ele>215.00000</ele>
              </trkpt>
      <trkpt lat="45.81051453" lon="9.086360475">
        <ele>215.00000</ele>
              </trkpt>
      <trkpt lat="45.81100897" lon="9.086000723">
        <ele>214.00000</ele>
              </trkpt>
      <trkpt lat="45.81138339" lon="9.085761420">
        <ele>213.00000</ele>
              </trkpt>
      <trkpt lat="45.81210290" lon="9.085220200">
        <ele>212.00000</ele>
              </trkpt>
      <trkpt lat="45.81211077" lon="9.084774702">
        <ele>211.00000</ele>
              </trkpt>
      <trkpt lat="45.81214120" lon="9.084497680">
        <ele>211.00000</ele>
              </trkpt>
      <trkpt lat="45.81224371" lon="9.083931399">
        <ele>210.00000</ele>
              </trkpt>
      <trkpt lat="45.81257195" lon="9.083640882">
        <ele>209.00000</ele>
              </trkpt>
      <trkpt lat="45.81298082" lon="9.083380959">
        <ele>207.00000</ele>
              </trkpt>
      <trkpt lat="45.81331341" lon="9.083038391">
        <ele>204.00000</ele>
              </trkpt>
      <trkpt lat="45.81343512" lon="9.082834459">
        <ele>203.00000</ele>
              </trkpt>
      <trkpt lat="45.81324619" lon="9.082370270">
        <ele>203.00000</ele>
              </trkpt>
      <trkpt lat="45.81302021" lon="9.081979505">
        <ele>203.00000</ele>
              </trkpt>
      <trkpt lat="45.81344752" lon="9.081109883">
        <ele>200.00000</ele>
              </trkpt>
    </trkseg>
  </trk>
</gpx>

