<?xml version="1.0"?>
<gpx creator="GPS Visualizer http://www.gpsvisualizer.com/" version="1.1" xmlns="http://www.topografix.com/GPX/1/1" xmlns:xsi="http://www.w3.org/2001/XMLSchema-instance" xsi:schemaLocation="http://www.topografix.com/GPX/1/1 http://www.topografix.com/GPX/1/1/gpx.xsd">
<trk>
  <name>Liguria Coast 010 - Levanto-Lerici-Ameglia</name>
  <trkseg>
    <trkpt lat="44.170835484" lon="9.609073643">
      <ele>15.04</ele>
    </trkpt>
    <trkpt lat="44.171974417" lon="9.614103287">
      <ele>3.98</ele>
    </trkpt>
    <trkpt lat="44.172206931" lon="9.614545433">
      <ele>6.39</ele>
    </trkpt>
    <trkpt lat="44.172521671" lon="9.614855396">
      <ele>9.75</ele>
    </trkpt>
    <trkpt lat="44.172731135" lon="9.614867549">
      <ele>10.71</ele>
    </trkpt>
    <trkpt lat="44.173122151" lon="9.614760177">
      <ele>11.67</ele>
    </trkpt>
    <trkpt lat="44.173282748" lon="9.614875261">
      <ele>11.19</ele>
    </trkpt>
    <trkpt lat="44.173635291" lon="9.61591755">
      <ele>11.67</ele>
    </trkpt>
    <trkpt lat="44.173770323" lon="9.616811983">
      <ele>10.23</ele>
    </trkpt>
    <trkpt lat="44.174067546" lon="9.617569624">
      <ele>10.71</ele>
    </trkpt>
    <trkpt lat="44.175632363" lon="9.619288417">
      <ele>14.08</ele>
    </trkpt>
    <trkpt lat="44.175294321" lon="9.619505927">
      <ele>13.6</ele>
    </trkpt>
    <trkpt lat="44.175167251" lon="9.619685803">
      <ele>13.6</ele>
    </trkpt>
    <trkpt lat="44.174769111" lon="9.6203929">
      <ele>15.52</ele>
    </trkpt>
    <trkpt lat="44.174769362" lon="9.620618792">
      <ele>15.52</ele>
    </trkpt>
    <trkpt lat="44.175067591" lon="9.620931773">
      <ele>14.08</ele>
    </trkpt>
    <trkpt lat="44.175784914" lon="9.621903654">
      <ele>13.6</ele>
    </trkpt>
    <trkpt lat="44.175976776" lon="9.622394163">
      <ele>15.04</ele>
    </trkpt>
    <trkpt lat="44.175925814" lon="9.622640423">
      <ele>15.04</ele>
    </trkpt>
    <trkpt lat="44.175639236" lon="9.623029009">
      <ele>15.04</ele>
    </trkpt>
    <trkpt lat="44.17553178" lon="9.623297229">
      <ele>15.52</ele>
    </trkpt>
    <trkpt lat="44.174964912" lon="9.625416845">
      <ele>20.32</ele>
    </trkpt>
    <trkpt lat="44.175073123" lon="9.625955466">
      <ele>23.21</ele>
    </trkpt>
    <trkpt lat="44.175356096" lon="9.626645716">
      <ele>20.81</ele>
    </trkpt>
    <trkpt lat="44.175407896" lon="9.626938663">
      <ele>21.29</ele>
    </trkpt>
    <trkpt lat="44.175410746" lon="9.627230521">
      <ele>22.25</ele>
    </trkpt>
    <trkpt lat="44.175180746" lon="9.628033759">
      <ele>23.21</ele>
    </trkpt>
    <trkpt lat="44.175307816" lon="9.629154671">
      <ele>24.65</ele>
    </trkpt>
    <trkpt lat="44.175193487" lon="9.629372265">
      <ele>24.17</ele>
    </trkpt>
    <trkpt lat="44.174702391" lon="9.629892195">
      <ele>24.17</ele>
    </trkpt>
    <trkpt lat="44.174281787" lon="9.630809762">
      <ele>26.09</ele>
    </trkpt>
    <trkpt lat="44.173953887" lon="9.631868647">
      <ele>28.02</ele>
    </trkpt>
    <trkpt lat="44.173917426" lon="9.632477341">
      <ele>29.94</ele>
    </trkpt>
    <trkpt lat="44.17357251" lon="9.634069568">
      <ele>33.78</ele>
    </trkpt>
    <trkpt lat="44.17317789" lon="9.634718327">
      <ele>35.71</ele>
    </trkpt>
    <trkpt lat="44.173159702" lon="9.634998282">
      <ele>38.11</ele>
    </trkpt>
    <trkpt lat="44.173322897" lon="9.63510423">
      <ele>39.55</ele>
    </trkpt>
    <trkpt lat="44.173453739" lon="9.634912536">
      <ele>40.99</ele>
    </trkpt>
    <trkpt lat="44.173619784" lon="9.634408616">
      <ele>44.36</ele>
    </trkpt>
    <trkpt lat="44.174323529" lon="9.633058878">
      <ele>53.01</ele>
    </trkpt>
    <trkpt lat="44.174454035" lon="9.632285563">
      <ele>56.86</ele>
    </trkpt>
    <trkpt lat="44.174634079" lon="9.631689861">
      <ele>60.22</ele>
    </trkpt>
    <trkpt lat="44.174747234" lon="9.631453576">
      <ele>62.14</ele>
    </trkpt>
    <trkpt lat="44.174912861" lon="9.631472686">
      <ele>63.58</ele>
    </trkpt>
    <trkpt lat="44.174953932" lon="9.631717438">
      <ele>65.03</ele>
    </trkpt>
    <trkpt lat="44.174813451" lon="9.632449094">
      <ele>69.35</ele>
    </trkpt>
    <trkpt lat="44.175126683" lon="9.633399853">
      <ele>75.6</ele>
    </trkpt>
    <trkpt lat="44.1751613" lon="9.634272745">
      <ele>81.37</ele>
    </trkpt>
    <trkpt lat="44.175442345" lon="9.635706889">
      <ele>91.94</ele>
    </trkpt>
    <trkpt lat="44.17552432" lon="9.635967398">
      <ele>93.87</ele>
    </trkpt>
    <trkpt lat="44.175701514" lon="9.63609782">
      <ele>95.31</ele>
    </trkpt>
    <trkpt lat="44.176005274" lon="9.635806633">
      <ele>99.15</ele>
    </trkpt>
    <trkpt lat="44.176201327" lon="9.635793222">
      <ele>101.56</ele>
    </trkpt>
    <trkpt lat="44.176363684" lon="9.636328993">
      <ele>106.84</ele>
    </trkpt>
    <trkpt lat="44.176362008" lon="9.636598639">
      <ele>109.25</ele>
    </trkpt>
    <trkpt lat="44.17627953" lon="9.636844313">
      <ele>111.65</ele>
    </trkpt>
    <trkpt lat="44.176136032" lon="9.637018573">
      <ele>114.05</ele>
    </trkpt>
    <trkpt lat="44.175188374" lon="9.636351038">
      <ele>122.22</ele>
    </trkpt>
    <trkpt lat="44.175018724" lon="9.636318684">
      <ele>123.19</ele>
    </trkpt>
    <trkpt lat="44.175030794" lon="9.63715218">
      <ele>128.95</ele>
    </trkpt>
    <trkpt lat="44.175268002" lon="9.638171755">
      <ele>135.68</ele>
    </trkpt>
    <trkpt lat="44.175298177" lon="9.639322255">
      <ele>143.37</ele>
    </trkpt>
    <trkpt lat="44.174885536" lon="9.640495973">
      <ele>153.47</ele>
    </trkpt>
    <trkpt lat="44.174511032" lon="9.640604937">
      <ele>156.83</ele>
    </trkpt>
    <trkpt lat="44.174517319" lon="9.640858658">
      <ele>160.2</ele>
    </trkpt>
    <trkpt lat="44.174840776" lon="9.641791563">
      <ele>165.0</ele>
    </trkpt>
    <trkpt lat="44.174819905" lon="9.642051905">
      <ele>166.45</ele>
    </trkpt>
    <trkpt lat="44.174250858" lon="9.642918091">
      <ele>174.14</ele>
    </trkpt>
    <trkpt lat="44.174106857" lon="9.643716132">
      <ele>181.83</ele>
    </trkpt>
    <trkpt lat="44.174097134" lon="9.644274786">
      <ele>181.83</ele>
    </trkpt>
    <trkpt lat="44.17402287" lon="9.644491542">
      <ele>186.63</ele>
    </trkpt>
    <trkpt lat="44.173830003" lon="9.644587515">
      <ele>189.52</ele>
    </trkpt>
    <trkpt lat="44.173631519" lon="9.644573769">
      <ele>191.44</ele>
    </trkpt>
    <trkpt lat="44.173445692" lon="9.644531021">
      <ele>193.36</ele>
    </trkpt>
    <trkpt lat="44.173083259" lon="9.644327676">
      <ele>198.17</ele>
    </trkpt>
    <trkpt lat="44.17309734" lon="9.644490452">
      <ele>197.69</ele>
    </trkpt>
    <trkpt lat="44.173632441" lon="9.644804355">
      <ele>204.9</ele>
    </trkpt>
    <trkpt lat="44.173986744" lon="9.645119514">
      <ele>208.26</ele>
    </trkpt>
    <trkpt lat="44.174151029" lon="9.645071067">
      <ele>210.19</ele>
    </trkpt>
    <trkpt lat="44.174345993" lon="9.64451476">
      <ele>214.03</ele>
    </trkpt>
    <trkpt lat="44.174464513" lon="9.643937331">
      <ele>217.4</ele>
    </trkpt>
    <trkpt lat="44.174585128" lon="9.643758042">
      <ele>219.32</ele>
    </trkpt>
    <trkpt lat="44.174686046" lon="9.643908245">
      <ele>220.76</ele>
    </trkpt>
    <trkpt lat="44.174374156" lon="9.645183971">
      <ele>224.61</ele>
    </trkpt>
    <trkpt lat="44.174127728" lon="9.645591583">
      <ele>227.01</ele>
    </trkpt>
    <trkpt lat="44.173916504" lon="9.645562582">
      <ele>228.45</ele>
    </trkpt>
    <trkpt lat="44.173571086" lon="9.645350771">
      <ele>230.85</ele>
    </trkpt>
    <trkpt lat="44.173409734" lon="9.645473398">
      <ele>230.37</ele>
    </trkpt>
    <trkpt lat="44.173101615" lon="9.646168007">
      <ele>237.1</ele>
    </trkpt>
    <trkpt lat="44.172982173" lon="9.64672029">
      <ele>239.99</ele>
    </trkpt>
    <trkpt lat="44.172788216" lon="9.647060093">
      <ele>244.31</ele>
    </trkpt>
    <trkpt lat="44.172754437" lon="9.648115709">
      <ele>253.44</ele>
    </trkpt>
    <trkpt lat="44.172671624" lon="9.648352917">
      <ele>254.89</ele>
    </trkpt>
    <trkpt lat="44.172461992" lon="9.648364736">
      <ele>253.93</ele>
    </trkpt>
    <trkpt lat="44.171809629" lon="9.64779879">
      <ele>256.33</ele>
    </trkpt>
    <trkpt lat="44.171675099" lon="9.647955783">
      <ele>259.69</ele>
    </trkpt>
    <trkpt lat="44.17148374" lon="9.648772348">
      <ele>266.42</ele>
    </trkpt>
    <trkpt lat="44.17148374" lon="9.649901474">
      <ele>277.96</ele>
    </trkpt>
    <trkpt lat="44.171411237" lon="9.650498684">
      <ele>281.8</ele>
    </trkpt>
    <trkpt lat="44.171309229" lon="9.650758859">
      <ele>284.69</ele>
    </trkpt>
    <trkpt lat="44.171119798" lon="9.650777299">
      <ele>286.61</ele>
    </trkpt>
    <trkpt lat="44.170716126" lon="9.650604213">
      <ele>291.9</ele>
    </trkpt>
    <trkpt lat="44.170396524" lon="9.650260387">
      <ele>293.82</ele>
    </trkpt>
    <trkpt lat="44.170206757" lon="9.650214957">
      <ele>295.26</ele>
    </trkpt>
    <trkpt lat="44.169877516" lon="9.650551239">
      <ele>297.18</ele>
    </trkpt>
    <trkpt lat="44.169464791" lon="9.651510883">
      <ele>302.47</ele>
    </trkpt>
    <trkpt lat="44.16914192" lon="9.651806178">
      <ele>304.39</ele>
    </trkpt>
    <trkpt lat="44.168750234" lon="9.652005835">
      <ele>305.84</ele>
    </trkpt>
    <trkpt lat="44.168339605" lon="9.652591059">
      <ele>310.64</ele>
    </trkpt>
    <trkpt lat="44.167995863" lon="9.652852323">
      <ele>313.05</ele>
    </trkpt>
    <trkpt lat="44.167772988" lon="9.652884342">
      <ele>314.01</ele>
    </trkpt>
    <trkpt lat="44.167558243" lon="9.652815275">
      <ele>315.45</ele>
    </trkpt>
    <trkpt lat="44.166233987" lon="9.65172085">
      <ele>324.58</ele>
    </trkpt>
    <trkpt lat="44.165295381" lon="9.651093297">
      <ele>327.47</ele>
    </trkpt>
    <trkpt lat="44.16482239" lon="9.650670765">
      <ele>327.95</ele>
    </trkpt>
    <trkpt lat="44.163965089" lon="9.649695279">
      <ele>328.91</ele>
    </trkpt>
    <trkpt lat="44.163653282" lon="9.649688574">
      <ele>341.41</ele>
    </trkpt>
    <trkpt lat="44.163470808" lon="9.649568293">
      <ele>345.25</ele>
    </trkpt>
    <trkpt lat="44.163269559" lon="9.649601821">
      <ele>347.17</ele>
    </trkpt>
    <trkpt lat="44.163169311" lon="9.649813799">
      <ele>348.62</ele>
    </trkpt>
    <trkpt lat="44.163274085" lon="9.650042374">
      <ele>349.58</ele>
    </trkpt>
    <trkpt lat="44.163682703" lon="9.650298608">
      <ele>354.38</ele>
    </trkpt>
    <trkpt lat="44.163810611" lon="9.650485944">
      <ele>357.27</ele>
    </trkpt>
    <trkpt lat="44.163794601" lon="9.650810743">
      <ele>361.59</ele>
    </trkpt>
    <trkpt lat="44.163606511" lon="9.651345089">
      <ele>367.36</ele>
    </trkpt>
    <trkpt lat="44.163594274" lon="9.651663601">
      <ele>371.21</ele>
    </trkpt>
    <trkpt lat="44.163950505" lon="9.652051851">
      <ele>374.57</ele>
    </trkpt>
    <trkpt lat="44.164639832" lon="9.652423002">
      <ele>376.01</ele>
    </trkpt>
    <trkpt lat="44.164783331" lon="9.652587958">
      <ele>377.94</ele>
    </trkpt>
    <trkpt lat="44.164765142" lon="9.652890544">
      <ele>382.74</ele>
    </trkpt>
    <trkpt lat="44.164478732" lon="9.653409887">
      <ele>388.99</ele>
    </trkpt>
    <trkpt lat="44.164372114" lon="9.653733093">
      <ele>394.28</ele>
    </trkpt>
    <trkpt lat="44.164471021" lon="9.65399662">
      <ele>400.53</ele>
    </trkpt>
    <trkpt lat="44.16543276" lon="9.655079395">
      <ele>416.39</ele>
    </trkpt>
    <trkpt lat="44.165650187" lon="9.6562423">
      <ele>423.12</ele>
    </trkpt>
    <trkpt lat="44.165579779" lon="9.656508928">
      <ele>425.04</ele>
    </trkpt>
    <trkpt lat="44.165366376" lon="9.656562237">
      <ele>425.52</ele>
    </trkpt>
    <trkpt lat="44.164959854" lon="9.65636191">
      <ele>430.33</ele>
    </trkpt>
    <trkpt lat="44.164261222" lon="9.656294938">
      <ele>433.69</ele>
    </trkpt>
    <trkpt lat="44.164085202" lon="9.6564034">
      <ele>434.65</ele>
    </trkpt>
    <trkpt lat="44.163783034" lon="9.657189958">
      <ele>436.58</ele>
    </trkpt>
    <trkpt lat="44.163605003" lon="9.657272603">
      <ele>437.06</ele>
    </trkpt>
    <trkpt lat="44.163210467" lon="9.657317195">
      <ele>439.94</ele>
    </trkpt>
    <trkpt lat="44.16308851" lon="9.657541411">
      <ele>443.79</ele>
    </trkpt>
    <trkpt lat="44.163093204" lon="9.65781047">
      <ele>446.19</ele>
    </trkpt>
    <trkpt lat="44.163336698" lon="9.659193233">
      <ele>452.44</ele>
    </trkpt>
    <trkpt lat="44.16335078" lon="9.65954083">
      <ele>453.4</ele>
    </trkpt>
    <trkpt lat="44.163259333" lon="9.659810644">
      <ele>454.84</ele>
    </trkpt>
    <trkpt lat="44.162863372" lon="9.660047013">
      <ele>455.8</ele>
    </trkpt>
    <trkpt lat="44.1626094" lon="9.660004936">
      <ele>456.28</ele>
    </trkpt>
    <trkpt lat="44.162267921" lon="9.65972825">
      <ele>458.69</ele>
    </trkpt>
    <trkpt lat="44.162089638" lon="9.659678461">
      <ele>460.61</ele>
    </trkpt>
    <trkpt lat="44.161904482" lon="9.659656165">
      <ele>462.53</ele>
    </trkpt>
    <trkpt lat="44.161676913" lon="9.659729674">
      <ele>465.42</ele>
    </trkpt>
    <trkpt lat="44.161240384" lon="9.660919821">
      <ele>477.43</ele>
    </trkpt>
    <trkpt lat="44.161227141" lon="9.661183013">
      <ele>480.32</ele>
    </trkpt>
    <trkpt lat="44.16135815" lon="9.661748791">
      <ele>486.08</ele>
    </trkpt>
    <trkpt lat="44.160740236" lon="9.663703702">
      <ele>495.7</ele>
    </trkpt>
    <trkpt lat="44.160383586" lon="9.664299488">
      <ele>497.14</ele>
    </trkpt>
    <trkpt lat="44.159731893" lon="9.665162154">
      <ele>498.58</ele>
    </trkpt>
    <trkpt lat="44.159384295" lon="9.665392824">
      <ele>499.54</ele>
    </trkpt>
    <trkpt lat="44.158801585" lon="9.665625421">
      <ele>500.02</ele>
    </trkpt>
    <trkpt lat="44.157406082" lon="9.665945526">
      <ele>503.87</ele>
    </trkpt>
    <trkpt lat="44.1566124" lon="9.666280048">
      <ele>508.19</ele>
    </trkpt>
    <trkpt lat="44.155932209" lon="9.666350959">
      <ele>509.64</ele>
    </trkpt>
    <trkpt lat="44.15525604" lon="9.666605601">
      <ele>511.08</ele>
    </trkpt>
    <trkpt lat="44.155108435" lon="9.66676536">
      <ele>511.08</ele>
    </trkpt>
    <trkpt lat="44.155052276" lon="9.667004831">
      <ele>511.08</ele>
    </trkpt>
    <trkpt lat="44.155117907" lon="9.667788791">
      <ele>513.48</ele>
    </trkpt>
    <trkpt lat="44.154945659" lon="9.668582724">
      <ele>515.4</ele>
    </trkpt>
    <trkpt lat="44.154947419" lon="9.669133835">
      <ele>516.37</ele>
    </trkpt>
    <trkpt lat="44.154836442" lon="9.669341622">
      <ele>516.85</ele>
    </trkpt>
    <trkpt lat="44.154658914" lon="9.669386381">
      <ele>517.33</ele>
    </trkpt>
    <trkpt lat="44.153871434" lon="9.668980194">
      <ele>522.61</ele>
    </trkpt>
    <trkpt lat="44.153686445" lon="9.669006597">
      <ele>523.58</ele>
    </trkpt>
    <trkpt lat="44.153108429" lon="9.669503979">
      <ele>527.42</ele>
    </trkpt>
    <trkpt lat="44.153055456" lon="9.669861719">
      <ele>529.82</ele>
    </trkpt>
    <trkpt lat="44.153341698" lon="9.671449838">
      <ele>537.99</ele>
    </trkpt>
    <trkpt lat="44.153447142" lon="9.671728117">
      <ele>539.44</ele>
    </trkpt>
    <trkpt lat="44.154315675" lon="9.673333755">
      <ele>540.88</ele>
    </trkpt>
    <trkpt lat="44.15446898" lon="9.673483372">
      <ele>538.96</ele>
    </trkpt>
    <trkpt lat="44.154814146" lon="9.673655033">
      <ele>538.96</ele>
    </trkpt>
    <trkpt lat="44.155772114" lon="9.673804315">
      <ele>531.27</ele>
    </trkpt>
    <trkpt lat="44.156756653" lon="9.673044328">
      <ele>522.13</ele>
    </trkpt>
    <trkpt lat="44.156934265" lon="9.672998395">
      <ele>520.69</ele>
    </trkpt>
    <trkpt lat="44.157105507" lon="9.673069725">
      <ele>519.73</ele>
    </trkpt>
    <trkpt lat="44.157236349" lon="9.673273573">
      <ele>519.25</ele>
    </trkpt>
    <trkpt lat="44.157373728" lon="9.673756706">
      <ele>517.81</ele>
    </trkpt>
    <trkpt lat="44.157612529" lon="9.674157277">
      <ele>515.4</ele>
    </trkpt>
    <trkpt lat="44.157807073" lon="9.674195247">
      <ele>514.92</ele>
    </trkpt>
    <trkpt lat="44.15800455" lon="9.67413364">
      <ele>514.44</ele>
    </trkpt>
    <trkpt lat="44.158339743" lon="9.673906239">
      <ele>513.48</ele>
    </trkpt>
    <trkpt lat="44.158607209" lon="9.673540955">
      <ele>511.56</ele>
    </trkpt>
    <trkpt lat="44.158683484" lon="9.673299724">
      <ele>511.08</ele>
    </trkpt>
    <trkpt lat="44.158762442" lon="9.672233295">
      <ele>501.95</ele>
    </trkpt>
    <trkpt lat="44.158831676" lon="9.672000362">
      <ele>500.02</ele>
    </trkpt>
    <trkpt lat="44.159007026" lon="9.671936072">
      <ele>499.54</ele>
    </trkpt>
    <trkpt lat="44.15910786" lon="9.672138579">
      <ele>498.58</ele>
    </trkpt>
    <trkpt lat="44.158853721" lon="9.673947059">
      <ele>488.01</ele>
    </trkpt>
    <trkpt lat="44.158673342" lon="9.674404375">
      <ele>486.56</ele>
    </trkpt>
    <trkpt lat="44.15853722" lon="9.674590956">
      <ele>485.6</ele>
    </trkpt>
    <trkpt lat="44.157714285" lon="9.675311381">
      <ele>479.35</ele>
    </trkpt>
    <trkpt lat="44.157520328" lon="9.67536821">
      <ele>475.51</ele>
    </trkpt>
    <trkpt lat="44.156941641" lon="9.675283637">
      <ele>471.18</ele>
    </trkpt>
    <trkpt lat="44.156763777" lon="9.675363097">
      <ele>470.7</ele>
    </trkpt>
    <trkpt lat="44.156621452" lon="9.675528221">
      <ele>469.26</ele>
    </trkpt>
    <trkpt lat="44.156554062" lon="9.675750593">
      <ele>467.82</ele>
    </trkpt>
    <trkpt lat="44.156624554" lon="9.675992411">
      <ele>466.86</ele>
    </trkpt>
    <trkpt lat="44.157273481" lon="9.677240308">
      <ele>459.65</ele>
    </trkpt>
    <trkpt lat="44.157362245" lon="9.677469973">
      <ele>455.8</ele>
    </trkpt>
    <trkpt lat="44.157359311" lon="9.677725956">
      <ele>455.32</ele>
    </trkpt>
    <trkpt lat="44.157229392" lon="9.677917818">
      <ele>454.36</ele>
    </trkpt>
    <trkpt lat="44.156218199" lon="9.678537576">
      <ele>450.52</ele>
    </trkpt>
    <trkpt lat="44.155998677" lon="9.678938314">
      <ele>444.75</ele>
    </trkpt>
    <trkpt lat="44.155921899" lon="9.679179126">
      <ele>443.31</ele>
    </trkpt>
    <trkpt lat="44.155874206" lon="9.680203144">
      <ele>438.5</ele>
    </trkpt>
    <trkpt lat="44.155814359" lon="9.680458792">
      <ele>436.58</ele>
    </trkpt>
    <trkpt lat="44.1551858" lon="9.681421369">
      <ele>429.85</ele>
    </trkpt>
    <trkpt lat="44.155026712" lon="9.681894863">
      <ele>428.4</ele>
    </trkpt>
    <trkpt lat="44.155020677" lon="9.682164341">
      <ele>426.96</ele>
    </trkpt>
    <trkpt lat="44.155292921" lon="9.683448281">
      <ele>417.83</ele>
    </trkpt>
    <trkpt lat="44.155617971" lon="9.683699319">
      <ele>420.71</ele>
    </trkpt>
    <trkpt lat="44.156001527" lon="9.683765704">
      <ele>426.0</ele>
    </trkpt>
    <trkpt lat="44.156983634" lon="9.682516884">
      <ele>421.19</ele>
    </trkpt>
    <trkpt lat="44.157915115" lon="9.68206753">
      <ele>408.22</ele>
    </trkpt>
    <trkpt lat="44.159062179" lon="9.681105958">
      <ele>398.6</ele>
    </trkpt>
    <trkpt lat="44.159446321" lon="9.680919629">
      <ele>397.16</ele>
    </trkpt>
    <trkpt lat="44.161225716" lon="9.680397185">
      <ele>384.66</ele>
    </trkpt>
    <trkpt lat="44.161611283" lon="9.680482764">
      <ele>383.22</ele>
    </trkpt>
    <trkpt lat="44.162351573" lon="9.680832541">
      <ele>380.34</ele>
    </trkpt>
    <trkpt lat="44.162692046" lon="9.681088775">
      <ele>379.38</ele>
    </trkpt>
    <trkpt lat="44.163042912" lon="9.681748515">
      <ele>378.42</ele>
    </trkpt>
    <trkpt lat="44.163441304" lon="9.682328794">
      <ele>377.45</ele>
    </trkpt>
    <trkpt lat="44.163561752" lon="9.6825484">
      <ele>376.97</ele>
    </trkpt>
    <trkpt lat="44.163712459" lon="9.683341496">
      <ele>372.17</ele>
    </trkpt>
    <trkpt lat="44.164195256" lon="9.684170382">
      <ele>370.24</ele>
    </trkpt>
    <trkpt lat="44.164872514" lon="9.684737166">
      <ele>367.84</ele>
    </trkpt>
    <trkpt lat="44.165314157" lon="9.685472595">
      <ele>360.15</ele>
    </trkpt>
    <trkpt lat="44.16545623" lon="9.685762189">
      <ele>362.07</ele>
    </trkpt>
    <trkpt lat="44.165882617" lon="9.687121231">
      <ele>362.07</ele>
    </trkpt>
    <trkpt lat="44.166043466" lon="9.687311668">
      <ele>362.55</ele>
    </trkpt>
    <trkpt lat="44.166395422" lon="9.687519204">
      <ele>358.71</ele>
    </trkpt>
    <trkpt lat="44.166562138" lon="9.687688015">
      <ele>356.79</ele>
    </trkpt>
    <trkpt lat="44.166895989" lon="9.688324034">
      <ele>354.38</ele>
    </trkpt>
    <trkpt lat="44.167341236" lon="9.688838683">
      <ele>350.54</ele>
    </trkpt>
    <trkpt lat="44.167713895" lon="9.689759435">
      <ele>345.25</ele>
    </trkpt>
    <trkpt lat="44.168161824" lon="9.690329069">
      <ele>341.41</ele>
    </trkpt>
    <trkpt lat="44.16828881" lon="9.69084464">
      <ele>339.96</ele>
    </trkpt>
    <trkpt lat="44.168329043" lon="9.691630779">
      <ele>339.0</ele>
    </trkpt>
    <trkpt lat="44.168540351" lon="9.692381797">
      <ele>334.2</ele>
    </trkpt>
    <trkpt lat="44.168555439" lon="9.693194758">
      <ele>330.83</ele>
    </trkpt>
    <trkpt lat="44.168419736" lon="9.693978634">
      <ele>327.47</ele>
    </trkpt>
    <trkpt lat="44.168461813" lon="9.694838785">
      <ele>322.66</ele>
    </trkpt>
    <trkpt lat="44.168766327" lon="9.695570692">
      <ele>338.04</ele>
    </trkpt>
    <trkpt lat="44.169039493" lon="9.69575082">
      <ele>319.3</ele>
    </trkpt>
    <trkpt lat="44.169352558" lon="9.696256416">
      <ele>317.37</ele>
    </trkpt>
    <trkpt lat="44.169435874" lon="9.69680367">
      <ele>316.89</ele>
    </trkpt>
    <trkpt lat="44.169449871" lon="9.6975738">
      <ele>317.85</ele>
    </trkpt>
    <trkpt lat="44.169643326" lon="9.698378295">
      <ele>319.78</ele>
    </trkpt>
    <trkpt lat="44.169470491" lon="9.69946132">
      <ele>308.24</ele>
    </trkpt>
    <trkpt lat="44.169227248" lon="9.699847475">
      <ele>301.51</ele>
    </trkpt>
    <trkpt lat="44.169257507" lon="9.700410068">
      <ele>298.63</ele>
    </trkpt>
    <trkpt lat="44.16943118" lon="9.701202661">
      <ele>302.47</ele>
    </trkpt>
    <trkpt lat="44.169370327" lon="9.702002294">
      <ele>302.95</ele>
    </trkpt>
    <trkpt lat="44.169527236" lon="9.702232294">
      <ele>305.36</ele>
    </trkpt>
    <trkpt lat="44.170077508" lon="9.702579388">
      <ele>296.7</ele>
    </trkpt>
    <trkpt lat="44.17035914" lon="9.703406179">
      <ele>298.15</ele>
    </trkpt>
    <trkpt lat="44.170935228" lon="9.703510869">
      <ele>289.01</ele>
    </trkpt>
    <trkpt lat="44.171432192" lon="9.703746568">
      <ele>283.73</ele>
    </trkpt>
    <trkpt lat="44.171715416" lon="9.704184523">
      <ele>277.0</ele>
    </trkpt>
    <trkpt lat="44.171916498" lon="9.704748876">
      <ele>271.23</ele>
    </trkpt>
    <trkpt lat="44.172009202" lon="9.705332676">
      <ele>269.31</ele>
    </trkpt>
    <trkpt lat="44.17192312" lon="9.7069762">
      <ele>258.25</ele>
    </trkpt>
    <trkpt lat="44.17181625" lon="9.707486993">
      <ele>256.33</ele>
    </trkpt>
    <trkpt lat="44.1716062" lon="9.707906758">
      <ele>254.41</ele>
    </trkpt>
    <trkpt lat="44.171530176" lon="9.70839601">
      <ele>252.48</ele>
    </trkpt>
    <trkpt lat="44.17167644" lon="9.7086473">
      <ele>250.08</ele>
    </trkpt>
    <trkpt lat="44.171885233" lon="9.709364036">
      <ele>249.12</ele>
    </trkpt>
    <trkpt lat="44.172101235" lon="9.709822107">
      <ele>249.6</ele>
    </trkpt>
    <trkpt lat="44.172063265" lon="9.710056465">
      <ele>262.58</ele>
    </trkpt>
    <trkpt lat="44.171857322" lon="9.710202562">
      <ele>300.55</ele>
    </trkpt>
    <trkpt lat="44.172034934" lon="9.710639343">
      <ele>245.75</ele>
    </trkpt>
    <trkpt lat="44.171874169" lon="9.711054666">
      <ele>243.83</ele>
    </trkpt>
    <trkpt lat="44.171881964" lon="9.711260274">
      <ele>243.35</ele>
    </trkpt>
    <trkpt lat="44.171661353" lon="9.711983716">
      <ele>243.35</ele>
    </trkpt>
    <trkpt lat="44.171692785" lon="9.712238191">
      <ele>243.83</ele>
    </trkpt>
    <trkpt lat="44.172148844" lon="9.713029107">
      <ele>233.26</ele>
    </trkpt>
    <trkpt lat="44.172328971" lon="9.713149723">
      <ele>227.49</ele>
    </trkpt>
    <trkpt lat="44.173661023" lon="9.713639813">
      <ele>220.76</ele>
    </trkpt>
    <trkpt lat="44.173828578" lon="9.713776605">
      <ele>219.32</ele>
    </trkpt>
    <trkpt lat="44.173943913" lon="9.713968467">
      <ele>218.36</ele>
    </trkpt>
    <trkpt lat="44.174212972" lon="9.715061383">
      <ele>219.8</ele>
    </trkpt>
    <trkpt lat="44.174884697" lon="9.716149187">
      <ele>207.78</ele>
    </trkpt>
    <trkpt lat="44.175221985" lon="9.717164319">
      <ele>192.4</ele>
    </trkpt>
    <trkpt lat="44.175246377" lon="9.718025057">
      <ele>194.8</ele>
    </trkpt>
    <trkpt lat="44.175400939" lon="9.718559403">
      <ele>195.77</ele>
    </trkpt>
    <trkpt lat="44.175623143" lon="9.718987383">
      <ele>194.8</ele>
    </trkpt>
    <trkpt lat="44.176125554" lon="9.719460541">
      <ele>191.92</ele>
    </trkpt>
    <trkpt lat="44.176306687" lon="9.719933532">
      <ele>190.0</ele>
    </trkpt>
    <trkpt lat="44.176308531" lon="9.721518215">
      <ele>181.35</ele>
    </trkpt>
    <trkpt lat="44.176079705" lon="9.722260265">
      <ele>178.46</ele>
    </trkpt>
    <trkpt lat="44.176057661" lon="9.722519936">
      <ele>177.5</ele>
    </trkpt>
    <trkpt lat="44.176188083" lon="9.723033076">
      <ele>177.02</ele>
    </trkpt>
    <trkpt lat="44.177281922" lon="9.72512369">
      <ele>171.73</ele>
    </trkpt>
    <trkpt lat="44.177889945" lon="9.726816667">
      <ele>178.94</ele>
    </trkpt>
    <trkpt lat="44.177894639" lon="9.727418236">
      <ele>183.27</ele>
    </trkpt>
    <trkpt lat="44.17772348" lon="9.72796197">
      <ele>187.11</ele>
    </trkpt>
    <trkpt lat="44.177735131" lon="9.72824729">
      <ele>188.08</ele>
    </trkpt>
    <trkpt lat="44.178112233" lon="9.729457302">
      <ele>194.32</ele>
    </trkpt>
    <trkpt lat="44.178333515" lon="9.729943704">
      <ele>199.61</ele>
    </trkpt>
    <trkpt lat="44.178383052" lon="9.730200944">
      <ele>201.53</ele>
    </trkpt>
    <trkpt lat="44.178331671" lon="9.730500681">
      <ele>203.46</ele>
    </trkpt>
    <trkpt lat="44.177988851" lon="9.730825732">
      <ele>206.82</ele>
    </trkpt>
    <trkpt lat="44.17716315" lon="9.731123541">
      <ele>207.78</ele>
    </trkpt>
    <trkpt lat="44.176989058" lon="9.731239714">
      <ele>206.34</ele>
    </trkpt>
    <trkpt lat="44.176857295" lon="9.731428307">
      <ele>205.86</ele>
    </trkpt>
    <trkpt lat="44.17664079" lon="9.732232047">
      <ele>205.38</ele>
    </trkpt>
    <trkpt lat="44.176344071" lon="9.732578471">
      <ele>202.01</ele>
    </trkpt>
    <trkpt lat="44.17616629" lon="9.732685592">
      <ele>202.01</ele>
    </trkpt>
    <trkpt lat="44.175916091" lon="9.732702356">
      <ele>201.05</ele>
    </trkpt>
    <trkpt lat="44.175703106" lon="9.732596911">
      <ele>200.57</ele>
    </trkpt>
    <trkpt lat="44.174922667" lon="9.731418248">
      <ele>200.57</ele>
    </trkpt>
    <trkpt lat="44.174703229" lon="9.731360162">
      <ele>200.57</ele>
    </trkpt>
    <trkpt lat="44.174540285" lon="9.731550012">
      <ele>201.05</ele>
    </trkpt>
    <trkpt lat="44.17442604" lon="9.73181136">
      <ele>202.01</ele>
    </trkpt>
    <trkpt lat="44.174531149" lon="9.732082766">
      <ele>203.46</ele>
    </trkpt>
    <trkpt lat="44.174707253" lon="9.732209584">
      <ele>205.38</ele>
    </trkpt>
    <trkpt lat="44.174876148" lon="9.732442098">
      <ele>206.82</ele>
    </trkpt>
    <trkpt lat="44.1750059" lon="9.732958758">
      <ele>209.7</ele>
    </trkpt>
    <trkpt lat="44.175130455" lon="9.733220357">
      <ele>211.63</ele>
    </trkpt>
    <trkpt lat="44.175201701" lon="9.733471982">
      <ele>214.03</ele>
    </trkpt>
    <trkpt lat="44.175134059" lon="9.734113282">
      <ele>218.36</ele>
    </trkpt>
    <trkpt lat="44.175170269" lon="9.734364236">
      <ele>220.76</ele>
    </trkpt>
    <trkpt lat="44.175358443" lon="9.734356273">
      <ele>223.16</ele>
    </trkpt>
    <trkpt lat="44.175663963" lon="9.734050082">
      <ele>227.49</ele>
    </trkpt>
    <trkpt lat="44.17588097" lon="9.734056368">
      <ele>229.41</ele>
    </trkpt>
    <trkpt lat="44.176052548" lon="9.734176481">
      <ele>231.33</ele>
    </trkpt>
    <trkpt lat="44.176154556" lon="9.734385945">
      <ele>233.26</ele>
    </trkpt>
    <trkpt lat="44.176149527" lon="9.734667744">
      <ele>234.7</ele>
    </trkpt>
    <trkpt lat="44.176049614" lon="9.73495801">
      <ele>235.18</ele>
    </trkpt>
    <trkpt lat="44.17611164" lon="9.735514065">
      <ele>234.7</ele>
    </trkpt>
    <trkpt lat="44.176174756" lon="9.735771138">
      <ele>234.22</ele>
    </trkpt>
    <trkpt lat="44.176821252" lon="9.736953741">
      <ele>234.7</ele>
    </trkpt>
    <trkpt lat="44.177218555" lon="9.738890128">
      <ele>237.58</ele>
    </trkpt>
    <trkpt lat="44.177433383" lon="9.739345852">
      <ele>239.51</ele>
    </trkpt>
    <trkpt lat="44.177822219" lon="9.739626478">
      <ele>241.43</ele>
    </trkpt>
    <trkpt lat="44.177951133" lon="9.739803085">
      <ele>241.91</ele>
    </trkpt>
    <trkpt lat="44.178258833" lon="9.740579166">
      <ele>245.27</ele>
    </trkpt>
    <trkpt lat="44.178299066" lon="9.740862055">
      <ele>246.23</ele>
    </trkpt>
    <trkpt lat="44.178262688" lon="9.741116278">
      <ele>244.79</ele>
    </trkpt>
    <trkpt lat="44.177993378" lon="9.741802923">
      <ele>241.43</ele>
    </trkpt>
    <trkpt lat="44.177758433" lon="9.742209949">
      <ele>236.62</ele>
    </trkpt>
    <trkpt lat="44.177724738" lon="9.742473979">
      <ele>234.22</ele>
    </trkpt>
    <trkpt lat="44.177752566" lon="9.742740942">
      <ele>233.26</ele>
    </trkpt>
    <trkpt lat="44.178046687" lon="9.743415937">
      <ele>231.81</ele>
    </trkpt>
    <trkpt lat="44.178091949" lon="9.745199354">
      <ele>221.72</ele>
    </trkpt>
    <trkpt lat="44.178425716" lon="9.746161597">
      <ele>220.28</ele>
    </trkpt>
    <trkpt lat="44.178443486" lon="9.746426633">
      <ele>219.32</ele>
    </trkpt>
    <trkpt lat="44.178309962" lon="9.746910268">
      <ele>214.99</ele>
    </trkpt>
    <trkpt lat="44.178079376" lon="9.747603536">
      <ele>209.22</ele>
    </trkpt>
    <trkpt lat="44.177923389" lon="9.747743094">
      <ele>206.34</ele>
    </trkpt>
    <trkpt lat="44.177542264" lon="9.747785423">
      <ele>203.46</ele>
    </trkpt>
    <trkpt lat="44.177361801" lon="9.747744687">
      <ele>202.01</ele>
    </trkpt>
    <trkpt lat="44.177281503" lon="9.747505803">
      <ele>201.05</ele>
    </trkpt>
    <trkpt lat="44.177480154" lon="9.747084528">
      <ele>197.69</ele>
    </trkpt>
    <trkpt lat="44.177534971" lon="9.746833658">
      <ele>195.77</ele>
    </trkpt>
    <trkpt lat="44.177463306" lon="9.746599132">
      <ele>193.36</ele>
    </trkpt>
    <trkpt lat="44.177184021" lon="9.746252457">
      <ele>191.44</ele>
    </trkpt>
    <trkpt lat="44.17698889" lon="9.746270142">
      <ele>190.48</ele>
    </trkpt>
    <trkpt lat="44.176748414" lon="9.746958883">
      <ele>184.23</ele>
    </trkpt>
    <trkpt lat="44.176583709" lon="9.747082181">
      <ele>181.35</ele>
    </trkpt>
    <trkpt lat="44.176415568" lon="9.747141693">
      <ele>178.94</ele>
    </trkpt>
    <trkpt lat="44.176235609" lon="9.747128366">
      <ele>177.02</ele>
    </trkpt>
    <trkpt lat="44.175524153" lon="9.7468438">
      <ele>171.73</ele>
    </trkpt>
    <trkpt lat="44.1754058" lon="9.746647831">
      <ele>170.29</ele>
    </trkpt>
    <trkpt lat="44.175348552" lon="9.746397631">
      <ele>169.33</ele>
    </trkpt>
    <trkpt lat="44.175479729" lon="9.745327849">
      <ele>165.96</ele>
    </trkpt>
    <trkpt lat="44.175441507" lon="9.745091563">
      <ele>165.0</ele>
    </trkpt>
    <trkpt lat="44.175267415" lon="9.745057952">
      <ele>162.6</ele>
    </trkpt>
    <trkpt lat="44.174800878" lon="9.74548853">
      <ele>155.39</ele>
    </trkpt>
    <trkpt lat="44.174671881" lon="9.745676201">
      <ele>154.43</ele>
    </trkpt>
    <trkpt lat="44.174418664" lon="9.746392434">
      <ele>151.06</ele>
    </trkpt>
    <trkpt lat="44.174273657" lon="9.746566024">
      <ele>148.66</ele>
    </trkpt>
    <trkpt lat="44.173713243" lon="9.746678676">
      <ele>142.89</ele>
    </trkpt>
    <trkpt lat="44.173543509" lon="9.746776661">
      <ele>140.01</ele>
    </trkpt>
    <trkpt lat="44.173354078" lon="9.747242024">
      <ele>136.16</ele>
    </trkpt>
    <trkpt lat="44.173332788" lon="9.747767234">
      <ele>133.28</ele>
    </trkpt>
    <trkpt lat="44.173193565" lon="9.748262437">
      <ele>128.47</ele>
    </trkpt>
    <trkpt lat="44.172982844" lon="9.749583425">
      <ele>120.3</ele>
    </trkpt>
    <trkpt lat="44.173054509" lon="9.750082316">
      <ele>116.94</ele>
    </trkpt>
    <trkpt lat="44.173329184" lon="9.751029387">
      <ele>110.69</ele>
    </trkpt>
    <trkpt lat="44.173405292" lon="9.75152459">
      <ele>106.36</ele>
    </trkpt>
    <trkpt lat="44.173396742" lon="9.752609208">
      <ele>101.08</ele>
    </trkpt>
    <trkpt lat="44.173533535" lon="9.75337347">
      <ele>99.63</ele>
    </trkpt>
    <trkpt lat="44.173500929" lon="9.753892897">
      <ele>99.15</ele>
    </trkpt>
    <trkpt lat="44.173424821" lon="9.754122645">
      <ele>99.63</ele>
    </trkpt>
    <trkpt lat="44.170959201" lon="9.755470203">
      <ele>98.67</ele>
    </trkpt>
    <trkpt lat="44.16979244" lon="9.757191511">
      <ele>102.52</ele>
    </trkpt>
    <trkpt lat="44.169604518" lon="9.757295614">
      <ele>103.48</ele>
    </trkpt>
    <trkpt lat="44.169425648" lon="9.757204335">
      <ele>103.96</ele>
    </trkpt>
    <trkpt lat="44.169107387" lon="9.756865622">
      <ele>104.44</ele>
    </trkpt>
    <trkpt lat="44.168895492" lon="9.756852211">
      <ele>104.92</ele>
    </trkpt>
    <trkpt lat="44.168679072" lon="9.756935444">
      <ele>105.4</ele>
    </trkpt>
    <trkpt lat="44.168521995" lon="9.757174747">
      <ele>106.36</ele>
    </trkpt>
    <trkpt lat="44.168161321" lon="9.758422142">
      <ele>110.69</ele>
    </trkpt>
    <trkpt lat="44.168046322" lon="9.758653399">
      <ele>112.13</ele>
    </trkpt>
    <trkpt lat="44.167870721" lon="9.758739145">
      <ele>113.09</ele>
    </trkpt>
    <trkpt lat="44.166967236" lon="9.758424908">
      <ele>118.38</ele>
    </trkpt>
    <trkpt lat="44.166740505" lon="9.758378975">
      <ele>119.82</ele>
    </trkpt>
    <trkpt lat="44.166506734" lon="9.758412587">
      <ele>120.78</ele>
    </trkpt>
    <trkpt lat="44.166088393" lon="9.758658344">
      <ele>122.71</ele>
    </trkpt>
    <trkpt lat="44.165227236" lon="9.759625196">
      <ele>123.67</ele>
    </trkpt>
    <trkpt lat="44.165044762" lon="9.759776155">
      <ele>123.67</ele>
    </trkpt>
    <trkpt lat="44.164843261" lon="9.759805407">
      <ele>124.63</ele>
    </trkpt>
    <trkpt lat="44.164669001" lon="9.759704825">
      <ele>125.59</ele>
    </trkpt>
    <trkpt lat="44.164244374" lon="9.758794466">
      <ele>129.43</ele>
    </trkpt>
    <trkpt lat="44.163425295" lon="9.757839767">
      <ele>132.32</ele>
    </trkpt>
    <trkpt lat="44.163266709" lon="9.757687049">
      <ele>132.8</ele>
    </trkpt>
    <trkpt lat="44.163069064" lon="9.757610774">
      <ele>133.28</ele>
    </trkpt>
    <trkpt lat="44.162866389" lon="9.757698197">
      <ele>133.76</ele>
    </trkpt>
    <trkpt lat="44.154871311" lon="9.764343202">
      <ele>149.14</ele>
    </trkpt>
    <trkpt lat="44.154264797" lon="9.764741175">
      <ele>151.06</ele>
    </trkpt>
    <trkpt lat="44.152060272" lon="9.765750188">
      <ele>158.27</ele>
    </trkpt>
    <trkpt lat="44.151099203" lon="9.765763264">
      <ele>161.16</ele>
    </trkpt>
    <trkpt lat="44.150733668" lon="9.765686234">
      <ele>161.64</ele>
    </trkpt>
    <trkpt lat="44.150246931" lon="9.765783548">
      <ele>162.6</ele>
    </trkpt>
    <trkpt lat="44.149772935" lon="9.766057972">
      <ele>165.0</ele>
    </trkpt>
    <trkpt lat="44.149374962" lon="9.766418897">
      <ele>167.89</ele>
    </trkpt>
    <trkpt lat="44.148926865" lon="9.766544625">
      <ele>172.21</ele>
    </trkpt>
    <trkpt lat="44.148477679" lon="9.766799184">
      <ele>176.06</ele>
    </trkpt>
    <trkpt lat="44.148233347" lon="9.766783677">
      <ele>177.5</ele>
    </trkpt>
    <trkpt lat="44.147798661" lon="9.766482767">
      <ele>181.35</ele>
    </trkpt>
    <trkpt lat="44.146893164" lon="9.766080687">
      <ele>185.19</ele>
    </trkpt>
    <trkpt lat="44.146512542" lon="9.766200045">
      <ele>185.67</ele>
    </trkpt>
    <trkpt lat="44.146302911" lon="9.766355865">
      <ele>185.67</ele>
    </trkpt>
    <trkpt lat="44.146119766" lon="9.766938658">
      <ele>187.11</ele>
    </trkpt>
    <trkpt lat="44.145575278" lon="9.767832505">
      <ele>189.52</ele>
    </trkpt>
    <trkpt lat="44.145180825" lon="9.768026881">
      <ele>189.52</ele>
    </trkpt>
    <trkpt lat="44.145042775" lon="9.76819234">
      <ele>189.04</ele>
    </trkpt>
    <trkpt lat="44.144795258" lon="9.76897588">
      <ele>189.52</ele>
    </trkpt>
    <trkpt lat="44.144618148" lon="9.769154666">
      <ele>190.0</ele>
    </trkpt>
    <trkpt lat="44.14443559" lon="9.769178219">
      <ele>190.0</ele>
    </trkpt>
    <trkpt lat="44.144043988" lon="9.769103704">
      <ele>190.96</ele>
    </trkpt>
    <trkpt lat="44.143676609" lon="9.769162294">
      <ele>191.44</ele>
    </trkpt>
    <trkpt lat="44.143494889" lon="9.769242676">
      <ele>191.44</ele>
    </trkpt>
    <trkpt lat="44.143175622" lon="9.769557668">
      <ele>191.92</ele>
    </trkpt>
    <trkpt lat="44.143058443" lon="9.769772915">
      <ele>192.88</ele>
    </trkpt>
    <trkpt lat="44.142810255" lon="9.770819228">
      <ele>193.36</ele>
    </trkpt>
    <trkpt lat="44.142680252" lon="9.771055682">
      <ele>194.32</ele>
    </trkpt>
    <trkpt lat="44.142126795" lon="9.771498917">
      <ele>194.32</ele>
    </trkpt>
    <trkpt lat="44.142009448" lon="9.771689856">
      <ele>194.32</ele>
    </trkpt>
    <trkpt lat="44.14200861" lon="9.772239625">
      <ele>193.84</ele>
    </trkpt>
    <trkpt lat="44.14210014" lon="9.772510445">
      <ele>192.4</ele>
    </trkpt>
    <trkpt lat="44.142069127" lon="9.772775397">
      <ele>193.84</ele>
    </trkpt>
    <trkpt lat="44.14176302" lon="9.77311587">
      <ele>192.88</ele>
    </trkpt>
    <trkpt lat="44.141960917" lon="9.7739005">
      <ele>192.88</ele>
    </trkpt>
    <trkpt lat="44.141826639" lon="9.774075765">
      <ele>192.88</ele>
    </trkpt>
    <trkpt lat="44.139852701" lon="9.774034359">
      <ele>194.8</ele>
    </trkpt>
    <trkpt lat="44.139591185" lon="9.774082219">
      <ele>195.77</ele>
    </trkpt>
    <trkpt lat="44.139256747" lon="9.77430786">
      <ele>198.17</ele>
    </trkpt>
    <trkpt lat="44.138435489" lon="9.775131885">
      <ele>204.42</ele>
    </trkpt>
    <trkpt lat="44.137973227" lon="9.775332883">
      <ele>207.3</ele>
    </trkpt>
    <trkpt lat="44.137545917" lon="9.775360124">
      <ele>209.7</ele>
    </trkpt>
    <trkpt lat="44.137316002" lon="9.77543531">
      <ele>211.63</ele>
    </trkpt>
    <trkpt lat="44.137002686" lon="9.775851052">
      <ele>214.99</ele>
    </trkpt>
    <trkpt lat="44.136815267" lon="9.775949288">
      <ele>216.43</ele>
    </trkpt>
    <trkpt lat="44.136183355" lon="9.775887933">
      <ele>218.84</ele>
    </trkpt>
    <trkpt lat="44.135676334" lon="9.775616275">
      <ele>224.12</ele>
    </trkpt>
    <trkpt lat="44.135508528" lon="9.775593895">
      <ele>225.57</ele>
    </trkpt>
    <trkpt lat="44.135161517" lon="9.775315616">
      <ele>223.16</ele>
    </trkpt>
    <trkpt lat="44.134975774" lon="9.775324585">
      <ele>223.16</ele>
    </trkpt>
    <trkpt lat="44.134601522" lon="9.775208328">
      <ele>218.36</ele>
    </trkpt>
    <trkpt lat="44.134454755" lon="9.775344031">
      <ele>216.43</ele>
    </trkpt>
    <trkpt lat="44.134424161" lon="9.775603702">
      <ele>214.99</ele>
    </trkpt>
    <trkpt lat="44.134513261" lon="9.776133271">
      <ele>212.59</ele>
    </trkpt>
    <trkpt lat="44.134487445" lon="9.776390428">
      <ele>212.11</ele>
    </trkpt>
    <trkpt lat="44.134375462" lon="9.776589163">
      <ele>211.63</ele>
    </trkpt>
    <trkpt lat="44.134217883" lon="9.776716987">
      <ele>208.26</ele>
    </trkpt>
    <trkpt lat="44.134126436" lon="9.777014544">
      <ele>212.11</ele>
    </trkpt>
    <trkpt lat="44.134188378" lon="9.77755392">
      <ele>210.19</ele>
    </trkpt>
    <trkpt lat="44.134094585" lon="9.777774615">
      <ele>209.22</ele>
    </trkpt>
    <trkpt lat="44.133788561" lon="9.778074352">
      <ele>206.82</ele>
    </trkpt>
    <trkpt lat="44.133248683" lon="9.779853243">
      <ele>198.17</ele>
    </trkpt>
    <trkpt lat="44.132833444" lon="9.780426733">
      <ele>194.8</ele>
    </trkpt>
    <trkpt lat="44.132634457" lon="9.781191749">
      <ele>189.04</ele>
    </trkpt>
    <trkpt lat="44.13265273" lon="9.781451002">
      <ele>189.04</ele>
    </trkpt>
    <trkpt lat="44.132741997" lon="9.78166692">
      <ele>188.08</ele>
    </trkpt>
    <trkpt lat="44.133215575" lon="9.782135133">
      <ele>188.56</ele>
    </trkpt>
    <trkpt lat="44.13352537" lon="9.782854635">
      <ele>187.11</ele>
    </trkpt>
    <trkpt lat="44.133544564" lon="9.783118665">
      <ele>188.56</ele>
    </trkpt>
    <trkpt lat="44.133480024" lon="9.783380097">
      <ele>189.52</ele>
    </trkpt>
    <trkpt lat="44.13332345" lon="9.783657202">
      <ele>204.42</ele>
    </trkpt>
    <trkpt lat="44.133410789" lon="9.783513285">
      <ele>184.71</ele>
    </trkpt>
    <trkpt lat="44.132701596" lon="9.783171136">
      <ele>185.19</ele>
    </trkpt>
    <trkpt lat="44.132493641" lon="9.783181697">
      <ele>185.19</ele>
    </trkpt>
    <trkpt lat="44.132202873" lon="9.783462072">
      <ele>185.19</ele>
    </trkpt>
    <trkpt lat="44.131792244" lon="9.783359896">
      <ele>184.71</ele>
    </trkpt>
    <trkpt lat="44.131585462" lon="9.783404991">
      <ele>184.71</ele>
    </trkpt>
    <trkpt lat="44.131385218" lon="9.783545975">
      <ele>184.71</ele>
    </trkpt>
    <trkpt lat="44.130591871" lon="9.784256592">
      <ele>186.63</ele>
    </trkpt>
    <trkpt lat="44.130089041" lon="9.784819521">
      <ele>190.96</ele>
    </trkpt>
    <trkpt lat="44.129813947" lon="9.785315646">
      <ele>194.32</ele>
    </trkpt>
    <trkpt lat="44.129059995" lon="9.787001079">
      <ele>206.82</ele>
    </trkpt>
    <trkpt lat="44.128715415" lon="9.787352365">
      <ele>209.7</ele>
    </trkpt>
    <trkpt lat="44.128488516" lon="9.787427383">
      <ele>211.15</ele>
    </trkpt>
    <trkpt lat="44.128234964" lon="9.787410954">
      <ele>213.55</ele>
    </trkpt>
    <trkpt lat="44.126970721" lon="9.786919523">
      <ele>221.24</ele>
    </trkpt>
    <trkpt lat="44.126346102" lon="9.786800081">
      <ele>226.05</ele>
    </trkpt>
    <trkpt lat="44.126146277" lon="9.786834028">
      <ele>228.45</ele>
    </trkpt>
    <trkpt lat="44.125436917" lon="9.787416821">
      <ele>234.7</ele>
    </trkpt>
    <trkpt lat="44.124935679" lon="9.787923591">
      <ele>239.99</ele>
    </trkpt>
    <trkpt lat="44.124513483" lon="9.789201831">
      <ele>235.66</ele>
    </trkpt>
    <trkpt lat="44.123874195" lon="9.789935835">
      <ele>224.61</ele>
    </trkpt>
    <trkpt lat="44.123548642" lon="9.790171785">
      <ele>223.16</ele>
    </trkpt>
    <trkpt lat="44.12296853" lon="9.790291479">
      <ele>216.43</ele>
    </trkpt>
    <trkpt lat="44.122523284" lon="9.790814426">
      <ele>212.11</ele>
    </trkpt>
    <trkpt lat="44.122178704" lon="9.790986087">
      <ele>208.26</ele>
    </trkpt>
    <trkpt lat="44.121920122" lon="9.791365787">
      <ele>204.9</ele>
    </trkpt>
    <trkpt lat="44.121816522" lon="9.791592769">
      <ele>203.46</ele>
    </trkpt>
    <trkpt lat="44.1217524" lon="9.792108256">
      <ele>199.61</ele>
    </trkpt>
    <trkpt lat="44.121615607" lon="9.79259843">
      <ele>195.77</ele>
    </trkpt>
    <trkpt lat="44.121620636" lon="9.79287629">
      <ele>197.69</ele>
    </trkpt>
    <trkpt lat="44.12182088" lon="9.793000259">
      <ele>196.25</ele>
    </trkpt>
    <trkpt lat="44.121777462" lon="9.792915769">
      <ele>193.36</ele>
    </trkpt>
    <trkpt lat="44.121909644" lon="9.792734552">
      <ele>194.32</ele>
    </trkpt>
    <trkpt lat="44.122063117" lon="9.792272458">
      <ele>192.88</ele>
    </trkpt>
    <trkpt lat="44.122360172" lon="9.791949503">
      <ele>188.56</ele>
    </trkpt>
    <trkpt lat="44.123448394" lon="9.791721934">
      <ele>180.38</ele>
    </trkpt>
    <trkpt lat="44.123613266" lon="9.791631578">
      <ele>180.87</ele>
    </trkpt>
    <trkpt lat="44.124063374" lon="9.791180966">
      <ele>176.06</ele>
    </trkpt>
    <trkpt lat="44.124239897" lon="9.791117096">
      <ele>173.66</ele>
    </trkpt>
    <trkpt lat="44.12439337" lon="9.791174345">
      <ele>174.14</ele>
    </trkpt>
    <trkpt lat="44.124399824" lon="9.792786939">
      <ele>163.56</ele>
    </trkpt>
    <trkpt lat="44.124361267" lon="9.793048287">
      <ele>163.56</ele>
    </trkpt>
    <trkpt lat="44.124079971" lon="9.793752199">
      <ele>158.27</ele>
    </trkpt>
    <trkpt lat="44.124107547" lon="9.793977924">
      <ele>156.35</ele>
    </trkpt>
    <trkpt lat="44.12439228" lon="9.794299789">
      <ele>150.1</ele>
    </trkpt>
    <trkpt lat="44.124481967" lon="9.794524591">
      <ele>148.66</ele>
    </trkpt>
    <trkpt lat="44.124524882" lon="9.794767918">
      <ele>147.22</ele>
    </trkpt>
    <trkpt lat="44.124468053" lon="9.795287009">
      <ele>144.82</ele>
    </trkpt>
    <trkpt lat="44.124403261" lon="9.795540813">
      <ele>143.85</ele>
    </trkpt>
    <trkpt lat="44.124238892" lon="9.795546094">
      <ele>142.41</ele>
    </trkpt>
    <trkpt lat="44.12424895" lon="9.794798512">
      <ele>140.97</ele>
    </trkpt>
    <trkpt lat="44.124100003" lon="9.794661468">
      <ele>140.49</ele>
    </trkpt>
    <trkpt lat="44.123911494" lon="9.794678064">
      <ele>139.05</ele>
    </trkpt>
    <trkpt lat="44.123539338" lon="9.79483271">
      <ele>134.24</ele>
    </trkpt>
    <trkpt lat="44.123475887" lon="9.794996157">
      <ele>131.84</ele>
    </trkpt>
    <trkpt lat="44.123849301" lon="9.794958439">
      <ele>130.88</ele>
    </trkpt>
    <trkpt lat="44.123944435" lon="9.795121215">
      <ele>131.36</ele>
    </trkpt>
    <trkpt lat="44.123478653" lon="9.795486918">
      <ele>128.47</ele>
    </trkpt>
    <trkpt lat="44.123369269" lon="9.795669559">
      <ele>124.63</ele>
    </trkpt>
    <trkpt lat="44.123731032" lon="9.795592865">
      <ele>118.38</ele>
    </trkpt>
    <trkpt lat="44.123906884" lon="9.795621699">
      <ele>115.01</ele>
    </trkpt>
    <trkpt lat="44.123983998" lon="9.795854716">
      <ele>111.65</ele>
    </trkpt>
    <trkpt lat="44.123950889" lon="9.796387386">
      <ele>107.81</ele>
    </trkpt>
    <trkpt lat="44.123640088" lon="9.797377037">
      <ele>103.48</ele>
    </trkpt>
    <trkpt lat="44.123656601" lon="9.797653807">
      <ele>103.0</ele>
    </trkpt>
    <trkpt lat="44.123867238" lon="9.798405161">
      <ele>95.31</ele>
    </trkpt>
    <trkpt lat="44.123785011" lon="9.798618313">
      <ele>94.35</ele>
    </trkpt>
    <trkpt lat="44.123582421" lon="9.798429972">
      <ele>94.35</ele>
    </trkpt>
    <trkpt lat="44.123052936" lon="9.79763302">
      <ele>86.66</ele>
    </trkpt>
    <trkpt lat="44.122911617" lon="9.797761934">
      <ele>86.18</ele>
    </trkpt>
    <trkpt lat="44.123000884" lon="9.797979947">
      <ele>86.66</ele>
    </trkpt>
    <trkpt lat="44.123180676" lon="9.798118081">
      <ele>87.62</ele>
    </trkpt>
    <trkpt lat="44.123275476" lon="9.798348164">
      <ele>85.69</ele>
    </trkpt>
    <trkpt lat="44.123286372" lon="9.798623677">
      <ele>83.77</ele>
    </trkpt>
    <trkpt lat="44.123218311" lon="9.798862562">
      <ele>82.33</ele>
    </trkpt>
    <trkpt lat="44.123064084" lon="9.798956439">
      <ele>79.45</ele>
    </trkpt>
    <trkpt lat="44.12294439" lon="9.798761811">
      <ele>77.52</ele>
    </trkpt>
    <trkpt lat="44.122717576" lon="9.798022779">
      <ele>69.83</ele>
    </trkpt>
    <trkpt lat="44.122580616" lon="9.797861511">
      <ele>73.2</ele>
    </trkpt>
    <trkpt lat="44.12253594" lon="9.798085475">
      <ele>72.72</ele>
    </trkpt>
    <trkpt lat="44.122733669" lon="9.799206639">
      <ele>64.55</ele>
    </trkpt>
    <trkpt lat="44.123054193" lon="9.799821619">
      <ele>59.74</ele>
    </trkpt>
    <trkpt lat="44.122994598" lon="9.800058994">
      <ele>59.26</ele>
    </trkpt>
    <trkpt lat="44.122581622" lon="9.800106017">
      <ele>63.58</ele>
    </trkpt>
    <trkpt lat="44.121706048" lon="9.799969057">
      <ele>55.89</ele>
    </trkpt>
    <trkpt lat="44.120987887" lon="9.800082715">
      <ele>45.8</ele>
    </trkpt>
    <trkpt lat="44.120848412" lon="9.800276756">
      <ele>44.84</ele>
    </trkpt>
    <trkpt lat="44.120081635" lon="9.800698198">
      <ele>37.63</ele>
    </trkpt>
    <trkpt lat="44.119389877" lon="9.801269174">
      <ele>40.03</ele>
    </trkpt>
    <trkpt lat="44.118993832" lon="9.801484589">
      <ele>44.84</ele>
    </trkpt>
    <trkpt lat="44.118787553" lon="9.801900415">
      <ele>40.03</ele>
    </trkpt>
    <trkpt lat="44.118582029" lon="9.802695354">
      <ele>40.03</ele>
    </trkpt>
    <trkpt lat="44.11770327" lon="9.803842083">
      <ele>48.2</ele>
    </trkpt>
    <trkpt lat="44.11758475" lon="9.804073172">
      <ele>51.57</ele>
    </trkpt>
    <trkpt lat="44.117431613" lon="9.804178029">
      <ele>53.97</ele>
    </trkpt>
    <trkpt lat="44.116566181" lon="9.803707469">
      <ele>46.28</ele>
    </trkpt>
    <trkpt lat="44.116348587" lon="9.803686431">
      <ele>42.44</ele>
    </trkpt>
    <trkpt lat="44.115762943" lon="9.803777877">
      <ele>43.88</ele>
    </trkpt>
    <trkpt lat="44.114389401" lon="9.80303851">
      <ele>33.78</ele>
    </trkpt>
    <trkpt lat="44.112953413" lon="9.802806247">
      <ele>27.53</ele>
    </trkpt>
    <trkpt lat="44.111454897" lon="9.801987503">
      <ele>21.77</ele>
    </trkpt>
    <trkpt lat="44.111262448" lon="9.801987">
      <ele>20.32</ele>
    </trkpt>
    <trkpt lat="44.111082321" lon="9.802074255">
      <ele>19.36</ele>
    </trkpt>
    <trkpt lat="44.110930776" lon="9.802242648">
      <ele>18.88</ele>
    </trkpt>
    <trkpt lat="44.110179758" lon="9.803491468">
      <ele>15.52</ele>
    </trkpt>
    <trkpt lat="44.109953195" lon="9.803981809">
      <ele>14.56</ele>
    </trkpt>
    <trkpt lat="44.108573785" lon="9.806339471">
      <ele>16.0</ele>
    </trkpt>
    <trkpt lat="44.108380582" lon="9.806782957">
      <ele>14.08</ele>
    </trkpt>
    <trkpt lat="44.109215168" lon="9.807792306">
      <ele>12.63</ele>
    </trkpt>
    <trkpt lat="44.109252887" lon="9.808062455">
      <ele>12.15</ele>
    </trkpt>
    <trkpt lat="44.108817447" lon="9.808594622">
      <ele>11.19</ele>
    </trkpt>
    <trkpt lat="44.105916219" lon="9.813598618">
      <ele>6.39</ele>
    </trkpt>
    <trkpt lat="44.103428638" lon="9.817753108">
      <ele>8.31</ele>
    </trkpt>
    <trkpt lat="44.101143312" lon="9.821887733">
      <ele>4.94</ele>
    </trkpt>
    <trkpt lat="44.101219587" lon="9.822561136">
      <ele>5.91</ele>
    </trkpt>
    <trkpt lat="44.101817133" lon="9.823338054">
      <ele>5.42</ele>
    </trkpt>
    <trkpt lat="44.102127431" lon="9.823715659">
      <ele>7.35</ele>
    </trkpt>
    <trkpt lat="44.102453571" lon="9.823937109">
      <ele>2.54</ele>
    </trkpt>
    <trkpt lat="44.102531606" lon="9.824110279">
      <ele>1.58</ele>
    </trkpt>
    <trkpt lat="44.103096547" lon="9.824836235">
      <ele>2.54</ele>
    </trkpt>
    <trkpt lat="44.11052241" lon="9.833888942">
      <ele>4.46</ele>
    </trkpt>
    <trkpt lat="44.110617628" lon="9.83450585">
      <ele>5.91</ele>
    </trkpt>
    <trkpt lat="44.11117075" lon="9.836339392">
      <ele>7.35</ele>
    </trkpt>
    <trkpt lat="44.111307962" lon="9.837748725">
      <ele>3.5</ele>
    </trkpt>
    <trkpt lat="44.111291869" lon="9.841278847">
      <ele>7.83</ele>
    </trkpt>
    <trkpt lat="44.111371078" lon="9.844159791">
      <ele>4.46</ele>
    </trkpt>
    <trkpt lat="44.111345597" lon="9.846482249">
      <ele>4.46</ele>
    </trkpt>
    <trkpt lat="44.11140712" lon="9.850696754">
      <ele>5.91</ele>
    </trkpt>
    <trkpt lat="44.111360684" lon="9.851537459">
      <ele>5.42</ele>
    </trkpt>
    <trkpt lat="44.111233111" lon="9.852060154">
      <ele>5.91</ele>
    </trkpt>
    <trkpt lat="44.110977547" lon="9.85294411">
      <ele>11.67</ele>
    </trkpt>
    <trkpt lat="44.110513357" lon="9.853993943">
      <ele>16.0</ele>
    </trkpt>
    <trkpt lat="44.110013209" lon="9.854761641">
      <ele>11.19</ele>
    </trkpt>
    <trkpt lat="44.109395798" lon="9.85541828">
      <ele>7.35</ele>
    </trkpt>
    <trkpt lat="44.109086758" lon="9.855661523">
      <ele>6.87</ele>
    </trkpt>
    <trkpt lat="44.108568253" lon="9.855934437">
      <ele>9.27</ele>
    </trkpt>
    <trkpt lat="44.10775898" lon="9.856199054">
      <ele>9.75</ele>
    </trkpt>
    <trkpt lat="44.107634174" lon="9.856298883">
      <ele>8.31</ele>
    </trkpt>
    <trkpt lat="44.107542308" lon="9.85627491">
      <ele>8.31</ele>
    </trkpt>
    <trkpt lat="44.105112562" lon="9.857074376">
      <ele>3.5</ele>
    </trkpt>
    <trkpt lat="44.10451116" lon="9.857331282">
      <ele>3.5</ele>
    </trkpt>
    <trkpt lat="44.103936665" lon="9.857705953">
      <ele>6.39</ele>
    </trkpt>
    <trkpt lat="44.102970315" lon="9.858589908">
      <ele>2.54</ele>
    </trkpt>
    <trkpt lat="44.102823297" lon="9.8587899">
      <ele>1.58</ele>
    </trkpt>
    <trkpt lat="44.102710309" lon="9.859288624">
      <ele>1.1</ele>
    </trkpt>
    <trkpt lat="44.102627579" lon="9.860102758">
      <ele>2.54</ele>
    </trkpt>
    <trkpt lat="44.101758795" lon="9.86267047">
      <ele>4.94</ele>
    </trkpt>
    <trkpt lat="44.101443216" lon="9.864099082">
      <ele>5.42</ele>
    </trkpt>
    <trkpt lat="44.101229729" lon="9.864666201">
      <ele>7.35</ele>
    </trkpt>
    <trkpt lat="44.100528667" lon="9.865955589">
      <ele>14.56</ele>
    </trkpt>
    <trkpt lat="44.100049725" lon="9.867347321">
      <ele>19.84</ele>
    </trkpt>
    <trkpt lat="44.099947046" lon="9.867960792">
      <ele>22.73</ele>
    </trkpt>
    <trkpt lat="44.099816373" lon="9.868029021">
      <ele>23.21</ele>
    </trkpt>
    <trkpt lat="44.099890133" lon="9.867232656">
      <ele>27.05</ele>
    </trkpt>
    <trkpt lat="44.100032626" lon="9.866638798">
      <ele>31.38</ele>
    </trkpt>
    <trkpt lat="44.099953752" lon="9.86659077">
      <ele>33.78</ele>
    </trkpt>
    <trkpt lat="44.099703049" lon="9.867467098">
      <ele>38.11</ele>
    </trkpt>
    <trkpt lat="44.099377245" lon="9.868314508">
      <ele>40.51</ele>
    </trkpt>
    <trkpt lat="44.098885562" lon="9.868969219">
      <ele>45.32</ele>
    </trkpt>
    <trkpt lat="44.09828919" lon="9.870127849">
      <ele>54.45</ele>
    </trkpt>
    <trkpt lat="44.098230181" lon="9.870416606">
      <ele>55.89</ele>
    </trkpt>
    <trkpt lat="44.09853478" lon="9.871593677">
      <ele>58.3</ele>
    </trkpt>
    <trkpt lat="44.098469568" lon="9.871775396">
      <ele>59.74</ele>
    </trkpt>
    <trkpt lat="44.098304193" lon="9.871268459">
      <ele>62.14</ele>
    </trkpt>
    <trkpt lat="44.098143093" lon="9.871040806">
      <ele>63.58</ele>
    </trkpt>
    <trkpt lat="44.097948214" lon="9.870933518">
      <ele>65.99</ele>
    </trkpt>
    <trkpt lat="44.098221716" lon="9.871386979">
      <ele>70.79</ele>
    </trkpt>
    <trkpt lat="44.098474095" lon="9.872188624">
      <ele>76.56</ele>
    </trkpt>
    <trkpt lat="44.09838818" lon="9.872305049">
      <ele>77.52</ele>
    </trkpt>
    <trkpt lat="44.098115936" lon="9.871586971">
      <ele>76.56</ele>
    </trkpt>
    <trkpt lat="44.097977718" lon="9.871382955">
      <ele>78.0</ele>
    </trkpt>
    <trkpt lat="44.097799351" lon="9.871301735">
      <ele>78.97</ele>
    </trkpt>
    <trkpt lat="44.097603383" lon="9.87131062">
      <ele>79.93</ele>
    </trkpt>
    <trkpt lat="44.097165177" lon="9.871410616">
      <ele>82.33</ele>
    </trkpt>
    <trkpt lat="44.097116226" lon="9.871551096">
      <ele>83.29</ele>
    </trkpt>
    <trkpt lat="44.097711174" lon="9.871498039">
      <ele>87.14</ele>
    </trkpt>
    <trkpt lat="44.097931283" lon="9.871630305">
      <ele>89.06</ele>
    </trkpt>
    <trkpt lat="44.098111242" lon="9.872071361">
      <ele>91.94</ele>
    </trkpt>
    <trkpt lat="44.098180309" lon="9.872611156">
      <ele>95.31</ele>
    </trkpt>
    <trkpt lat="44.098057598" lon="9.873112142">
      <ele>98.19</ele>
    </trkpt>
    <trkpt lat="44.097653339" lon="9.873892246">
      <ele>103.0</ele>
    </trkpt>
    <trkpt lat="44.097596845" lon="9.874168765">
      <ele>104.44</ele>
    </trkpt>
    <trkpt lat="44.097485784" lon="9.875089265">
      <ele>106.84</ele>
    </trkpt>
    <trkpt lat="44.097513109" lon="9.876187881">
      <ele>111.17</ele>
    </trkpt>
    <trkpt lat="44.097349746" lon="9.876381839">
      <ele>112.13</ele>
    </trkpt>
    <trkpt lat="44.096992007" lon="9.876515195">
      <ele>113.09</ele>
    </trkpt>
    <trkpt lat="44.096878264" lon="9.876702782">
      <ele>114.05</ele>
    </trkpt>
    <trkpt lat="44.096477022" lon="9.878258547">
      <ele>115.5</ele>
    </trkpt>
    <trkpt lat="44.096155325" lon="9.878611928">
      <ele>116.46</ele>
    </trkpt>
    <trkpt lat="44.096682714" lon="9.878400201">
      <ele>119.34</ele>
    </trkpt>
    <trkpt lat="44.096875917" lon="9.878450995">
      <ele>120.78</ele>
    </trkpt>
    <trkpt lat="44.097433817" lon="9.878859948">
      <ele>126.55</ele>
    </trkpt>
    <trkpt lat="44.097856516" lon="9.87896095">
      <ele>129.43</ele>
    </trkpt>
    <trkpt lat="44.097998757" lon="9.879086092">
      <ele>129.92</ele>
    </trkpt>
    <trkpt lat="44.097775631" lon="9.879485657">
      <ele>127.99</ele>
    </trkpt>
    <trkpt lat="44.097660547" lon="9.880223516">
      <ele>125.11</ele>
    </trkpt>
    <trkpt lat="44.096915731" lon="9.880477237">
      <ele>123.19</ele>
    </trkpt>
    <trkpt lat="44.096566793" lon="9.880670104">
      <ele>122.71</ele>
    </trkpt>
    <trkpt lat="44.096326986" lon="9.881089786">
      <ele>121.26</ele>
    </trkpt>
    <trkpt lat="44.096245514" lon="9.881937951">
      <ele>122.71</ele>
    </trkpt>
    <trkpt lat="44.096301338" lon="9.882495683">
      <ele>124.63</ele>
    </trkpt>
    <trkpt lat="44.096002942" lon="9.883194985">
      <ele>127.99</ele>
    </trkpt>
    <trkpt lat="44.095869334" lon="9.883403275">
      <ele>133.76</ele>
    </trkpt>
    <trkpt lat="44.095264161" lon="9.883491118">
      <ele>121.74</ele>
    </trkpt>
    <trkpt lat="44.094911199" lon="9.883637549">
      <ele>115.98</ele>
    </trkpt>
    <trkpt lat="44.094363861" lon="9.884352274">
      <ele>115.98</ele>
    </trkpt>
    <trkpt lat="44.094126066" lon="9.884792659">
      <ele>113.57</ele>
    </trkpt>
    <trkpt lat="44.094076529" lon="9.885050571">
      <ele>113.57</ele>
    </trkpt>
    <trkpt lat="44.094133778" lon="9.885319881">
      <ele>113.57</ele>
    </trkpt>
    <trkpt lat="44.094219105" lon="9.885560945">
      <ele>113.09</ele>
    </trkpt>
    <trkpt lat="44.094603835" lon="9.88615145">
      <ele>112.13</ele>
    </trkpt>
    <trkpt lat="44.094796032" lon="9.886908755">
      <ele>111.17</ele>
    </trkpt>
    <trkpt lat="44.094825201" lon="9.88771786">
      <ele>110.21</ele>
    </trkpt>
    <trkpt lat="44.094775412" lon="9.887956325">
      <ele>110.69</ele>
    </trkpt>
    <trkpt lat="44.09431248" lon="9.888370056">
      <ele>110.21</ele>
    </trkpt>
    <trkpt lat="44.094110476" lon="9.888372822">
      <ele>109.73</ele>
    </trkpt>
    <trkpt lat="44.093578393" lon="9.888028577">
      <ele>109.73</ele>
    </trkpt>
    <trkpt lat="44.092809604" lon="9.887877367">
      <ele>109.73</ele>
    </trkpt>
    <trkpt lat="44.092328064" lon="9.888294367">
      <ele>104.44</ele>
    </trkpt>
    <trkpt lat="44.092235612" lon="9.888484301">
      <ele>104.92</ele>
    </trkpt>
    <trkpt lat="44.092581701" lon="9.88863375">
      <ele>105.4</ele>
    </trkpt>
    <trkpt lat="44.092725283" lon="9.88881723">
      <ele>104.92</ele>
    </trkpt>
    <trkpt lat="44.092689576" lon="9.889075812">
      <ele>104.44</ele>
    </trkpt>
    <trkpt lat="44.092345582" lon="9.889727589">
      <ele>103.96</ele>
    </trkpt>
    <trkpt lat="44.092360586" lon="9.88996949">
      <ele>104.44</ele>
    </trkpt>
    <trkpt lat="44.092530319" lon="9.890038474">
      <ele>103.96</ele>
    </trkpt>
    <trkpt lat="44.092907421" lon="9.889880223">
      <ele>101.56</ele>
    </trkpt>
    <trkpt lat="44.093096601" lon="9.889932945">
      <ele>98.67</ele>
    </trkpt>
    <trkpt lat="44.093230711" lon="9.890151294">
      <ele>97.23</ele>
    </trkpt>
    <trkpt lat="44.0934157" lon="9.890903402">
      <ele>97.71</ele>
    </trkpt>
    <trkpt lat="44.093967061" lon="9.891631622">
      <ele>104.92</ele>
    </trkpt>
    <trkpt lat="44.09398525" lon="9.891865477">
      <ele>104.92</ele>
    </trkpt>
    <trkpt lat="44.093822055" lon="9.891981063">
      <ele>103.0</ele>
    </trkpt>
    <trkpt lat="44.093425171" lon="9.892008891">
      <ele>97.23</ele>
    </trkpt>
    <trkpt lat="44.092634842" lon="9.891881403">
      <ele>94.35</ele>
    </trkpt>
    <trkpt lat="44.092462258" lon="9.89194938">
      <ele>92.9</ele>
    </trkpt>
    <trkpt lat="44.092238965" lon="9.892423376">
      <ele>91.46</ele>
    </trkpt>
    <trkpt lat="44.09194191" lon="9.892875999">
      <ele>91.46</ele>
    </trkpt>
    <trkpt lat="44.091771757" lon="9.892943641">
      <ele>90.02</ele>
    </trkpt>
    <trkpt lat="44.091422316" lon="9.892774662">
      <ele>87.62</ele>
    </trkpt>
    <trkpt lat="44.091301616" lon="9.893285204">
      <ele>80.89</ele>
    </trkpt>
    <trkpt lat="44.091199776" lon="9.893821897">
      <ele>80.89</ele>
    </trkpt>
    <trkpt lat="44.091264149" lon="9.894071426">
      <ele>80.89</ele>
    </trkpt>
    <trkpt lat="44.091996728" lon="9.894428076">
      <ele>82.81</ele>
    </trkpt>
    <trkpt lat="44.092755625" lon="9.894648939">
      <ele>83.29</ele>
    </trkpt>
    <trkpt lat="44.093081513" lon="9.894926297">
      <ele>84.73</ele>
    </trkpt>
    <trkpt lat="44.093076484" lon="9.895202145">
      <ele>84.73</ele>
    </trkpt>
    <trkpt lat="44.09290541" lon="9.895315217">
      <ele>84.25</ele>
    </trkpt>
    <trkpt lat="44.092473239" lon="9.895294178">
      <ele>83.29</ele>
    </trkpt>
    <trkpt lat="44.092116589" lon="9.895474222">
      <ele>84.25</ele>
    </trkpt>
    <trkpt lat="44.092057832" lon="9.895700365">
      <ele>84.73</ele>
    </trkpt>
    <trkpt lat="44.092163108" lon="9.896249464">
      <ele>86.18</ele>
    </trkpt>
    <trkpt lat="44.09206504" lon="9.896525312">
      <ele>86.66</ele>
    </trkpt>
    <trkpt lat="44.091846943" lon="9.896633355">
      <ele>86.66</ele>
    </trkpt>
    <trkpt lat="44.091614932" lon="9.896643246">
      <ele>86.66</ele>
    </trkpt>
    <trkpt lat="44.091140684" lon="9.897245821">
      <ele>87.14</ele>
    </trkpt>
    <trkpt lat="44.090807" lon="9.897474814">
      <ele>88.1</ele>
    </trkpt>
    <trkpt lat="44.09066258" lon="9.897651589">
      <ele>88.1</ele>
    </trkpt>
    <trkpt lat="44.090626035" lon="9.89790556">
      <ele>88.1</ele>
    </trkpt>
    <trkpt lat="44.090870786" lon="9.898313088">
      <ele>86.66</ele>
    </trkpt>
    <trkpt lat="44.090909176" lon="9.898560606">
      <ele>86.18</ele>
    </trkpt>
    <trkpt lat="44.090847736" lon="9.898793623">
      <ele>85.69</ele>
    </trkpt>
    <trkpt lat="44.090564512" lon="9.89914516">
      <ele>84.25</ele>
    </trkpt>
    <trkpt lat="44.090500223" lon="9.899394941">
      <ele>83.29</ele>
    </trkpt>
    <trkpt lat="44.090629136" lon="9.899595939">
      <ele>84.25</ele>
    </trkpt>
    <trkpt lat="44.091115538" lon="9.90001495">
      <ele>83.29</ele>
    </trkpt>
    <trkpt lat="44.091318212" lon="9.900005143">
      <ele>81.85</ele>
    </trkpt>
    <trkpt lat="44.091675617" lon="9.89978428">
      <ele>81.85</ele>
    </trkpt>
    <trkpt lat="44.09184183" lon="9.899745807">
      <ele>83.29</ele>
    </trkpt>
    <trkpt lat="44.091915675" lon="9.89998268">
      <ele>83.29</ele>
    </trkpt>
    <trkpt lat="44.091696404" lon="9.900425244">
      <ele>83.77</ele>
    </trkpt>
    <trkpt lat="44.091665894" lon="9.900666727">
      <ele>84.25</ele>
    </trkpt>
    <trkpt lat="44.091823809" lon="9.900837382">
      <ele>84.25</ele>
    </trkpt>
    <trkpt lat="44.091915842" lon="9.901065789">
      <ele>85.21</ele>
    </trkpt>
    <trkpt lat="44.091823725" lon="9.901293525">
      <ele>85.21</ele>
    </trkpt>
    <trkpt lat="44.0916239" lon="9.901424451">
      <ele>85.21</ele>
    </trkpt>
    <trkpt lat="44.090617234" lon="9.901593346">
      <ele>85.21</ele>
    </trkpt>
    <trkpt lat="44.090448422" lon="9.901764421">
      <ele>85.21</ele>
    </trkpt>
    <trkpt lat="44.0903123" lon="9.902255097">
      <ele>85.21</ele>
    </trkpt>
    <trkpt lat="44.090397125" lon="9.903008714">
      <ele>87.14</ele>
    </trkpt>
    <trkpt lat="44.090010971" lon="9.903277019">
      <ele>88.1</ele>
    </trkpt>
    <trkpt lat="44.089307059" lon="9.904318973">
      <ele>91.46</ele>
    </trkpt>
    <trkpt lat="44.089101115" lon="9.904816775">
      <ele>90.98</ele>
    </trkpt>
    <trkpt lat="44.088931214" lon="9.904897157">
      <ele>90.98</ele>
    </trkpt>
    <trkpt lat="44.088562327" lon="9.904891374">
      <ele>90.98</ele>
    </trkpt>
    <trkpt lat="44.088364514" lon="9.904995812">
      <ele>90.98</ele>
    </trkpt>
    <trkpt lat="44.088106854" lon="9.905408118">
      <ele>90.02</ele>
    </trkpt>
    <trkpt lat="44.08804575" lon="9.905665945">
      <ele>90.02</ele>
    </trkpt>
    <trkpt lat="44.088092102" lon="9.906589547">
      <ele>90.02</ele>
    </trkpt>
    <trkpt lat="44.088037536" lon="9.906876627">
      <ele>90.98</ele>
    </trkpt>
    <trkpt lat="44.087643167" lon="9.907522034">
      <ele>90.5</ele>
    </trkpt>
    <trkpt lat="44.087440409" lon="9.908008352">
      <ele>90.5</ele>
    </trkpt>
    <trkpt lat="44.08693146" lon="9.908423591">
      <ele>91.46</ele>
    </trkpt>
    <trkpt lat="44.086419242" lon="9.909621198">
      <ele>95.31</ele>
    </trkpt>
    <trkpt lat="44.086355623" lon="9.909902578">
      <ele>96.27</ele>
    </trkpt>
    <trkpt lat="44.086383535" lon="9.910420077">
      <ele>98.19</ele>
    </trkpt>
    <trkpt lat="44.08627172" lon="9.910910418">
      <ele>97.71</ele>
    </trkpt>
    <trkpt lat="44.086346989" lon="9.911375027">
      <ele>89.06</ele>
    </trkpt>
    <trkpt lat="44.086254872" lon="9.911621958">
      <ele>87.62</ele>
    </trkpt>
    <trkpt lat="44.08617516" lon="9.912753515">
      <ele>85.69</ele>
    </trkpt>
    <trkpt lat="44.0860496" lon="9.913309487">
      <ele>84.25</ele>
    </trkpt>
    <trkpt lat="44.08611129" lon="9.914104929">
      <ele>80.89</ele>
    </trkpt>
    <trkpt lat="44.086028393" lon="9.914312465">
      <ele>80.41</ele>
    </trkpt>
    <trkpt lat="44.085894199" lon="9.914490161">
      <ele>77.52</ele>
    </trkpt>
    <trkpt lat="44.085506201" lon="9.914644137">
      <ele>77.04</ele>
    </trkpt>
    <trkpt lat="44.083583057" lon="9.915001877">
      <ele>91.94</ele>
    </trkpt>
    <trkpt lat="44.08193903" lon="9.915505964">
      <ele>102.04</ele>
    </trkpt>
    <trkpt lat="44.081737278" lon="9.915492637">
      <ele>103.0</ele>
    </trkpt>
    <trkpt lat="44.081770387" lon="9.915427007">
      <ele>98.67</ele>
    </trkpt>
    <trkpt lat="44.081706684" lon="9.91560135">
      <ele>99.15</ele>
    </trkpt>
    <trkpt lat="44.081492275" lon="9.915656168">
      <ele>100.11</ele>
    </trkpt>
    <trkpt lat="44.080414446" lon="9.91557939">
      <ele>107.81</ele>
    </trkpt>
    <trkpt lat="44.080212275" lon="9.915633621">
      <ele>108.29</ele>
    </trkpt>
    <trkpt lat="44.080012785" lon="9.915775023">
      <ele>108.77</ele>
    </trkpt>
    <trkpt lat="44.078922635" lon="9.916924769">
      <ele>120.78</ele>
    </trkpt>
    <trkpt lat="44.078710992" lon="9.917079834">
      <ele>122.22</ele>
    </trkpt>
    <trkpt lat="44.078317545" lon="9.917170443">
      <ele>124.63</ele>
    </trkpt>
    <trkpt lat="44.078142615" lon="9.917299189">
      <ele>126.55</ele>
    </trkpt>
    <trkpt lat="44.077739445" lon="9.917929256">
      <ele>130.88</ele>
    </trkpt>
    <trkpt lat="44.077537358" lon="9.918428399">
      <ele>133.76</ele>
    </trkpt>
    <trkpt lat="44.077027822" lon="9.918974228">
      <ele>139.05</ele>
    </trkpt>
    <trkpt lat="44.076791201" lon="9.919375302">
      <ele>142.89</ele>
    </trkpt>
    <trkpt lat="44.076457266" lon="9.91969524">
      <ele>146.26</ele>
    </trkpt>
    <trkpt lat="44.076096592" lon="9.920580871">
      <ele>151.06</ele>
    </trkpt>
    <trkpt lat="44.075792162" lon="9.920984795">
      <ele>151.06</ele>
    </trkpt>
    <trkpt lat="44.075468453" lon="9.921300625">
      <ele>151.06</ele>
    </trkpt>
    <trkpt lat="44.075101074" lon="9.921374554">
      <ele>153.47</ele>
    </trkpt>
    <trkpt lat="44.074566476" lon="9.922191286">
      <ele>158.75</ele>
    </trkpt>
    <trkpt lat="44.073878238" lon="9.92274357">
      <ele>159.24</ele>
    </trkpt>
    <trkpt lat="44.073449168" lon="9.922706606">
      <ele>157.31</ele>
    </trkpt>
    <trkpt lat="44.073227216" lon="9.921897668">
      <ele>162.6</ele>
    </trkpt>
    <trkpt lat="44.073100481" lon="9.921654006">
      <ele>165.0</ele>
    </trkpt>
    <trkpt lat="44.072903087" lon="9.921538504">
      <ele>165.0</ele>
    </trkpt>
    <trkpt lat="44.072476448" lon="9.921494918">
      <ele>165.0</ele>
    </trkpt>
    <trkpt lat="44.07230068" lon="9.921558369">
      <ele>165.48</ele>
    </trkpt>
    <trkpt lat="44.071717886" lon="9.92184394">
      <ele>164.52</ele>
    </trkpt>
    <trkpt lat="44.071542704" lon="9.922023648">
      <ele>160.2</ele>
    </trkpt>
    <trkpt lat="44.071375234" lon="9.922105959">
      <ele>159.72</ele>
    </trkpt>
    <trkpt lat="44.070621366" lon="9.921934297">
      <ele>158.75</ele>
    </trkpt>
    <trkpt lat="44.070256585" lon="9.9217162">
      <ele>157.79</ele>
    </trkpt>
    <trkpt lat="44.069696004" lon="9.921565074">
      <ele>155.87</ele>
    </trkpt>
    <trkpt lat="44.069501711" lon="9.921542779">
      <ele>153.47</ele>
    </trkpt>
    <trkpt lat="44.069337258" lon="9.921660377">
      <ele>152.03</ele>
    </trkpt>
    <trkpt lat="44.069222175" lon="9.92215734">
      <ele>155.87</ele>
    </trkpt>
    <trkpt lat="44.069323931" lon="9.922384825">
      <ele>155.39</ele>
    </trkpt>
    <trkpt lat="44.069632385" lon="9.922698475">
      <ele>153.95</ele>
    </trkpt>
    <trkpt lat="44.069822989" lon="9.92375778">
      <ele>151.06</ele>
    </trkpt>
    <trkpt lat="44.069821648" lon="9.924574429">
      <ele>145.3</ele>
    </trkpt>
    <trkpt lat="44.069905384" lon="9.924801327">
      <ele>144.82</ele>
    </trkpt>
    <trkpt lat="44.0701814" lon="9.92515781">
      <ele>143.85</ele>
    </trkpt>
    <trkpt lat="44.070238816" lon="9.925408596">
      <ele>143.37</ele>
    </trkpt>
    <trkpt lat="44.070023904" lon="9.925932381">
      <ele>145.78</ele>
    </trkpt>
    <trkpt lat="44.069984509" lon="9.926488604">
      <ele>148.18</ele>
    </trkpt>
    <trkpt lat="44.069842687" lon="9.927011635">
      <ele>151.54</ele>
    </trkpt>
    <trkpt lat="44.069922483" lon="9.927561656">
      <ele>154.91</ele>
    </trkpt>
    <trkpt lat="44.070104286" lon="9.928111425">
      <ele>158.27</ele>
    </trkpt>
    <trkpt lat="44.070181232" lon="9.928771164">
      <ele>160.2</ele>
    </trkpt>
    <trkpt lat="44.070534529" lon="9.929834157">
      <ele>160.68</ele>
    </trkpt>
    <trkpt lat="44.070539642" lon="9.930129116">
      <ele>158.75</ele>
    </trkpt>
    <trkpt lat="44.06988468" lon="9.930748288">
      <ele>166.93</ele>
    </trkpt>
    <trkpt lat="44.069640767" lon="9.93121583">
      <ele>170.77</ele>
    </trkpt>
    <trkpt lat="44.069175823" lon="9.931771634">
      <ele>176.06</ele>
    </trkpt>
    <trkpt lat="44.068792183" lon="9.932391895">
      <ele>182.31</ele>
    </trkpt>
    <trkpt lat="44.068641057" lon="9.932582919">
      <ele>182.79</ele>
    </trkpt>
    <trkpt lat="44.068435701" lon="9.93271485">
      <ele>182.31</ele>
    </trkpt>
    <trkpt lat="44.068225063" lon="9.932546793">
      <ele>182.79</ele>
    </trkpt>
    <trkpt lat="44.067481672" lon="9.93121055">
      <ele>188.08</ele>
    </trkpt>
    <trkpt lat="44.067263324" lon="9.931200491">
      <ele>188.56</ele>
    </trkpt>
    <trkpt lat="44.066921761" lon="9.931449434">
      <ele>191.44</ele>
    </trkpt>
    <trkpt lat="44.066319689" lon="9.932331629">
      <ele>196.73</ele>
    </trkpt>
    <trkpt lat="44.06576179" lon="9.932858432">
      <ele>202.01</ele>
    </trkpt>
    <trkpt lat="44.065539502" lon="9.933284149">
      <ele>209.22</ele>
    </trkpt>
    <trkpt lat="44.06557546" lon="9.934751149">
      <ele>216.91</ele>
    </trkpt>
    <trkpt lat="44.065157287" lon="9.936077502">
      <ele>222.2</ele>
    </trkpt>
    <trkpt lat="44.064910356" lon="9.937199503">
      <ele>226.05</ele>
    </trkpt>
    <trkpt lat="44.064672394" lon="9.937982541">
      <ele>230.37</ele>
    </trkpt>
    <trkpt lat="44.064477012" lon="9.938050183">
      <ele>231.81</ele>
    </trkpt>
    <trkpt lat="44.063263731" lon="9.937362866">
      <ele>239.51</ele>
    </trkpt>
    <trkpt lat="44.062646236" lon="9.937242335">
      <ele>242.87</ele>
    </trkpt>
    <trkpt lat="44.062219346" lon="9.93724619">
      <ele>245.75</ele>
    </trkpt>
    <trkpt lat="44.062016252" lon="9.937369404">
      <ele>247.68</ele>
    </trkpt>
    <trkpt lat="44.061516272" lon="9.93789386">
      <ele>252.96</ele>
    </trkpt>
    <trkpt lat="44.061117042" lon="9.938194267">
      <ele>254.41</ele>
    </trkpt>
    <trkpt lat="44.060716303" lon="9.938382944">
      <ele>254.89</ele>
    </trkpt>
    <trkpt lat="44.059765628" lon="9.938696846">
      <ele>258.25</ele>
    </trkpt>
    <trkpt lat="44.059576364" lon="9.938819725">
      <ele>259.69</ele>
    </trkpt>
    <trkpt lat="44.058820149" lon="9.939390449">
      <ele>255.85</ele>
    </trkpt>
    <trkpt lat="44.057935691" lon="9.940210618">
      <ele>263.06</ele>
    </trkpt>
    <trkpt lat="44.05763411" lon="9.940646058">
      <ele>267.86</ele>
    </trkpt>
    <trkpt lat="44.057303276" lon="9.940993739">
      <ele>267.86</ele>
    </trkpt>
    <trkpt lat="44.056899184" lon="9.941837797">
      <ele>262.1</ele>
    </trkpt>
    <trkpt lat="44.056873368" lon="9.942136779">
      <ele>259.21</ele>
    </trkpt>
    <trkpt lat="44.05695023" lon="9.942979747">
      <ele>254.41</ele>
    </trkpt>
    <trkpt lat="44.057218367" lon="9.943654742">
      <ele>245.75</ele>
    </trkpt>
    <trkpt lat="44.056880241" lon="9.944502488">
      <ele>241.43</ele>
    </trkpt>
    <trkpt lat="44.056700282" lon="9.945289968">
      <ele>244.79</ele>
    </trkpt>
    <trkpt lat="44.056443628" lon="9.945343947">
      <ele>247.68</ele>
    </trkpt>
    <trkpt lat="44.055853793" lon="9.94502929">
      <ele>251.52</ele>
    </trkpt>
    <trkpt lat="44.055659082" lon="9.945001127">
      <ele>252.96</ele>
    </trkpt>
    <trkpt lat="44.055292457" lon="9.945054185">
      <ele>248.16</ele>
    </trkpt>
    <trkpt lat="44.055287847" lon="9.945224924">
      <ele>250.08</ele>
    </trkpt>
    <trkpt lat="44.055484571" lon="9.945281418">
      <ele>252.0</ele>
    </trkpt>
    <trkpt lat="44.055658076" lon="9.945441093">
      <ele>255.37</ele>
    </trkpt>
    <trkpt lat="44.05580828" lon="9.945986504">
      <ele>260.17</ele>
    </trkpt>
    <trkpt lat="44.055798221" lon="9.946330581">
      <ele>262.1</ele>
    </trkpt>
    <trkpt lat="44.055345096" lon="9.947633967">
      <ele>264.98</ele>
    </trkpt>
    <trkpt lat="44.055274185" lon="9.948693188">
      <ele>266.42</ele>
    </trkpt>
    <trkpt lat="44.055310562" lon="9.949283442">
      <ele>266.42</ele>
    </trkpt>
    <trkpt lat="44.055196065" lon="9.94952702">
      <ele>264.98</ele>
    </trkpt>
    <trkpt lat="44.054702204" lon="9.950005123">
      <ele>264.02</ele>
    </trkpt>
    <trkpt lat="44.05431672" lon="9.950235961">
      <ele>265.46</ele>
    </trkpt>
    <trkpt lat="44.053299911" lon="9.950184748">
      <ele>260.17</ele>
    </trkpt>
    <trkpt lat="44.052896658" lon="9.950265549">
      <ele>262.58</ele>
    </trkpt>
    <trkpt lat="44.051620094" lon="9.951256374">
      <ele>271.23</ele>
    </trkpt>
    <trkpt lat="44.051510962" lon="9.951514956">
      <ele>271.71</ele>
    </trkpt>
    <trkpt lat="44.051396884" lon="9.952524975">
      <ele>269.31</ele>
    </trkpt>
    <trkpt lat="44.050937388" lon="9.953910504">
      <ele>262.1</ele>
    </trkpt>
    <trkpt lat="44.050940992" lon="9.954210073">
      <ele>259.21</ele>
    </trkpt>
    <trkpt lat="44.050867986" lon="9.95450235">
      <ele>257.77</ele>
    </trkpt>
    <trkpt lat="44.050709149" lon="9.95453353">
      <ele>258.73</ele>
    </trkpt>
    <trkpt lat="44.050572775" lon="9.95433555">
      <ele>257.29</ele>
    </trkpt>
    <trkpt lat="44.050205648" lon="9.953668937">
      <ele>248.64</ele>
    </trkpt>
    <trkpt lat="44.049960226" lon="9.952916997">
      <ele>243.83</ele>
    </trkpt>
    <trkpt lat="44.049828127" lon="9.95271516">
      <ele>246.72</ele>
    </trkpt>
    <trkpt lat="44.049651772" lon="9.952557078">
      <ele>245.75</ele>
    </trkpt>
    <trkpt lat="44.049343318" lon="9.952089954">
      <ele>232.3</ele>
    </trkpt>
    <trkpt lat="44.049155898" lon="9.952145861">
      <ele>231.33</ele>
    </trkpt>
    <trkpt lat="44.049086496" lon="9.952496309">
      <ele>229.41</ele>
    </trkpt>
    <trkpt lat="44.049073504" lon="9.953194605">
      <ele>207.78</ele>
    </trkpt>
    <trkpt lat="44.048966803" lon="9.953456037">
      <ele>204.42</ele>
    </trkpt>
    <trkpt lat="44.048590455" lon="9.953597523">
      <ele>206.34</ele>
    </trkpt>
    <trkpt lat="44.048397671" lon="9.953760803">
      <ele>212.59</ele>
    </trkpt>
    <trkpt lat="44.048183849" lon="9.954242846">
      <ele>215.95</ele>
    </trkpt>
    <trkpt lat="44.048190052" lon="9.955085395">
      <ele>203.94</ele>
    </trkpt>
    <trkpt lat="44.047959466" lon="9.956054008">
      <ele>196.73</ele>
    </trkpt>
    <trkpt lat="44.04782108" lon="9.957113313">
      <ele>192.4</ele>
    </trkpt>
    <trkpt lat="44.047691161" lon="9.957371475">
      <ele>192.4</ele>
    </trkpt>
    <trkpt lat="44.04684023" lon="9.958307063">
      <ele>193.84</ele>
    </trkpt>
    <trkpt lat="44.045475153" lon="9.959182888">
      <ele>208.26</ele>
    </trkpt>
    <trkpt lat="44.04510132" lon="9.959600726">
      <ele>213.55</ele>
    </trkpt>
    <trkpt lat="44.044999899" lon="9.959849836">
      <ele>216.43</ele>
    </trkpt>
    <trkpt lat="44.044978609" lon="9.96015938">
      <ele>219.32</ele>
    </trkpt>
    <trkpt lat="44.045121437" lon="9.961157832">
      <ele>229.89</ele>
    </trkpt>
    <trkpt lat="44.045303324" lon="9.961695531">
      <ele>235.66</ele>
    </trkpt>
    <trkpt lat="44.045970021" lon="9.962825244">
      <ele>246.23</ele>
    </trkpt>
    <trkpt lat="44.046346536" lon="9.963587662">
      <ele>250.56</ele>
    </trkpt>
    <trkpt lat="44.046779377" lon="9.964066353">
      <ele>255.85</ele>
    </trkpt>
    <trkpt lat="44.046916338" lon="9.964304734">
      <ele>258.25</ele>
    </trkpt>
    <trkpt lat="44.047025135" lon="9.965951694">
      <ele>261.62</ele>
    </trkpt>
    <trkpt lat="44.047169974" lon="9.96613794">
      <ele>261.62</ele>
    </trkpt>
    <trkpt lat="44.047356639" lon="9.966164678">
      <ele>260.65</ele>
    </trkpt>
    <trkpt lat="44.048113609" lon="9.965968961">
      <ele>255.37</ele>
    </trkpt>
    <trkpt lat="44.048494399" lon="9.966106173">
      <ele>254.89</ele>
    </trkpt>
    <trkpt lat="44.049072415" lon="9.965944989">
      <ele>255.37</ele>
    </trkpt>
    <trkpt lat="44.049769035" lon="9.965339983">
      <ele>251.04</ele>
    </trkpt>
    <trkpt lat="44.049915383" lon="9.965033876">
      <ele>250.08</ele>
    </trkpt>
    <trkpt lat="44.049973469" lon="9.96459634">
      <ele>250.56</ele>
    </trkpt>
    <trkpt lat="44.04981019" lon="9.963650191">
      <ele>247.68</ele>
    </trkpt>
    <trkpt lat="44.049709355" lon="9.963412145">
      <ele>246.72</ele>
    </trkpt>
    <trkpt lat="44.049557978" lon="9.963183403">
      <ele>251.04</ele>
    </trkpt>
    <trkpt lat="44.049186073" lon="9.962851563">
      <ele>209.7</ele>
    </trkpt>
    <trkpt lat="44.048757507" lon="9.962938651">
      <ele>209.22</ele>
    </trkpt>
    <trkpt lat="44.048661618" lon="9.96273824">
      <ele>209.7</ele>
    </trkpt>
    <trkpt lat="44.049257571" lon="9.962527184">
      <ele>208.74</ele>
    </trkpt>
    <trkpt lat="44.049759647" lon="9.962470774">
      <ele>207.78</ele>
    </trkpt>
    <trkpt lat="44.050269853" lon="9.962141197">
      <ele>203.94</ele>
    </trkpt>
    <trkpt lat="44.050440928" lon="9.962259969">
      <ele>201.53</ele>
    </trkpt>
    <trkpt lat="44.050722308" lon="9.962619385">
      <ele>203.46</ele>
    </trkpt>
    <trkpt lat="44.051739788" lon="9.963379204">
      <ele>202.98</ele>
    </trkpt>
    <trkpt lat="44.052108089" lon="9.963573413">
      <ele>201.05</ele>
    </trkpt>
    <trkpt lat="44.052867573" lon="9.963554218">
      <ele>195.28</ele>
    </trkpt>
    <trkpt lat="44.053050131" lon="9.963603839">
      <ele>193.84</ele>
    </trkpt>
    <trkpt lat="44.053553967" lon="9.963937271">
      <ele>192.4</ele>
    </trkpt>
    <trkpt lat="44.054668006" lon="9.964011367">
      <ele>188.56</ele>
    </trkpt>
    <trkpt lat="44.055770813" lon="9.963693023">
      <ele>183.27</ele>
    </trkpt>
    <trkpt lat="44.05646232" lon="9.963352634">
      <ele>181.83</ele>
    </trkpt>
    <trkpt lat="44.056606656" lon="9.963333523">
      <ele>177.5</ele>
    </trkpt>
    <trkpt lat="44.056792399" lon="9.96338306">
      <ele>175.58</ele>
    </trkpt>
    <trkpt lat="44.056954924" lon="9.963513985">
      <ele>175.1</ele>
    </trkpt>
    <trkpt lat="44.057641402" lon="9.964449573">
      <ele>173.66</ele>
    </trkpt>
    <trkpt lat="44.057814404" lon="9.964572787">
      <ele>173.66</ele>
    </trkpt>
    <trkpt lat="44.058002494" lon="9.964598017">
      <ele>171.73</ele>
    </trkpt>
    <trkpt lat="44.058845127" lon="9.96439727">
      <ele>172.21</ele>
    </trkpt>
    <trkpt lat="44.059092561" lon="9.964035172">
      <ele>168.85</ele>
    </trkpt>
    <trkpt lat="44.059174955" lon="9.963063709">
      <ele>160.68</ele>
    </trkpt>
    <trkpt lat="44.059449797" lon="9.962640759">
      <ele>158.75</ele>
    </trkpt>
    <trkpt lat="44.059604527" lon="9.962083781">
      <ele>158.27</ele>
    </trkpt>
    <trkpt lat="44.059380814" lon="9.961349275">
      <ele>155.39</ele>
    </trkpt>
    <trkpt lat="44.059447953" lon="9.961104607">
      <ele>155.39</ele>
    </trkpt>
    <trkpt lat="44.059766801" lon="9.960794142">
      <ele>152.51</ele>
    </trkpt>
    <trkpt lat="44.06099936" lon="9.960054941">
      <ele>149.14</ele>
    </trkpt>
    <trkpt lat="44.061490204" lon="9.959692257">
      <ele>145.78</ele>
    </trkpt>
    <trkpt lat="44.06247776" lon="9.958867142">
      <ele>139.53</ele>
    </trkpt>
    <trkpt lat="44.062744472" lon="9.958535722">
      <ele>139.05</ele>
    </trkpt>
    <trkpt lat="44.062656797" lon="9.958326425">
      <ele>142.41</ele>
    </trkpt>
    <trkpt lat="44.062407855" lon="9.958075974">
      <ele>101.08</ele>
    </trkpt>
    <trkpt lat="44.062060509" lon="9.957877155">
      <ele>101.56</ele>
    </trkpt>
    <trkpt lat="44.061754905" lon="9.957559481">
      <ele>101.56</ele>
    </trkpt>
    <trkpt lat="44.061550051" lon="9.957090849">
      <ele>101.56</ele>
    </trkpt>
    <trkpt lat="44.061278393" lon="9.956703857">
      <ele>101.56</ele>
    </trkpt>
    <trkpt lat="44.06120941" lon="9.956473103">
      <ele>101.56</ele>
    </trkpt>
    <trkpt lat="44.061217373" lon="9.956212509">
      <ele>101.56</ele>
    </trkpt>
    <trkpt lat="44.061323153" lon="9.955446487">
      <ele>98.67</ele>
    </trkpt>
    <trkpt lat="44.061144367" lon="9.955414301">
      <ele>96.27</ele>
    </trkpt>
    <trkpt lat="44.060947224" lon="9.955484625">
      <ele>96.27</ele>
    </trkpt>
    <trkpt lat="44.060783945" lon="9.955407679">
      <ele>96.75</ele>
    </trkpt>
    <trkpt lat="44.060786208" lon="9.955157647">
      <ele>96.27</ele>
    </trkpt>
    <trkpt lat="44.061025176" lon="9.95476353">
      <ele>96.27</ele>
    </trkpt>
    <trkpt lat="44.06110405" lon="9.954518024">
      <ele>96.27</ele>
    </trkpt>
    <trkpt lat="44.061251068" lon="9.954369077">
      <ele>95.31</ele>
    </trkpt>
    <trkpt lat="44.061447792" lon="9.954420878">
      <ele>95.79</ele>
    </trkpt>
    <trkpt lat="44.061614508" lon="9.954565717">
      <ele>98.19</ele>
    </trkpt>
    <trkpt lat="44.062380949" lon="9.954688679">
      <ele>96.27</ele>
    </trkpt>
    <trkpt lat="44.062859388" lon="9.955182122">
      <ele>93.39</ele>
    </trkpt>
    <trkpt lat="44.063042868" lon="9.955668608">
      <ele>93.87</ele>
    </trkpt>
    <trkpt lat="44.063235987" lon="9.955681851">
      <ele>92.9</ele>
    </trkpt>
    <trkpt lat="44.063783241" lon="9.955412792">
      <ele>93.39</ele>
    </trkpt>
    <trkpt lat="44.064176604" lon="9.954945669">
      <ele>89.06</ele>
    </trkpt>
    <trkpt lat="44.064519005" lon="9.954737714">
      <ele>86.18</ele>
    </trkpt>
    <trkpt lat="44.064833075" lon="9.954448789">
      <ele>83.77</ele>
    </trkpt>
    <trkpt lat="44.065027032" lon="9.954492878">
      <ele>79.93</ele>
    </trkpt>
    <trkpt lat="44.065331044" lon="9.954817593">
      <ele>78.0</ele>
    </trkpt>
    <trkpt lat="44.065390304" lon="9.955052454">
      <ele>81.85</ele>
    </trkpt>
    <trkpt lat="44.06573832" lon="9.955280777">
      <ele>80.89</ele>
    </trkpt>
    <trkpt lat="44.065666236" lon="9.956088373">
      <ele>79.93</ele>
    </trkpt>
    <trkpt lat="44.065755" lon="9.956358271">
      <ele>78.97</ele>
    </trkpt>
    <trkpt lat="44.065975863" lon="9.955867091">
      <ele>77.52</ele>
    </trkpt>
    <trkpt lat="44.066164037" lon="9.955789139">
      <ele>77.04</ele>
    </trkpt>
    <trkpt lat="44.066363359" lon="9.955787631">
      <ele>78.48</ele>
    </trkpt>
    <trkpt lat="44.066387415" lon="9.955543717">
      <ele>87.62</ele>
    </trkpt>
    <trkpt lat="44.06625146" lon="9.955074666">
      <ele>75.12</ele>
    </trkpt>
    <trkpt lat="44.066293454" lon="9.954547528">
      <ele>70.79</ele>
    </trkpt>
    <trkpt lat="44.066756135" lon="9.953744039">
      <ele>61.18</ele>
    </trkpt>
    <trkpt lat="44.066881612" lon="9.953221427">
      <ele>56.86</ele>
    </trkpt>
    <trkpt lat="44.067187719" lon="9.952917248">
      <ele>54.93</ele>
    </trkpt>
    <trkpt lat="44.067367427" lon="9.952876931">
      <ele>53.49</ele>
    </trkpt>
    <trkpt lat="44.067569012" lon="9.95299805">
      <ele>48.2</ele>
    </trkpt>
    <trkpt lat="44.067725586" lon="9.953176081">
      <ele>43.88</ele>
    </trkpt>
    <trkpt lat="44.0674893" lon="9.954111837">
      <ele>42.44</ele>
    </trkpt>
    <trkpt lat="44.067494581" lon="9.954927145">
      <ele>41.47</ele>
    </trkpt>
    <trkpt lat="44.067660542" lon="9.955421342">
      <ele>29.46</ele>
    </trkpt>
    <trkpt lat="44.067365164" lon="9.956119806">
      <ele>29.94</ele>
    </trkpt>
    <trkpt lat="44.067223594" lon="9.957165783">
      <ele>32.82</ele>
    </trkpt>
    <trkpt lat="44.067320069" lon="9.957698453">
      <ele>33.3</ele>
    </trkpt>
    <trkpt lat="44.067671271" lon="9.957928872">
      <ele>31.38</ele>
    </trkpt>
    <trkpt lat="44.068032531" lon="9.958903603">
      <ele>23.21</ele>
    </trkpt>
    <trkpt lat="44.067889033" lon="9.959670212">
      <ele>23.69</ele>
    </trkpt>
    <trkpt lat="44.067898756" lon="9.959950922">
      <ele>18.88</ele>
    </trkpt>
    <trkpt lat="44.068045523" lon="9.960518125">
      <ele>19.84</ele>
    </trkpt>
    <trkpt lat="44.068124061" lon="9.960765811">
      <ele>18.4</ele>
    </trkpt>
    <trkpt lat="44.068561178" lon="9.96140074">
      <ele>13.12</ele>
    </trkpt>
    <trkpt lat="44.06886695" lon="9.962141365">
      <ele>11.67</ele>
    </trkpt>
    <trkpt lat="44.069023021" lon="9.962337166">
      <ele>9.27</ele>
    </trkpt>
    <trkpt lat="44.06923458" lon="9.963116264">
      <ele>8.31</ele>
    </trkpt>
    <trkpt lat="44.069542363" lon="9.963527313">
      <ele>6.87</ele>
    </trkpt>
    <trkpt lat="44.069697345" lon="9.96368615">
      <ele>5.42</ele>
    </trkpt>
    <trkpt lat="44.070462277" lon="9.963942803">
      <ele>4.94</ele>
    </trkpt>
    <trkpt lat="44.070869219" lon="9.96395655">
      <ele>6.39</ele>
    </trkpt>
    <trkpt lat="44.070488596" lon="9.964012122">
      <ele>9.27</ele>
    </trkpt>
    <trkpt lat="44.069916531" lon="9.963753037">
      <ele>5.91</ele>
    </trkpt>
    <trkpt lat="44.070292292" lon="9.963887818">
      <ele>5.91</ele>
    </trkpt>
    <trkpt lat="44.070460852" lon="9.964024611">
      <ele>6.39</ele>
    </trkpt>
    <trkpt lat="44.070303105" lon="9.964181939">
      <ele>5.42</ele>
    </trkpt>
    <trkpt lat="44.070089785" lon="9.964248324">
      <ele>5.91</ele>
    </trkpt>
    <trkpt lat="44.06949006" lon="9.964364497">
      <ele>4.94</ele>
    </trkpt>
    <trkpt lat="44.069409259" lon="9.96432879">
      <ele>4.94</ele>
    </trkpt>
    <trkpt lat="44.069603216" lon="9.964372544">
      <ele>4.94</ele>
    </trkpt>
    <trkpt lat="44.069728693" lon="9.96544308">
      <ele>6.87</ele>
    </trkpt>
    <trkpt lat="44.069646718" lon="9.965647431">
      <ele>5.91</ele>
    </trkpt>
    <trkpt lat="44.069007263" lon="9.96621103">
      <ele>3.98</ele>
    </trkpt>
    <trkpt lat="44.06888321" lon="9.966235925">
      <ele>2.54</ele>
    </trkpt>
  </trkseg>
</trk>
</gpx>
