<?xml version="1.0"?>
<gpx creator="GPS Visualizer http://www.gpsvisualizer.com/" version="1.1" xmlns="http://www.topografix.com/GPX/1/1" xmlns:xsi="http://www.w3.org/2001/XMLSchema-instance" xsi:schemaLocation="http://www.topografix.com/GPX/1/1 http://www.topografix.com/GPX/1/1/gpx.xsd">
<trk>
  <name>Liguria Coast 008a - variation via Framura</name>
  <trkseg>
    <trkpt lat="44.234765349" lon="9.58347531">
      <ele>568.76</ele>
    </trkpt>
    <trkpt lat="44.234806839" lon="9.583211197">
      <ele>569.72</ele>
    </trkpt>
    <trkpt lat="44.234945308" lon="9.583032997">
      <ele>568.28</ele>
    </trkpt>
    <trkpt lat="44.235657183" lon="9.582698224">
      <ele>560.11</ele>
    </trkpt>
    <trkpt lat="44.23582809" lon="9.582576184">
      <ele>559.14</ele>
    </trkpt>
    <trkpt lat="44.235947533" lon="9.582362697">
      <ele>558.18</ele>
    </trkpt>
    <trkpt lat="44.236306027" lon="9.581130221">
      <ele>551.45</ele>
    </trkpt>
    <trkpt lat="44.236429157" lon="9.579827674">
      <ele>548.57</ele>
    </trkpt>
    <trkpt lat="44.236291442" lon="9.579631118">
      <ele>546.65</ele>
    </trkpt>
    <trkpt lat="44.236093881" lon="9.579637656">
      <ele>543.76</ele>
    </trkpt>
    <trkpt lat="44.235953987" lon="9.579827338">
      <ele>542.32</ele>
    </trkpt>
    <trkpt lat="44.235530868" lon="9.580771225">
      <ele>537.99</ele>
    </trkpt>
    <trkpt lat="44.235197185" lon="9.581049001">
      <ele>534.15</ele>
    </trkpt>
    <trkpt lat="44.235009933" lon="9.581013797">
      <ele>532.71</ele>
    </trkpt>
    <trkpt lat="44.234853191" lon="9.580843896">
      <ele>531.27</ele>
    </trkpt>
    <trkpt lat="44.234320186" lon="9.579628436">
      <ele>522.61</ele>
    </trkpt>
    <trkpt lat="44.234224129" lon="9.579101466">
      <ele>519.73</ele>
    </trkpt>
    <trkpt lat="44.23433125" lon="9.578298563">
      <ele>518.29</ele>
    </trkpt>
    <trkpt lat="44.234291604" lon="9.578039479">
      <ele>519.73</ele>
    </trkpt>
    <trkpt lat="44.234100748" lon="9.578039646">
      <ele>523.09</ele>
    </trkpt>
    <trkpt lat="44.233934702" lon="9.578586817">
      <ele>536.07</ele>
    </trkpt>
    <trkpt lat="44.23391249" lon="9.57893257">
      <ele>535.59</ele>
    </trkpt>
    <trkpt lat="44.234004775" lon="9.579546377">
      <ele>527.42</ele>
    </trkpt>
    <trkpt lat="44.234160343" lon="9.580066307">
      <ele>508.67</ele>
    </trkpt>
    <trkpt lat="44.23402925" lon="9.58029178">
      <ele>505.79</ele>
    </trkpt>
    <trkpt lat="44.233834874" lon="9.580224724">
      <ele>502.43</ele>
    </trkpt>
    <trkpt lat="44.233558355" lon="9.579527183">
      <ele>499.06</ele>
    </trkpt>
    <trkpt lat="44.233440505" lon="9.577910732">
      <ele>489.93</ele>
    </trkpt>
    <trkpt lat="44.233535053" lon="9.57710431">
      <ele>489.45</ele>
    </trkpt>
    <trkpt lat="44.232888976" lon="9.575763624">
      <ele>478.87</ele>
    </trkpt>
    <trkpt lat="44.232741119" lon="9.575586934">
      <ele>478.39</ele>
    </trkpt>
    <trkpt lat="44.23254976" lon="9.575517112">
      <ele>477.43</ele>
    </trkpt>
    <trkpt lat="44.232379943" lon="9.575603195">
      <ele>475.03</ele>
    </trkpt>
    <trkpt lat="44.231753228" lon="9.576642467">
      <ele>471.18</ele>
    </trkpt>
    <trkpt lat="44.231270934" lon="9.577119984">
      <ele>470.22</ele>
    </trkpt>
    <trkpt lat="44.230858376" lon="9.577253005">
      <ele>465.42</ele>
    </trkpt>
    <trkpt lat="44.23006285" lon="9.577292399">
      <ele>463.97</ele>
    </trkpt>
    <trkpt lat="44.229323147" lon="9.577036416">
      <ele>454.84</ele>
    </trkpt>
    <trkpt lat="44.227705104" lon="9.576105606">
      <ele>443.31</ele>
    </trkpt>
    <trkpt lat="44.227545513" lon="9.575967472">
      <ele>441.38</ele>
    </trkpt>
    <trkpt lat="44.226379171" lon="9.574289666">
      <ele>424.56</ele>
    </trkpt>
    <trkpt lat="44.226289317" lon="9.574046256">
      <ele>424.56</ele>
    </trkpt>
    <trkpt lat="44.226299794" lon="9.573770324">
      <ele>423.6</ele>
    </trkpt>
    <trkpt lat="44.226424266" lon="9.57358106">
      <ele>423.12</ele>
    </trkpt>
    <trkpt lat="44.226586623" lon="9.573480058">
      <ele>422.16</ele>
    </trkpt>
    <trkpt lat="44.226773372" lon="9.573549461">
      <ele>421.68</ele>
    </trkpt>
    <trkpt lat="44.227222726" lon="9.574124711">
      <ele>416.87</ele>
    </trkpt>
    <trkpt lat="44.227393633" lon="9.574093278">
      <ele>415.43</ele>
    </trkpt>
    <trkpt lat="44.227453563" lon="9.573863447">
      <ele>414.95</ele>
    </trkpt>
    <trkpt lat="44.227006976" lon="9.573266823">
      <ele>412.06</ele>
    </trkpt>
    <trkpt lat="44.226802541" lon="9.572827695">
      <ele>409.18</ele>
    </trkpt>
    <trkpt lat="44.226788208" lon="9.572569365">
      <ele>409.66</ele>
    </trkpt>
    <trkpt lat="44.226894239" lon="9.572336767">
      <ele>408.7</ele>
    </trkpt>
    <trkpt lat="44.227239322" lon="9.572014818">
      <ele>405.81</ele>
    </trkpt>
    <trkpt lat="44.22743747" lon="9.572003335">
      <ele>407.26</ele>
    </trkpt>
    <trkpt lat="44.227567893" lon="9.572240626">
      <ele>404.85</ele>
    </trkpt>
    <trkpt lat="44.227654729" lon="9.572843118">
      <ele>399.08</ele>
    </trkpt>
    <trkpt lat="44.227810968" lon="9.57310522">
      <ele>396.2</ele>
    </trkpt>
    <trkpt lat="44.228397617" lon="9.573713997">
      <ele>391.39</ele>
    </trkpt>
    <trkpt lat="44.228757871" lon="9.573864955">
      <ele>385.15</ele>
    </trkpt>
    <trkpt lat="44.229498245" lon="9.574000156">
      <ele>377.94</ele>
    </trkpt>
    <trkpt lat="44.229649538" lon="9.573882306">
      <ele>376.01</ele>
    </trkpt>
    <trkpt lat="44.230136778" lon="9.57276986">
      <ele>370.73</ele>
    </trkpt>
    <trkpt lat="44.230015408" lon="9.572664164">
      <ele>369.76</ele>
    </trkpt>
    <trkpt lat="44.229600588" lon="9.573173784">
      <ele>365.92</ele>
    </trkpt>
    <trkpt lat="44.229395902" lon="9.573199181">
      <ele>359.67</ele>
    </trkpt>
    <trkpt lat="44.229281154" lon="9.573000949">
      <ele>356.79</ele>
    </trkpt>
    <trkpt lat="44.229291379" lon="9.572480433">
      <ele>354.38</ele>
    </trkpt>
    <trkpt lat="44.229212673" lon="9.571986822">
      <ele>351.02</ele>
    </trkpt>
    <trkpt lat="44.228926264" lon="9.571303781">
      <ele>350.54</ele>
    </trkpt>
    <trkpt lat="44.228790561" lon="9.571110494">
      <ele>350.06</ele>
    </trkpt>
    <trkpt lat="44.228608171" lon="9.571040338">
      <ele>350.06</ele>
    </trkpt>
    <trkpt lat="44.228013558" lon="9.571176628">
      <ele>347.17</ele>
    </trkpt>
    <trkpt lat="44.227717509" lon="9.570887536">
      <ele>344.29</ele>
    </trkpt>
    <trkpt lat="44.226383362" lon="9.568256289">
      <ele>322.18</ele>
    </trkpt>
    <trkpt lat="44.226333071" lon="9.568000305">
      <ele>322.18</ele>
    </trkpt>
    <trkpt lat="44.226429211" lon="9.567230092">
      <ele>318.81</ele>
    </trkpt>
    <trkpt lat="44.226167696" lon="9.566482091">
      <ele>318.81</ele>
    </trkpt>
    <trkpt lat="44.225980612" lon="9.566447139">
      <ele>313.53</ele>
    </trkpt>
    <trkpt lat="44.225869551" lon="9.566710331">
      <ele>310.64</ele>
    </trkpt>
    <trkpt lat="44.225207549" lon="9.567689588">
      <ele>305.36</ele>
    </trkpt>
    <trkpt lat="44.225028763" lon="9.568152437">
      <ele>304.39</ele>
    </trkpt>
    <trkpt lat="44.224866573" lon="9.568264922">
      <ele>303.91</ele>
    </trkpt>
    <trkpt lat="44.22433407" lon="9.567982284">
      <ele>297.67</ele>
    </trkpt>
    <trkpt lat="44.223705679" lon="9.567354564">
      <ele>288.53</ele>
    </trkpt>
    <trkpt lat="44.223534521" lon="9.567459505">
      <ele>286.13</ele>
    </trkpt>
    <trkpt lat="44.222834464" lon="9.568785941">
      <ele>289.01</ele>
    </trkpt>
    <trkpt lat="44.222162068" lon="9.569255076">
      <ele>283.25</ele>
    </trkpt>
    <trkpt lat="44.222111106" lon="9.569512233">
      <ele>281.8</ele>
    </trkpt>
    <trkpt lat="44.222158464" lon="9.569794117">
      <ele>281.8</ele>
    </trkpt>
    <trkpt lat="44.222549731" lon="9.570476906">
      <ele>281.32</ele>
    </trkpt>
    <trkpt lat="44.222600861" lon="9.570746887">
      <ele>282.28</ele>
    </trkpt>
    <trkpt lat="44.222578648" lon="9.57102525">
      <ele>283.25</ele>
    </trkpt>
    <trkpt lat="44.222398354" lon="9.571824884">
      <ele>286.13</ele>
    </trkpt>
    <trkpt lat="44.221820422" lon="9.572122777">
      <ele>285.17</ele>
    </trkpt>
    <trkpt lat="44.221425466" lon="9.572191173">
      <ele>289.01</ele>
    </trkpt>
    <trkpt lat="44.220719878" lon="9.571632771">
      <ele>294.3</ele>
    </trkpt>
    <trkpt lat="44.220291311" lon="9.571404448">
      <ele>297.67</ele>
    </trkpt>
    <trkpt lat="44.219971793" lon="9.570947383">
      <ele>299.11</ele>
    </trkpt>
    <trkpt lat="44.219795521" lon="9.570837999">
      <ele>299.59</ele>
    </trkpt>
    <trkpt lat="44.219215829" lon="9.570906814">
      <ele>301.03</ele>
    </trkpt>
    <trkpt lat="44.21902271" lon="9.570818972">
      <ele>301.99</ele>
    </trkpt>
    <trkpt lat="44.218855491" lon="9.570303401">
      <ele>303.91</ele>
    </trkpt>
    <trkpt lat="44.218705287" lon="9.570119753">
      <ele>303.91</ele>
    </trkpt>
    <trkpt lat="44.218500769" lon="9.57014557">
      <ele>303.43</ele>
    </trkpt>
    <trkpt lat="44.21830832" lon="9.570251014">
      <ele>302.95</ele>
    </trkpt>
    <trkpt lat="44.218056947" lon="9.570730291">
      <ele>305.36</ele>
    </trkpt>
    <trkpt lat="44.217891656" lon="9.570923829">
      <ele>306.32</ele>
    </trkpt>
    <trkpt lat="44.217675989" lon="9.570908323">
      <ele>305.84</ele>
    </trkpt>
    <trkpt lat="44.217311377" lon="9.570746971">
      <ele>305.84</ele>
    </trkpt>
    <trkpt lat="44.21712094" lon="9.570781002">
      <ele>305.36</ele>
    </trkpt>
    <trkpt lat="44.216573015" lon="9.571208814">
      <ele>306.32</ele>
    </trkpt>
    <trkpt lat="44.216331616" lon="9.571660263">
      <ele>308.24</ele>
    </trkpt>
    <trkpt lat="44.216134558" lon="9.571701838">
      <ele>308.72</ele>
    </trkpt>
    <trkpt lat="44.216007404" lon="9.571505366">
      <ele>309.68</ele>
    </trkpt>
    <trkpt lat="44.215976642" lon="9.570902288">
      <ele>314.01</ele>
    </trkpt>
    <trkpt lat="44.215821493" lon="9.570661476">
      <ele>316.41</ele>
    </trkpt>
    <trkpt lat="44.215235766" lon="9.570407001">
      <ele>321.7</ele>
    </trkpt>
    <trkpt lat="44.215001576" lon="9.570366517">
      <ele>323.62</ele>
    </trkpt>
    <trkpt lat="44.214813989" lon="9.57047984">
      <ele>325.06</ele>
    </trkpt>
    <trkpt lat="44.214281403" lon="9.571074704">
      <ele>329.39</ele>
    </trkpt>
    <trkpt lat="44.21409918" lon="9.571173275">
      <ele>329.87</ele>
    </trkpt>
    <trkpt lat="44.213946462" lon="9.571043523">
      <ele>330.35</ele>
    </trkpt>
    <trkpt lat="44.213363752" lon="9.569856646">
      <ele>335.64</ele>
    </trkpt>
    <trkpt lat="44.213372134" lon="9.569322551">
      <ele>336.6</ele>
    </trkpt>
    <trkpt lat="44.213161413" lon="9.56820868">
      <ele>327.95</ele>
    </trkpt>
    <trkpt lat="44.213235844" lon="9.567669975">
      <ele>327.47</ele>
    </trkpt>
    <trkpt lat="44.213362327" lon="9.567454224">
      <ele>326.5</ele>
    </trkpt>
    <trkpt lat="44.213825427" lon="9.567051977">
      <ele>326.5</ele>
    </trkpt>
    <trkpt lat="44.214076214" lon="9.566655345">
      <ele>320.26</ele>
    </trkpt>
    <trkpt lat="44.21474576" lon="9.566146899">
      <ele>318.33</ele>
    </trkpt>
    <trkpt lat="44.21487065" lon="9.565941961">
      <ele>317.85</ele>
    </trkpt>
    <trkpt lat="44.214849696" lon="9.565685224">
      <ele>316.41</ele>
    </trkpt>
    <trkpt lat="44.214340076" lon="9.565201169">
      <ele>308.72</ele>
    </trkpt>
    <trkpt lat="44.214328425" lon="9.564390471">
      <ele>307.28</ele>
    </trkpt>
    <trkpt lat="44.213965908" lon="9.562267335">
      <ele>296.7</ele>
    </trkpt>
    <trkpt lat="44.213878065" lon="9.562027361">
      <ele>297.67</ele>
    </trkpt>
    <trkpt lat="44.213349419" lon="9.561140724">
      <ele>285.17</ele>
    </trkpt>
    <trkpt lat="44.213185553" lon="9.560649628">
      <ele>285.17</ele>
    </trkpt>
    <trkpt lat="44.213225953" lon="9.560398003">
      <ele>287.09</ele>
    </trkpt>
    <trkpt lat="44.213393256" lon="9.560255008">
      <ele>288.53</ele>
    </trkpt>
    <trkpt lat="44.214765877" lon="9.559760811">
      <ele>293.34</ele>
    </trkpt>
    <trkpt lat="44.21490686" lon="9.559550006">
      <ele>293.34</ele>
    </trkpt>
    <trkpt lat="44.214934353" lon="9.559289161">
      <ele>293.82</ele>
    </trkpt>
    <trkpt lat="44.214831842" lon="9.559014235">
      <ele>294.3</ele>
    </trkpt>
    <trkpt lat="44.214679794" lon="9.558847351">
      <ele>293.34</ele>
    </trkpt>
    <trkpt lat="44.21390296" lon="9.558420461">
      <ele>294.78</ele>
    </trkpt>
    <trkpt lat="44.213701207" lon="9.558370337">
      <ele>295.74</ele>
    </trkpt>
    <trkpt lat="44.213139452" lon="9.557999689">
      <ele>297.67</ele>
    </trkpt>
    <trkpt lat="44.212951027" lon="9.557951326">
      <ele>300.07</ele>
    </trkpt>
    <trkpt lat="44.212951027" lon="9.557951326">
      <ele>300.07</ele>
    </trkpt>
    <trkpt lat="44.212585408" lon="9.557622503">
      <ele>305.36</ele>
    </trkpt>
    <trkpt lat="44.212176623" lon="9.557562238">
      <ele>300.07</ele>
    </trkpt>
    <trkpt lat="44.212068496" lon="9.557387056">
      <ele>297.18</ele>
    </trkpt>
    <trkpt lat="44.212058941" lon="9.557130067">
      <ele>293.82</ele>
    </trkpt>
    <trkpt lat="44.21210127" lon="9.55709612">
      <ele>291.9</ele>
    </trkpt>
    <trkpt lat="44.212059276" lon="9.556944575">
      <ele>292.38</ele>
    </trkpt>
    <trkpt lat="44.211955341" lon="9.556724969">
      <ele>290.94</ele>
    </trkpt>
    <trkpt lat="44.211786278" lon="9.556606617">
      <ele>288.53</ele>
    </trkpt>
    <trkpt lat="44.211410768" lon="9.556683563">
      <ele>287.57</ele>
    </trkpt>
    <trkpt lat="44.211035511" lon="9.55691373">
      <ele>284.69</ele>
    </trkpt>
    <trkpt lat="44.210502254" lon="9.557670532">
      <ele>278.44</ele>
    </trkpt>
    <trkpt lat="44.210013505" lon="9.558029948">
      <ele>271.71</ele>
    </trkpt>
    <trkpt lat="44.209832624" lon="9.558112593">
      <ele>270.75</ele>
    </trkpt>
    <trkpt lat="44.209634475" lon="9.558111085">
      <ele>269.79</ele>
    </trkpt>
    <trkpt lat="44.209227953" lon="9.558044113">
      <ele>264.98</ele>
    </trkpt>
    <trkpt lat="44.209051514" lon="9.557933053">
      <ele>264.02</ele>
    </trkpt>
    <trkpt lat="44.20906744" lon="9.557692828">
      <ele>261.62</ele>
    </trkpt>
    <trkpt lat="44.209250249" lon="9.557649661">
      <ele>259.21</ele>
    </trkpt>
    <trkpt lat="44.209428364" lon="9.557710849">
      <ele>258.25</ele>
    </trkpt>
    <trkpt lat="44.209607905" lon="9.557683859">
      <ele>258.25</ele>
    </trkpt>
    <trkpt lat="44.210101515" lon="9.557268955">
      <ele>253.44</ele>
    </trkpt>
    <trkpt lat="44.21036303" lon="9.556867797">
      <ele>251.52</ele>
    </trkpt>
    <trkpt lat="44.210550785" lon="9.55636044">
      <ele>249.12</ele>
    </trkpt>
    <trkpt lat="44.210818335" lon="9.555934137">
      <ele>246.72</ele>
    </trkpt>
    <trkpt lat="44.210907687" lon="9.555714028">
      <ele>245.75</ele>
    </trkpt>
    <trkpt lat="44.210745832" lon="9.555619396">
      <ele>246.23</ele>
    </trkpt>
    <trkpt lat="44.210419944" lon="9.55627461">
      <ele>240.95</ele>
    </trkpt>
    <trkpt lat="44.21028357" lon="9.556455491">
      <ele>237.58</ele>
    </trkpt>
    <trkpt lat="44.210111154" lon="9.556546267">
      <ele>236.62</ele>
    </trkpt>
    <trkpt lat="44.209531797" lon="9.556487594">
      <ele>230.85</ele>
    </trkpt>
    <trkpt lat="44.209189564" lon="9.556682389">
      <ele>225.09</ele>
    </trkpt>
    <trkpt lat="44.209012287" lon="9.556708792">
      <ele>220.76</ele>
    </trkpt>
    <trkpt lat="44.208951937" lon="9.556493461">
      <ele>216.43</ele>
    </trkpt>
    <trkpt lat="44.209089065" lon="9.556337642">
      <ele>214.99</ele>
    </trkpt>
    <trkpt lat="44.209802533" lon="9.556016028">
      <ele>212.59</ele>
    </trkpt>
    <trkpt lat="44.209979139" lon="9.555861885">
      <ele>212.59</ele>
    </trkpt>
    <trkpt lat="44.210100928" lon="9.555632975">
      <ele>209.7</ele>
    </trkpt>
    <trkpt lat="44.210229255" lon="9.555140371">
      <ele>205.38</ele>
    </trkpt>
    <trkpt lat="44.211065937" lon="9.55405659">
      <ele>195.77</ele>
    </trkpt>
    <trkpt lat="44.211278418" lon="9.55328797">
      <ele>190.96</ele>
    </trkpt>
    <trkpt lat="44.211189067" lon="9.553085463">
      <ele>189.04</ele>
    </trkpt>
    <trkpt lat="44.211027129" lon="9.553190572">
      <ele>189.04</ele>
    </trkpt>
    <trkpt lat="44.210838955" lon="9.553917283">
      <ele>190.48</ele>
    </trkpt>
    <trkpt lat="44.21035314" lon="9.554350292">
      <ele>187.11</ele>
    </trkpt>
    <trkpt lat="44.209685773" lon="9.554569479">
      <ele>180.38</ele>
    </trkpt>
    <trkpt lat="44.208908351" lon="9.554584483">
      <ele>175.58</ele>
    </trkpt>
    <trkpt lat="44.207071206" lon="9.555951906">
      <ele>153.95</ele>
    </trkpt>
    <trkpt lat="44.20633737" lon="9.556224737">
      <ele>141.45</ele>
    </trkpt>
    <trkpt lat="44.206200913" lon="9.556383491">
      <ele>139.05</ele>
    </trkpt>
    <trkpt lat="44.205885418" lon="9.55705421">
      <ele>136.16</ele>
    </trkpt>
    <trkpt lat="44.205712583" lon="9.557066532">
      <ele>133.76</ele>
    </trkpt>
    <trkpt lat="44.205585178" lon="9.556868384">
      <ele>128.95</ele>
    </trkpt>
    <trkpt lat="44.205581909" lon="9.556618351">
      <ele>126.07</ele>
    </trkpt>
    <trkpt lat="44.205909055" lon="9.555977471">
      <ele>122.22</ele>
    </trkpt>
    <trkpt lat="44.205876365" lon="9.555770187">
      <ele>121.26</ele>
    </trkpt>
    <trkpt lat="44.205403375" lon="9.556181822">
      <ele>116.46</ele>
    </trkpt>
    <trkpt lat="44.204885541" lon="9.556485834">
      <ele>104.44</ele>
    </trkpt>
    <trkpt lat="44.204827957" lon="9.556261282">
      <ele>102.52</ele>
    </trkpt>
    <trkpt lat="44.205374457" lon="9.555518981">
      <ele>101.08</ele>
    </trkpt>
    <trkpt lat="44.205332715" lon="9.555298872">
      <ele>98.19</ele>
    </trkpt>
    <trkpt lat="44.205150325" lon="9.555290909">
      <ele>97.23</ele>
    </trkpt>
    <trkpt lat="44.204630312" lon="9.555579498">
      <ele>92.42</ele>
    </trkpt>
    <trkpt lat="44.20405942" lon="9.555640938">
      <ele>83.77</ele>
    </trkpt>
    <trkpt lat="44.203605121" lon="9.556134799">
      <ele>77.04</ele>
    </trkpt>
    <trkpt lat="44.203067338" lon="9.556311909">
      <ele>71.27</ele>
    </trkpt>
    <trkpt lat="44.20314814" lon="9.556145696">
      <ele>69.35</ele>
    </trkpt>
    <trkpt lat="44.203459611" lon="9.555889461">
      <ele>65.99</ele>
    </trkpt>
    <trkpt lat="44.203355843" lon="9.555875212">
      <ele>67.43</ele>
    </trkpt>
    <trkpt lat="44.202999612" lon="9.556080569">
      <ele>65.99</ele>
    </trkpt>
    <trkpt lat="44.202224873" lon="9.556182241">
      <ele>59.26</ele>
    </trkpt>
    <trkpt lat="44.202065868" lon="9.556315932">
      <ele>55.89</ele>
    </trkpt>
    <trkpt lat="44.201349551" lon="9.556584992">
      <ele>43.88</ele>
    </trkpt>
    <trkpt lat="44.201166574" lon="9.556594212">
      <ele>41.47</ele>
    </trkpt>
    <trkpt lat="44.201274198" lon="9.556455826">
      <ele>41.47</ele>
    </trkpt>
    <trkpt lat="44.201457929" lon="9.556392962">
      <ele>40.51</ele>
    </trkpt>
    <trkpt lat="44.201586088" lon="9.556209063">
      <ele>39.55</ele>
    </trkpt>
    <trkpt lat="44.201611318" lon="9.555977387">
      <ele>38.59</ele>
    </trkpt>
    <trkpt lat="44.201430017" lon="9.555860041">
      <ele>37.63</ele>
    </trkpt>
    <trkpt lat="44.201249387" lon="9.555903208">
      <ele>35.23</ele>
    </trkpt>
    <trkpt lat="44.200914865" lon="9.556172686">
      <ele>30.42</ele>
    </trkpt>
    <trkpt lat="44.200566849" lon="9.556797137">
      <ele>23.69</ele>
    </trkpt>
    <trkpt lat="44.200411867" lon="9.556783475">
      <ele>18.88</ele>
    </trkpt>
    <trkpt lat="44.200655948" lon="9.556446858">
      <ele>17.92</ele>
    </trkpt>
    <trkpt lat="44.200438438" lon="9.556591948">
      <ele>16.48</ele>
    </trkpt>
    <trkpt lat="44.200109448" lon="9.556474686">
      <ele>4.94</ele>
    </trkpt>
  </trkseg>
</trk>
</gpx>
