<?xml version="1.0"?>
<gpx creator="GPS Visualizer http://www.gpsvisualizer.com/" version="1.1" xmlns="http://www.topografix.com/GPX/1/1" xmlns:xsi="http://www.w3.org/2001/XMLSchema-instance" xsi:schemaLocation="http://www.topografix.com/GPX/1/1 http://www.topografix.com/GPX/1/1/gpx.xsd">

 

  <trk>
    <name>M-V005 Treviso-Mestre</name>
    <desc>For more  information please go to italy-cycling-guide.info</desc>
  
    <trkseg>
      <trkpt lat="45.664348052814603" lon="12.251117583364248">
        <ele>16.48</ele>
      </trkpt>
      <trkpt lat="45.66379769705236" lon="12.251489488407969">
        <ele>15.999999000000001</ele>
      </trkpt>
      <trkpt lat="45.663464264944196" lon="12.251896010711789">
        <ele>15.474545000000001</ele>
      </trkpt>
      <trkpt lat="45.663366112858057" lon="12.25217797793448">
        <ele>14.338181000000001</ele>
      </trkpt>
      <trkpt lat="45.663468120619655" lon="12.252319380640984">
        <ele>13.594545</ele>
      </trkpt>
      <trkpt lat="45.663543473929167" lon="12.252311250194907">
        <ele>13.594545</ele>
      </trkpt>
      <trkpt lat="45.663920575752854" lon="12.254900252446532">
        <ele>13.463635999999999</ele>
      </trkpt>
      <trkpt lat="45.66375176422298" lon="12.25495389662683">
        <ele>13.28909</ele>
      </trkpt>
      <trkpt lat="45.663796104490757" lon="12.255173502489924">
        <ele>13.289999</ele>
      </trkpt>
      <trkpt lat="45.664671091362834" lon="12.257328238338232">
        <ele>12.590909</ele>
      </trkpt>
      <trkpt lat="45.664629014208913" lon="12.257605595514178">
        <ele>12.722727000000001</ele>
      </trkpt>
      <trkpt lat="45.664321314543486" lon="12.258253935724497">
        <ele>13.597272</ele>
      </trkpt>
      <trkpt lat="45.66403272561729" lon="12.258600946515799">
        <ele>13.421818</ele>
      </trkpt>
      <trkpt lat="45.663572559133172" lon="12.259407285600901">
        <ele>13.378181</ele>
      </trkpt>
      <trkpt lat="45.663429731503129" lon="12.259605685248971">
        <ele>13.334545</ele>
      </trkpt>
      <trkpt lat="45.662531778216362" lon="12.260396936908364">
        <ele>12.369999999999999</ele>
      </trkpt>
      <trkpt lat="45.66256639547646" lon="12.260634731501341">
        <ele>12.282727</ele>
      </trkpt>
      <trkpt lat="45.663054473698139" lon="12.261090707033873">
        <ele>12.195454</ele>
      </trkpt>
      <trkpt lat="45.663381535559893" lon="12.261573756113648">
        <ele>12.81</ele>
      </trkpt>
      <trkpt lat="45.663357060402632" lon="12.262177504599094">
        <ele>14.035454</ele>
      </trkpt>
      <trkpt lat="45.66321088001132" lon="12.262726351618767">
        <ele>14.909090000000001</ele>
      </trkpt>
      <trkpt lat="45.663014408200979" lon="12.263133125379682">
        <ele>15.039999999999999</ele>
      </trkpt>
      <trkpt lat="45.662717269733548" lon="12.263583820313215">
        <ele>14.821818</ele>
      </trkpt>
      <trkpt lat="45.662559354677796" lon="12.26371600292623">
        <ele>14.690909</ele>
      </trkpt>
      <trkpt lat="45.661791153252125" lon="12.264161836355925">
        <ele>12.853636</ele>
      </trkpt>
      <trkpt lat="45.661382786929607" lon="12.264322517439723">
        <ele>12.676363</ele>
      </trkpt>
      <trkpt lat="45.660377042368054" lon="12.264414886012673">
        <ele>11.233636000000001</ele>
      </trkpt>
      <trkpt lat="45.65925688482821" lon="12.264749240130186">
        <ele>10.840909</ele>
      </trkpt>
      <trkpt lat="45.657947044819593" lon="12.265922538936138">
        <ele>8.7027272</ele>
      </trkpt>
      <trkpt lat="45.65775970928371" lon="12.266110628843307">
        <ele>8.5281818</ele>
      </trkpt>
      <trkpt lat="45.657653091475368" lon="12.266327049583197">
        <ele>8.7027272</ele>
      </trkpt>
      <trkpt lat="45.65768108703196" lon="12.266641287133098">
        <ele>9.139090899999999</ele>
      </trkpt>
      <trkpt lat="45.658398158848286" lon="12.267949869856238">
        <ele>9.357272699999999</ele>
      </trkpt>
      <trkpt lat="45.658503687009215" lon="12.268335353583097">
        <ele>9.9245454</ele>
      </trkpt>
      <trkpt lat="45.658717341721058" lon="12.268800381571054">
        <ele>10.360908999999999</ele>
      </trkpt>
      <trkpt lat="45.658802585676312" lon="12.268982017412782">
        <ele>10.317272000000001</ele>
      </trkpt>
      <trkpt lat="45.659039625898004" lon="12.268984196707606">
        <ele>10.09909</ele>
      </trkpt>
      <trkpt lat="45.659388899803162" lon="12.268896773457527">
        <ele>9.8372727</ele>
      </trkpt>
      <trkpt lat="45.659685870632529" lon="12.268990064039826">
        <ele>9.27</ele>
      </trkpt>
      <trkpt lat="45.661118002608418" lon="12.27052160538733">
        <ele>8.7027272</ele>
      </trkpt>
      <trkpt lat="45.661223195493221" lon="12.271220069378614">
        <ele>8.31</ele>
      </trkpt>
      <trkpt lat="45.661136778071523" lon="12.272136211395264">
        <ele>8.877272700000001</ele>
      </trkpt>
      <trkpt lat="45.660776104778051" lon="12.273503635078669">
        <ele>9.9245454</ele>
      </trkpt>
      <trkpt lat="45.66049313172698" lon="12.273963214829564">
        <ele>11.62909</ele>
      </trkpt>
      <trkpt lat="45.659233247861266" lon="12.275552758947015">
        <ele>13.771818</ele>
      </trkpt>
      <trkpt lat="45.658855140209198" lon="12.275951066985726">
        <ele>12.983636000000001</ele>
      </trkpt>
      <trkpt lat="45.658133206889033" lon="12.276535872370005">
        <ele>10.753636</ele>
      </trkpt>
      <trkpt lat="45.657777898013592" lon="12.276994613930583">
        <ele>9.793636299999999</ele>
      </trkpt>
      <trkpt lat="45.657133245840669" lon="12.278874507173896">
        <ele>9.6190909</ele>
      </trkpt>
      <trkpt lat="45.656910873949528" lon="12.280766889452934">
        <ele>9.793636299999999</ele>
      </trkpt>
      <trkpt lat="45.65639647655189" lon="12.281942116096616">
        <ele>8.877272700000001</ele>
      </trkpt>
      <trkpt lat="45.656094141304493" lon="12.282399097457528">
        <ele>8.877272700000001</ele>
      </trkpt>
      <trkpt lat="45.655663311481476" lon="12.282825149595737">
        <ele>9.313636300000001</ele>
      </trkpt>
      <trkpt lat="45.655344212427735" lon="12.282911986112595">
        <ele>10.537272</ele>
      </trkpt>
      <trkpt lat="45.654923859983683" lon="12.283470723778009">
        <ele>12.985454000000001</ele>
      </trkpt>
      <trkpt lat="45.654626721516252" lon="12.282976359128952">
        <ele>13.948181</ele>
      </trkpt>
      <trkpt lat="45.652377773076296" lon="12.285768119618297">
        <ele>12.10909</ele>
      </trkpt>
      <trkpt lat="45.652101840823889" lon="12.285956209525466">
        <ele>12.722727000000001</ele>
      </trkpt>
      <trkpt lat="45.65169045701623" lon="12.286076154559851">
        <ele>12.767272</ele>
      </trkpt>
      <trkpt lat="45.651307655498385" lon="12.286363318562508">
        <ele>10.363636</ele>
      </trkpt>
      <trkpt lat="45.651038093492389" lon="12.286822814494371">
        <ele>8.832727200000001</ele>
      </trkpt>
      <trkpt lat="45.651007331907749" lon="12.28696153499186">
        <ele>8.701818100000001</ele>
      </trkpt>
      <trkpt lat="45.651064915582538" lon="12.287092292681336">
        <ele>8.701818100000001</ele>
      </trkpt>
      <trkpt lat="45.650772219523787" lon="12.287681624293327">
        <ele>9.4872727</ele>
      </trkpt>
      <trkpt lat="45.648512626066804" lon="12.29056466370821">
        <ele>6.8645454</ele>
      </trkpt>
      <trkpt lat="45.648302659392357" lon="12.290696008130908">
        <ele>5.5536363</ele>
      </trkpt>
      <trkpt lat="45.64823392778635" lon="12.290675304830074">
        <ele>4.8981818</ele>
      </trkpt>
      <trkpt lat="45.64783226698637" lon="12.290149424225092">
        <ele>3.9363636</ele>
      </trkpt>
      <trkpt lat="45.647760098800063" lon="12.290424602106214">
        <ele>4.1999999</ele>
      </trkpt>
      <trkpt lat="45.647685835137963" lon="12.290483610704541">
        <ele>4.4190909</ele>
      </trkpt>
      <trkpt lat="45.647504702210426" lon="12.291189786046743">
        <ele>4.7254545</ele>
      </trkpt>
      <trkpt lat="45.64751610159874" lon="12.29148767888546">
        <ele>5.3381818</ele>
      </trkpt>
      <trkpt lat="45.647698994725943" lon="12.292015822604299">
        <ele>5.9927272</ele>
      </trkpt>
      <trkpt lat="45.64772087149322" lon="12.292786287143826">
        <ele>5.5972727</ele>
      </trkpt>
      <trkpt lat="45.647551892325282" lon="12.29305618442595">
        <ele>5.3345454</ele>
      </trkpt>
      <trkpt lat="45.64741644077003" lon="12.29316707700491">
        <ele>5.2036363</ele>
      </trkpt>
      <trkpt lat="45.647272188216448" lon="12.293749032542109">
        <ele>4.4618181</ele>
      </trkpt>
      <trkpt lat="45.647741826251149" lon="12.294281702488661">
        <ele>4.6372727</ele>
      </trkpt>
      <trkpt lat="45.647485172376037" lon="12.294778916984797">
        <ele>6.0363636</ele>
      </trkpt>
      <trkpt lat="45.647423565387726" lon="12.295207818970084">
        <ele>7.5654545</ele>
      </trkpt>
      <trkpt lat="45.647218292579055" lon="12.2955990023911">
        <ele>8.527272699999999</ele>
      </trkpt>
      <trkpt lat="45.647353073582053" lon="12.295759348198771">
        <ele>9.489090900000001</ele>
      </trkpt>
      <trkpt lat="45.646310448646545" lon="12.297896733507514">
        <ele>14.035454</ele>
      </trkpt>
      <trkpt lat="45.645511485636234" lon="12.300547678023577">
        <ele>10.32</ele>
      </trkpt>
      <trkpt lat="45.645357510074973" lon="12.300799721851945">
        <ele>8.8336363</ele>
      </trkpt>
      <trkpt lat="45.645190542563796" lon="12.300955709069967">
        <ele>7.6972727</ele>
      </trkpt>
      <trkpt lat="45.644974373281002" lon="12.301000468432903">
        <ele>7.260909</ele>
      </trkpt>
      <trkpt lat="45.644671786576509" lon="12.300800979137421">
        <ele>7.6099999</ele>
      </trkpt>
      <trkpt lat="45.643800990656018" lon="12.298798207193613">
        <ele>8.5281818</ele>
      </trkpt>
      <trkpt lat="45.642566503956914" lon="12.297429023310542">
        <ele>6.5181818</ele>
      </trkpt>
      <trkpt lat="45.64185437746346" lon="12.297189217060804">
        <ele>5.3372727</ele>
      </trkpt>
      <trkpt lat="45.641455482691526" lon="12.297131549566984">
        <ele>4.8554545</ele>
      </trkpt>
      <trkpt lat="45.641127917915583" lon="12.297164825722575">
        <ele>4.0236363</ele>
      </trkpt>
      <trkpt lat="45.640970338135958" lon="12.297196509316564">
        <ele>3.9363636</ele>
      </trkpt>
      <trkpt lat="45.640556439757347" lon="12.297427346929908">
        <ele>4.0672727</ele>
      </trkpt>
      <trkpt lat="45.640224013477564" lon="12.297752732411027">
        <ele>3.8063636</ele>
      </trkpt>
      <trkpt lat="45.64007137902081" lon="12.298212144523859">
        <ele>4.8127272</ele>
      </trkpt>
      <trkpt lat="45.640073055401444" lon="12.298517916351557">
        <ele>5.0318181</ele>
      </trkpt>
      <trkpt lat="45.640316465869546" lon="12.299362141638994">
        <ele>5.4263636</ele>
      </trkpt>
      <trkpt lat="45.640367427840829" lon="12.299796659499407">
        <ele>5.9081818</ele>
      </trkpt>
      <trkpt lat="45.640001138672233" lon="12.303145648911595">
        <ele>6.1718181</ele>
      </trkpt>
      <trkpt lat="45.639987057074904" lon="12.30394528247416">
        <ele>6.1281818</ele>
      </trkpt>
      <trkpt lat="45.64018277451396" lon="12.304783724248409">
        <ele>5.9536363</ele>
      </trkpt>
      <trkpt lat="45.640669595450163" lon="12.305491659790277">
        <ele>7.1318181</ele>
      </trkpt>
      <trkpt lat="45.640712343156338" lon="12.305894326418638">
        <ele>7.7427272</ele>
      </trkpt>
      <trkpt lat="45.640649562701583" lon="12.306082164868712">
        <ele>7.9172727</ele>
      </trkpt>
      <trkpt lat="45.640456946566701" lon="12.306136814877391">
        <ele>8.1354545</ele>
      </trkpt>
      <trkpt lat="45.640250500291586" lon="12.306038243696094">
        <ele>7.9172727</ele>
      </trkpt>
      <trkpt lat="45.63943175598979" lon="12.305294601246715">
        <ele>5.4681818</ele>
      </trkpt>
      <trkpt lat="45.638463897630572" lon="12.30484533123672">
        <ele>3.7181818</ele>
      </trkpt>
      <trkpt lat="45.637554042041302" lon="12.304584234952927">
        <ele>1.3618181</ele>
      </trkpt>
      <trkpt lat="45.637324629351497" lon="12.304627150297165">
        <ele>1.1872727</ele>
      </trkpt>
      <trkpt lat="45.636923890560865" lon="12.304825382307172">
        <ele>1.4054545</ele>
      </trkpt>
      <trkpt lat="45.636438159272075" lon="12.305290410295129">
        <ele>1.5363636</ele>
      </trkpt>
      <trkpt lat="45.636288039386272" lon="12.305583693087101">
        <ele>1.710909</ele>
      </trkpt>
      <trkpt lat="45.635975478217006" lon="12.306584492325783">
        <ele>2.1036363</ele>
      </trkpt>
      <trkpt lat="45.635891240090132" lon="12.307343641296029">
        <ele>3.0636363</ele>
      </trkpt>
      <trkpt lat="45.635937256738544" lon="12.307954346761107">
        <ele>3.7618181</ele>
      </trkpt>
      <trkpt lat="45.636309580877423" lon="12.309143152087927">
        <ele>2.9763636</ele>
      </trkpt>
      <trkpt lat="45.636381916701794" lon="12.309555457904935">
        <ele>2.4527272</ele>
      </trkpt>
      <trkpt lat="45.636203046888113" lon="12.311081467196345">
        <ele>2.9327272</ele>
      </trkpt>
      <trkpt lat="45.635891240090132" lon="12.312096515670419">
        <ele>4.0672727</ele>
      </trkpt>
      <trkpt lat="45.634953808039427" lon="12.313888482749462">
        <ele>3.630909</ele>
      </trkpt>
      <trkpt lat="45.634632864966989" lon="12.314846031367779">
        <ele>3.4127272</ele>
      </trkpt>
      <trkpt lat="45.634408816695213" lon="12.31606668792665">
        <ele>2.7145454</ele>
      </trkpt>
      <trkpt lat="45.632991185411811" lon="12.314413944259286">
        <ele>3.1518181</ele>
      </trkpt>
      <trkpt lat="45.631984435021877" lon="12.31305037625134">
        <ele>3.4581818</ele>
      </trkpt>
      <trkpt lat="45.631734989583492" lon="12.312584258615971">
        <ele>4.2454545</ele>
      </trkpt>
      <trkpt lat="45.631009200587869" lon="12.310806373134255">
        <ele>5.600909</ele>
      </trkpt>
      <trkpt lat="45.623194165527821" lon="12.322138203307986">
        <ele>9.880000000000001</ele>
      </trkpt>
      <trkpt lat="45.623840829357505" lon="12.323558684438467">
        <ele>9.312727199999999</ele>
      </trkpt>
      <trkpt lat="45.625376142561436" lon="12.325835879892111">
        <ele>7.8290909</ele>
      </trkpt>
      <trkpt lat="45.625918535515666" lon="12.32651942409575">
        <ele>7.2618181</ele>
      </trkpt>
      <trkpt lat="45.625475300475955" lon="12.327413437888026">
        <ele>6.7381818</ele>
      </trkpt>
      <trkpt lat="45.625993888825178" lon="12.32807862572372">
        <ele>6.8699999</ele>
      </trkpt>
      <trkpt lat="45.626024734228849" lon="12.328372411429882">
        <ele>6.5627272</ele>
      </trkpt>
      <trkpt lat="45.625879224389791" lon="12.328773904591799">
        <ele>6.2981818</ele>
      </trkpt>
      <trkpt lat="45.625768667086959" lon="12.328846324235201">
        <ele>6.0363636</ele>
      </trkpt>
      <trkpt lat="45.625465493649244" lon="12.328702574595809">
        <ele>5.5554545</ele>
      </trkpt>
      <trkpt lat="45.624987976625562" lon="12.328581791371107">
        <ele>5.38</ele>
      </trkpt>
      <trkpt lat="45.624147690832615" lon="12.328419433906674">
        <ele>3.8490909</ele>
      </trkpt>
      <trkpt lat="45.623884247615933" lon="12.328447429463267">
        <ele>3.3690909</ele>
      </trkpt>
      <trkpt lat="45.623643100261688" lon="12.328522112220526">
        <ele>3.2818181</ele>
      </trkpt>
      <trkpt lat="45.622510621324182" lon="12.329176403582096">
        <ele>5.120909</ele>
      </trkpt>
      <trkpt lat="45.621564807370305" lon="12.329820301383734">
        <ele>5.9954545</ele>
      </trkpt>
      <trkpt lat="45.621317960321903" lon="12.330193463712931">
        <ele>6.2136363</ele>
      </trkpt>
      <trkpt lat="45.620999280363321" lon="12.331541357561946">
        <ele>7.0863636</ele>
      </trkpt>
      <trkpt lat="45.62069971114397" lon="12.33216111548245">
        <ele>7.7427272</ele>
      </trkpt>
      <trkpt lat="45.620404835790396" lon="12.33248507604003">
        <ele>7.4372727</ele>
      </trkpt>
      <trkpt lat="45.619790609925985" lon="12.332835858687758">
        <ele>7.000909</ele>
      </trkpt>
      <trkpt lat="45.618976140394807" lon="12.333443211391568">
        <ele>6.9572727</ele>
      </trkpt>
      <trkpt lat="45.618670955300331" lon="12.333818385377526">
        <ele>7.0881818</ele>
      </trkpt>
      <trkpt lat="45.618491917848587" lon="12.334319539368153">
        <ele>6.6936363</ele>
      </trkpt>
      <trkpt lat="45.618463503196836" lon="12.33463411219418">
        <ele>6.1681818</ele>
      </trkpt>
      <trkpt lat="45.618622088804841" lon="12.335278009995818">
        <ele>5.3354545</ele>
      </trkpt>
      <trkpt lat="45.618639020249248" lon="12.335645221173763">
        <ele>5.0281818</ele>
      </trkpt>
      <trkpt lat="45.618545645847917" lon="12.335931127890944">
        <ele>4.8527272</ele>
      </trkpt>
      <trkpt lat="45.618337355554104" lon="12.33611905016005">
        <ele>4.7654545</ele>
      </trkpt>
      <trkpt lat="45.617948602885008" lon="12.336207395419478">
        <ele>4.5036363</ele>
      </trkpt>
      <trkpt lat="45.617599077522755" lon="12.336173783987761">
        <ele>4.2418181</ele>
      </trkpt>
      <trkpt lat="45.616797683760524" lon="12.335639102384448">
        <ele>3.2381818</ele>
      </trkpt>
      <trkpt lat="45.616029482334852" lon="12.335462579503655">
        <ele>2.2345454</ele>
      </trkpt>
      <trkpt lat="45.613311817869544" lon="12.335547572001815">
        <ele>2.1472727</ele>
      </trkpt>
      <trkpt lat="45.613063462078571" lon="12.335644969716668">
        <ele>2.4963636</ele>
      </trkpt>
      <trkpt lat="45.612975284457207" lon="12.33573398552835">
        <ele>2.7145454</ele>
      </trkpt>
      <trkpt lat="45.612890040501952" lon="12.336003798991442">
        <ele>3.500909</ele>
      </trkpt>
      <trkpt lat="45.612832959741354" lon="12.33651727437973">
        <ele>4.5945454</ele>
      </trkpt>
      <trkpt lat="45.612879144027829" lon="12.336851460859179">
        <ele>5.1618181</ele>
      </trkpt>
      <trkpt lat="45.613134372979403" lon="12.337602479383349">
        <ele>5.38</ele>
      </trkpt>
      <trkpt lat="45.613168152049184" lon="12.338028447702527">
        <ele>5.4236363</ele>
      </trkpt>
      <trkpt lat="45.612473879009485" lon="12.338071530684829">
        <ele>5.3790909</ele>
      </trkpt>
      <trkpt lat="45.612361561506987" lon="12.3368832282722">
        <ele>5.2481818</ele>
      </trkpt>
      <trkpt lat="45.611717915162444" lon="12.337024211883545">
        <ele>5.160909</ele>
      </trkpt>
      <trkpt lat="45.61159553937614" lon="12.336962353438139">
        <ele>5.0736363</ele>
      </trkpt>
      <trkpt lat="45.611555054783821" lon="12.336249640211463">
        <ele>4.8536363</ele>
      </trkpt>
      <trkpt lat="45.611229501664639" lon="12.333702128380537">
        <ele>4.9863636</ele>
      </trkpt>
      <trkpt lat="45.611071586608887" lon="12.333101984113455">
        <ele>5.2499999</ele>
      </trkpt>
      <trkpt lat="45.610213028267026" lon="12.333549158647656">
        <ele>5.7318181</ele>
      </trkpt>
      <trkpt lat="45.609321696683764" lon="12.333790306001902">
        <ele>6.2581818</ele>
      </trkpt>
      <trkpt lat="45.608126940205693" lon="12.333523845300078">
        <ele>6.6081818</ele>
      </trkpt>
      <trkpt lat="45.607613800093532" lon="12.333097206428647">
        <ele>6.5645454</ele>
      </trkpt>
      <trkpt lat="45.607014577835798" lon="12.333100894466043">
        <ele>6.2154545</ele>
      </trkpt>
      <trkpt lat="45.606078738346696" lon="12.332938453182578">
        <ele>6.6954545</ele>
      </trkpt>
      <trkpt lat="45.605919230729342" lon="12.332965526729822">
        <ele>6.9136363</ele>
      </trkpt>
      <trkpt lat="45.605869945138693" lon="12.33302554115653">
        <ele>6.8690909</ele>
      </trkpt>
      <trkpt lat="45.605777492746711" lon="12.334016282111406">
        <ele>6.8690909</ele>
      </trkpt>
      <trkpt lat="45.604580054059625" lon="12.333781672641635">
        <ele>6.6945454</ele>
      </trkpt>
      <trkpt lat="45.604617353528738" lon="12.333858869969845">
        <ele>6.4763636</ele>
      </trkpt>
      <trkpt lat="45.604389365762472" lon="12.335388567298651">
        <ele>5.7727272</ele>
      </trkpt>
      <trkpt lat="45.604189960286021" lon="12.335625858977437">
        <ele>6.5145454</ele>
      </trkpt>
      <trkpt lat="45.604002624750137" lon="12.33569635078311">
        <ele>6.9081818</ele>
      </trkpt>
      <trkpt lat="45.603957111015916" lon="12.335655530914664">
        <ele>7.3018181</ele>
      </trkpt>
      <trkpt lat="45.604618359357119" lon="12.338754823431373">
        <ele>5.510909</ele>
      </trkpt>
      <trkpt lat="45.604697903618217" lon="12.339505087584257">
        <ele>4.3727272</ele>
      </trkpt>
      <trkpt lat="45.604633446782827" lon="12.339531574398279">
        <ele>4.1545454</ele>
      </trkpt>
      <trkpt lat="45.604573599994183" lon="12.338789105415344">
        <ele>2.9763636</ele>
      </trkpt>
      <trkpt lat="45.603898940607905" lon="12.336405124515295">
        <ele>4.9845454</ele>
      </trkpt>
      <trkpt lat="45.603709509596229" lon="12.336272858083248">
        <ele>5.2481818</ele>
      </trkpt>
      <trkpt lat="45.603176252916455" lon="12.336180489510298">
        <ele>5.3354545</ele>
      </trkpt>
      <trkpt lat="45.60279780998826" lon="12.335985274985433">
        <ele>5.1172727</ele>
      </trkpt>
      <trkpt lat="45.602246951311827" lon="12.335166949778795">
        <ele>4.6781818</ele>
      </trkpt>
      <trkpt lat="45.600063968449831" lon="12.332576857879758">
        <ele>5.9054545</ele>
      </trkpt>
      <trkpt lat="45.599122429266572" lon="12.331191077828407">
        <ele>4.9845454</ele>
      </trkpt>
      <trkpt lat="45.598696125671268" lon="12.330190530046821">
        <ele>6.1245454</ele>
      </trkpt>
      <trkpt lat="45.598284741863608" lon="12.329415371641517">
        <ele>6.7818181</ele>
      </trkpt>
      <trkpt lat="45.597570100799203" lon="12.328490344807506">
        <ele>4.9845454</ele>
      </trkpt>
      <trkpt lat="45.597207080572844" lon="12.32817736454308">
        <ele>4.3727272</ele>
      </trkpt>
      <trkpt lat="45.596772395074368" lon="12.328017186373472">
        <ele>4.110909</ele>
      </trkpt>
      <trkpt lat="45.596214160323143" lon="12.328107375651598">
        <ele>3.9363636</ele>
      </trkpt>
      <trkpt lat="45.595909226685762" lon="12.328386995941401">
        <ele>4.6363636</ele>
      </trkpt>
      <trkpt lat="45.595754580572248" lon="12.328841630369425">
        <ele>6.4718181</ele>
      </trkpt>
      <trkpt lat="45.595635641366243" lon="12.330208802595735">
        <ele>10.272727</ele>
      </trkpt>
      <trkpt lat="45.595974437892437" lon="12.331697344779968">
        <ele>12.852727</ele>
      </trkpt>
      <trkpt lat="45.59617443010211" lon="12.332937782630324">
        <ele>11.451817999999999</ele>
      </trkpt>
      <trkpt lat="45.59700658544898" lon="12.334995875135064">
        <ele>9.6181818</ele>
      </trkpt>
      <trkpt lat="45.598235120996833" lon="12.338446704670787">
        <ele>6.6081818</ele>
      </trkpt>
      <trkpt lat="45.59876611456275" lon="12.340116463601589">
        <ele>6.7827272</ele>
      </trkpt>
      <trkpt lat="45.599053781479597" lon="12.340796571224928">
        <ele>5.8627272</ele>
      </trkpt>
      <trkpt lat="45.599133241921663" lon="12.34126478433609">
        <ele>4.9436363</ele>
      </trkpt>
      <trkpt lat="45.599074233323336" lon="12.341696368530393">
        <ele>4.2427272</ele>
      </trkpt>
      <trkpt lat="45.598862254992127" lon="12.34199920669198">
        <ele>3.9363636</ele>
      </trkpt>
      <trkpt lat="45.598584981635213" lon="12.342167012393475">
        <ele>4.110909</ele>
      </trkpt>
      <trkpt lat="45.59807569719851" lon="12.342242784798145">
        <ele>3.98</ele>
      </trkpt>
      <trkpt lat="45.597404725849628" lon="12.342204311862588">
        <ele>3.02</ele>
      </trkpt>
      <trkpt lat="45.5970573797822" lon="12.342297686263919">
        <ele>2.3654545</ele>
      </trkpt>
      <trkpt lat="45.596628813073039" lon="12.342602619901299">
        <ele>2.1036363</ele>
      </trkpt>
      <trkpt lat="45.595576632767916" lon="12.343562766909599">
        <ele>3.02</ele>
      </trkpt>
      <trkpt lat="45.59518595226109" lon="12.343690674751997">
        <ele>3.5436363</ele>
      </trkpt>
      <trkpt lat="45.594854112714529" lon="12.343668546527624">
        <ele>4.110909</ele>
      </trkpt>
      <trkpt lat="45.594539036974311" lon="12.343468638136983">
        <ele>4.46</ele>
      </trkpt>
      <trkpt lat="45.594057077541947" lon="12.34262022189796">
        <ele>4.0672727</ele>
      </trkpt>
      <trkpt lat="45.593329863622785" lon="12.341691423207521">
        <ele>3.8927272</ele>
      </trkpt>
      <trkpt lat="45.593137331306934" lon="12.341565107926726">
        <ele>3.7618181</ele>
      </trkpt>
      <trkpt lat="45.592779088765383" lon="12.341741546988487">
        <ele>3.5</ele>
      </trkpt>
      <trkpt lat="45.592060592025518" lon="12.342563141137362">
        <ele>4.1990909</ele>
      </trkpt>
      <trkpt lat="45.591914327815175" lon="12.342969831079245">
        <ele>5.2927272</ele>
      </trkpt>
      <trkpt lat="45.591902760788798" lon="12.343332348391414">
        <ele>6.9527272</ele>
      </trkpt>
      <trkpt lat="45.591963864862919" lon="12.34365806914866">
        <ele>8.438181800000001</ele>
      </trkpt>
      <trkpt lat="45.592941949144006" lon="12.345614237710834">
        <ele>9.9245454</ele>
      </trkpt>
      <trkpt lat="45.593021661043167" lon="12.3459008987993">
        <ele>11.323636</ele>
      </trkpt>
      <trkpt lat="45.593121740967035" lon="12.346985936164856">
        <ele>11.672727</ele>
      </trkpt>
      <trkpt lat="45.593148898333311" lon="12.348074913024902">
        <ele>10.579090000000001</ele>
      </trkpt>
      <trkpt lat="45.593435475602746" lon="12.349088871851563">
        <ele>8.9645454</ele>
      </trkpt>
      <trkpt lat="45.59337361715734" lon="12.349670827388763">
        <ele>7.3063636</ele>
      </trkpt>
      <trkpt lat="45.593199105933309" lon="12.349975509569049">
        <ele>6.4772727</ele>
      </trkpt>
      <trkpt lat="45.592921329662204" lon="12.350238785147667">
        <ele>5.950909</ele>
      </trkpt>
      <trkpt lat="45.591912986710668" lon="12.350989803671837">
        <ele>4.4163636</ele>
      </trkpt>
      <trkpt lat="45.59124318882823" lon="12.351302448660135">
        <ele>3.8490909</ele>
      </trkpt>
      <trkpt lat="45.590705154463649" lon="12.351442510262132">
        <ele>4.2854545</ele>
      </trkpt>
      <trkpt lat="45.590483453124762" lon="12.351429853588343">
        <ele>4.590909</ele>
      </trkpt>
      <trkpt lat="45.589856067672372" lon="12.35123086720705">
        <ele>5.070909</ele>
      </trkpt>
      <trkpt lat="45.589613998308778" lon="12.351245535537601">
        <ele>4.6781818</ele>
      </trkpt>
      <trkpt lat="45.588407590985298" lon="12.351978616788983">
        <ele>4.3727272</ele>
      </trkpt>
      <trkpt lat="45.588277671486139" lon="12.352201491594315">
        <ele>4.3290909</ele>
      </trkpt>
      <trkpt lat="45.588263506069779" lon="12.352350354194641">
        <ele>4.3727272</ele>
      </trkpt>
      <trkpt lat="45.588771030306816" lon="12.354071494191885">
        <ele>4.5045454</ele>
      </trkpt>
      <trkpt lat="45.58903506025672" lon="12.354544820263982">
        <ele>5.4245454</ele>
      </trkpt>
      <trkpt lat="45.58937469497323" lon="12.35487942583859">
        <ele>6.2572727</ele>
      </trkpt>
      <trkpt lat="45.5906334053725" lon="12.355722142383456">
        <ele>8.1354545</ele>
      </trkpt>
      <trkpt lat="45.590985445305705" lon="12.356177028268576">
        <ele>9.008181799999999</ele>
      </trkpt>
      <trkpt lat="45.591068929061294" lon="12.356669213622808">
        <ele>9.4881818</ele>
      </trkpt>
      <trkpt lat="45.591093739494681" lon="12.357377735897899">
        <ele>8.920909</ele>
      </trkpt>
      <trkpt lat="45.590844377875328" lon="12.357872603461146">
        <ele>8.5281818</ele>
      </trkpt>
      <trkpt lat="45.590464007109404" lon="12.358388593420386">
        <ele>6.6936363</ele>
      </trkpt>
      <trkpt lat="45.58987844735384" lon="12.358891842886806">
        <ele>5.0736363</ele>
      </trkpt>
      <trkpt lat="45.589369246736169" lon="12.35889402218163">
        <ele>4.6781818</ele>
      </trkpt>
      <trkpt lat="45.588749321177602" lon="12.358814813196659">
        <ele>5.2927272</ele>
      </trkpt>
      <trkpt lat="45.588505743071437" lon="12.358845490962267">
        <ele>5.4245454</ele>
      </trkpt>
      <trkpt lat="45.58562739752233" lon="12.359871016815305">
        <ele>5.1627272</ele>
      </trkpt>
      <trkpt lat="45.584079008549452" lon="12.36077819019556">
        <ele>4.8118181</ele>
      </trkpt>
      <trkpt lat="45.58366653509438" lon="12.361256126314402">
        <ele>5.25</ele>
      </trkpt>
      <trkpt lat="45.582917528226972" lon="12.362728826701641">
        <ele>5.7754545</ele>
      </trkpt>
      <trkpt lat="45.582846952602267" lon="12.363155800849199">
        <ele>5.9063636</ele>
      </trkpt>
      <trkpt lat="45.584116140380502" lon="12.367512378841639">
        <ele>5.1590909</ele>
      </trkpt>
      <trkpt lat="45.584204066544771" lon="12.368438746780157">
        <ele>5.1145454</ele>
      </trkpt>
      <trkpt lat="45.584130054339767" lon="12.369014918804169">
        <ele>4.7654545</ele>
      </trkpt>
      <trkpt lat="45.584558704867959" lon="12.369428062811494">
        <ele>2.4518181</ele>
      </trkpt>
      <trkpt lat="45.584826003760099" lon="12.369982274249196">
        <ele>2.4972727</ele>
      </trkpt>
      <trkpt lat="45.584734724834561" lon="12.370182517915964">
        <ele>2.5845454</ele>
      </trkpt>
      <trkpt lat="45.584567757323384" lon="12.37019500695169">
        <ele>2.540909</ele>
      </trkpt>
      <trkpt lat="45.584473209455609" lon="12.370320148766041">
        <ele>2.4972727</ele>
      </trkpt>
      <trkpt lat="45.584424007683992" lon="12.370566911995411">
        <ele>2.8472727</ele>
      </trkpt>
      <trkpt lat="45.584768922999501" lon="12.370831109583378">
        <ele>4.2872727</ele>
      </trkpt>
      <trkpt lat="45.584664149209857" lon="12.370973182842135">
        <ele>4.0245454</ele>
      </trkpt>
      <trkpt lat="45.583302257582545" lon="12.370801856741309">
        <ele>3.7181818</ele>
      </trkpt>
      <trkpt lat="45.58275475166738" lon="12.371601993218064">
        <ele>4.0672727</ele>
      </trkpt>
      <trkpt lat="45.582555010914803" lon="12.372447643429041">
        <ele>3.9363636</ele>
      </trkpt>
      <trkpt lat="45.582267763093114" lon="12.373182568699121">
        <ele>3.5872727</ele>
      </trkpt>
      <trkpt lat="45.582249071449041" lon="12.373361522331834">
        <ele>3.150909</ele>
      </trkpt>
      <trkpt lat="45.581576926633716" lon="12.37447296269238">
        <ele>2.4090909</ele>
      </trkpt>
      <trkpt lat="45.581216756254435" lon="12.374892393127084">
        <ele>2.8018181</ele>
      </trkpt>
      <trkpt lat="45.58112857863307" lon="12.374810250476003">
        <ele>3.37</ele>
      </trkpt>
      <trkpt lat="45.581394452601671" lon="12.374374223873019">
        <ele>5.1618181</ele>
      </trkpt>
      <trkpt lat="45.581412892788649" lon="12.374236928299069">
        <ele>5.6863636</ele>
      </trkpt>
      <trkpt lat="45.581062277778983" lon="12.373819258064032">
        <ele>6.08</ele>
      </trkpt>
      <trkpt lat="45.581522444263101" lon="12.372861625626683">
        <ele>4.900909</ele>
      </trkpt>
      <trkpt lat="45.581781947985291" lon="12.372024608775973">
        <ele>4.2454545</ele>
      </trkpt>
      <trkpt lat="45.581781445071101" lon="12.371831070631742">
        <ele>3.7645454</ele>
      </trkpt>
      <trkpt lat="45.581098739057779" lon="12.37090302631259">
        <ele>2.8454545</ele>
      </trkpt>
      <trkpt lat="45.580651229247451" lon="12.370530031621456">
        <ele>2.670909</ele>
      </trkpt>
      <trkpt lat="45.580761199817061" lon="12.370158713310957">
        <ele>2.7581818</ele>
      </trkpt>
      <trkpt lat="45.580779891461134" lon="12.369973137974739">
        <ele>2.8890909</ele>
      </trkpt>
      <trkpt lat="45.580725995823741" lon="12.369879595935345">
        <ele>3.2818181</ele>
      </trkpt>
      <trkpt lat="45.580569254234433" lon="12.370496755465865">
        <ele>3.8927272</ele>
      </trkpt>
      <trkpt lat="45.577235519886017" lon="12.368113361299038">
        <ele>3.7181818</ele>
      </trkpt>
      <trkpt lat="45.577026139944792" lon="12.369031934067607">
        <ele>3.8054545</ele>
      </trkpt>
      <trkpt lat="45.577162345871329" lon="12.369373496621847">
        <ele>4.4181818</ele>
      </trkpt>
      <trkpt lat="45.577062182128429" lon="12.369592096656561">
        <ele>4.5063636</ele>
      </trkpt>
      <trkpt lat="45.575549164786935" lon="12.366938386112452">
        <ele>4.900909</ele>
      </trkpt>
      <trkpt lat="45.575302904471755" lon="12.36661677248776">
        <ele>5.12</ele>
      </trkpt>
      <trkpt lat="45.569573035463691" lon="12.362387012690306">
        <ele>3.2818181</ele>
      </trkpt>
      <trkpt lat="45.569275394082069" lon="12.361449329182506">
        <ele>2.190909</ele>
      </trkpt>
      <trkpt lat="45.568712381646037" lon="12.361660385504365">
        <ele>2.06</ele>
      </trkpt>
      <trkpt lat="45.568594448268414" lon="12.36161227338016">
        <ele>2.2345454</ele>
      </trkpt>
      <trkpt lat="45.568247269839048" lon="12.361426530405879">
        <ele>2.8454545</ele>
      </trkpt>
      <trkpt lat="45.566519508138299" lon="12.360241999849677">
        <ele>4.590909</ele>
      </trkpt>
      <trkpt lat="45.565990023314953" lon="12.360003031790257">
        <ele>4.6781818</ele>
      </trkpt>
      <trkpt lat="45.5658217985183" lon="12.359848972409964">
        <ele>4.590909</ele>
      </trkpt>
      <trkpt lat="45.56577586568892" lon="12.359726345166564">
        <ele>4.5472727</ele>
      </trkpt>
      <trkpt lat="45.566435437649488" lon="12.35694388858974">
        <ele>4.7227272</ele>
      </trkpt>
      <trkpt lat="45.566432671621442" lon="12.356780273839831">
        <ele>4.7663636</ele>
      </trkpt>
      <trkpt lat="45.566791668534279" lon="12.355251247063279">
        <ele>4.8536363</ele>
      </trkpt>
      <trkpt lat="45.566788986325264" lon="12.355064665898681">
        <ele>4.8536363</ele>
      </trkpt>
      <trkpt lat="45.566516071557999" lon="12.354849837720394">
        <ele>4.8536363</ele>
      </trkpt>
      <trkpt lat="45.564516568556428" lon="12.354054395109415">
        <ele>4.3727272</ele>
      </trkpt>
      <trkpt lat="45.564019940793514" lon="12.353638485074043">
        <ele>3.8490909</ele>
      </trkpt>
      <trkpt lat="45.563523229211569" lon="12.353060217574239">
        <ele>3.7618181</ele>
      </trkpt>
      <trkpt lat="45.563115114346147" lon="12.352427551522851">
        <ele>3.5436363</ele>
      </trkpt>
      <trkpt lat="45.561952879652381" lon="12.349782725796103">
        <ele>2.7581818</ele>
      </trkpt>
      <trkpt lat="45.561720533296466" lon="12.349632689729333">
        <ele>2.4963636</ele>
      </trkpt>
      <trkpt lat="45.560990469530225" lon="12.349378298968077">
        <ele>2.7145454</ele>
      </trkpt>
      <trkpt lat="45.556639675050974" lon="12.34801079146564">
        <ele>3.02</ele>
      </trkpt>
      <trkpt lat="45.554104149341583" lon="12.34729346819222">
        <ele>3.1072727</ele>
      </trkpt>
      <trkpt lat="45.553063116967678" lon="12.346873534843326">
        <ele>3.150909</ele>
      </trkpt>
      <trkpt lat="45.551267210394144" lon="12.345996871590614">
        <ele>3.3690909</ele>
      </trkpt>
      <trkpt lat="45.550764044746757" lon="12.345666456967592">
        <ele>3.02</ele>
      </trkpt>
      <trkpt lat="45.548820197582245" lon="12.344612432643771">
        <ele>3.5027272</ele>
      </trkpt>
      <trkpt lat="45.548506127670407" lon="12.344056125730276">
        <ele>4.4645454</ele>
      </trkpt>
      <trkpt lat="45.54843588732183" lon="12.343795532360673">
        <ele>5.0763636</ele>
      </trkpt>
      <trkpt lat="45.548373023048043" lon="12.343324134126306">
        <ele>5.9063636</ele>
      </trkpt>
      <trkpt lat="45.548411663621664" lon="12.342528440058231">
        <ele>5.6427272</ele>
      </trkpt>
      <trkpt lat="45.548351230099797" lon="12.342495918273926">
        <ele>5.2927272</ele>
      </trkpt>
      <trkpt lat="45.548330107703805" lon="12.342874696478248">
        <ele>4.3745454</ele>
      </trkpt>
      <trkpt lat="45.548222903162241" lon="12.342860279604793">
        <ele>3.8063636</ele>
      </trkpt>
      <trkpt lat="45.546123068779707" lon="12.341995602473617">
        <ele>2.8890909</ele>
      </trkpt>
      <trkpt lat="45.54519284516573" lon="12.342048743739724">
        <ele>2.6272727</ele>
      </trkpt>
      <trkpt lat="45.544967958703637" lon="12.342138765379786">
        <ele>2.190909</ele>
      </trkpt>
      <trkpt lat="45.543257966637611" lon="12.343751946464181">
        <ele>1.8854545</ele>
      </trkpt>
      <trkpt lat="45.542984046041965" lon="12.344110272824764">
        <ele>1.710909</ele>
      </trkpt>
      <trkpt lat="45.542382476851344" lon="12.345249708741903">
        <ele>1.6236363</ele>
      </trkpt>
      <trkpt lat="45.54187310859561" lon="12.347327750176191">
        <ele>1.6236363</ele>
      </trkpt>
      <trkpt lat="45.541598182171583" lon="12.348970016464591">
        <ele>1.7545454</ele>
      </trkpt>
      <trkpt lat="45.541379163041711" lon="12.349565969780087">
        <ele>1.5363636</ele>
      </trkpt>
      <trkpt lat="45.540766697376966" lon="12.350623598322272">
        <ele>0.7072727</ele>
      </trkpt>
      <trkpt lat="45.540585396811366" lon="12.350811855867505">
        <ele>0.62</ele>
      </trkpt>
      <trkpt lat="45.540463775396347" lon="12.350846556946635">
        <ele>0.62</ele>
      </trkpt>
      <trkpt lat="45.540212402120233" lon="12.350794756785035">
        <ele>0.6636363</ele>
      </trkpt>
      <trkpt lat="45.539424503222108" lon="12.350372476503253">
        <ele>0.9254545</ele>
      </trkpt>
      <trkpt lat="45.539190145209432" lon="12.350418996065855">
        <ele>0.8818181</ele>
      </trkpt>
      <trkpt lat="45.539039270952344" lon="12.350660394877195">
        <ele>0.750909</ele>
      </trkpt>
      <trkpt lat="45.538366623222828" lon="12.352633411064744">
        <ele>1.0127272</ele>
      </trkpt>
      <trkpt lat="45.538164786994457" lon="12.352996347472072">
        <ele>1.3181818</ele>
      </trkpt>
      <trkpt lat="45.538056241348386" lon="12.353005483746529">
        <ele>1.4490909</ele>
      </trkpt>
      <trkpt lat="45.537276389077306" lon="12.352533582597971">
        <ele>1.710909</ele>
      </trkpt>
      <trkpt lat="45.536797363311052" lon="12.352424282580614">
        <ele>2.4090909</ele>
      </trkpt>
      <trkpt lat="45.533002372831106" lon="12.350128479301929">
        <ele>2.3218181</ele>
      </trkpt>
      <trkpt lat="45.52787491120398" lon="12.349351141601801">
        <ele>1.8854545</ele>
      </trkpt>
      <trkpt lat="45.529264714568853" lon="12.330629490315914">
        <ele>1.6672727</ele>
      </trkpt>
      <trkpt lat="45.529841054230928" lon="12.321752049028873">
        <ele>2.1036363</ele>
      </trkpt>
      <trkpt lat="45.529422294348478" lon="12.321025086566806">
        <ele>3.1072727</ele>
      </trkpt>
      <trkpt lat="45.528998672962189" lon="12.32053130865097">
        <ele>4.9881818</ele>
      </trkpt>
      <trkpt lat="45.526692559942603" lon="12.318736407905817">
        <ele>3.5436363</ele>
      </trkpt>
      <trkpt lat="45.525418762117624" lon="12.316348822787404">
        <ele>5.510909</ele>
      </trkpt>
      <trkpt lat="45.524881817400455" lon="12.314987936988473">
        <ele>5.4663636</ele>
      </trkpt>
      <trkpt lat="45.524862203747034" lon="12.314500194042921">
        <ele>5.2027272</ele>
      </trkpt>
      <trkpt lat="45.525512220337987" lon="12.31309974566102">
        <ele>3.0199999</ele>
      </trkpt>
      <trkpt lat="45.525481039658189" lon="12.312242025509477">
        <ele>2.2781818</ele>
      </trkpt>
      <trkpt lat="45.525524709373713" lon="12.311897445470095">
        <ele>2.3218181</ele>
      </trkpt>
      <trkpt lat="45.526246726512909" lon="12.310278816148639">
        <ele>3.1072727</ele>
      </trkpt>
      <trkpt lat="45.526314117014408" lon="12.309923339635134">
        <ele>3.2381818</ele>
      </trkpt>
      <trkpt lat="45.526289977133274" lon="12.30822172947228">
        <ele>3.4127272</ele>
      </trkpt>
      <trkpt lat="45.526339011266828" lon="12.307784277945757">
        <ele>3.1945454</ele>
      </trkpt>
      <trkpt lat="45.525040319189429" lon="12.30760607868433">
        <ele>2.7581818</ele>
      </trkpt>
      <trkpt lat="45.524241188541055" lon="12.307580094784498">
        <ele>2.4527272</ele>
      </trkpt>
      <trkpt lat="45.523451194167137" lon="12.307400470599532">
        <ele>2.06</ele>
      </trkpt>
      <trkpt lat="45.523119857534766" lon="12.307173069566488">
        <ele>1.1872727</ele>
      </trkpt>
      <trkpt lat="45.520234052091837" lon="12.306129857897758">
        <ele>0.8818181</ele>
      </trkpt>
      <trkpt lat="45.518491035327315" lon="12.305386131629348">
        <ele>1.1872727</ele>
      </trkpt>
      <trkpt lat="45.518027180805802" lon="12.30525872670114">
        <ele>1.4490909</ele>
      </trkpt>
      <trkpt lat="45.516676185652614" lon="12.305214805528522">
        <ele>1.8418181</ele>
      </trkpt>
      <trkpt lat="45.516337137669325" lon="12.30530465953052">
        <ele>1.4054545</ele>
      </trkpt>
      <trkpt lat="45.515624340623617" lon="12.305655358359218">
        <ele>0.9690909</ele>
      </trkpt>
      <trkpt lat="45.515061160549521" lon="12.305732388049364">
        <ele>1.230909</ele>
      </trkpt>
      <trkpt lat="45.514603089541197" lon="12.305693328380585">
        <ele>1.1</ele>
      </trkpt>
      <trkpt lat="45.513955838978291" lon="12.305436255410314">
        <ele>2.6727272</ele>
      </trkpt>
      <trkpt lat="45.513868248090148" lon="12.305306168273091">
        <ele>3.1536363</ele>
      </trkpt>
      <trkpt lat="45.513497851788998" lon="12.303776470944285">
        <ele>4.1154545</ele>
      </trkpt>
      <trkpt lat="45.513337338343263" lon="12.303589638322592">
        <ele>4.420909</ele>
      </trkpt>
      <trkpt lat="45.513110691681504" lon="12.303474051877856">
        <ele>4.6390909</ele>
      </trkpt>
      <trkpt lat="45.512620853260159" lon="12.303354190662503">
        <ele>4.77</ele>
      </trkpt>
      <trkpt lat="45.51249286159873" lon="12.303223684430122">
        <ele>4.6381818</ele>
      </trkpt>
      <trkpt lat="45.512454891577363" lon="12.303074989467859">
        <ele>4.4190909</ele>
      </trkpt>
      <trkpt lat="45.51318914629519" lon="12.298264531418681">
        <ele>4.0236363</ele>
      </trkpt>
      <trkpt lat="45.513311438262463" lon="12.296284809708595">
        <ele>6.6036363</ele>
      </trkpt>
      <trkpt lat="45.513761797919869" lon="12.293520541861653">
        <ele>5.3781818</ele>
      </trkpt>
      <trkpt lat="45.513646211475134" lon="12.293313927948475">
        <ele>4.81</ele>
      </trkpt>
      <trkpt lat="45.512487916275859" lon="12.292829705402255">
        <ele>4.6354545</ele>
      </trkpt>
      <trkpt lat="45.512433769181371" lon="12.292507505044341">
        <ele>4.3736363</ele>
      </trkpt>
      <trkpt lat="45.512296222150326" lon="12.292332910001278">
        <ele>4.2418181</ele>
      </trkpt>
      <trkpt lat="45.511532882228494" lon="12.292041135951877">
        <ele>5.6881818</ele>
      </trkpt>
      <trkpt lat="45.511334231123328" lon="12.291877269744873">
        <ele>5.9945454</ele>
      </trkpt>
      <trkpt lat="45.511356359347701" lon="12.2915512137115">
        <ele>6.300909</ele>
      </trkpt>
      <trkpt lat="45.51139198243618" lon="12.289906935766339">
        <ele>7.5681818</ele>
      </trkpt>
      <trkpt lat="45.51115745678544" lon="12.288969252258539">
        <ele>8.1354545</ele>
      </trkpt>
      <trkpt lat="45.511254016309977" lon="12.284346632659435">
        <ele>6.3027272</ele>
      </trkpt>
      <trkpt lat="45.511207832023501" lon="12.283042827621102">
        <ele>6.3018181</ele>
      </trkpt>
      <trkpt lat="45.511236414313316" lon="12.282913494855165">
        <ele>6.1699999</ele>
      </trkpt>
      <trkpt lat="45.512138893827796" lon="12.283122623339295">
        <ele>5.7745454</ele>
      </trkpt>
      <trkpt lat="45.512407869100571" lon="12.278878865763545">
        <ele>5.2054545</ele>
      </trkpt>
      <trkpt lat="45.512680867686868" lon="12.277129478752613">
        <ele>4.6363636</ele>
      </trkpt>
      <trkpt lat="45.513211777433753" lon="12.276234459131956">
        <ele>3.98</ele>
      </trkpt>
      <trkpt lat="45.513421995565295" lon="12.275345558300614">
        <ele>3.5436363</ele>
      </trkpt>
      <trkpt lat="45.513834301382303" lon="12.274452047422528">
        <ele>3.8927272</ele>
      </trkpt>
      <trkpt lat="45.515267606824636" lon="12.269969070330262">
        <ele>5.03</ele>
      </trkpt>
      <trkpt lat="45.515725845471025" lon="12.268710527569056">
        <ele>5.160909</ele>
      </trkpt>
      <trkpt lat="45.516255665570498" lon="12.267406303435564">
        <ele>5.2918181</ele>
      </trkpt>
      <trkpt lat="45.516450293362141" lon="12.267089886590838">
        <ele>5.510909</ele>
      </trkpt>
      <trkpt lat="45.516590690240264" lon="12.267056442797184">
        <ele>5.510909</ele>
      </trkpt>
      <trkpt lat="45.516940047964454" lon="12.26722776889801">
        <ele>5.3772727</ele>
      </trkpt>
      <trkpt lat="45.517729287967086" lon="12.267203629016876">
        <ele>4.7654545</ele>
      </trkpt>
      <trkpt lat="45.51809549331665" lon="12.267326591536403">
        <ele>4.2418181</ele>
      </trkpt>
      <trkpt lat="45.518389027565718" lon="12.26767678745091">
        <ele>3.8927272</ele>
      </trkpt>
      <trkpt lat="45.519455960020423" lon="12.269527763128281">
        <ele>1.7545454</ele>
      </trkpt>
      <trkpt lat="45.519642792642117" lon="12.269769413396716">
        <ele>0.7063636</ele>
      </trkpt>
      <trkpt lat="45.519813364371657" lon="12.269850801676512">
        <ele>0.1381818</ele>
      </trkpt>
      <trkpt lat="45.520055098459125" lon="12.269803192466497">
        <ele>-1.390909</ele>
      </trkpt>
      <trkpt lat="45.520298508927226" lon="12.269523907452822">
        <ele>-1.95909</ele>
      </trkpt>
      <trkpt lat="45.520650548860431" lon="12.268299646675587">
        <ele>0.4427272</ele>
      </trkpt>
      <trkpt lat="45.52078440785408" lon="12.267297506332397">
        <ele>4.0236363</ele>
      </trkpt>
      <trkpt lat="45.520877111703157" lon="12.267022831365466">
        <ele>4.2854545</ele>
      </trkpt>
      <trkpt lat="45.520831346511841" lon="12.266895594075322">
        <ele>4.5481818</ele>
      </trkpt>
      <trkpt lat="45.520729590207338" lon="12.266861479729414">
        <ele>4.7236363</ele>
      </trkpt>
      <trkpt lat="45.520641328766942" lon="12.266964493319392">
        <ele>4.8990909</ele>
      </trkpt>
      <trkpt lat="45.519625274464488" lon="12.266581188887358">
        <ele>5.2063636</ele>
      </trkpt>
      <trkpt lat="45.517952917143703" lon="12.26581608876586">
        <ele>5.380909</ele>
      </trkpt>
      <trkpt lat="45.517917964607477" lon="12.265712572261691">
        <ele>5.3372727</ele>
      </trkpt>
      <trkpt lat="45.518292719498277" lon="12.263123989105225">
        <ele>4.810909</ele>
      </trkpt>
      <trkpt lat="45.518779372796416" lon="12.26098014973104">
        <ele>4.2854545</ele>
      </trkpt>
      <trkpt lat="45.518725728616118" lon="12.259551370516419">
        <ele>4.6790909</ele>
      </trkpt>
      <trkpt lat="45.518766464665532" lon="12.259396724402905">
        <ele>4.7227272</ele>
      </trkpt>
      <trkpt lat="45.518978107720613" lon="12.259072512388229">
        <ele>4.6790909</ele>
      </trkpt>
      <trkpt lat="45.51917483098805" lon="12.25703596137464">
        <ele>3.8063636</ele>
      </trkpt>
      <trkpt lat="45.517857698723674" lon="12.257104944437742">
        <ele>3.500909</ele>
      </trkpt>
      <trkpt lat="45.516998134553432" lon="12.257240563631058">
        <ele>3.1072727</ele>
      </trkpt>
      <trkpt lat="45.51464919000864" lon="12.259333189576864">
        <ele>3.0636363</ele>
      </trkpt>
      <trkpt lat="45.514561096206307" lon="12.259272420778871">
        <ele>3.1081818</ele>
      </trkpt>
      <trkpt lat="45.51452312618494" lon="12.259012414142489">
        <ele>3.3272727</ele>
      </trkpt>
      <trkpt lat="45.514392787590623" lon="12.257113996893167">
        <ele>5.5563636</ele>
      </trkpt>
      <trkpt lat="45.513232313096523" lon="12.256030552089214">
        <ele>6.3872727</ele>
      </trkpt>
      <trkpt lat="45.513145560398698" lon="12.25607480853796">
        <ele>6.430909</ele>
      </trkpt>
      <trkpt lat="45.512735517695546" lon="12.255984451621771">
        <ele>6.2563636</ele>
      </trkpt>
      <trkpt lat="45.512342154979706" lon="12.255731150507927">
        <ele>5.7754545</ele>
      </trkpt>
      <trkpt lat="45.512295970693231" lon="12.255485225468874">
        <ele>5.6872727</ele>
      </trkpt>
      <trkpt lat="45.512341987341642" lon="12.254946520552039">
        <ele>5.3363636</ele>
      </trkpt>
      <trkpt lat="45.512229586020112" lon="12.254918022081256">
        <ele>5.1172727</ele>
      </trkpt>
      <trkpt lat="45.512186586856842" lon="12.255045091733336">
        <ele>4.8545454</ele>
      </trkpt>
      <trkpt lat="45.512210978195071" lon="12.255484974011779">
        <ele>3.7618181</ele>
      </trkpt>
      <trkpt lat="45.51236872561276" lon="12.255912786349654">
        <ele>2.4090909</ele>
      </trkpt>
      <trkpt lat="45.512402420863509" lon="12.256225682795048">
        <ele>1.4927272</ele>
      </trkpt>
      <trkpt lat="45.512159848585725" lon="12.257605930790305">
        <ele>1.3618181</ele>
      </trkpt>
      <trkpt lat="45.512223383411765" lon="12.25754315033555">
        <ele>1.58</ele>
      </trkpt>
      <trkpt lat="45.512374090030789" lon="12.256687358021736">
        <ele>3.1072727</ele>
      </trkpt>
      <trkpt lat="45.512302927672863" lon="12.256544446572661">
        <ele>3.3690909</ele>
      </trkpt>
      <trkpt lat="45.51168367266655" lon="12.255470054224133">
        <ele>3.7618181</ele>
      </trkpt>
      <trkpt lat="45.510571310296655" lon="12.255342984572053">
        <ele>3.4563636</ele>
      </trkpt>
      <trkpt lat="45.510296383872628" lon="12.255197307094932">
        <ele>3.4127272</ele>
      </trkpt>
      <trkpt lat="45.510126315057278" lon="12.254158034920692">
        <ele>3.2818181</ele>
      </trkpt>
      <trkpt lat="45.51015674136579" lon="12.25353442132473">
        <ele>5.2054545</ele>
      </trkpt>
      <trkpt lat="45.510081555694342" lon="12.253456972539425">
        <ele>5.7736363</ele>
      </trkpt>
      <trkpt lat="45.508430488407612" lon="12.252490539103746">
        <ele>6.2981818</ele>
      </trkpt>
      <trkpt lat="45.508364774286747" lon="12.252434464171529">
        <ele>6.7354545</ele>
      </trkpt>
      <trkpt lat="45.50842797383666" lon="12.252232292667031">
        <ele>7.1727272</ele>
      </trkpt>
      <trkpt lat="45.508260419592261" lon="12.252122657373548">
        <ele>8.5281818</ele>
      </trkpt>
      <trkpt lat="45.505589358508587" lon="12.250698572024703">
        <ele>12.899089999999999</ele>
      </trkpt>
      <trkpt lat="45.505306804552674" lon="12.250548033043742">
        <ele>13.598181</ele>
      </trkpt>
      <trkpt lat="45.505270846188068" lon="12.25065297447145">
        <ele>14.209999</ele>
      </trkpt>
      <trkpt lat="45.49923780374229" lon="12.2463090531528">
        <ele>10.101818</ele>
      </trkpt>
      <trkpt lat="45.498872101306915" lon="12.246068492531776">
        <ele>10.277272</ele>
      </trkpt>
      <trkpt lat="45.498746624216437" lon="12.245988780632615">
        <ele>10.014545</ele>
      </trkpt>
      <trkpt lat="45.498725166544318" lon="12.246031193062663">
        <ele>9.402727199999999</ele>
      </trkpt>
      <trkpt lat="45.496090482920408" lon="12.244162615388632">
        <ele>8.8345454</ele>
      </trkpt>
      <trkpt lat="45.49512798897922" lon="12.243074644356966">
        <ele>7.8285714</ele>
      </trkpt>
      <trkpt lat="45.495067136362195" lon="12.242906503379345">
        <ele>7.3483333</ele>
      </trkpt>
    </trkseg>
  </trk>

</gpx>
