<?xml version="1.0"?>
<gpx xmlns="http://www.topografix.com/GPX/1/1" xmlns:xsi="http://www.w3.org/2001/XMLSchema-instance" xmlns:wptx1="http://www.garmin.com/xmlschemas/WaypointExtension/v1" xmlns:gpxtrx="http://www.garmin.com/xmlschemas/GpxExtensions/v3" xmlns:gpxtpx="http://www.garmin.com/xmlschemas/TrackPointExtension/v1" xmlns:gpxx="http://www.garmin.com/xmlschemas/GpxExtensions/v3" xmlns:trp="http://www.garmin.com/xmlschemas/TripExtensions/v1" xmlns:adv="http://www.garmin.com/xmlschemas/AdventuresExtensions/v1" xmlns:prs="http://www.garmin.com/xmlschemas/PressureExtension/v1" xmlns:tmd="http://www.garmin.com/xmlschemas/TripMetaDataExtensions/v1" xmlns:vptm="http://www.garmin.com/xmlschemas/ViaPointTransportationModeExtensions/v1" xmlns:ctx="http://www.garmin.com/xmlschemas/CreationTimeExtension/v1" xmlns:gpxacc="http://www.garmin.com/xmlschemas/AccelerationExtension/v1" xmlns:gpxpx="http://www.garmin.com/xmlschemas/PowerExtension/v1" xmlns:vidx1="http://www.garmin.com/xmlschemas/VideoExtension/v1" creator="Garmin Desktop App" version="1.1" xsi:schemaLocation="http://www.topografix.com/GPX/1/1 http://www.topografix.com/GPX/1/1/gpx.xsd http://www.garmin.com/xmlschemas/WaypointExtension/v1 http://www8.garmin.com/xmlschemas/WaypointExtensionv1.xsd http://www.garmin.com/xmlschemas/TrackPointExtension/v1 http://www.garmin.com/xmlschemas/TrackPointExtensionv1.xsd http://www.garmin.com/xmlschemas/GpxExtensions/v3 http://www8.garmin.com/xmlschemas/GpxExtensionsv3.xsd http://www.garmin.com/xmlschemas/ActivityExtension/v1 http://www8.garmin.com/xmlschemas/ActivityExtensionv1.xsd http://www.garmin.com/xmlschemas/AdventuresExtensions/v1 http://www8.garmin.com/xmlschemas/AdventuresExtensionv1.xsd http://www.garmin.com/xmlschemas/PressureExtension/v1 http://www.garmin.com/xmlschemas/PressureExtensionv1.xsd http://www.garmin.com/xmlschemas/TripExtensions/v1 http://www.garmin.com/xmlschemas/TripExtensionsv1.xsd http://www.garmin.com/xmlschemas/TripMetaDataExtensions/v1 http://www.garmin.com/xmlschemas/TripMetaDataExtensionsv1.xsd http://www.garmin.com/xmlschemas/ViaPointTransportationModeExtensions/v1 http://www.garmin.com/xmlschemas/ViaPointTransportationModeExtensionsv1.xsd http://www.garmin.com/xmlschemas/CreationTimeExtension/v1 http://www.garmin.com/xmlschemas/CreationTimeExtensionsv1.xsd http://www.garmin.com/xmlschemas/AccelerationExtension/v1 http://www.garmin.com/xmlschemas/AccelerationExtensionv1.xsd http://www.garmin.com/xmlschemas/PowerExtension/v1 http://www.garmin.com/xmlschemas/PowerExtensionv1.xsd http://www.garmin.com/xmlschemas/VideoExtension/v1 http://www.garmin.com/xmlschemas/VideoExtensionv1.xsd">

  <metadata>
    <link href="http://www.garmin.com">
      <text>Garmin International</text>
    </link>
    <time>2015-01-15T17:49:54Z</time>
    <bounds maxlat="45.099692344665527" maxlon="7.734246253967285" minlat="44.129244145005941" minlon="6.899079037830234"/>
  </metadata>

  <wpt lat="44.363133022561669" lon="7.642193008214235">
    <time>2013-07-17T07:49:14Z</time>
    <name>AG Cascina La Comenda</name>
    <cmt>0171 385351
agriturismo-lacommenda.it</cmt>
    <desc>0171 385351
agriturismo-lacommenda.it</desc>
    <link href="http://www.agriturismo-lacommenda.it"/>
    <sym>Campground</sym>
    <type>user</type>
    <extensions>
      <gpxx:WaypointExtension>
        <gpxx:DisplayMode>SymbolOnly</gpxx:DisplayMode>
        <gpxx:Address>
          <gpxx:StreetAddress>Bicycle:Yes (Gate)</gpxx:StreetAddress>
          <gpxx:City>Dronero</gpxx:City>
          <gpxx:State>Piemonte</gpxx:State>
          <gpxx:Country>ITA</gpxx:Country>
        </gpxx:Address>
        <gpxx:PhoneNumber>0171 385351</gpxx:PhoneNumber>
      </gpxx:WaypointExtension>
      <wptx1:WaypointExtension>
        <wptx1:DisplayMode>SymbolOnly</wptx1:DisplayMode>
        <wptx1:Address>
          <wptx1:StreetAddress>Bicycle:Yes (Gate)</wptx1:StreetAddress>
          <wptx1:City>Dronero</wptx1:City>
          <wptx1:State>Piemonte</wptx1:State>
          <wptx1:Country>ITA</wptx1:Country>
        </wptx1:Address>
        <wptx1:PhoneNumber>0171 385351</wptx1:PhoneNumber>
      </wptx1:WaypointExtension>
      <ctx:CreationTimeExtension>
        <ctx:CreationTime>2013-07-17T07:49:14Z</ctx:CreationTime>
      </ctx:CreationTimeExtension>
    </extensions>
  </wpt>

  <wpt lat="44.696251982823014" lon="7.297732997685671">
    <time>2013-07-17T07:46:54Z</time>
    <name>AG L'Ciabot</name>
    <cmt>0175 945813
lciabot.it</cmt>
    <desc>0175 945813
lciabot.it</desc>
    <link href="http://www.lciabot.it"/>
    <sym>Campground</sym>
    <type>user</type>
    <extensions>
      <gpxx:WaypointExtension>
        <gpxx:DisplayMode>SymbolOnly</gpxx:DisplayMode>
        <gpxx:Address>
          <gpxx:StreetAddress>Bicycle:Yes (Gate)</gpxx:StreetAddress>
          <gpxx:City>Dronero</gpxx:City>
          <gpxx:State>Piemonte</gpxx:State>
          <gpxx:Country>ITA</gpxx:Country>
        </gpxx:Address>
        <gpxx:PhoneNumber>0175 945813</gpxx:PhoneNumber>
      </gpxx:WaypointExtension>
      <wptx1:WaypointExtension>
        <wptx1:DisplayMode>SymbolOnly</wptx1:DisplayMode>
        <wptx1:Address>
          <wptx1:StreetAddress>Bicycle:Yes (Gate)</wptx1:StreetAddress>
          <wptx1:City>Dronero</wptx1:City>
          <wptx1:State>Piemonte</wptx1:State>
          <wptx1:Country>ITA</wptx1:Country>
        </wptx1:Address>
        <wptx1:PhoneNumber>0175 945813</wptx1:PhoneNumber>
      </wptx1:WaypointExtension>
      <ctx:CreationTimeExtension>
        <ctx:CreationTime>2013-07-17T07:46:54Z</ctx:CreationTime>
      </ctx:CreationTimeExtension>
    </extensions>
  </wpt>

  <wpt lat="44.64850002899766" lon="7.349369963631034">
    <time>2014-10-09T08:27:56Z</time>
    <name>Agriturismo San Bernardo</name>
    <cmt>0175 948006
328 8874556
agrisanbernardo.it</cmt>
    <desc>0175 948006
328 8874556
agrisanbernardo.it</desc>
    <link href="http://www.agrisanbernardo.it"/>
    <sym>Campground</sym>
    <type>user</type>
    <extensions>
      <gpxx:WaypointExtension>
        <gpxx:DisplayMode>SymbolOnly</gpxx:DisplayMode>
        <gpxx:Address>
          <gpxx:StreetAddress>Bicycle:Yes (Gate)</gpxx:StreetAddress>
          <gpxx:City>Dronero</gpxx:City>
          <gpxx:State>Piemonte</gpxx:State>
          <gpxx:Country>ITA</gpxx:Country>
        </gpxx:Address>
        <gpxx:PhoneNumber>0175 948006</gpxx:PhoneNumber>
        <gpxx:PhoneNumber>328 8874556</gpxx:PhoneNumber>
      </gpxx:WaypointExtension>
      <wptx1:WaypointExtension>
        <wptx1:DisplayMode>SymbolOnly</wptx1:DisplayMode>
        <wptx1:Address>
          <wptx1:StreetAddress>Bicycle:Yes (Gate)</wptx1:StreetAddress>
          <wptx1:City>Dronero</wptx1:City>
          <wptx1:State>Piemonte</wptx1:State>
          <wptx1:Country>ITA</wptx1:Country>
        </wptx1:Address>
        <wptx1:PhoneNumber>0175 948006</wptx1:PhoneNumber>
        <wptx1:PhoneNumber>328 8874556</wptx1:PhoneNumber>
      </wptx1:WaypointExtension>
      <ctx:CreationTimeExtension>
        <ctx:CreationTime>2014-10-09T08:27:56Z</ctx:CreationTime>
      </ctx:CreationTimeExtension>
    </extensions>
  </wpt>

  <wpt lat="44.344694428145885" lon="7.031111111864448">
    <time>2013-04-22T09:13:50Z</time>
    <name>Al Tenibres - Pietraporzio</name>
    <cmt>0171 96602
riva30@interfree.it</cmt>
    <desc>0171 96602
riva30@interfree.it</desc>
    <sym>Lodging</sym>
    <type>user</type>
    <extensions>
      <gpxx:WaypointExtension>
        <gpxx:DisplayMode>SymbolOnly</gpxx:DisplayMode>
        <gpxx:Address>
          <gpxx:StreetAddress>Bicycle:Yes (Gate)</gpxx:StreetAddress>
          <gpxx:City>Dronero</gpxx:City>
          <gpxx:State>Piemonte</gpxx:State>
          <gpxx:Country>ITA</gpxx:Country>
        </gpxx:Address>
        <gpxx:PhoneNumber>0171 96602</gpxx:PhoneNumber>
      </gpxx:WaypointExtension>
      <wptx1:WaypointExtension>
        <wptx1:DisplayMode>SymbolOnly</wptx1:DisplayMode>
        <wptx1:Address>
          <wptx1:StreetAddress>Bicycle:Yes (Gate)</wptx1:StreetAddress>
          <wptx1:City>Dronero</wptx1:City>
          <wptx1:State>Piemonte</wptx1:State>
          <wptx1:Country>ITA</wptx1:Country>
        </wptx1:Address>
        <wptx1:PhoneNumber>0171 96602</wptx1:PhoneNumber>
      </wptx1:WaypointExtension>
      <ctx:CreationTimeExtension>
        <ctx:CreationTime>2013-04-22T09:13:50Z</ctx:CreationTime>
      </ctx:CreationTimeExtension>
    </extensions>
  </wpt>

  <wpt lat="44.38219447620213" lon="6.965555576607585">
    <time>2013-07-11T15:32:44Z</time>
    <name>Argentera</name>
    <cmt>0171 96735</cmt>
    <desc>0171 96735</desc>
    <sym>Campground</sym>
    <type>user</type>
    <extensions>
      <gpxx:WaypointExtension>
        <gpxx:DisplayMode>SymbolOnly</gpxx:DisplayMode>
        <gpxx:Address>
          <gpxx:StreetAddress>Bicycle:Yes (Gate)</gpxx:StreetAddress>
          <gpxx:City>Dronero</gpxx:City>
          <gpxx:State>Piemonte</gpxx:State>
          <gpxx:Country>ITA</gpxx:Country>
        </gpxx:Address>
        <gpxx:PhoneNumber>0171 96735</gpxx:PhoneNumber>
      </gpxx:WaypointExtension>
      <wptx1:WaypointExtension>
        <wptx1:DisplayMode>SymbolOnly</wptx1:DisplayMode>
        <wptx1:Address>
          <wptx1:StreetAddress>Bicycle:Yes (Gate)</wptx1:StreetAddress>
          <wptx1:City>Dronero</wptx1:City>
          <wptx1:State>Piemonte</wptx1:State>
          <wptx1:Country>ITA</wptx1:Country>
        </wptx1:Address>
        <wptx1:PhoneNumber>0171 96735</wptx1:PhoneNumber>
      </wptx1:WaypointExtension>
      <ctx:CreationTimeExtension>
        <ctx:CreationTime>2013-07-11T15:32:44Z</ctx:CreationTime>
      </ctx:CreationTimeExtension>
    </extensions>
  </wpt>

  <wpt lat="44.665837995707989" lon="7.312529990449548">
    <ele>662.67797900000005</ele>
    <time>2013-08-03T15:23:13Z</time>
    <name>Balma Boves</name>
    <sym>Scenic Area</sym>
    <type>user</type>
    <extensions>
      <gpxx:WaypointExtension>
        <gpxx:DisplayMode>SymbolOnly</gpxx:DisplayMode>
        <gpxx:Address>
          <gpxx:StreetAddress>Bicycle:Yes (Gate)</gpxx:StreetAddress>
          <gpxx:City>Dronero</gpxx:City>
          <gpxx:State>Piemonte</gpxx:State>
          <gpxx:Country>ITA</gpxx:Country>
        </gpxx:Address>
      </gpxx:WaypointExtension>
      <wptx1:WaypointExtension>
        <wptx1:DisplayMode>SymbolOnly</wptx1:DisplayMode>
        <wptx1:Address>
          <wptx1:StreetAddress>Bicycle:Yes (Gate)</wptx1:StreetAddress>
          <wptx1:City>Dronero</wptx1:City>
          <wptx1:State>Piemonte</wptx1:State>
          <wptx1:Country>ITA</wptx1:Country>
        </wptx1:Address>
      </wptx1:WaypointExtension>
      <ctx:CreationTimeExtension>
        <ctx:CreationTime>2013-08-03T15:23:13Z</ctx:CreationTime>
      </ctx:CreationTimeExtension>
    </extensions>
  </wpt>

  <wpt lat="44.316109959036112" lon="7.721109967678785">
    <time>2013-07-11T15:32:44Z</time>
    <name>Bellavita</name>
    <cmt>0174 65271
campingbellavita.it</cmt>
    <desc>0174 65271
campingbellavita.it</desc>
    <link href="http://www.campingbellavita.it"/>
    <sym>Campground</sym>
    <type>user</type>
    <extensions>
      <gpxx:WaypointExtension>
        <gpxx:DisplayMode>SymbolOnly</gpxx:DisplayMode>
        <gpxx:Address>
          <gpxx:StreetAddress>Bicycle:Yes (Gate)</gpxx:StreetAddress>
          <gpxx:City>Dronero</gpxx:City>
          <gpxx:State>Piemonte</gpxx:State>
          <gpxx:Country>ITA</gpxx:Country>
        </gpxx:Address>
        <gpxx:PhoneNumber>0174 65271</gpxx:PhoneNumber>
      </gpxx:WaypointExtension>
      <wptx1:WaypointExtension>
        <wptx1:DisplayMode>SymbolOnly</wptx1:DisplayMode>
        <wptx1:Address>
          <wptx1:StreetAddress>Bicycle:Yes (Gate)</wptx1:StreetAddress>
          <wptx1:City>Dronero</wptx1:City>
          <wptx1:State>Piemonte</wptx1:State>
          <wptx1:Country>ITA</wptx1:Country>
        </wptx1:Address>
        <wptx1:PhoneNumber>0174 65271</wptx1:PhoneNumber>
      </wptx1:WaypointExtension>
      <ctx:CreationTimeExtension>
        <ctx:CreationTime>2013-07-11T15:32:44Z</ctx:CreationTime>
      </ctx:CreationTimeExtension>
    </extensions>
  </wpt>

  <wpt lat="44.364388883113861" lon="7.514833342283964">
    <time>2014-10-31T08:26:27Z</time>
    <name>Bisalta</name>
    <cmt>0171 491334
cuneocamp.it</cmt>
    <desc>0171 491334
cuneocamp.it</desc>
    <link href="http://www.cuneocamp.it/"/>
    <sym>Campground</sym>
    <type>user</type>
    <extensions>
      <gpxx:WaypointExtension>
        <gpxx:DisplayMode>SymbolOnly</gpxx:DisplayMode>
        <gpxx:Address>
          <gpxx:StreetAddress>Bicycle:Yes (Gate)</gpxx:StreetAddress>
          <gpxx:City>Dronero</gpxx:City>
          <gpxx:State>Piemonte</gpxx:State>
          <gpxx:Country>ITA</gpxx:Country>
        </gpxx:Address>
        <gpxx:PhoneNumber>0171 491334</gpxx:PhoneNumber>
      </gpxx:WaypointExtension>
      <wptx1:WaypointExtension>
        <wptx1:DisplayMode>SymbolOnly</wptx1:DisplayMode>
        <wptx1:Address>
          <wptx1:StreetAddress>Bicycle:Yes (Gate)</wptx1:StreetAddress>
          <wptx1:City>Dronero</wptx1:City>
          <wptx1:State>Piemonte</wptx1:State>
          <wptx1:Country>ITA</wptx1:Country>
        </wptx1:Address>
        <wptx1:PhoneNumber>0171 491334</wptx1:PhoneNumber>
      </wptx1:WaypointExtension>
      <ctx:CreationTimeExtension>
        <ctx:CreationTime>2014-10-31T08:26:27Z</ctx:CreationTime>
      </ctx:CreationTimeExtension>
    </extensions>
  </wpt>

  <wpt lat="44.568175496533513" lon="7.35777860507369">
    <time>2014-10-12T10:07:09Z</time>
    <name>Capella San Rocco</name>
    <sym>Scenic Area</sym>
    <type>user</type>
    <extensions>
      <gpxx:WaypointExtension>
        <gpxx:DisplayMode>SymbolOnly</gpxx:DisplayMode>
        <gpxx:Address>
          <gpxx:StreetAddress>Bicycle:Yes (Gate)</gpxx:StreetAddress>
          <gpxx:City>Dronero</gpxx:City>
          <gpxx:State>Piemonte</gpxx:State>
          <gpxx:Country>ITA</gpxx:Country>
        </gpxx:Address>
      </gpxx:WaypointExtension>
      <wptx1:WaypointExtension>
        <wptx1:DisplayMode>SymbolOnly</wptx1:DisplayMode>
        <wptx1:Address>
          <wptx1:StreetAddress>Bicycle:Yes (Gate)</wptx1:StreetAddress>
          <wptx1:City>Dronero</wptx1:City>
          <wptx1:State>Piemonte</wptx1:State>
          <wptx1:Country>ITA</wptx1:Country>
        </wptx1:Address>
      </wptx1:WaypointExtension>
      <ctx:CreationTimeExtension>
        <ctx:CreationTime>2014-10-12T10:07:09Z</ctx:CreationTime>
      </ctx:CreationTimeExtension>
    </extensions>
  </wpt>

  <wpt lat="44.574515819549561" lon="6.975095272064209">
    <time>2014-10-11T18:16:56Z</time>
    <name>Casa Alpina Excelsior</name>
    <cmt>0175 41872
comune.bellino.cn.it</cmt>
    <desc>0175 41872
comune.bellino.cn.it</desc>
    <link href="http://www.comune.bellino.cn.it/archivio/pagine/Casa_Alpina_Excelsior.asp"/>
    <sym>Lodging</sym>
    <type>user</type>
    <extensions>
      <gpxx:WaypointExtension>
        <gpxx:DisplayMode>SymbolOnly</gpxx:DisplayMode>
        <gpxx:Address>
          <gpxx:StreetAddress>Bicycle:Yes (Gate)</gpxx:StreetAddress>
          <gpxx:City>Dronero</gpxx:City>
          <gpxx:State>Piemonte</gpxx:State>
          <gpxx:Country>ITA</gpxx:Country>
        </gpxx:Address>
        <gpxx:PhoneNumber>0175 41872</gpxx:PhoneNumber>
      </gpxx:WaypointExtension>
      <wptx1:WaypointExtension>
        <wptx1:DisplayMode>SymbolOnly</wptx1:DisplayMode>
        <wptx1:Address>
          <wptx1:StreetAddress>Bicycle:Yes (Gate)</wptx1:StreetAddress>
          <wptx1:City>Dronero</wptx1:City>
          <wptx1:State>Piemonte</wptx1:State>
          <wptx1:Country>ITA</wptx1:Country>
        </wptx1:Address>
        <wptx1:PhoneNumber>0175 41872</wptx1:PhoneNumber>
      </wptx1:WaypointExtension>
      <ctx:CreationTimeExtension>
        <ctx:CreationTime>2014-10-11T18:16:56Z</ctx:CreationTime>
      </ctx:CreationTimeExtension>
    </extensions>
  </wpt>

  <wpt lat="44.614362716674805" lon="7.482762336730957">
    <time>2015-01-15T17:45:26Z</time>
    <name>Castello della Manta</name>
    <sym>Scenic Area</sym>
    <type>user</type>
    <extensions>
      <gpxx:WaypointExtension>
        <gpxx:DisplayMode>SymbolOnly</gpxx:DisplayMode>
        <gpxx:Address>
          <gpxx:StreetAddress>Bicycle:Yes (Gate)</gpxx:StreetAddress>
          <gpxx:City>Dronero</gpxx:City>
          <gpxx:State>Piemonte</gpxx:State>
          <gpxx:Country>ITA</gpxx:Country>
        </gpxx:Address>
      </gpxx:WaypointExtension>
      <wptx1:WaypointExtension>
        <wptx1:DisplayMode>SymbolOnly</wptx1:DisplayMode>
        <wptx1:Address>
          <wptx1:StreetAddress>Bicycle:Yes (Gate)</wptx1:StreetAddress>
          <wptx1:City>Dronero</wptx1:City>
          <wptx1:State>Piemonte</wptx1:State>
          <wptx1:Country>ITA</wptx1:Country>
        </wptx1:Address>
      </wptx1:WaypointExtension>
      <ctx:CreationTimeExtension>
        <ctx:CreationTime>2015-01-15T17:45:26Z</ctx:CreationTime>
      </ctx:CreationTimeExtension>
    </extensions>
  </wpt>

  <wpt lat="44.631850719451904" lon="7.734246253967285">
    <time>2013-11-15T17:00:43Z</time>
    <name>Castello della Salza</name>
    <cmt>Castello Della Salza
Marene, Cuneo, Italia</cmt>
    <desc>Castello Della Salza
Marene, Cuneo, Italia</desc>
    <sym>Scenic Area</sym>
    <type>user</type>
    <extensions>
      <gpxx:WaypointExtension>
        <gpxx:DisplayMode>SymbolOnly</gpxx:DisplayMode>
        <gpxx:Address>
          <gpxx:StreetAddress>Bicycle:Yes (Gate)</gpxx:StreetAddress>
          <gpxx:City>Dronero</gpxx:City>
          <gpxx:State>Piemonte</gpxx:State>
          <gpxx:Country>ITA</gpxx:Country>
        </gpxx:Address>
      </gpxx:WaypointExtension>
      <wptx1:WaypointExtension>
        <wptx1:DisplayMode>SymbolOnly</wptx1:DisplayMode>
        <wptx1:Address>
          <wptx1:StreetAddress>Bicycle:Yes (Gate)</wptx1:StreetAddress>
          <wptx1:City>Dronero</wptx1:City>
          <wptx1:State>Piemonte</wptx1:State>
          <wptx1:Country>ITA</wptx1:Country>
        </wptx1:Address>
      </wptx1:WaypointExtension>
      <ctx:CreationTimeExtension>
        <ctx:CreationTime>2013-11-15T17:00:43Z</ctx:CreationTime>
      </ctx:CreationTimeExtension>
    </extensions>
  </wpt>

  <wpt lat="45.069758892059326" lon="7.510442733764648">
    <time>2014-10-10T09:01:42Z</time>
    <name>Castello di Rivoli</name>
    <cmt>
</cmt>    <desc>
</desc>    <sym>Scenic Area</sym>
    <type>user</type>
    <extensions>
      <gpxx:WaypointExtension>
        <gpxx:DisplayMode>SymbolOnly</gpxx:DisplayMode>
        <gpxx:Address>
          <gpxx:StreetAddress>Bicycle:Yes (Gate)</gpxx:StreetAddress>
          <gpxx:City>Dronero</gpxx:City>
          <gpxx:State>Piemonte</gpxx:State>
          <gpxx:Country>ITA</gpxx:Country>
        </gpxx:Address>
        <gpxx:PhoneNumber/>
      </gpxx:WaypointExtension>
      <wptx1:WaypointExtension>
        <wptx1:DisplayMode>SymbolOnly</wptx1:DisplayMode>
        <wptx1:Address>
          <wptx1:StreetAddress>Bicycle:Yes (Gate)</wptx1:StreetAddress>
          <wptx1:City>Dronero</wptx1:City>
          <wptx1:State>Piemonte</wptx1:State>
          <wptx1:Country>ITA</wptx1:Country>
        </wptx1:Address>
        <wptx1:PhoneNumber/>
      </wptx1:WaypointExtension>
      <ctx:CreationTimeExtension>
        <ctx:CreationTime>2014-10-10T09:01:42Z</ctx:CreationTime>
      </ctx:CreationTimeExtension>
    </extensions>
  </wpt>

  <wpt lat="44.34480557218194" lon="7.031472204253078">
    <time>2013-07-11T15:32:44Z</time>
    <name>Cento Sentieri</name>
    <cmt>0171 96602
329 8176214</cmt>
    <desc>0171 96602
329 8176214</desc>
    <sym>Campground</sym>
    <type>user</type>
    <extensions>
      <gpxx:WaypointExtension>
        <gpxx:DisplayMode>SymbolOnly</gpxx:DisplayMode>
        <gpxx:Address>
          <gpxx:StreetAddress>Bicycle:Yes (Gate)</gpxx:StreetAddress>
          <gpxx:City>Dronero</gpxx:City>
          <gpxx:State>Piemonte</gpxx:State>
          <gpxx:Country>ITA</gpxx:Country>
        </gpxx:Address>
        <gpxx:PhoneNumber>0171 96602</gpxx:PhoneNumber>
        <gpxx:PhoneNumber>329 8176214</gpxx:PhoneNumber>
      </gpxx:WaypointExtension>
      <wptx1:WaypointExtension>
        <wptx1:DisplayMode>SymbolOnly</wptx1:DisplayMode>
        <wptx1:Address>
          <wptx1:StreetAddress>Bicycle:Yes (Gate)</wptx1:StreetAddress>
          <wptx1:City>Dronero</wptx1:City>
          <wptx1:State>Piemonte</wptx1:State>
          <wptx1:Country>ITA</wptx1:Country>
        </wptx1:Address>
        <wptx1:PhoneNumber>0171 96602</wptx1:PhoneNumber>
        <wptx1:PhoneNumber>329 8176214</wptx1:PhoneNumber>
      </wptx1:WaypointExtension>
      <ctx:CreationTimeExtension>
        <ctx:CreationTime>2013-07-11T15:32:44Z</ctx:CreationTime>
      </ctx:CreationTimeExtension>
    </extensions>
  </wpt>

  <wpt lat="44.50462818145752" lon="7.110675070434809">
    <time>2013-04-22T09:13:50Z</time>
    <name>Centro Culturale Borgata San Martino Inferiore</name>
    <cmt>0171999 186
info@borgata-sanmartino.eu</cmt>
    <desc>0171999 186
info@borgata-sanmartino.eu</desc>
    <link href="http://www.borgata-sanmartino.eu/"/>
    <sym>Lodging</sym>
    <type>user</type>
    <extensions>
      <gpxx:WaypointExtension>
        <gpxx:DisplayMode>SymbolOnly</gpxx:DisplayMode>
        <gpxx:Address>
          <gpxx:StreetAddress>Bicycle:Yes (Gate)</gpxx:StreetAddress>
          <gpxx:City>Dronero</gpxx:City>
          <gpxx:State>Piemonte</gpxx:State>
          <gpxx:Country>ITA</gpxx:Country>
        </gpxx:Address>
        <gpxx:PhoneNumber>0171 999186</gpxx:PhoneNumber>
      </gpxx:WaypointExtension>
      <wptx1:WaypointExtension>
        <wptx1:DisplayMode>SymbolOnly</wptx1:DisplayMode>
        <wptx1:Address>
          <wptx1:StreetAddress>Bicycle:Yes (Gate)</wptx1:StreetAddress>
          <wptx1:City>Dronero</wptx1:City>
          <wptx1:State>Piemonte</wptx1:State>
          <wptx1:Country>ITA</wptx1:Country>
        </wptx1:Address>
        <wptx1:PhoneNumber>0171 999186</wptx1:PhoneNumber>
      </wptx1:WaypointExtension>
      <ctx:CreationTimeExtension>
        <ctx:CreationTime>2013-04-22T09:13:50Z</ctx:CreationTime>
      </ctx:CreationTimeExtension>
    </extensions>
  </wpt>

  <wpt lat="44.587777750566602" lon="7.206666637212038">
    <time>2013-07-11T15:32:44Z</time>
    <name>Cianabie</name>
    <cmt>0175 979973
328 7040905
cianabie.com</cmt>
    <desc>0175 979973
328 7040905
cianabie.com</desc>
    <link href="http://www.cianabie.com"/>
    <sym>Campground</sym>
    <type>user</type>
    <extensions>
      <gpxx:WaypointExtension>
        <gpxx:DisplayMode>SymbolOnly</gpxx:DisplayMode>
        <gpxx:Address>
          <gpxx:StreetAddress>Bicycle:Yes (Gate)</gpxx:StreetAddress>
          <gpxx:City>Dronero</gpxx:City>
          <gpxx:State>Piemonte</gpxx:State>
          <gpxx:Country>ITA</gpxx:Country>
        </gpxx:Address>
        <gpxx:PhoneNumber>0175 979973</gpxx:PhoneNumber>
        <gpxx:PhoneNumber>328 7040905</gpxx:PhoneNumber>
      </gpxx:WaypointExtension>
      <wptx1:WaypointExtension>
        <wptx1:DisplayMode>SymbolOnly</wptx1:DisplayMode>
        <wptx1:Address>
          <wptx1:StreetAddress>Bicycle:Yes (Gate)</wptx1:StreetAddress>
          <wptx1:City>Dronero</wptx1:City>
          <wptx1:State>Piemonte</wptx1:State>
          <wptx1:Country>ITA</wptx1:Country>
        </wptx1:Address>
        <wptx1:PhoneNumber>0175 979973</wptx1:PhoneNumber>
        <wptx1:PhoneNumber>328 7040905</wptx1:PhoneNumber>
      </wptx1:WaypointExtension>
      <ctx:CreationTimeExtension>
        <ctx:CreationTime>2013-07-11T15:32:44Z</ctx:CreationTime>
      </ctx:CreationTimeExtension>
    </extensions>
  </wpt>

  <wpt lat="44.304900001734495" lon="7.171389972791076">
    <time>2013-07-25T07:31:45Z</time>
    <name>Dei Forti</name>
    <cmt>333 3848164
0171 959354
protocollo.vinadio@vallestura.cn.it</cmt>
    <desc>333 3848164
0171 959354
protocollo.vinadio@vallestura.cn.it</desc>
    <sym>Campground</sym>
    <type>user</type>
    <extensions>
      <gpxx:WaypointExtension>
        <gpxx:DisplayMode>SymbolOnly</gpxx:DisplayMode>
        <gpxx:Address>
          <gpxx:StreetAddress>Bicycle:Yes (Gate)</gpxx:StreetAddress>
          <gpxx:City>Dronero</gpxx:City>
          <gpxx:State>Piemonte</gpxx:State>
          <gpxx:Country>ITA</gpxx:Country>
        </gpxx:Address>
        <gpxx:PhoneNumber>333 3848164</gpxx:PhoneNumber>
        <gpxx:PhoneNumber>0171 959354</gpxx:PhoneNumber>
      </gpxx:WaypointExtension>
      <wptx1:WaypointExtension>
        <wptx1:DisplayMode>SymbolOnly</wptx1:DisplayMode>
        <wptx1:Address>
          <wptx1:StreetAddress>Bicycle:Yes (Gate)</wptx1:StreetAddress>
          <wptx1:City>Dronero</wptx1:City>
          <wptx1:State>Piemonte</wptx1:State>
          <wptx1:Country>ITA</wptx1:Country>
        </wptx1:Address>
        <wptx1:PhoneNumber>333 3848164</wptx1:PhoneNumber>
        <wptx1:PhoneNumber>0171 959354</wptx1:PhoneNumber>
      </wptx1:WaypointExtension>
      <ctx:CreationTimeExtension>
        <ctx:CreationTime>2013-07-25T07:31:45Z</ctx:CreationTime>
      </ctx:CreationTimeExtension>
    </extensions>
  </wpt>

  <wpt lat="44.313750034198165" lon="7.273277789354324">
    <time>2013-07-11T15:32:44Z</time>
    <name>Demonte</name>
    <cmt>0171 214889 
338 2464353 
campingdemonte.com</cmt>
    <desc>0171 214889 
338 2464353 
campingdemonte.com</desc>
    <link href="http://www.campingdemonte.com"/>
    <sym>Campground</sym>
    <type>user</type>
    <extensions>
      <gpxx:WaypointExtension>
        <gpxx:DisplayMode>SymbolOnly</gpxx:DisplayMode>
        <gpxx:Address>
          <gpxx:StreetAddress>Bicycle:Yes (Gate)</gpxx:StreetAddress>
          <gpxx:City>Dronero</gpxx:City>
          <gpxx:State>Piemonte</gpxx:State>
          <gpxx:Country>ITA</gpxx:Country>
        </gpxx:Address>
        <gpxx:PhoneNumber>0171 214889</gpxx:PhoneNumber>
        <gpxx:PhoneNumber>338 2464353</gpxx:PhoneNumber>
      </gpxx:WaypointExtension>
      <wptx1:WaypointExtension>
        <wptx1:DisplayMode>SymbolOnly</wptx1:DisplayMode>
        <wptx1:Address>
          <wptx1:StreetAddress>Bicycle:Yes (Gate)</wptx1:StreetAddress>
          <wptx1:City>Dronero</wptx1:City>
          <wptx1:State>Piemonte</wptx1:State>
          <wptx1:Country>ITA</wptx1:Country>
        </wptx1:Address>
        <wptx1:PhoneNumber>0171 214889</wptx1:PhoneNumber>
        <wptx1:PhoneNumber>338 2464353</wptx1:PhoneNumber>
      </wptx1:WaypointExtension>
      <ctx:CreationTimeExtension>
        <ctx:CreationTime>2013-07-11T15:32:44Z</ctx:CreationTime>
      </ctx:CreationTimeExtension>
    </extensions>
  </wpt>

  <wpt lat="44.151428611949086" lon="7.570854378864169">
    <time>2014-09-21T07:49:43Z</time>
    <name>E74 Col du Tende (3.1kms)</name>
    <cmt>Avoidable: climb to the Col du Tende. Note that on the French side the road is unsurfaced and gravelly. There is a train service but at the moment (2014) this is limited to two trains a day in either direction.</cmt>
    <desc>Avoidable: climb to the Col du Tende. Note that on the French side the road is unsurfaced and gravelly. There is a train service but at the moment (2014) this is limited to two trains a day in either direction.</desc>
    <sym>Tunnel</sym>
    <type>user</type>
    <extensions>
      <gpxx:WaypointExtension>
        <gpxx:DisplayMode>SymbolOnly</gpxx:DisplayMode>
        <gpxx:Address>
          <gpxx:StreetAddress>Bicycle:Yes (Gate)</gpxx:StreetAddress>
          <gpxx:City>Dronero</gpxx:City>
          <gpxx:State>Piemonte</gpxx:State>
          <gpxx:Country>ITA</gpxx:Country>
        </gpxx:Address>
      </gpxx:WaypointExtension>
      <wptx1:WaypointExtension>
        <wptx1:DisplayMode>SymbolOnly</wptx1:DisplayMode>
        <wptx1:Address>
          <wptx1:StreetAddress>Bicycle:Yes (Gate)</wptx1:StreetAddress>
          <wptx1:City>Dronero</wptx1:City>
          <wptx1:State>Piemonte</wptx1:State>
          <wptx1:Country>ITA</wptx1:Country>
        </wptx1:Address>
      </wptx1:WaypointExtension>
      <ctx:CreationTimeExtension>
        <ctx:CreationTime>2014-09-21T07:49:43Z</ctx:CreationTime>
      </ctx:CreationTimeExtension>
    </extensions>
  </wpt>

  <wpt lat="44.398729959502816" lon="6.926821041852236">
    <ele>1756.731322999999975</ele>
    <time>2013-07-23T12:25:05Z</time>
    <name>Fausto Coppi memorial</name>
    <cmt>GIRO D'ITALIA 1949?</cmt>
    <desc>GIRO D'ITALIA 1949?</desc>
    <sym>Scenic Area</sym>
    <type>user</type>
    <extensions>
      <gpxx:WaypointExtension>
        <gpxx:DisplayMode>SymbolOnly</gpxx:DisplayMode>
        <gpxx:Address>
          <gpxx:StreetAddress>Bicycle:Yes (Gate)</gpxx:StreetAddress>
          <gpxx:City>Dronero</gpxx:City>
          <gpxx:State>Piemonte</gpxx:State>
          <gpxx:Country>ITA</gpxx:Country>
        </gpxx:Address>
      </gpxx:WaypointExtension>
      <wptx1:WaypointExtension>
        <wptx1:DisplayMode>SymbolOnly</wptx1:DisplayMode>
        <wptx1:Address>
          <wptx1:StreetAddress>Bicycle:Yes (Gate)</wptx1:StreetAddress>
          <wptx1:City>Dronero</wptx1:City>
          <wptx1:State>Piemonte</wptx1:State>
          <wptx1:Country>ITA</wptx1:Country>
        </wptx1:Address>
      </wptx1:WaypointExtension>
      <ctx:CreationTimeExtension>
        <ctx:CreationTime>2013-07-23T12:25:05Z</ctx:CreationTime>
      </ctx:CreationTimeExtension>
    </extensions>
  </wpt>

  <wpt lat="44.421582967042923" lon="6.899079037830234">
    <ele>1992.840576000000056</ele>
    <time>2013-07-23T13:27:27Z</time>
    <name>Fausto Coppi monument</name>
    <sym>Scenic Area</sym>
    <type>user</type>
    <extensions>
      <gpxx:WaypointExtension>
        <gpxx:DisplayMode>SymbolOnly</gpxx:DisplayMode>
        <gpxx:Address>
          <gpxx:StreetAddress>Bicycle:Yes (Gate)</gpxx:StreetAddress>
          <gpxx:City>Dronero</gpxx:City>
          <gpxx:State>Piemonte</gpxx:State>
          <gpxx:Country>ITA</gpxx:Country>
        </gpxx:Address>
      </gpxx:WaypointExtension>
      <wptx1:WaypointExtension>
        <wptx1:DisplayMode>SymbolOnly</wptx1:DisplayMode>
        <wptx1:Address>
          <wptx1:StreetAddress>Bicycle:Yes (Gate)</wptx1:StreetAddress>
          <wptx1:City>Dronero</wptx1:City>
          <wptx1:State>Piemonte</wptx1:State>
          <wptx1:Country>ITA</wptx1:Country>
        </wptx1:Address>
      </wptx1:WaypointExtension>
      <ctx:CreationTimeExtension>
        <ctx:CreationTime>2013-07-23T13:27:27Z</ctx:CreationTime>
      </ctx:CreationTimeExtension>
    </extensions>
  </wpt>

  <wpt lat="45.099692344665527" lon="6.936514377593994">
    <time>2014-10-12T14:58:25Z</time>
    <name>Forte di Exilles</name>
    <cmt>Forte Di Exilles

</cmt>
    <desc>Forte Di Exilles

</desc>
    <sym>Scenic Area</sym>
    <type>user</type>
    <extensions>
      <gpxx:WaypointExtension>
        <gpxx:DisplayMode>SymbolOnly</gpxx:DisplayMode>
        <gpxx:Address>
          <gpxx:StreetAddress>Bicycle:Yes (Gate)</gpxx:StreetAddress>
          <gpxx:City>Dronero</gpxx:City>
          <gpxx:State>Piemonte</gpxx:State>
          <gpxx:Country>ITA</gpxx:Country>
        </gpxx:Address>
      </gpxx:WaypointExtension>
      <wptx1:WaypointExtension>
        <wptx1:DisplayMode>SymbolOnly</wptx1:DisplayMode>
        <wptx1:Address>
          <wptx1:StreetAddress>Bicycle:Yes (Gate)</wptx1:StreetAddress>
          <wptx1:City>Dronero</wptx1:City>
          <wptx1:State>Piemonte</wptx1:State>
          <wptx1:Country>ITA</wptx1:Country>
        </wptx1:Address>
      </wptx1:WaypointExtension>
      <ctx:CreationTimeExtension>
        <ctx:CreationTime>2014-10-12T14:58:25Z</ctx:CreationTime>
      </ctx:CreationTimeExtension>
    </extensions>
  </wpt>

  <wpt lat="44.306637989357114" lon="7.171905040740967">
    <ele>916</ele>
    <time>2013-07-23T15:53:15Z</time>
    <name>Forti Vinadio</name>
    <cmt>http://it.wikipedia.org/wiki/Forte_di_Vinadio
http://www.fortedivinadio.it</cmt>
    <desc>http://it.wikipedia.org/wiki/Forte_di_Vinadio
http://www.fortedivinadio.it</desc>
    <link href="http://www.fortedivinadio.it"/>
    <link href="http://it.wikipedia.org/wiki/Forte_di_Vinadio"/>
    <sym>Scenic Area</sym>
    <type>user</type>
    <extensions>
      <gpxx:WaypointExtension>
        <gpxx:DisplayMode>SymbolOnly</gpxx:DisplayMode>
        <gpxx:Address>
          <gpxx:StreetAddress>Bicycle:Yes (Gate)</gpxx:StreetAddress>
          <gpxx:City>Dronero</gpxx:City>
          <gpxx:State>Piemonte</gpxx:State>
          <gpxx:Country>ITA</gpxx:Country>
        </gpxx:Address>
      </gpxx:WaypointExtension>
      <wptx1:WaypointExtension>
        <wptx1:DisplayMode>SymbolOnly</wptx1:DisplayMode>
        <wptx1:Address>
          <wptx1:StreetAddress>Bicycle:Yes (Gate)</wptx1:StreetAddress>
          <wptx1:City>Dronero</wptx1:City>
          <wptx1:State>Piemonte</wptx1:State>
          <wptx1:Country>ITA</wptx1:Country>
        </wptx1:Address>
      </wptx1:WaypointExtension>
      <ctx:CreationTimeExtension>
        <ctx:CreationTime>2013-07-23T15:53:15Z</ctx:CreationTime>
      </ctx:CreationTimeExtension>
    </extensions>
  </wpt>

  <wpt lat="44.570116996765137" lon="7.275974750518799">
    <time>2014-10-12T10:10:51Z</time>
    <name>I Tigli</name>
    <cmt>0175 976154
348 736 4261</cmt>
    <desc>0175 976154
348 736 4261</desc>
    <link href="http://www.vallevaraita.cn.it/ita/vallevaraita/ricettivita-details.aspx?id=163"/>
    <sym>Campground</sym>
    <type>user</type>
    <extensions>
      <gpxx:WaypointExtension>
        <gpxx:DisplayMode>SymbolOnly</gpxx:DisplayMode>
        <gpxx:Address>
          <gpxx:StreetAddress>Bicycle:Yes (Gate)</gpxx:StreetAddress>
          <gpxx:City>Dronero</gpxx:City>
          <gpxx:State>Piemonte</gpxx:State>
          <gpxx:Country>ITA</gpxx:Country>
        </gpxx:Address>
        <gpxx:PhoneNumber>0175 976154</gpxx:PhoneNumber>
        <gpxx:PhoneNumber>348 7364261</gpxx:PhoneNumber>
      </gpxx:WaypointExtension>
      <wptx1:WaypointExtension>
        <wptx1:DisplayMode>SymbolOnly</wptx1:DisplayMode>
        <wptx1:Address>
          <wptx1:StreetAddress>Bicycle:Yes (Gate)</wptx1:StreetAddress>
          <wptx1:City>Dronero</wptx1:City>
          <wptx1:State>Piemonte</wptx1:State>
          <wptx1:Country>ITA</wptx1:Country>
        </wptx1:Address>
        <wptx1:PhoneNumber>0175 976154</wptx1:PhoneNumber>
        <wptx1:PhoneNumber>348 7364261</wptx1:PhoneNumber>
      </wptx1:WaypointExtension>
      <ctx:CreationTimeExtension>
        <ctx:CreationTime>2014-10-12T10:10:51Z</ctx:CreationTime>
      </ctx:CreationTimeExtension>
    </extensions>
  </wpt>

  <wpt lat="44.237500028684735" lon="7.407777747139335">
    <time>2013-07-11T15:32:44Z</time>
    <name>Il Bosco</name>
    <cmt>0171 978396
3661985930
campeggioilbosco.it</cmt>
    <desc>0171 978396
3661985930
campeggioilbosco.it</desc>
    <link href="http://www.campeggioilbosco.it"/>
    <sym>Campground</sym>
    <type>user</type>
    <extensions>
      <gpxx:WaypointExtension>
        <gpxx:DisplayMode>SymbolOnly</gpxx:DisplayMode>
        <gpxx:Address>
          <gpxx:StreetAddress>Bicycle:Yes (Gate)</gpxx:StreetAddress>
          <gpxx:City>Dronero</gpxx:City>
          <gpxx:State>Piemonte</gpxx:State>
          <gpxx:Country>ITA</gpxx:Country>
        </gpxx:Address>
        <gpxx:PhoneNumber>0171 978396</gpxx:PhoneNumber>
        <gpxx:PhoneNumber>3661985930</gpxx:PhoneNumber>
      </gpxx:WaypointExtension>
      <wptx1:WaypointExtension>
        <wptx1:DisplayMode>SymbolOnly</wptx1:DisplayMode>
        <wptx1:Address>
          <wptx1:StreetAddress>Bicycle:Yes (Gate)</wptx1:StreetAddress>
          <wptx1:City>Dronero</wptx1:City>
          <wptx1:State>Piemonte</wptx1:State>
          <wptx1:Country>ITA</wptx1:Country>
        </wptx1:Address>
        <wptx1:PhoneNumber>0171 978396</wptx1:PhoneNumber>
        <wptx1:PhoneNumber>3661985930</wptx1:PhoneNumber>
      </wptx1:WaypointExtension>
      <ctx:CreationTimeExtension>
        <ctx:CreationTime>2013-07-11T15:32:44Z</ctx:CreationTime>
      </ctx:CreationTimeExtension>
    </extensions>
  </wpt>

  <wpt lat="44.326086435467005" lon="7.60509847663343">
    <time>2013-07-11T15:32:44Z</time>
    <name>Il Melo</name>
    <cmt>0171 383599
campingilmelo.it</cmt>
    <desc>0171 383599
campingilmelo.it</desc>
    <link href="http://www.campingilmelo.it"/>
    <sym>Campground</sym>
    <type>user</type>
    <extensions>
      <gpxx:WaypointExtension>
        <gpxx:DisplayMode>SymbolOnly</gpxx:DisplayMode>
        <gpxx:Address>
          <gpxx:StreetAddress>Bicycle:Yes (Gate)</gpxx:StreetAddress>
          <gpxx:City>Dronero</gpxx:City>
          <gpxx:State>Piemonte</gpxx:State>
          <gpxx:Country>ITA</gpxx:Country>
        </gpxx:Address>
        <gpxx:PhoneNumber>0171 383599</gpxx:PhoneNumber>
      </gpxx:WaypointExtension>
      <wptx1:WaypointExtension>
        <wptx1:DisplayMode>SymbolOnly</wptx1:DisplayMode>
        <wptx1:Address>
          <wptx1:StreetAddress>Bicycle:Yes (Gate)</wptx1:StreetAddress>
          <wptx1:City>Dronero</wptx1:City>
          <wptx1:State>Piemonte</wptx1:State>
          <wptx1:Country>ITA</wptx1:Country>
        </wptx1:Address>
        <wptx1:PhoneNumber>0171 383599</wptx1:PhoneNumber>
      </wptx1:WaypointExtension>
      <ctx:CreationTimeExtension>
        <ctx:CreationTime>2013-07-11T15:32:44Z</ctx:CreationTime>
      </ctx:CreationTimeExtension>
    </extensions>
  </wpt>

  <wpt lat="44.803282180801034" lon="7.116768546402454">
    <ele>775</ele>
    <time>2014-10-09T09:05:14Z</time>
    <name>La Roccia</name>
    <cmt>campeggiolaroccia.it
338 1715035
0121 957210</cmt>
    <desc>campeggiolaroccia.it
338 1715035
0121 957210</desc>
    <link href="http://www.campeggiolaroccia.it"/>
    <sym>Campground</sym>
    <type>user</type>
    <extensions>
      <gpxx:WaypointExtension>
        <gpxx:DisplayMode>SymbolOnly</gpxx:DisplayMode>
        <gpxx:Address>
          <gpxx:StreetAddress>Bicycle:Yes (Gate)</gpxx:StreetAddress>
          <gpxx:City>Dronero</gpxx:City>
          <gpxx:State>Piemonte</gpxx:State>
          <gpxx:Country>ITA</gpxx:Country>
        </gpxx:Address>
        <gpxx:PhoneNumber>0121 957210</gpxx:PhoneNumber>
        <gpxx:PhoneNumber>338 1715035</gpxx:PhoneNumber>
      </gpxx:WaypointExtension>
      <wptx1:WaypointExtension>
        <wptx1:DisplayMode>SymbolOnly</wptx1:DisplayMode>
        <wptx1:Address>
          <wptx1:StreetAddress>Bicycle:Yes (Gate)</wptx1:StreetAddress>
          <wptx1:City>Dronero</wptx1:City>
          <wptx1:State>Piemonte</wptx1:State>
          <wptx1:Country>ITA</wptx1:Country>
        </wptx1:Address>
        <wptx1:PhoneNumber>0121 957210</wptx1:PhoneNumber>
        <wptx1:PhoneNumber>338 1715035</wptx1:PhoneNumber>
      </wptx1:WaypointExtension>
      <ctx:CreationTimeExtension>
        <ctx:CreationTime>2014-10-09T09:05:14Z</ctx:CreationTime>
      </ctx:CreationTimeExtension>
    </extensions>
  </wpt>

  <wpt lat="44.320539040490985" lon="7.388974959030747">
    <ele>702.945496000000048</ele>
    <time>2013-07-22T09:52:20Z</time>
    <name>Lavatoio</name>
    <sym>Scenic Area</sym>
    <type>user</type>
    <extensions>
      <gpxx:WaypointExtension>
        <gpxx:DisplayMode>SymbolOnly</gpxx:DisplayMode>
        <gpxx:Address>
          <gpxx:StreetAddress>Bicycle:Yes (Gate)</gpxx:StreetAddress>
          <gpxx:City>Dronero</gpxx:City>
          <gpxx:State>Piemonte</gpxx:State>
          <gpxx:Country>ITA</gpxx:Country>
        </gpxx:Address>
      </gpxx:WaypointExtension>
      <wptx1:WaypointExtension>
        <wptx1:DisplayMode>SymbolOnly</wptx1:DisplayMode>
        <wptx1:Address>
          <wptx1:StreetAddress>Bicycle:Yes (Gate)</wptx1:StreetAddress>
          <wptx1:City>Dronero</wptx1:City>
          <wptx1:State>Piemonte</wptx1:State>
          <wptx1:Country>ITA</wptx1:Country>
        </wptx1:Address>
      </wptx1:WaypointExtension>
      <ctx:CreationTimeExtension>
        <ctx:CreationTime>2013-07-22T09:52:20Z</ctx:CreationTime>
      </ctx:CreationTimeExtension>
    </extensions>
  </wpt>

  <wpt lat="44.621940040960908" lon="7.028329996392131">
    <time>2013-07-11T15:32:44Z</time>
    <name>Libac</name>
    <cmt>0175 950133
campinglibac.it</cmt>
    <desc>0175 950133
campinglibac.it</desc>
    <link href="http://www.campinglibac.it"/>
    <sym>Campground</sym>
    <type>user</type>
    <extensions>
      <gpxx:WaypointExtension>
        <gpxx:DisplayMode>SymbolOnly</gpxx:DisplayMode>
        <gpxx:Address>
          <gpxx:StreetAddress>Bicycle:Yes (Gate)</gpxx:StreetAddress>
          <gpxx:City>Dronero</gpxx:City>
          <gpxx:State>Piemonte</gpxx:State>
          <gpxx:Country>ITA</gpxx:Country>
        </gpxx:Address>
        <gpxx:PhoneNumber>0175 950133</gpxx:PhoneNumber>
      </gpxx:WaypointExtension>
      <wptx1:WaypointExtension>
        <wptx1:DisplayMode>SymbolOnly</wptx1:DisplayMode>
        <wptx1:Address>
          <wptx1:StreetAddress>Bicycle:Yes (Gate)</wptx1:StreetAddress>
          <wptx1:City>Dronero</wptx1:City>
          <wptx1:State>Piemonte</wptx1:State>
          <wptx1:Country>ITA</wptx1:Country>
        </wptx1:Address>
        <wptx1:PhoneNumber>0175 950133</wptx1:PhoneNumber>
      </wptx1:WaypointExtension>
      <ctx:CreationTimeExtension>
        <ctx:CreationTime>2013-07-11T15:32:44Z</ctx:CreationTime>
      </ctx:CreationTimeExtension>
    </extensions>
  </wpt>

  <wpt lat="44.700613003224134" lon="7.117650993168354">
    <ele>1742</ele>
    <time>2013-08-02T08:43:27Z</time>
    <name>Locanda Regina</name>
    <cmt>0175 94907
333 3142936
locandaregina.com</cmt>
    <desc>0175 94907
333 3142936
locandaregina.com</desc>
    <link href="http://www.locandaregina.com"/>
    <sym>Campground</sym>
    <type>user</type>
    <extensions>
      <gpxx:WaypointExtension>
        <gpxx:DisplayMode>SymbolOnly</gpxx:DisplayMode>
        <gpxx:Address>
          <gpxx:StreetAddress>Bicycle:Yes (Gate)</gpxx:StreetAddress>
          <gpxx:City>Dronero</gpxx:City>
          <gpxx:State>Piemonte</gpxx:State>
          <gpxx:Country>ITA</gpxx:Country>
        </gpxx:Address>
        <gpxx:PhoneNumber>0175 94907</gpxx:PhoneNumber>
        <gpxx:PhoneNumber>333 3142936</gpxx:PhoneNumber>
      </gpxx:WaypointExtension>
      <wptx1:WaypointExtension>
        <wptx1:DisplayMode>SymbolOnly</wptx1:DisplayMode>
        <wptx1:Address>
          <wptx1:StreetAddress>Bicycle:Yes (Gate)</wptx1:StreetAddress>
          <wptx1:City>Dronero</wptx1:City>
          <wptx1:State>Piemonte</wptx1:State>
          <wptx1:Country>ITA</wptx1:Country>
        </wptx1:Address>
        <wptx1:PhoneNumber>0175 94907</wptx1:PhoneNumber>
        <wptx1:PhoneNumber>333 3142936</wptx1:PhoneNumber>
      </wptx1:WaypointExtension>
      <ctx:CreationTimeExtension>
        <ctx:CreationTime>2013-08-02T08:43:27Z</ctx:CreationTime>
      </ctx:CreationTimeExtension>
    </extensions>
  </wpt>

  <wpt lat="44.457500008866191" lon="7.090000016614795">
    <time>2013-07-11T15:32:44Z</time>
    <name>Lou Dahu</name>
    <cmt>349 7105244
0171 998305
campingloudahu.com</cmt>
    <desc>349 7105244
0171 998305
campingloudahu.com</desc>
    <link href="http://www.campingloudahu.com"/>
    <sym>Campground</sym>
    <type>user</type>
    <extensions>
      <gpxx:WaypointExtension>
        <gpxx:DisplayMode>SymbolOnly</gpxx:DisplayMode>
        <gpxx:Address>
          <gpxx:StreetAddress>Bicycle:Yes (Gate)</gpxx:StreetAddress>
          <gpxx:City>Dronero</gpxx:City>
          <gpxx:State>Piemonte</gpxx:State>
          <gpxx:Country>ITA</gpxx:Country>
        </gpxx:Address>
        <gpxx:PhoneNumber>349 7105244</gpxx:PhoneNumber>
        <gpxx:PhoneNumber>0171 998305</gpxx:PhoneNumber>
      </gpxx:WaypointExtension>
      <wptx1:WaypointExtension>
        <wptx1:DisplayMode>SymbolOnly</wptx1:DisplayMode>
        <wptx1:Address>
          <wptx1:StreetAddress>Bicycle:Yes (Gate)</wptx1:StreetAddress>
          <wptx1:City>Dronero</wptx1:City>
          <wptx1:State>Piemonte</wptx1:State>
          <wptx1:Country>ITA</wptx1:Country>
        </wptx1:Address>
        <wptx1:PhoneNumber>349 7105244</wptx1:PhoneNumber>
        <wptx1:PhoneNumber>0171 998305</wptx1:PhoneNumber>
      </wptx1:WaypointExtension>
      <ctx:CreationTimeExtension>
        <ctx:CreationTime>2013-07-11T15:32:44Z</ctx:CreationTime>
      </ctx:CreationTimeExtension>
    </extensions>
  </wpt>

  <wpt lat="44.208388924598694" lon="7.571805557236075">
    <time>2013-07-11T15:32:44Z</time>
    <name>Luis Matlas</name>
    <cmt>0171 927565
luismatlas.it</cmt>
    <desc>0171 927565
luismatlas.it</desc>
    <link href="http://www.luismatlas.it/home.html"/>
    <sym>Campground</sym>
    <type>user</type>
    <extensions>
      <gpxx:WaypointExtension>
        <gpxx:DisplayMode>SymbolOnly</gpxx:DisplayMode>
        <gpxx:Address>
          <gpxx:StreetAddress>Bicycle:Yes (Gate)</gpxx:StreetAddress>
          <gpxx:City>Dronero</gpxx:City>
          <gpxx:State>Piemonte</gpxx:State>
          <gpxx:Country>ITA</gpxx:Country>
        </gpxx:Address>
        <gpxx:PhoneNumber>0171 927565</gpxx:PhoneNumber>
      </gpxx:WaypointExtension>
      <wptx1:WaypointExtension>
        <wptx1:DisplayMode>SymbolOnly</wptx1:DisplayMode>
        <wptx1:Address>
          <wptx1:StreetAddress>Bicycle:Yes (Gate)</wptx1:StreetAddress>
          <wptx1:City>Dronero</wptx1:City>
          <wptx1:State>Piemonte</wptx1:State>
          <wptx1:Country>ITA</wptx1:Country>
        </wptx1:Address>
        <wptx1:PhoneNumber>0171 927565</wptx1:PhoneNumber>
      </wptx1:WaypointExtension>
      <ctx:CreationTimeExtension>
        <ctx:CreationTime>2013-07-11T15:32:44Z</ctx:CreationTime>
      </ctx:CreationTimeExtension>
    </extensions>
  </wpt>

  <wpt lat="44.326592031866312" lon="7.48639203608036">
    <ele>637.276550000000043</ele>
    <time>2013-07-24T10:55:55Z</time>
    <name>Memoriale della Deportazione</name>
    <sym>Scenic Area</sym>
    <type>user</type>
    <extensions>
      <gpxx:WaypointExtension>
        <gpxx:DisplayMode>SymbolOnly</gpxx:DisplayMode>
        <gpxx:Address>
          <gpxx:StreetAddress>Bicycle:Yes (Gate)</gpxx:StreetAddress>
          <gpxx:City>Dronero</gpxx:City>
          <gpxx:State>Piemonte</gpxx:State>
          <gpxx:Country>ITA</gpxx:Country>
        </gpxx:Address>
      </gpxx:WaypointExtension>
      <wptx1:WaypointExtension>
        <wptx1:DisplayMode>SymbolOnly</wptx1:DisplayMode>
        <wptx1:Address>
          <wptx1:StreetAddress>Bicycle:Yes (Gate)</wptx1:StreetAddress>
          <wptx1:City>Dronero</wptx1:City>
          <wptx1:State>Piemonte</wptx1:State>
          <wptx1:Country>ITA</wptx1:Country>
        </wptx1:Address>
      </wptx1:WaypointExtension>
      <ctx:CreationTimeExtension>
        <ctx:CreationTime>2013-07-24T10:55:55Z</ctx:CreationTime>
      </ctx:CreationTimeExtension>
    </extensions>
  </wpt>

  <wpt lat="44.98846298083663" lon="7.144022975116968">
    <ele>808.476257000000032</ele>
    <time>2013-08-05T09:36:53Z</time>
    <name>MERIDIANA</name>
    <sym>Scenic Area</sym>
    <type>user</type>
    <extensions>
      <gpxx:WaypointExtension>
        <gpxx:DisplayMode>SymbolOnly</gpxx:DisplayMode>
        <gpxx:Address>
          <gpxx:StreetAddress>Bicycle:Yes (Gate)</gpxx:StreetAddress>
          <gpxx:City>Dronero</gpxx:City>
          <gpxx:State>Piemonte</gpxx:State>
          <gpxx:Country>ITA</gpxx:Country>
        </gpxx:Address>
      </gpxx:WaypointExtension>
      <wptx1:WaypointExtension>
        <wptx1:DisplayMode>SymbolOnly</wptx1:DisplayMode>
        <wptx1:Address>
          <wptx1:StreetAddress>Bicycle:Yes (Gate)</wptx1:StreetAddress>
          <wptx1:City>Dronero</wptx1:City>
          <wptx1:State>Piemonte</wptx1:State>
          <wptx1:Country>ITA</wptx1:Country>
        </wptx1:Address>
      </wptx1:WaypointExtension>
      <ctx:CreationTimeExtension>
        <ctx:CreationTime>2013-08-05T09:36:53Z</ctx:CreationTime>
      </ctx:CreationTimeExtension>
    </extensions>
  </wpt>

  <wpt lat="44.579659625887871" lon="7.156023010611534">
    <time>2013-07-11T15:32:44Z</time>
    <name>Narciso</name>
    <cmt>0175 977285
0175 977242
340 0881512
campingnarciso.com</cmt>
    <desc>0175 977285
0175 977242
340 0881512
campingnarciso.com</desc>
    <link href="http://www.campingnarciso.com"/>
    <sym>Campground</sym>
    <type>user</type>
    <extensions>
      <gpxx:WaypointExtension>
        <gpxx:DisplayMode>SymbolOnly</gpxx:DisplayMode>
        <gpxx:Address>
          <gpxx:StreetAddress>Bicycle:Yes (Gate)</gpxx:StreetAddress>
          <gpxx:City>Dronero</gpxx:City>
          <gpxx:State>Piemonte</gpxx:State>
          <gpxx:Country>ITA</gpxx:Country>
        </gpxx:Address>
        <gpxx:PhoneNumber>0175 977285</gpxx:PhoneNumber>
        <gpxx:PhoneNumber>0175 977242</gpxx:PhoneNumber>
        <gpxx:PhoneNumber>340 0881512</gpxx:PhoneNumber>
      </gpxx:WaypointExtension>
      <wptx1:WaypointExtension>
        <wptx1:DisplayMode>SymbolOnly</wptx1:DisplayMode>
        <wptx1:Address>
          <wptx1:StreetAddress>Bicycle:Yes (Gate)</wptx1:StreetAddress>
          <wptx1:City>Dronero</wptx1:City>
          <wptx1:State>Piemonte</wptx1:State>
          <wptx1:Country>ITA</wptx1:Country>
        </wptx1:Address>
        <wptx1:PhoneNumber>0175 977285</wptx1:PhoneNumber>
        <wptx1:PhoneNumber>0175 977242</wptx1:PhoneNumber>
        <wptx1:PhoneNumber>340 0881512</wptx1:PhoneNumber>
      </wptx1:WaypointExtension>
      <ctx:CreationTimeExtension>
        <ctx:CreationTime>2013-07-11T15:32:44Z</ctx:CreationTime>
      </ctx:CreationTimeExtension>
    </extensions>
  </wpt>

  <wpt lat="44.692468978464603" lon="7.189479041844606">
    <time>2013-08-02T11:49:57Z</time>
    <name>Ostana</name>
    <sym>Scenic Area</sym>
    <type>user</type>
    <extensions>
      <gpxx:WaypointExtension>
        <gpxx:DisplayMode>SymbolOnly</gpxx:DisplayMode>
        <gpxx:Address>
          <gpxx:StreetAddress>Bicycle:Yes (Gate)</gpxx:StreetAddress>
          <gpxx:City>Dronero</gpxx:City>
          <gpxx:State>Piemonte</gpxx:State>
          <gpxx:Country>ITA</gpxx:Country>
        </gpxx:Address>
      </gpxx:WaypointExtension>
      <wptx1:WaypointExtension>
        <wptx1:DisplayMode>SymbolOnly</wptx1:DisplayMode>
        <wptx1:Address>
          <wptx1:StreetAddress>Bicycle:Yes (Gate)</wptx1:StreetAddress>
          <wptx1:City>Dronero</wptx1:City>
          <wptx1:State>Piemonte</wptx1:State>
          <wptx1:Country>ITA</wptx1:Country>
        </wptx1:Address>
      </wptx1:WaypointExtension>
      <ctx:CreationTimeExtension>
        <ctx:CreationTime>2013-08-02T11:49:57Z</ctx:CreationTime>
      </ctx:CreationTimeExtension>
    </extensions>
  </wpt>

  <wpt lat="44.384861094877124" lon="7.544194478541613">
    <time>2014-05-26T13:55:51Z</time>
    <name>Ostello Cuneo</name>
    <cmt>0171 67390 338 2097893 info@ostellocuneo.it</cmt>
    <desc>0171 67390 338 2097893 info@ostellocuneo.it</desc>
    <link href="http://www.ostellocuneo.it"/>
    <sym>Lodging</sym>
    <type>user</type>
    <extensions>
      <gpxx:WaypointExtension>
        <gpxx:DisplayMode>SymbolOnly</gpxx:DisplayMode>
        <gpxx:Categories>
          <gpxx:Category>hostels</gpxx:Category>
        </gpxx:Categories>
        <gpxx:Address>
          <gpxx:StreetAddress>Bicycle:Yes (Gate)</gpxx:StreetAddress>
          <gpxx:City>Dronero</gpxx:City>
          <gpxx:State>Piemonte</gpxx:State>
          <gpxx:Country>ITA</gpxx:Country>
        </gpxx:Address>
      </gpxx:WaypointExtension>
      <wptx1:WaypointExtension>
        <wptx1:DisplayMode>SymbolOnly</wptx1:DisplayMode>
        <wptx1:Categories>
          <wptx1:Category>hostels</wptx1:Category>
        </wptx1:Categories>
        <wptx1:Address>
          <wptx1:StreetAddress>Bicycle:Yes (Gate)</wptx1:StreetAddress>
          <wptx1:City>Dronero</wptx1:City>
          <wptx1:State>Piemonte</wptx1:State>
          <wptx1:Country>ITA</wptx1:Country>
        </wptx1:Address>
      </wptx1:WaypointExtension>
      <ctx:CreationTimeExtension>
        <ctx:CreationTime>2014-05-26T13:55:51Z</ctx:CreationTime>
      </ctx:CreationTimeExtension>
    </extensions>
  </wpt>

  <wpt lat="44.327424857765436" lon="7.401869930326939">
    <time>2013-07-16T15:36:50Z</time>
    <name>Ostello del Pelerin (Camping Stiera)</name>
    <cmt>0171 74204
338 1011194</cmt>
    <desc>0171 74204
338 1011194</desc>
    <link href="http://www.rafting-canoa.it/"/>
    <sym>Lodging</sym>
    <type>user</type>
    <extensions>
      <gpxx:WaypointExtension>
        <gpxx:DisplayMode>SymbolOnly</gpxx:DisplayMode>
        <gpxx:Address>
          <gpxx:StreetAddress>Bicycle:Yes (Gate)</gpxx:StreetAddress>
          <gpxx:City>Dronero</gpxx:City>
          <gpxx:State>Piemonte</gpxx:State>
          <gpxx:Country>ITA</gpxx:Country>
        </gpxx:Address>
        <gpxx:PhoneNumber>0171 74204</gpxx:PhoneNumber>
        <gpxx:PhoneNumber>338 1011194</gpxx:PhoneNumber>
      </gpxx:WaypointExtension>
      <wptx1:WaypointExtension>
        <wptx1:DisplayMode>SymbolOnly</wptx1:DisplayMode>
        <wptx1:Address>
          <wptx1:StreetAddress>Bicycle:Yes (Gate)</wptx1:StreetAddress>
          <wptx1:City>Dronero</wptx1:City>
          <wptx1:State>Piemonte</wptx1:State>
          <wptx1:Country>ITA</wptx1:Country>
        </wptx1:Address>
        <wptx1:PhoneNumber>0171 74204</wptx1:PhoneNumber>
        <wptx1:PhoneNumber>338 1011194</wptx1:PhoneNumber>
      </wptx1:WaypointExtension>
      <ctx:CreationTimeExtension>
        <ctx:CreationTime>2013-07-16T15:36:50Z</ctx:CreationTime>
      </ctx:CreationTimeExtension>
    </extensions>
  </wpt>

  <wpt lat="44.708259981125593" lon="7.456940039992332">
    <time>2014-10-11T17:21:43Z</time>
    <name>Ostello del Po (Saluzzo)</name>
    <cmt>349 5170538
0175 291225
ostellodelpo.org</cmt>
    <desc>349 5170538
0175 291225
ostellodelpo.org</desc>
    <link href="http://www.ostellodelpo.org"/>
    <sym>Lodging</sym>
    <type>user</type>
    <extensions>
      <gpxx:WaypointExtension>
        <gpxx:DisplayMode>SymbolOnly</gpxx:DisplayMode>
        <gpxx:Address>
          <gpxx:StreetAddress>Bicycle:Yes (Gate)</gpxx:StreetAddress>
          <gpxx:City>Dronero</gpxx:City>
          <gpxx:State>Piemonte</gpxx:State>
          <gpxx:Country>ITA</gpxx:Country>
        </gpxx:Address>
        <gpxx:PhoneNumber>349 5170538</gpxx:PhoneNumber>
        <gpxx:PhoneNumber>0175 291225</gpxx:PhoneNumber>
      </gpxx:WaypointExtension>
      <wptx1:WaypointExtension>
        <wptx1:DisplayMode>SymbolOnly</wptx1:DisplayMode>
        <wptx1:Address>
          <wptx1:StreetAddress>Bicycle:Yes (Gate)</wptx1:StreetAddress>
          <wptx1:City>Dronero</wptx1:City>
          <wptx1:State>Piemonte</wptx1:State>
          <wptx1:Country>ITA</wptx1:Country>
        </wptx1:Address>
        <wptx1:PhoneNumber>349 5170538</wptx1:PhoneNumber>
        <wptx1:PhoneNumber>0175 291225</wptx1:PhoneNumber>
      </wptx1:WaypointExtension>
      <ctx:CreationTimeExtension>
        <ctx:CreationTime>2014-10-11T17:21:43Z</ctx:CreationTime>
      </ctx:CreationTimeExtension>
    </extensions>
  </wpt>

  <wpt lat="44.314169883728027" lon="7.69442081451416">
    <time>2013-07-11T15:32:44Z</time>
    <name>Pian Bosco</name>
    <cmt>0171 734474
347 3332630
campeggiopianbosco.com</cmt>
    <desc>0171 734474
347 3332630
campeggiopianbosco.com</desc>
    <link href="http://www.campeggiopianbosco.com"/>
    <sym>Campground</sym>
    <type>user</type>
    <extensions>
      <gpxx:WaypointExtension>
        <gpxx:DisplayMode>SymbolOnly</gpxx:DisplayMode>
        <gpxx:Address>
          <gpxx:StreetAddress>Bicycle:Yes (Gate)</gpxx:StreetAddress>
          <gpxx:City>Dronero</gpxx:City>
          <gpxx:State>Piemonte</gpxx:State>
          <gpxx:Country>ITA</gpxx:Country>
        </gpxx:Address>
        <gpxx:PhoneNumber>0171 734474</gpxx:PhoneNumber>
      </gpxx:WaypointExtension>
      <wptx1:WaypointExtension>
        <wptx1:DisplayMode>SymbolOnly</wptx1:DisplayMode>
        <wptx1:Address>
          <wptx1:StreetAddress>Bicycle:Yes (Gate)</wptx1:StreetAddress>
          <wptx1:City>Dronero</wptx1:City>
          <wptx1:State>Piemonte</wptx1:State>
          <wptx1:Country>ITA</wptx1:Country>
        </wptx1:Address>
        <wptx1:PhoneNumber>0171 734474</wptx1:PhoneNumber>
      </wptx1:WaypointExtension>
      <ctx:CreationTimeExtension>
        <ctx:CreationTime>2013-07-11T15:32:44Z</ctx:CreationTime>
      </ctx:CreationTimeExtension>
    </extensions>
  </wpt>

  <wpt lat="44.465382099151611" lon="7.365109920501709">
    <time>2015-01-15T17:48:15Z</time>
    <name>Ponte del Diavolo</name>
    <sym>Scenic Area</sym>
    <type>user</type>
    <extensions>
      <gpxx:WaypointExtension>
        <gpxx:DisplayMode>SymbolOnly</gpxx:DisplayMode>
        <gpxx:Address>
          <gpxx:StreetAddress>Bicycle:Yes (Gate)</gpxx:StreetAddress>
          <gpxx:City>Dronero</gpxx:City>
          <gpxx:State>Piemonte</gpxx:State>
          <gpxx:Country>ITA</gpxx:Country>
        </gpxx:Address>
        <gpxx:PhoneNumber/>
      </gpxx:WaypointExtension>
      <wptx1:WaypointExtension>
        <wptx1:DisplayMode>SymbolOnly</wptx1:DisplayMode>
        <wptx1:Address>
          <wptx1:StreetAddress>Bicycle:Yes (Gate)</wptx1:StreetAddress>
          <wptx1:City>Dronero</wptx1:City>
          <wptx1:State>Piemonte</wptx1:State>
          <wptx1:Country>ITA</wptx1:Country>
        </wptx1:Address>
        <wptx1:PhoneNumber/>
      </wptx1:WaypointExtension>
      <ctx:CreationTimeExtension>
        <ctx:CreationTime>2015-01-15T17:48:15Z</ctx:CreationTime>
      </ctx:CreationTimeExtension>
    </extensions>
  </wpt>

  <wpt lat="44.700236320495605" lon="7.096095085144043">
    <time>2014-11-11T17:10:19Z</time>
    <name>Rifugio Albergo Alpino Pian Del Re</name>
    <cmt>0175 94967
</cmt>
    <desc>0175 94967
</desc>
    <link href="http://www.ghironda.com/vallepo/pages/94967.htm"/>
    <sym>Lodging</sym>
    <type>user</type>
    <extensions>
      <gpxx:WaypointExtension>
        <gpxx:DisplayMode>SymbolOnly</gpxx:DisplayMode>
        <gpxx:Address>
          <gpxx:StreetAddress>Bicycle:Yes (Gate)</gpxx:StreetAddress>
          <gpxx:City>Dronero</gpxx:City>
          <gpxx:State>Piemonte</gpxx:State>
          <gpxx:Country>ITA</gpxx:Country>
        </gpxx:Address>
        <gpxx:PhoneNumber>0175 94967</gpxx:PhoneNumber>
      </gpxx:WaypointExtension>
      <wptx1:WaypointExtension>
        <wptx1:DisplayMode>SymbolOnly</wptx1:DisplayMode>
        <wptx1:Address>
          <wptx1:StreetAddress>Bicycle:Yes (Gate)</wptx1:StreetAddress>
          <wptx1:City>Dronero</wptx1:City>
          <wptx1:State>Piemonte</wptx1:State>
          <wptx1:Country>ITA</wptx1:Country>
        </wptx1:Address>
        <wptx1:PhoneNumber>0175 94967</wptx1:PhoneNumber>
      </wptx1:WaypointExtension>
      <ctx:CreationTimeExtension>
        <ctx:CreationTime>2014-11-11T17:10:19Z</ctx:CreationTime>
      </ctx:CreationTimeExtension>
    </extensions>
  </wpt>

  <wpt lat="44.61363198235631" lon="7.052976982668042">
    <ele>0</ele>
    <time>2014-10-11T18:33:19Z</time>
    <name>Rifugio Alevè</name>
    <cmt>347 7672234
rifugioaleve.it
</cmt>
    <desc>347 7672234
rifugioaleve.it
</desc>
    <link href="http://www.rifugioaleve.it"/>
    <sym>Lodging</sym>
    <type>user</type>
    <extensions>
      <gpxx:WaypointExtension>
        <gpxx:DisplayMode>SymbolOnly</gpxx:DisplayMode>
        <gpxx:Address>
          <gpxx:StreetAddress>Bicycle:Yes (Gate)</gpxx:StreetAddress>
          <gpxx:City>Dronero</gpxx:City>
          <gpxx:State>Piemonte</gpxx:State>
          <gpxx:Country>ITA</gpxx:Country>
        </gpxx:Address>
        <gpxx:PhoneNumber>347 7672234</gpxx:PhoneNumber>
      </gpxx:WaypointExtension>
      <wptx1:WaypointExtension>
        <wptx1:DisplayMode>SymbolOnly</wptx1:DisplayMode>
        <wptx1:Address>
          <wptx1:StreetAddress>Bicycle:Yes (Gate)</wptx1:StreetAddress>
          <wptx1:City>Dronero</wptx1:City>
          <wptx1:State>Piemonte</wptx1:State>
          <wptx1:Country>ITA</wptx1:Country>
        </wptx1:Address>
        <wptx1:PhoneNumber>347 7672234</wptx1:PhoneNumber>
      </wptx1:WaypointExtension>
      <ctx:CreationTimeExtension>
        <ctx:CreationTime>2014-10-11T18:33:19Z</ctx:CreationTime>
      </ctx:CreationTimeExtension>
    </extensions>
  </wpt>

  <wpt lat="44.496922194957733" lon="6.920344429090619">
    <time>2013-07-11T15:32:44Z</time>
    <name>Rifugio Campo Base (campsite)</name>
    <cmt>334 8416041
campobaseacceglio.it</cmt>
    <desc>334 8416041
campobaseacceglio.it</desc>
    <link href="http://www.campobaseacceglio.it"/>
    <sym>Campground</sym>
    <type>user</type>
    <extensions>
      <gpxx:WaypointExtension>
        <gpxx:DisplayMode>SymbolOnly</gpxx:DisplayMode>
        <gpxx:Address>
          <gpxx:StreetAddress>Bicycle:Yes (Gate)</gpxx:StreetAddress>
          <gpxx:City>Dronero</gpxx:City>
          <gpxx:State>Piemonte</gpxx:State>
          <gpxx:Country>ITA</gpxx:Country>
        </gpxx:Address>
        <gpxx:PhoneNumber>334 8416041</gpxx:PhoneNumber>
      </gpxx:WaypointExtension>
      <wptx1:WaypointExtension>
        <wptx1:DisplayMode>SymbolOnly</wptx1:DisplayMode>
        <wptx1:Address>
          <wptx1:StreetAddress>Bicycle:Yes (Gate)</wptx1:StreetAddress>
          <wptx1:City>Dronero</wptx1:City>
          <wptx1:State>Piemonte</wptx1:State>
          <wptx1:Country>ITA</wptx1:Country>
        </wptx1:Address>
        <wptx1:PhoneNumber>334 8416041</wptx1:PhoneNumber>
      </wptx1:WaypointExtension>
      <ctx:CreationTimeExtension>
        <ctx:CreationTime>2013-07-11T15:32:44Z</ctx:CreationTime>
      </ctx:CreationTimeExtension>
    </extensions>
  </wpt>

  <wpt lat="44.496922194957733" lon="6.920344429090619">
    <time>2013-07-11T15:32:44Z</time>
    <name>Rifugio Campo Base (rifugio)</name>
    <cmt>334 841 6041
campobaseacceglio.it</cmt>
    <desc>334 841 6041
campobaseacceglio.it</desc>
    <link href="http://www.campobaseacceglio.it"/>
    <sym>Lodging</sym>
    <type>user</type>
    <extensions>
      <gpxx:WaypointExtension>
        <gpxx:DisplayMode>SymbolOnly</gpxx:DisplayMode>
        <gpxx:Address>
          <gpxx:StreetAddress>Bicycle:Yes (Gate)</gpxx:StreetAddress>
          <gpxx:City>Dronero</gpxx:City>
          <gpxx:State>Piemonte</gpxx:State>
          <gpxx:Country>ITA</gpxx:Country>
        </gpxx:Address>
        <gpxx:PhoneNumber>334 8416041</gpxx:PhoneNumber>
      </gpxx:WaypointExtension>
      <wptx1:WaypointExtension>
        <wptx1:DisplayMode>SymbolOnly</wptx1:DisplayMode>
        <wptx1:Address>
          <wptx1:StreetAddress>Bicycle:Yes (Gate)</wptx1:StreetAddress>
          <wptx1:City>Dronero</wptx1:City>
          <wptx1:State>Piemonte</wptx1:State>
          <wptx1:Country>ITA</wptx1:Country>
        </wptx1:Address>
        <wptx1:PhoneNumber>334 8416041</wptx1:PhoneNumber>
      </wptx1:WaypointExtension>
      <ctx:CreationTimeExtension>
        <ctx:CreationTime>2013-07-11T15:32:44Z</ctx:CreationTime>
      </ctx:CreationTimeExtension>
    </extensions>
  </wpt>

  <wpt lat="44.129244145005941" lon="7.726810416206717">
    <time>2013-07-11T15:32:44Z</time>
    <name>Rifugio La Porta del Sole - Camping Saladin</name>
    <cmt>0174 390215
348 5488929
335 6549794
334 3220884
rifugiolaportadelsole.it</cmt>
    <desc>0174 390215
348 5488929
335 6549794
334 3220884
rifugiolaportadelsole.it</desc>
    <link href="http://www.rifugiolaportadelsole.it"/>
    <sym>Campground</sym>
    <type>user</type>
    <extensions>
      <gpxx:WaypointExtension>
        <gpxx:DisplayMode>SymbolOnly</gpxx:DisplayMode>
        <gpxx:Address>
          <gpxx:StreetAddress>Bicycle:Yes (Gate)</gpxx:StreetAddress>
          <gpxx:City>Dronero</gpxx:City>
          <gpxx:State>Piemonte</gpxx:State>
          <gpxx:Country>ITA</gpxx:Country>
        </gpxx:Address>
        <gpxx:PhoneNumber>0174 390215</gpxx:PhoneNumber>
        <gpxx:PhoneNumber>348 5488929</gpxx:PhoneNumber>
        <gpxx:PhoneNumber>335 6549794</gpxx:PhoneNumber>
        <gpxx:PhoneNumber>334 3220884</gpxx:PhoneNumber>
      </gpxx:WaypointExtension>
      <wptx1:WaypointExtension>
        <wptx1:DisplayMode>SymbolOnly</wptx1:DisplayMode>
        <wptx1:Address>
          <wptx1:StreetAddress>Bicycle:Yes (Gate)</wptx1:StreetAddress>
          <wptx1:City>Dronero</wptx1:City>
          <wptx1:State>Piemonte</wptx1:State>
          <wptx1:Country>ITA</wptx1:Country>
        </wptx1:Address>
        <wptx1:PhoneNumber>0174 390215</wptx1:PhoneNumber>
        <wptx1:PhoneNumber>348 5488929</wptx1:PhoneNumber>
        <wptx1:PhoneNumber>335 6549794</wptx1:PhoneNumber>
        <wptx1:PhoneNumber>334 3220884</wptx1:PhoneNumber>
      </wptx1:WaypointExtension>
      <ctx:CreationTimeExtension>
        <ctx:CreationTime>2013-07-11T15:32:44Z</ctx:CreationTime>
      </ctx:CreationTimeExtension>
    </extensions>
  </wpt>

  <wpt lat="44.557027816772461" lon="7.155618667602539">
    <time>2014-11-11T17:05:13Z</time>
    <name>Rifugio Meira Garneri</name>
    <cmt>0175 977181
329 454 2011</cmt>
    <desc>0175 977181
329 454 2011</desc>
    <link href="http://rifugiomeiragarneri.torinetto.com"/>
    <sym>Lodging</sym>
    <type>user</type>
    <extensions>
      <gpxx:WaypointExtension>
        <gpxx:DisplayMode>SymbolOnly</gpxx:DisplayMode>
        <gpxx:Address>
          <gpxx:StreetAddress>Bicycle:Yes (Gate)</gpxx:StreetAddress>
          <gpxx:City>Dronero</gpxx:City>
          <gpxx:State>Piemonte</gpxx:State>
          <gpxx:Country>ITA</gpxx:Country>
        </gpxx:Address>
        <gpxx:PhoneNumber>329 454 2011</gpxx:PhoneNumber>
        <gpxx:PhoneNumber>0175 977181</gpxx:PhoneNumber>
      </gpxx:WaypointExtension>
      <wptx1:WaypointExtension>
        <wptx1:DisplayMode>SymbolOnly</wptx1:DisplayMode>
        <wptx1:Address>
          <wptx1:StreetAddress>Bicycle:Yes (Gate)</wptx1:StreetAddress>
          <wptx1:City>Dronero</wptx1:City>
          <wptx1:State>Piemonte</wptx1:State>
          <wptx1:Country>ITA</wptx1:Country>
        </wptx1:Address>
        <wptx1:PhoneNumber>329 454 2011</wptx1:PhoneNumber>
        <wptx1:PhoneNumber>0175 977181</wptx1:PhoneNumber>
      </wptx1:WaypointExtension>
      <ctx:CreationTimeExtension>
        <ctx:CreationTime>2014-11-11T17:05:13Z</ctx:CreationTime>
      </ctx:CreationTimeExtension>
    </extensions>
  </wpt>

  <wpt lat="44.574472904205322" lon="6.981403827667236">
    <time>2014-10-11T18:11:15Z</time>
    <name>Rifugio Melezè</name>
    <cmt>0175 95338
comune.bellino.cn.it</cmt>
    <desc>0175 95338
comune.bellino.cn.it</desc>
    <link href="http://www.comune.bellino.cn.it/archivio/pagine/Rifugio_Meleze_.html"/>
    <sym>Lodging</sym>
    <type>user</type>
    <extensions>
      <gpxx:WaypointExtension>
        <gpxx:DisplayMode>SymbolOnly</gpxx:DisplayMode>
        <gpxx:Address>
          <gpxx:StreetAddress>Bicycle:Yes (Gate)</gpxx:StreetAddress>
          <gpxx:City>Dronero</gpxx:City>
          <gpxx:State>Piemonte</gpxx:State>
          <gpxx:Country>ITA</gpxx:Country>
        </gpxx:Address>
        <gpxx:PhoneNumber>0175 95338</gpxx:PhoneNumber>
      </gpxx:WaypointExtension>
      <wptx1:WaypointExtension>
        <wptx1:DisplayMode>SymbolOnly</wptx1:DisplayMode>
        <wptx1:Address>
          <wptx1:StreetAddress>Bicycle:Yes (Gate)</wptx1:StreetAddress>
          <wptx1:City>Dronero</wptx1:City>
          <wptx1:State>Piemonte</wptx1:State>
          <wptx1:Country>ITA</wptx1:Country>
        </wptx1:Address>
        <wptx1:PhoneNumber>0175 95338</wptx1:PhoneNumber>
      </wptx1:WaypointExtension>
      <ctx:CreationTimeExtension>
        <ctx:CreationTime>2014-10-11T18:11:15Z</ctx:CreationTime>
      </ctx:CreationTimeExtension>
    </extensions>
  </wpt>

  <wpt lat="44.175703525543213" lon="7.385880947113037">
    <time>2014-11-11T17:01:03Z</time>
    <name>Rifugio San Giacomo [WEBSITE DOWN - CALL TO CHECK]</name>
    <cmt>0171 978704
333 257 3129
333 417 3912</cmt>
    <desc>0171 978704
333 257 3129
333 417 3912</desc>
    <link href="http://www.bmgelas.it"/>
    <sym>Lodging</sym>
    <type>user</type>
    <extensions>
      <gpxx:WaypointExtension>
        <gpxx:DisplayMode>SymbolOnly</gpxx:DisplayMode>
        <gpxx:Address>
          <gpxx:StreetAddress>Bicycle:Yes (Gate)</gpxx:StreetAddress>
          <gpxx:City>Dronero</gpxx:City>
          <gpxx:State>Piemonte</gpxx:State>
          <gpxx:Country>ITA</gpxx:Country>
        </gpxx:Address>
        <gpxx:PhoneNumber>0171 978704</gpxx:PhoneNumber>
        <gpxx:PhoneNumber>333 257 3129</gpxx:PhoneNumber>
        <gpxx:PhoneNumber>333 417 3912</gpxx:PhoneNumber>
      </gpxx:WaypointExtension>
      <wptx1:WaypointExtension>
        <wptx1:DisplayMode>SymbolOnly</wptx1:DisplayMode>
        <wptx1:Address>
          <wptx1:StreetAddress>Bicycle:Yes (Gate)</wptx1:StreetAddress>
          <wptx1:City>Dronero</wptx1:City>
          <wptx1:State>Piemonte</wptx1:State>
          <wptx1:Country>ITA</wptx1:Country>
        </wptx1:Address>
        <wptx1:PhoneNumber>0171 978704</wptx1:PhoneNumber>
        <wptx1:PhoneNumber>333 257 3129</wptx1:PhoneNumber>
        <wptx1:PhoneNumber>333 417 3912</wptx1:PhoneNumber>
      </wptx1:WaypointExtension>
      <ctx:CreationTimeExtension>
        <ctx:CreationTime>2014-11-11T17:01:03Z</ctx:CreationTime>
      </ctx:CreationTimeExtension>
    </extensions>
  </wpt>

  <wpt lat="44.626979827880859" lon="7.024383544921875">
    <time>2014-11-11T17:09:13Z</time>
    <name>Rifugio Savigliano</name>
    <cmt>0175 950178
</cmt>
    <desc>0175 950178
</desc>
    <link href="http://www.caisavigliano.it"/>
    <sym>Lodging</sym>
    <type>user</type>
    <extensions>
      <gpxx:WaypointExtension>
        <gpxx:DisplayMode>SymbolOnly</gpxx:DisplayMode>
        <gpxx:Address>
          <gpxx:StreetAddress>Bicycle:Yes (Gate)</gpxx:StreetAddress>
          <gpxx:City>Dronero</gpxx:City>
          <gpxx:State>Piemonte</gpxx:State>
          <gpxx:Country>ITA</gpxx:Country>
        </gpxx:Address>
        <gpxx:PhoneNumber>0175 950178</gpxx:PhoneNumber>
      </gpxx:WaypointExtension>
      <wptx1:WaypointExtension>
        <wptx1:DisplayMode>SymbolOnly</wptx1:DisplayMode>
        <wptx1:Address>
          <wptx1:StreetAddress>Bicycle:Yes (Gate)</wptx1:StreetAddress>
          <wptx1:City>Dronero</wptx1:City>
          <wptx1:State>Piemonte</wptx1:State>
          <wptx1:Country>ITA</wptx1:Country>
        </wptx1:Address>
        <wptx1:PhoneNumber>0175 950178</wptx1:PhoneNumber>
      </wptx1:WaypointExtension>
      <ctx:CreationTimeExtension>
        <ctx:CreationTime>2014-11-11T17:09:13Z</ctx:CreationTime>
      </ctx:CreationTimeExtension>
    </extensions>
  </wpt>

  <wpt lat="44.286768436431885" lon="7.073178291320801">
    <time>2013-07-25T07:47:29Z</time>
    <name>Rio Strepeis (Albergo Nasi)</name>
    <cmt>0171 95824
0171 95834
339 9835275
albergonasi.com</cmt>
    <desc>0171 95824
0171 95834
339 9835275
albergonasi.com</desc>
    <link href="http://www.albergonasi.com/"/>
    <sym>Campground</sym>
    <type>user</type>
    <extensions>
      <gpxx:WaypointExtension>
        <gpxx:DisplayMode>SymbolOnly</gpxx:DisplayMode>
        <gpxx:Address>
          <gpxx:StreetAddress>Bicycle:Yes (Gate)</gpxx:StreetAddress>
          <gpxx:City>Dronero</gpxx:City>
          <gpxx:State>Piemonte</gpxx:State>
          <gpxx:Country>ITA</gpxx:Country>
        </gpxx:Address>
        <gpxx:PhoneNumber>0171 95824</gpxx:PhoneNumber>
        <gpxx:PhoneNumber>0171 95834</gpxx:PhoneNumber>
        <gpxx:PhoneNumber>339 9835275</gpxx:PhoneNumber>
      </gpxx:WaypointExtension>
      <wptx1:WaypointExtension>
        <wptx1:DisplayMode>SymbolOnly</wptx1:DisplayMode>
        <wptx1:Address>
          <wptx1:StreetAddress>Bicycle:Yes (Gate)</wptx1:StreetAddress>
          <wptx1:City>Dronero</wptx1:City>
          <wptx1:State>Piemonte</wptx1:State>
          <wptx1:Country>ITA</wptx1:Country>
        </wptx1:Address>
        <wptx1:PhoneNumber>0171 95824</wptx1:PhoneNumber>
        <wptx1:PhoneNumber>0171 95834</wptx1:PhoneNumber>
        <wptx1:PhoneNumber>339 9835275</wptx1:PhoneNumber>
      </wptx1:WaypointExtension>
      <ctx:CreationTimeExtension>
        <ctx:CreationTime>2013-07-25T07:47:29Z</ctx:CreationTime>
      </ctx:CreationTimeExtension>
    </extensions>
  </wpt>

  <wpt lat="44.418089389801025" lon="6.905851364135742">
    <time>2014-10-12T10:25:18Z</time>
    <name>Ristorante Bar Del Lago</name>
    <cmt>Ristorante Bar Del Lago

Argentera, Piemonte, ITA
</cmt>
    <desc>Ristorante Bar Del Lago

Argentera, Piemonte, ITA
</desc>
    <sym>Restaurant</sym>
    <type>user</type>
    <extensions>
      <gpxx:WaypointExtension>
        <gpxx:DisplayMode>SymbolOnly</gpxx:DisplayMode>
        <gpxx:Address>
          <gpxx:StreetAddress>Bicycle:Yes (Gate)</gpxx:StreetAddress>
          <gpxx:City>Dronero</gpxx:City>
          <gpxx:State>Piemonte</gpxx:State>
          <gpxx:Country>ITA</gpxx:Country>
        </gpxx:Address>
        <gpxx:PhoneNumber/>
      </gpxx:WaypointExtension>
      <wptx1:WaypointExtension>
        <wptx1:DisplayMode>SymbolOnly</wptx1:DisplayMode>
        <wptx1:Address>
          <wptx1:StreetAddress>Bicycle:Yes (Gate)</wptx1:StreetAddress>
          <wptx1:City>Dronero</wptx1:City>
          <wptx1:State>Piemonte</wptx1:State>
          <wptx1:Country>ITA</wptx1:Country>
        </wptx1:Address>
        <wptx1:PhoneNumber/>
      </wptx1:WaypointExtension>
      <ctx:CreationTimeExtension>
        <ctx:CreationTime>2014-10-12T10:25:18Z</ctx:CreationTime>
      </ctx:CreationTimeExtension>
    </extensions>
  </wpt>

  <wpt lat="44.698584079742432" lon="7.168686389923096">
    <time>2014-11-12T12:42:01Z</time>
    <name>Santuario di San Chiaffredo</name>
    <cmt>Santuario Di San Chiaffredo

</cmt>
    <desc>Santuario Di San Chiaffredo

</desc>
    <sym>Scenic Area</sym>
    <type>user</type>
    <extensions>
      <gpxx:WaypointExtension>
        <gpxx:DisplayMode>SymbolOnly</gpxx:DisplayMode>
        <gpxx:Address>
          <gpxx:StreetAddress>Bicycle:Yes (Gate)</gpxx:StreetAddress>
          <gpxx:City>Dronero</gpxx:City>
          <gpxx:State>Piemonte</gpxx:State>
          <gpxx:Country>ITA</gpxx:Country>
        </gpxx:Address>
      </gpxx:WaypointExtension>
      <wptx1:WaypointExtension>
        <wptx1:DisplayMode>SymbolOnly</wptx1:DisplayMode>
        <wptx1:Address>
          <wptx1:StreetAddress>Bicycle:Yes (Gate)</wptx1:StreetAddress>
          <wptx1:City>Dronero</wptx1:City>
          <wptx1:State>Piemonte</wptx1:State>
          <wptx1:Country>ITA</wptx1:Country>
        </wptx1:Address>
      </wptx1:WaypointExtension>
      <ctx:CreationTimeExtension>
        <ctx:CreationTime>2014-11-12T12:42:01Z</ctx:CreationTime>
      </ctx:CreationTimeExtension>
    </extensions>
  </wpt>

  <wpt lat="44.544350020587444" lon="7.346509974449873">
    <time>2014-10-12T08:03:58Z</time>
    <name>Ski Bar Area Camper Pian Pietro</name>
    <cmt>339 1289520
0175 978027
skivalmala.com</cmt>
    <desc>339 1289520
0175 978027
skivalmala.com</desc>
    <link href="http://skivalmala.com/skybar/area-camper.html"/>
    <sym>Campground</sym>
    <type>user</type>
    <extensions>
      <gpxx:WaypointExtension>
        <gpxx:DisplayMode>SymbolOnly</gpxx:DisplayMode>
        <gpxx:Address>
          <gpxx:StreetAddress>Bicycle:Yes (Gate)</gpxx:StreetAddress>
          <gpxx:City>Dronero</gpxx:City>
          <gpxx:State>Piemonte</gpxx:State>
          <gpxx:Country>ITA</gpxx:Country>
        </gpxx:Address>
        <gpxx:PhoneNumber>339 1289520</gpxx:PhoneNumber>
        <gpxx:PhoneNumber>0175 978027</gpxx:PhoneNumber>
      </gpxx:WaypointExtension>
      <wptx1:WaypointExtension>
        <wptx1:DisplayMode>SymbolOnly</wptx1:DisplayMode>
        <wptx1:Address>
          <wptx1:StreetAddress>Bicycle:Yes (Gate)</wptx1:StreetAddress>
          <wptx1:City>Dronero</wptx1:City>
          <wptx1:State>Piemonte</wptx1:State>
          <wptx1:Country>ITA</wptx1:Country>
        </wptx1:Address>
        <wptx1:PhoneNumber>339 1289520</wptx1:PhoneNumber>
        <wptx1:PhoneNumber>0175 978027</wptx1:PhoneNumber>
      </wptx1:WaypointExtension>
      <ctx:CreationTimeExtension>
        <ctx:CreationTime>2014-10-12T08:03:58Z</ctx:CreationTime>
      </ctx:CreationTimeExtension>
    </extensions>
  </wpt>

  <wpt lat="44.700300693511963" lon="7.092533111572266">
    <time>2014-10-12T09:48:55Z</time>
    <name>Sorgente del Po</name>
    <cmt>
</cmt>    <desc>
</desc>    <sym>Scenic Area</sym>
    <type>user</type>
    <extensions>
      <gpxx:WaypointExtension>
        <gpxx:DisplayMode>SymbolOnly</gpxx:DisplayMode>
        <gpxx:Address>
          <gpxx:StreetAddress>Bicycle:Yes (Gate)</gpxx:StreetAddress>
          <gpxx:City>Dronero</gpxx:City>
          <gpxx:State>Piemonte</gpxx:State>
          <gpxx:Country>ITA</gpxx:Country>
        </gpxx:Address>
        <gpxx:PhoneNumber/>
      </gpxx:WaypointExtension>
      <wptx1:WaypointExtension>
        <wptx1:DisplayMode>SymbolOnly</wptx1:DisplayMode>
        <wptx1:Address>
          <wptx1:StreetAddress>Bicycle:Yes (Gate)</wptx1:StreetAddress>
          <wptx1:City>Dronero</wptx1:City>
          <wptx1:State>Piemonte</wptx1:State>
          <wptx1:Country>ITA</wptx1:Country>
        </wptx1:Address>
        <wptx1:PhoneNumber/>
      </wptx1:WaypointExtension>
      <ctx:CreationTimeExtension>
        <ctx:CreationTime>2014-10-12T09:48:55Z</ctx:CreationTime>
      </ctx:CreationTimeExtension>
    </extensions>
  </wpt>

  <wpt lat="44.177570343017578" lon="7.386674880981445">
    <time>2014-11-11T15:08:20Z</time>
    <name>Sotto Il Faggio</name>
    <cmt>0171 069405
349 730 5438

</cmt>
    <desc>0171 069405
349 730 5438

</desc>
    <link href="http://www.sottoilfaggio.it/"/>
    <sym>Campground</sym>
    <type>user</type>
    <extensions>
      <gpxx:WaypointExtension>
        <gpxx:DisplayMode>SymbolOnly</gpxx:DisplayMode>
        <gpxx:Address>
          <gpxx:StreetAddress>Bicycle:Yes (Gate)</gpxx:StreetAddress>
          <gpxx:City>Dronero</gpxx:City>
          <gpxx:State>Piemonte</gpxx:State>
          <gpxx:Country>ITA</gpxx:Country>
        </gpxx:Address>
        <gpxx:PhoneNumber>0171 069405</gpxx:PhoneNumber>
        <gpxx:PhoneNumber>349 730 5438</gpxx:PhoneNumber>
      </gpxx:WaypointExtension>
      <wptx1:WaypointExtension>
        <wptx1:DisplayMode>SymbolOnly</wptx1:DisplayMode>
        <wptx1:Address>
          <wptx1:StreetAddress>Bicycle:Yes (Gate)</wptx1:StreetAddress>
          <wptx1:City>Dronero</wptx1:City>
          <wptx1:State>Piemonte</wptx1:State>
          <wptx1:Country>ITA</wptx1:Country>
        </wptx1:Address>
        <wptx1:PhoneNumber>0171 069405</wptx1:PhoneNumber>
        <wptx1:PhoneNumber>349 730 5438</wptx1:PhoneNumber>
      </wptx1:WaypointExtension>
      <ctx:CreationTimeExtension>
        <ctx:CreationTime>2014-11-11T15:08:20Z</ctx:CreationTime>
      </ctx:CreationTimeExtension>
    </extensions>
  </wpt>

  <wpt lat="44.308036593720317" lon="7.108657211065292">
    <ele>1019</ele>
    <time>2013-07-23T08:56:05Z</time>
    <name>SS21 (105m)</name>
    <cmt>Unavoidable</cmt>
    <desc>Unavoidable</desc>
    <sym>Tunnel</sym>
    <type>user</type>
    <extensions>
      <gpxx:WaypointExtension>
        <gpxx:DisplayMode>SymbolOnly</gpxx:DisplayMode>
        <gpxx:Address>
          <gpxx:StreetAddress>Bicycle:Yes (Gate)</gpxx:StreetAddress>
          <gpxx:City>Dronero</gpxx:City>
          <gpxx:State>Piemonte</gpxx:State>
          <gpxx:Country>ITA</gpxx:Country>
        </gpxx:Address>
      </gpxx:WaypointExtension>
      <wptx1:WaypointExtension>
        <wptx1:DisplayMode>SymbolOnly</wptx1:DisplayMode>
        <wptx1:Address>
          <wptx1:StreetAddress>Bicycle:Yes (Gate)</wptx1:StreetAddress>
          <wptx1:City>Dronero</wptx1:City>
          <wptx1:State>Piemonte</wptx1:State>
          <wptx1:Country>ITA</wptx1:Country>
        </wptx1:Address>
      </wptx1:WaypointExtension>
      <ctx:CreationTimeExtension>
        <ctx:CreationTime>2013-07-23T08:56:05Z</ctx:CreationTime>
      </ctx:CreationTimeExtension>
    </extensions>
  </wpt>

  <wpt lat="44.30943033657968" lon="7.106959037482738">
    <ele>1013</ele>
    <time>2013-09-27T11:45:21Z</time>
    <name>SS21 (112m)</name>
    <cmt>Unavoidable</cmt>
    <desc>Unavoidable</desc>
    <sym>Tunnel</sym>
    <type>user</type>
    <extensions>
      <gpxx:WaypointExtension>
        <gpxx:DisplayMode>SymbolOnly</gpxx:DisplayMode>
        <gpxx:Address>
          <gpxx:StreetAddress>Bicycle:Yes (Gate)</gpxx:StreetAddress>
          <gpxx:City>Dronero</gpxx:City>
          <gpxx:State>Piemonte</gpxx:State>
          <gpxx:Country>ITA</gpxx:Country>
        </gpxx:Address>
      </gpxx:WaypointExtension>
      <wptx1:WaypointExtension>
        <wptx1:DisplayMode>SymbolOnly</wptx1:DisplayMode>
        <wptx1:Address>
          <wptx1:StreetAddress>Bicycle:Yes (Gate)</wptx1:StreetAddress>
          <wptx1:City>Dronero</wptx1:City>
          <wptx1:State>Piemonte</wptx1:State>
          <wptx1:Country>ITA</wptx1:Country>
        </wptx1:Address>
      </wptx1:WaypointExtension>
      <ctx:CreationTimeExtension>
        <ctx:CreationTime>2013-09-27T11:45:21Z</ctx:CreationTime>
      </ctx:CreationTimeExtension>
    </extensions>
  </wpt>

  <wpt lat="44.315668735653162" lon="7.100911997258663">
    <ele>1040</ele>
    <time>2013-09-27T11:45:21Z</time>
    <name>SS21 (133m)</name>
    <cmt>Unavoidable</cmt>
    <desc>Unavoidable</desc>
    <sym>Tunnel</sym>
    <type>user</type>
    <extensions>
      <gpxx:WaypointExtension>
        <gpxx:DisplayMode>SymbolOnly</gpxx:DisplayMode>
        <gpxx:Address>
          <gpxx:StreetAddress>Bicycle:Yes (Gate)</gpxx:StreetAddress>
          <gpxx:City>Dronero</gpxx:City>
          <gpxx:State>Piemonte</gpxx:State>
          <gpxx:Country>ITA</gpxx:Country>
        </gpxx:Address>
      </gpxx:WaypointExtension>
      <wptx1:WaypointExtension>
        <wptx1:DisplayMode>SymbolOnly</wptx1:DisplayMode>
        <wptx1:Address>
          <wptx1:StreetAddress>Bicycle:Yes (Gate)</wptx1:StreetAddress>
          <wptx1:City>Dronero</wptx1:City>
          <wptx1:State>Piemonte</wptx1:State>
          <wptx1:Country>ITA</wptx1:Country>
        </wptx1:Address>
      </wptx1:WaypointExtension>
      <ctx:CreationTimeExtension>
        <ctx:CreationTime>2013-09-27T11:45:21Z</ctx:CreationTime>
      </ctx:CreationTimeExtension>
    </extensions>
  </wpt>

  <wpt lat="44.30064769461751" lon="7.127023721113801">
    <ele>919</ele>
    <time>2013-09-27T11:45:21Z</time>
    <name>SS21 (138m)</name>
    <cmt>Unavoidable</cmt>
    <desc>Unavoidable</desc>
    <sym>Tunnel</sym>
    <type>user</type>
    <extensions>
      <gpxx:WaypointExtension>
        <gpxx:DisplayMode>SymbolOnly</gpxx:DisplayMode>
        <gpxx:Address>
          <gpxx:StreetAddress>Bicycle:Yes (Gate)</gpxx:StreetAddress>
          <gpxx:City>Dronero</gpxx:City>
          <gpxx:State>Piemonte</gpxx:State>
          <gpxx:Country>ITA</gpxx:Country>
        </gpxx:Address>
      </gpxx:WaypointExtension>
      <wptx1:WaypointExtension>
        <wptx1:DisplayMode>SymbolOnly</wptx1:DisplayMode>
        <wptx1:Address>
          <wptx1:StreetAddress>Bicycle:Yes (Gate)</wptx1:StreetAddress>
          <wptx1:City>Dronero</wptx1:City>
          <wptx1:State>Piemonte</wptx1:State>
          <wptx1:Country>ITA</wptx1:Country>
        </wptx1:Address>
      </wptx1:WaypointExtension>
      <ctx:CreationTimeExtension>
        <ctx:CreationTime>2013-09-27T11:45:21Z</ctx:CreationTime>
      </ctx:CreationTimeExtension>
    </extensions>
  </wpt>

  <wpt lat="44.317232882604003" lon="7.098619965836406">
    <ele>1039</ele>
    <time>2013-09-27T11:45:21Z</time>
    <name>SS21 (204m)</name>
    <cmt>Unavoidable</cmt>
    <desc>Unavoidable</desc>
    <sym>Tunnel</sym>
    <type>user</type>
    <extensions>
      <gpxx:WaypointExtension>
        <gpxx:DisplayMode>SymbolOnly</gpxx:DisplayMode>
        <gpxx:Address>
          <gpxx:StreetAddress>Bicycle:Yes (Gate)</gpxx:StreetAddress>
          <gpxx:City>Dronero</gpxx:City>
          <gpxx:State>Piemonte</gpxx:State>
          <gpxx:Country>ITA</gpxx:Country>
        </gpxx:Address>
      </gpxx:WaypointExtension>
      <wptx1:WaypointExtension>
        <wptx1:DisplayMode>SymbolOnly</wptx1:DisplayMode>
        <wptx1:Address>
          <wptx1:StreetAddress>Bicycle:Yes (Gate)</wptx1:StreetAddress>
          <wptx1:City>Dronero</wptx1:City>
          <wptx1:State>Piemonte</wptx1:State>
          <wptx1:Country>ITA</wptx1:Country>
        </wptx1:Address>
      </wptx1:WaypointExtension>
      <ctx:CreationTimeExtension>
        <ctx:CreationTime>2013-09-27T11:45:21Z</ctx:CreationTime>
      </ctx:CreationTimeExtension>
    </extensions>
  </wpt>

  <wpt lat="44.35823941603303" lon="7.006541742011905">
    <ele>1404</ele>
    <time>2013-09-27T11:45:21Z</time>
    <name>SS21 (850m)</name>
    <cmt>Unavoidable</cmt>
    <desc>Unavoidable</desc>
    <sym>Tunnel</sym>
    <type>user</type>
    <extensions>
      <gpxx:WaypointExtension>
        <gpxx:DisplayMode>SymbolOnly</gpxx:DisplayMode>
        <gpxx:Address>
          <gpxx:StreetAddress>Bicycle:Yes (Gate)</gpxx:StreetAddress>
          <gpxx:City>Dronero</gpxx:City>
          <gpxx:State>Piemonte</gpxx:State>
          <gpxx:Country>ITA</gpxx:Country>
        </gpxx:Address>
      </gpxx:WaypointExtension>
      <wptx1:WaypointExtension>
        <wptx1:DisplayMode>SymbolOnly</wptx1:DisplayMode>
        <wptx1:Address>
          <wptx1:StreetAddress>Bicycle:Yes (Gate)</wptx1:StreetAddress>
          <wptx1:City>Dronero</wptx1:City>
          <wptx1:State>Piemonte</wptx1:State>
          <wptx1:Country>ITA</wptx1:Country>
        </wptx1:Address>
      </wptx1:WaypointExtension>
      <ctx:CreationTimeExtension>
        <ctx:CreationTime>2013-09-27T11:45:21Z</ctx:CreationTime>
      </ctx:CreationTimeExtension>
    </extensions>
  </wpt>

  <wpt lat="44.387984024360776" lon="7.516043018549681">
    <time>2013-09-27T11:52:05Z</time>
    <name>SS22 NO BIKES</name>
    <sym>Skull and Crossbones</sym>
    <type>user</type>
    <extensions>
      <gpxx:WaypointExtension>
        <gpxx:DisplayMode>SymbolOnly</gpxx:DisplayMode>
        <gpxx:Address>
          <gpxx:StreetAddress>Bicycle:Yes (Gate)</gpxx:StreetAddress>
          <gpxx:City>Dronero</gpxx:City>
          <gpxx:State>Piemonte</gpxx:State>
          <gpxx:Country>ITA</gpxx:Country>
        </gpxx:Address>
      </gpxx:WaypointExtension>
      <wptx1:WaypointExtension>
        <wptx1:DisplayMode>SymbolOnly</wptx1:DisplayMode>
        <wptx1:Address>
          <wptx1:StreetAddress>Bicycle:Yes (Gate)</wptx1:StreetAddress>
          <wptx1:City>Dronero</wptx1:City>
          <wptx1:State>Piemonte</wptx1:State>
          <wptx1:Country>ITA</wptx1:Country>
        </wptx1:Address>
      </wptx1:WaypointExtension>
      <ctx:CreationTimeExtension>
        <ctx:CreationTime>2013-09-27T11:52:05Z</ctx:CreationTime>
      </ctx:CreationTimeExtension>
    </extensions>
  </wpt>

  <wpt lat="44.327831212431192" lon="7.401964897289872">
    <time>2013-07-16T15:36:50Z</time>
    <name>Stiera</name>
    <cmt>0171 74204
338 1011194
rafting-canoa.it</cmt>
    <desc>0171 74204
338 1011194
rafting-canoa.it</desc>
    <link href="http://www.rafting-canoa.it/"/>
    <sym>Campground</sym>
    <type>user</type>
    <extensions>
      <gpxx:WaypointExtension>
        <gpxx:DisplayMode>SymbolOnly</gpxx:DisplayMode>
        <gpxx:Address>
          <gpxx:StreetAddress>Bicycle:Yes (Gate)</gpxx:StreetAddress>
          <gpxx:City>Dronero</gpxx:City>
          <gpxx:State>Piemonte</gpxx:State>
          <gpxx:Country>ITA</gpxx:Country>
        </gpxx:Address>
        <gpxx:PhoneNumber>0171 74204</gpxx:PhoneNumber>
        <gpxx:PhoneNumber>338 1011194</gpxx:PhoneNumber>
      </gpxx:WaypointExtension>
      <wptx1:WaypointExtension>
        <wptx1:DisplayMode>SymbolOnly</wptx1:DisplayMode>
        <wptx1:Address>
          <wptx1:StreetAddress>Bicycle:Yes (Gate)</wptx1:StreetAddress>
          <wptx1:City>Dronero</wptx1:City>
          <wptx1:State>Piemonte</wptx1:State>
          <wptx1:Country>ITA</wptx1:Country>
        </wptx1:Address>
        <wptx1:PhoneNumber>0171 74204</wptx1:PhoneNumber>
        <wptx1:PhoneNumber>338 1011194</wptx1:PhoneNumber>
      </wptx1:WaypointExtension>
      <ctx:CreationTimeExtension>
        <ctx:CreationTime>2013-07-16T15:36:50Z</ctx:CreationTime>
      </ctx:CreationTimeExtension>
    </extensions>
  </wpt>

  <wpt lat="44.57888999953866" lon="7.180560026317835">
    <time>2013-07-11T15:32:44Z</time>
    <name>Val Varaita</name>
    <cmt>0175 977258
campingvalvaraita.it</cmt>
    <desc>0175 977258
campingvalvaraita.it</desc>
    <link href="http://www.campingvalvaraita.it"/>
    <sym>Campground</sym>
    <type>user</type>
    <extensions>
      <gpxx:WaypointExtension>
        <gpxx:DisplayMode>SymbolOnly</gpxx:DisplayMode>
        <gpxx:Address>
          <gpxx:StreetAddress>Bicycle:Yes (Gate)</gpxx:StreetAddress>
          <gpxx:City>Dronero</gpxx:City>
          <gpxx:State>Piemonte</gpxx:State>
          <gpxx:Country>ITA</gpxx:Country>
        </gpxx:Address>
        <gpxx:PhoneNumber>0175 977258</gpxx:PhoneNumber>
      </gpxx:WaypointExtension>
      <wptx1:WaypointExtension>
        <wptx1:DisplayMode>SymbolOnly</wptx1:DisplayMode>
        <wptx1:Address>
          <wptx1:StreetAddress>Bicycle:Yes (Gate)</wptx1:StreetAddress>
          <wptx1:City>Dronero</wptx1:City>
          <wptx1:State>Piemonte</wptx1:State>
          <wptx1:Country>ITA</wptx1:Country>
        </wptx1:Address>
        <wptx1:PhoneNumber>0175 977258</wptx1:PhoneNumber>
      </wptx1:WaypointExtension>
      <ctx:CreationTimeExtension>
        <ctx:CreationTime>2013-07-11T15:32:44Z</ctx:CreationTime>
      </ctx:CreationTimeExtension>
    </extensions>
  </wpt>

  <wpt lat="44.315833356231451" lon="7.730555534362793">
    <time>2013-07-11T15:32:44Z</time>
    <name>Valbella</name>
    <cmt>0174 65197
campeggiovalbella.it</cmt>
    <desc>0174 65197
campeggiovalbella.it</desc>
    <link href="http://www.campeggiovalbella.it"/>
    <sym>Campground</sym>
    <type>user</type>
    <extensions>
      <gpxx:WaypointExtension>
        <gpxx:DisplayMode>SymbolOnly</gpxx:DisplayMode>
        <gpxx:Address>
          <gpxx:StreetAddress>Bicycle:Yes (Gate)</gpxx:StreetAddress>
          <gpxx:City>Dronero</gpxx:City>
          <gpxx:State>Piemonte</gpxx:State>
          <gpxx:Country>ITA</gpxx:Country>
        </gpxx:Address>
        <gpxx:PhoneNumber>0174 65197</gpxx:PhoneNumber>
      </gpxx:WaypointExtension>
      <wptx1:WaypointExtension>
        <wptx1:DisplayMode>SymbolOnly</wptx1:DisplayMode>
        <wptx1:Address>
          <wptx1:StreetAddress>Bicycle:Yes (Gate)</wptx1:StreetAddress>
          <wptx1:City>Dronero</wptx1:City>
          <wptx1:State>Piemonte</wptx1:State>
          <wptx1:Country>ITA</wptx1:Country>
        </wptx1:Address>
        <wptx1:PhoneNumber>0174 65197</wptx1:PhoneNumber>
      </wptx1:WaypointExtension>
      <ctx:CreationTimeExtension>
        <ctx:CreationTime>2013-07-11T15:32:44Z</ctx:CreationTime>
      </ctx:CreationTimeExtension>
    </extensions>
  </wpt>

  <wpt lat="44.249646328389645" lon="7.389251561835408">
    <time>2013-07-11T15:32:44Z</time>
    <name>Valle Gesso</name>
    <cmt>0171 978247
campingvallegesso.com</cmt>
    <desc>0171 978247
campingvallegesso.com</desc>
    <link href="http://www.campingvallegesso.com"/>
    <sym>Campground</sym>
    <type>user</type>
    <extensions>
      <gpxx:WaypointExtension>
        <gpxx:DisplayMode>SymbolOnly</gpxx:DisplayMode>
        <gpxx:Address>
          <gpxx:StreetAddress>Bicycle:Yes (Gate)</gpxx:StreetAddress>
          <gpxx:City>Dronero</gpxx:City>
          <gpxx:State>Piemonte</gpxx:State>
          <gpxx:Country>ITA</gpxx:Country>
        </gpxx:Address>
        <gpxx:PhoneNumber>0171 978247</gpxx:PhoneNumber>
      </gpxx:WaypointExtension>
      <wptx1:WaypointExtension>
        <wptx1:DisplayMode>SymbolOnly</wptx1:DisplayMode>
        <wptx1:Address>
          <wptx1:StreetAddress>Bicycle:Yes (Gate)</wptx1:StreetAddress>
          <wptx1:City>Dronero</wptx1:City>
          <wptx1:State>Piemonte</wptx1:State>
          <wptx1:Country>ITA</wptx1:Country>
        </wptx1:Address>
        <wptx1:PhoneNumber>0171 978247</wptx1:PhoneNumber>
      </wptx1:WaypointExtension>
      <ctx:CreationTimeExtension>
        <ctx:CreationTime>2013-07-11T15:32:44Z</ctx:CreationTime>
      </ctx:CreationTimeExtension>
    </extensions>
  </wpt>

  <wpt lat="44.679166646674275" lon="7.274555526673794">
    <time>2013-07-11T15:32:44Z</time>
    <name>Valle Po</name>
    <cmt>0175 987026
campeggiovallepo.it</cmt>
    <desc>0175 987026
campeggiovallepo.it</desc>
    <link href="http://www.campeggiovallepo.it/"/>
    <sym>Campground</sym>
    <type>user</type>
    <extensions>
      <gpxx:WaypointExtension>
        <gpxx:DisplayMode>SymbolOnly</gpxx:DisplayMode>
        <gpxx:Address>
          <gpxx:StreetAddress>Bicycle:Yes (Gate)</gpxx:StreetAddress>
          <gpxx:City>Dronero</gpxx:City>
          <gpxx:State>Piemonte</gpxx:State>
          <gpxx:Country>ITA</gpxx:Country>
        </gpxx:Address>
        <gpxx:PhoneNumber>0175 987973</gpxx:PhoneNumber>
      </gpxx:WaypointExtension>
      <wptx1:WaypointExtension>
        <wptx1:DisplayMode>SymbolOnly</wptx1:DisplayMode>
        <wptx1:Address>
          <wptx1:StreetAddress>Bicycle:Yes (Gate)</wptx1:StreetAddress>
          <wptx1:City>Dronero</wptx1:City>
          <wptx1:State>Piemonte</wptx1:State>
          <wptx1:Country>ITA</wptx1:Country>
        </wptx1:Address>
        <wptx1:PhoneNumber>0175 987973</wptx1:PhoneNumber>
      </wptx1:WaypointExtension>
      <ctx:CreationTimeExtension>
        <ctx:CreationTime>2013-07-11T15:32:44Z</ctx:CreationTime>
      </ctx:CreationTimeExtension>
    </extensions>
  </wpt>

  <wpt lat="44.827676033601165" lon="7.306617982685566">
    <ele>395.584961000000021</ele>
    <time>2013-08-04T09:35:09Z</time>
    <name>Viale Della Rimembranza</name>
    <sym>Scenic Area</sym>
    <type>user</type>
    <extensions>
      <gpxx:WaypointExtension>
        <gpxx:DisplayMode>SymbolOnly</gpxx:DisplayMode>
        <gpxx:Address>
          <gpxx:StreetAddress>Bicycle:Yes (Gate)</gpxx:StreetAddress>
          <gpxx:City>Dronero</gpxx:City>
          <gpxx:State>Piemonte</gpxx:State>
          <gpxx:Country>ITA</gpxx:Country>
        </gpxx:Address>
      </gpxx:WaypointExtension>
      <wptx1:WaypointExtension>
        <wptx1:DisplayMode>SymbolOnly</wptx1:DisplayMode>
        <wptx1:Address>
          <wptx1:StreetAddress>Bicycle:Yes (Gate)</wptx1:StreetAddress>
          <wptx1:City>Dronero</wptx1:City>
          <wptx1:State>Piemonte</wptx1:State>
          <wptx1:Country>ITA</wptx1:Country>
        </wptx1:Address>
      </wptx1:WaypointExtension>
      <ctx:CreationTimeExtension>
        <ctx:CreationTime>2013-08-04T09:35:09Z</ctx:CreationTime>
      </ctx:CreationTimeExtension>
    </extensions>
  </wpt>

</gpx>
