<?xml version="1.0"?>
<gpx creator="GPS Visualizer http://www.gpsvisualizer.com/" version="1.1" xmlns="http://www.topografix.com/GPX/1/1" xmlns:xsi="http://www.w3.org/2001/XMLSchema-instance" xsi:schemaLocation="http://www.topografix.com/GPX/1/1 http://www.topografix.com/GPX/1/1/gpx.xsd">
<trk>
  <name>Siena-Pienza - Trequanda variant</name>
  <trkseg>
    <trkpt lat="43.202870255" lon="11.59873629">
      <ele>319.78</ele>
    </trkpt>
    <trkpt lat="43.203228833" lon="11.598929074">
      <ele>322.18</ele>
    </trkpt>
    <trkpt lat="43.203363027" lon="11.599138621">
      <ele>323.14</ele>
    </trkpt>
    <trkpt lat="43.203566121" lon="11.599876899">
      <ele>325.06</ele>
    </trkpt>
    <trkpt lat="43.203846831" lon="11.600596486">
      <ele>325.54</ele>
    </trkpt>
    <trkpt lat="43.203765526" lon="11.600809637">
      <ele>325.06</ele>
    </trkpt>
    <trkpt lat="43.203572575" lon="11.600894295">
      <ele>324.58</ele>
    </trkpt>
    <trkpt lat="43.203188432" lon="11.600910807">
      <ele>322.18</ele>
    </trkpt>
    <trkpt lat="43.202843014" lon="11.60073068">
      <ele>319.3</ele>
    </trkpt>
    <trkpt lat="43.201929638" lon="11.600921201">
      <ele>313.05</ele>
    </trkpt>
    <trkpt lat="43.200759273" lon="11.601576665">
      <ele>312.09</ele>
    </trkpt>
    <trkpt lat="43.200379824" lon="11.601936501">
      <ele>314.97</ele>
    </trkpt>
    <trkpt lat="43.200201374" lon="11.602126351">
      <ele>316.89</ele>
    </trkpt>
    <trkpt lat="43.200091068" lon="11.602718867">
      <ele>320.74</ele>
    </trkpt>
    <trkpt lat="43.200179329" lon="11.603571726">
      <ele>325.06</ele>
    </trkpt>
    <trkpt lat="43.200401198" lon="11.603989983">
      <ele>327.95</ele>
    </trkpt>
    <trkpt lat="43.200442186" lon="11.604272118">
      <ele>329.39</ele>
    </trkpt>
    <trkpt lat="43.200353254" lon="11.604468003">
      <ele>330.35</ele>
    </trkpt>
    <trkpt lat="43.200179245" lon="11.604573531">
      <ele>329.39</ele>
    </trkpt>
    <trkpt lat="43.199641127" lon="11.604451407">
      <ele>324.58</ele>
    </trkpt>
    <trkpt lat="43.199159252" lon="11.60369603">
      <ele>321.7</ele>
    </trkpt>
    <trkpt lat="43.199016759" lon="11.603558566">
      <ele>321.22</ele>
    </trkpt>
    <trkpt lat="43.198135905" lon="11.603057329">
      <ele>313.53</ele>
    </trkpt>
    <trkpt lat="43.197340714" lon="11.602427093">
      <ele>307.76</ele>
    </trkpt>
    <trkpt lat="43.19697191" lon="11.602272196">
      <ele>304.39</ele>
    </trkpt>
    <trkpt lat="43.196611488" lon="11.602209751">
      <ele>302.47</ele>
    </trkpt>
    <trkpt lat="43.196238158" lon="11.602238165">
      <ele>300.07</ele>
    </trkpt>
    <trkpt lat="43.194347033" lon="11.602675533">
      <ele>287.57</ele>
    </trkpt>
    <trkpt lat="43.194017038" lon="11.602932774">
      <ele>286.61</ele>
    </trkpt>
    <trkpt lat="43.193874964" lon="11.603161348">
      <ele>287.09</ele>
    </trkpt>
    <trkpt lat="43.193928441" lon="11.603431078">
      <ele>289.01</ele>
    </trkpt>
    <trkpt lat="43.194428673" lon="11.604437158">
      <ele>294.78</ele>
    </trkpt>
    <trkpt lat="43.194454908" lon="11.6047234">
      <ele>297.18</ele>
    </trkpt>
    <trkpt lat="43.194340328" lon="11.606041202">
      <ele>304.39</ele>
    </trkpt>
    <trkpt lat="43.193901703" lon="11.607182315">
      <ele>312.09</ele>
    </trkpt>
    <trkpt lat="43.193701627" lon="11.607283484">
      <ele>313.53</ele>
    </trkpt>
    <trkpt lat="43.193126293" lon="11.606780905">
      <ele>318.33</ele>
    </trkpt>
    <trkpt lat="43.192515504" lon="11.606574962">
      <ele>322.66</ele>
    </trkpt>
    <trkpt lat="43.191756522" lon="11.606645621">
      <ele>327.95</ele>
    </trkpt>
    <trkpt lat="43.191550663" lon="11.606730111">
      <ele>329.39</ele>
    </trkpt>
    <trkpt lat="43.19137238" lon="11.606963966">
      <ele>330.83</ele>
    </trkpt>
    <trkpt lat="43.19073745" lon="11.608851152">
      <ele>340.44</ele>
    </trkpt>
    <trkpt lat="43.19069529" lon="11.609724713">
      <ele>344.77</ele>
    </trkpt>
    <trkpt lat="43.190624379" lon="11.609973991">
      <ele>345.73</ele>
    </trkpt>
    <trkpt lat="43.189985175" lon="11.611054838">
      <ele>343.81</ele>
    </trkpt>
    <trkpt lat="43.189685019" lon="11.611802503">
      <ele>342.37</ele>
    </trkpt>
    <trkpt lat="43.189212866" lon="11.614079615">
      <ele>347.17</ele>
    </trkpt>
    <trkpt lat="43.189267265" lon="11.614774978">
      <ele>348.13</ele>
    </trkpt>
    <trkpt lat="43.190177372" lon="11.617998742">
      <ele>358.71</ele>
    </trkpt>
    <trkpt lat="43.190161865" lon="11.618527304">
      <ele>360.63</ele>
    </trkpt>
    <trkpt lat="43.189976877" lon="11.619007252">
      <ele>362.07</ele>
    </trkpt>
    <trkpt lat="43.189315712" lon="11.620083237">
      <ele>359.19</ele>
    </trkpt>
    <trkpt lat="43.18916643" lon="11.620268561">
      <ele>357.75</ele>
    </trkpt>
    <trkpt lat="43.1888361" lon="11.620505853">
      <ele>356.79</ele>
    </trkpt>
    <trkpt lat="43.188693859" lon="11.620737612">
      <ele>357.27</ele>
    </trkpt>
    <trkpt lat="43.187902775" lon="11.622402845">
      <ele>358.71</ele>
    </trkpt>
    <trkpt lat="43.186945058" lon="11.623336757">
      <ele>357.75</ele>
    </trkpt>
    <trkpt lat="43.18665362" lon="11.624214929">
      <ele>360.15</ele>
    </trkpt>
    <trkpt lat="43.186347093" lon="11.625803299">
      <ele>365.92</ele>
    </trkpt>
    <trkpt lat="43.186403755" lon="11.626402941">
      <ele>369.28</ele>
    </trkpt>
    <trkpt lat="43.186654123" lon="11.627309527">
      <ele>372.65</ele>
    </trkpt>
    <trkpt lat="43.186912704" lon="11.62771563">
      <ele>374.57</ele>
    </trkpt>
    <trkpt lat="43.187322579" lon="11.628816677">
      <ele>376.97</ele>
    </trkpt>
    <trkpt lat="43.188312314" lon="11.630183682">
      <ele>374.57</ele>
    </trkpt>
    <trkpt lat="43.188540218" lon="11.630664635">
      <ele>373.13</ele>
    </trkpt>
    <trkpt lat="43.188811708" lon="11.631456139">
      <ele>372.65</ele>
    </trkpt>
    <trkpt lat="43.18914908" lon="11.632096265">
      <ele>375.53</ele>
    </trkpt>
    <trkpt lat="43.189457366" lon="11.632883325">
      <ele>380.34</ele>
    </trkpt>
    <trkpt lat="43.189908899" lon="11.633577431">
      <ele>384.66</ele>
    </trkpt>
    <trkpt lat="43.191462401" lon="11.637645587">
      <ele>392.84</ele>
    </trkpt>
    <trkpt lat="43.191476567" lon="11.637908528">
      <ele>391.87</ele>
    </trkpt>
    <trkpt lat="43.190848846" lon="11.639735783">
      <ele>388.03</ele>
    </trkpt>
    <trkpt lat="43.19084432" lon="11.641184008">
      <ele>390.43</ele>
    </trkpt>
    <trkpt lat="43.190758992" lon="11.641420713">
      <ele>390.91</ele>
    </trkpt>
    <trkpt lat="43.190254988" lon="11.642215736">
      <ele>393.32</ele>
    </trkpt>
    <trkpt lat="43.190108975" lon="11.642418327">
      <ele>393.8</ele>
    </trkpt>
    <trkpt lat="43.189916695" lon="11.642513797">
      <ele>392.84</ele>
    </trkpt>
    <trkpt lat="43.189505562" lon="11.642502733">
      <ele>390.91</ele>
    </trkpt>
    <trkpt lat="43.18931018" lon="11.642565513">
      <ele>388.99</ele>
    </trkpt>
    <trkpt lat="43.188786982" lon="11.642894419">
      <ele>386.11</ele>
    </trkpt>
    <trkpt lat="43.188602077" lon="11.64287732">
      <ele>386.59</ele>
    </trkpt>
    <trkpt lat="43.188259844" lon="11.642602561">
      <ele>383.22</ele>
    </trkpt>
    <trkpt lat="43.18806882" lon="11.642610189">
      <ele>381.78</ele>
    </trkpt>
    <trkpt lat="43.187926076" lon="11.642784197">
      <ele>380.34</ele>
    </trkpt>
    <trkpt lat="43.187665064" lon="11.643490456">
      <ele>380.82</ele>
    </trkpt>
    <trkpt lat="43.187661543" lon="11.643750463">
      <ele>379.86</ele>
    </trkpt>
    <trkpt lat="43.187800515" lon="11.644257233">
      <ele>380.34</ele>
    </trkpt>
    <trkpt lat="43.187987097" lon="11.645436734">
      <ele>376.97</ele>
    </trkpt>
    <trkpt lat="43.187941834" lon="11.645718701">
      <ele>377.94</ele>
    </trkpt>
    <trkpt lat="43.187516956" lon="11.646304764">
      <ele>380.34</ele>
    </trkpt>
    <trkpt lat="43.187413858" lon="11.646552952">
      <ele>379.38</ele>
    </trkpt>
    <trkpt lat="43.187419809" lon="11.646838859">
      <ele>378.42</ele>
    </trkpt>
    <trkpt lat="43.187539084" lon="11.64703751">
      <ele>376.97</ele>
    </trkpt>
    <trkpt lat="43.18824945" lon="11.647717953">
      <ele>370.24</ele>
    </trkpt>
    <trkpt lat="43.188512055" lon="11.648205277">
      <ele>365.92</ele>
    </trkpt>
    <trkpt lat="43.188569974" lon="11.648474">
      <ele>364.48</ele>
    </trkpt>
    <trkpt lat="43.188609872" lon="11.649558954">
      <ele>358.71</ele>
    </trkpt>
    <trkpt lat="43.188582044" lon="11.650319025">
      <ele>357.75</ele>
    </trkpt>
    <trkpt lat="43.188520605" lon="11.65056319">
      <ele>357.27</ele>
    </trkpt>
    <trkpt lat="43.188281469" lon="11.650950182">
      <ele>358.23</ele>
    </trkpt>
    <trkpt lat="43.18825515" lon="11.651195185">
      <ele>358.71</ele>
    </trkpt>
    <trkpt lat="43.188464781" lon="11.651740177">
      <ele>360.63</ele>
    </trkpt>
    <trkpt lat="43.188480204" lon="11.651999848">
      <ele>361.59</ele>
    </trkpt>
    <trkpt lat="43.188092289" lon="11.652921857">
      <ele>363.52</ele>
    </trkpt>
    <trkpt lat="43.188028168" lon="11.653438183">
      <ele>355.34</ele>
    </trkpt>
    <trkpt lat="43.188079298" lon="11.653970266">
      <ele>351.98</ele>
    </trkpt>
    <trkpt lat="43.188034873" lon="11.654223148">
      <ele>351.02</ele>
    </trkpt>
    <trkpt lat="43.187704878" lon="11.654873332">
      <ele>349.58</ele>
    </trkpt>
    <trkpt lat="43.187691551" lon="11.655168794">
      <ele>349.1</ele>
    </trkpt>
    <trkpt lat="43.187959017" lon="11.655862145">
      <ele>343.33</ele>
    </trkpt>
    <trkpt lat="43.18778174" lon="11.657381197">
      <ele>346.21</ele>
    </trkpt>
    <trkpt lat="43.187798839" lon="11.657733489">
      <ele>347.65</ele>
    </trkpt>
    <trkpt lat="43.188026911" lon="11.658576708">
      <ele>352.94</ele>
    </trkpt>
    <trkpt lat="43.188089943" lon="11.659220522">
      <ele>358.71</ele>
    </trkpt>
    <trkpt lat="43.187897494" lon="11.660808055">
      <ele>372.17</ele>
    </trkpt>
    <trkpt lat="43.187968824" lon="11.662982823">
      <ele>388.99</ele>
    </trkpt>
    <trkpt lat="43.187738489" lon="11.664323341">
      <ele>402.45</ele>
    </trkpt>
    <trkpt lat="43.18787612" lon="11.667427579">
      <ele>433.21</ele>
    </trkpt>
    <trkpt lat="43.187767155" lon="11.667986736">
      <ele>437.06</ele>
    </trkpt>
    <trkpt lat="43.187360298" lon="11.668587718">
      <ele>441.86</ele>
    </trkpt>
    <trkpt lat="43.187097274" lon="11.66927495">
      <ele>441.86</ele>
    </trkpt>
    <trkpt lat="43.186918823" lon="11.669311998">
      <ele>441.38</ele>
    </trkpt>
    <trkpt lat="43.186863083" lon="11.669089291">
      <ele>439.94</ele>
    </trkpt>
    <trkpt lat="43.186887642" lon="11.669264724">
      <ele>438.5</ele>
    </trkpt>
    <trkpt lat="43.186392607" lon="11.669500675">
      <ele>437.06</ele>
    </trkpt>
    <trkpt lat="43.184479773" lon="11.670859801">
      <ele>447.15</ele>
    </trkpt>
    <trkpt lat="43.18394484" lon="11.671798658">
      <ele>451.0</ele>
    </trkpt>
    <trkpt lat="43.183707297" lon="11.673170859">
      <ele>453.4</ele>
    </trkpt>
    <trkpt lat="43.183412254" lon="11.673866808">
      <ele>453.88</ele>
    </trkpt>
    <trkpt lat="43.183277054" lon="11.674058754">
      <ele>453.4</ele>
    </trkpt>
    <trkpt lat="43.182281703" lon="11.674831314">
      <ele>452.44</ele>
    </trkpt>
    <trkpt lat="43.181568822" lon="11.675220318">
      <ele>450.03</ele>
    </trkpt>
    <trkpt lat="43.181415265" lon="11.67535644">
      <ele>449.07</ele>
    </trkpt>
    <trkpt lat="43.181325831" lon="11.675596079">
      <ele>448.11</ele>
    </trkpt>
    <trkpt lat="43.181280904" lon="11.677488377">
      <ele>443.31</ele>
    </trkpt>
    <trkpt lat="43.181519955" lon="11.678290693">
      <ele>440.9</ele>
    </trkpt>
    <trkpt lat="43.181959419" lon="11.679248912">
      <ele>440.42</ele>
    </trkpt>
    <trkpt lat="43.181956569" lon="11.679544793">
      <ele>440.42</ele>
    </trkpt>
    <trkpt lat="43.181743333" lon="11.680320539">
      <ele>432.25</ele>
    </trkpt>
    <trkpt lat="43.181733862" lon="11.680580545">
      <ele>432.73</ele>
    </trkpt>
    <trkpt lat="43.181856237" lon="11.680814987">
      <ele>434.65</ele>
    </trkpt>
    <trkpt lat="43.182948232" lon="11.681240201">
      <ele>443.31</ele>
    </trkpt>
    <trkpt lat="43.183125341" lon="11.681417562">
      <ele>444.75</ele>
    </trkpt>
    <trkpt lat="43.183324412" lon="11.681929613">
      <ele>443.31</ele>
    </trkpt>
    <trkpt lat="43.183411583" lon="11.682472844">
      <ele>438.98</ele>
    </trkpt>
    <trkpt lat="43.183272947" lon="11.683294689">
      <ele>439.46</ele>
    </trkpt>
    <trkpt lat="43.183091814" lon="11.683751">
      <ele>438.5</ele>
    </trkpt>
    <trkpt lat="43.182970108" lon="11.683958285">
      <ele>438.98</ele>
    </trkpt>
    <trkpt lat="43.182492256" lon="11.684419122">
      <ele>435.61</ele>
    </trkpt>
    <trkpt lat="43.182240045" lon="11.68482908">
      <ele>434.17</ele>
    </trkpt>
    <trkpt lat="43.181564212" lon="11.686070105">
      <ele>435.13</ele>
    </trkpt>
    <trkpt lat="43.181230612" lon="11.686806455">
      <ele>438.5</ele>
    </trkpt>
    <trkpt lat="43.181022406" lon="11.686989265">
      <ele>440.9</ele>
    </trkpt>
    <trkpt lat="43.180332743" lon="11.687217923">
      <ele>445.23</ele>
    </trkpt>
    <trkpt lat="43.179167071" lon="11.687884284">
      <ele>452.92</ele>
    </trkpt>
    <trkpt lat="43.178667175" lon="11.688544694">
      <ele>457.72</ele>
    </trkpt>
    <trkpt lat="43.178484114" lon="11.688693557">
      <ele>458.69</ele>
    </trkpt>
    <trkpt lat="43.177925628" lon="11.688955575">
      <ele>460.61</ele>
    </trkpt>
    <trkpt lat="43.177234707" lon="11.689529819">
      <ele>462.53</ele>
    </trkpt>
    <trkpt lat="43.176126368" lon="11.690303218">
      <ele>463.97</ele>
    </trkpt>
    <trkpt lat="43.17563938" lon="11.691020541">
      <ele>467.82</ele>
    </trkpt>
    <trkpt lat="43.175441651" lon="11.691264119">
      <ele>469.26</ele>
    </trkpt>
    <trkpt lat="43.175260182" lon="11.691378867">
      <ele>470.22</ele>
    </trkpt>
    <trkpt lat="43.174386788" lon="11.691789664">
      <ele>475.51</ele>
    </trkpt>
    <trkpt lat="43.173088934" lon="11.691940455">
      <ele>487.05</ele>
    </trkpt>
    <trkpt lat="43.172471356" lon="11.692067776">
      <ele>493.77</ele>
    </trkpt>
    <trkpt lat="43.172050165" lon="11.69230842">
      <ele>497.62</ele>
    </trkpt>
    <trkpt lat="43.170469925" lon="11.69345825">
      <ele>506.75</ele>
    </trkpt>
    <trkpt lat="43.168893456" lon="11.693542153">
      <ele>495.22</ele>
    </trkpt>
    <trkpt lat="43.168484671" lon="11.693684477">
      <ele>489.93</ele>
    </trkpt>
    <trkpt lat="43.16777858" lon="11.694176411">
      <ele>482.72</ele>
    </trkpt>
    <trkpt lat="43.167581353" lon="11.694257045">
      <ele>482.24</ele>
    </trkpt>
    <trkpt lat="43.166495562" lon="11.694390569">
      <ele>486.08</ele>
    </trkpt>
    <trkpt lat="43.166059284" lon="11.694598021">
      <ele>488.01</ele>
    </trkpt>
    <trkpt lat="43.164275698" lon="11.696052952">
      <ele>499.06</ele>
    </trkpt>
    <trkpt lat="43.163226284" lon="11.696735322">
      <ele>503.39</ele>
    </trkpt>
    <trkpt lat="43.162692944" lon="11.697366312">
      <ele>506.75</ele>
    </trkpt>
    <trkpt lat="43.162008477" lon="11.697642915">
      <ele>508.67</ele>
    </trkpt>
    <trkpt lat="43.161230553" lon="11.698187403">
      <ele>511.56</ele>
    </trkpt>
    <trkpt lat="43.160357494" lon="11.698620664">
      <ele>514.92</ele>
    </trkpt>
    <trkpt lat="43.160151467" lon="11.698782099">
      <ele>516.37</ele>
    </trkpt>
    <trkpt lat="43.159999" lon="11.699012015">
      <ele>517.33</ele>
    </trkpt>
    <trkpt lat="43.159706388" lon="11.699759597">
      <ele>520.21</ele>
    </trkpt>
    <trkpt lat="43.159548221" lon="11.699984567">
      <ele>520.69</ele>
    </trkpt>
    <trkpt lat="43.159358455" lon="11.700091353">
      <ele>521.17</ele>
    </trkpt>
    <trkpt lat="43.159173047" lon="11.700169388">
      <ele>521.65</ele>
    </trkpt>
    <trkpt lat="43.158351788" lon="11.699861186">
      <ele>529.82</ele>
    </trkpt>
    <trkpt lat="43.157378901" lon="11.69969053">
      <ele>537.51</ele>
    </trkpt>
    <trkpt lat="43.156905407" lon="11.699707797">
      <ele>540.88</ele>
    </trkpt>
    <trkpt lat="43.15587678" lon="11.699908292">
      <ele>546.17</ele>
    </trkpt>
    <trkpt lat="43.155643344" lon="11.699908962">
      <ele>547.13</ele>
    </trkpt>
    <trkpt lat="43.153691366" lon="11.699520377">
      <ele>553.38</ele>
    </trkpt>
    <trkpt lat="43.153120978" lon="11.699508391">
      <ele>554.34</ele>
    </trkpt>
    <trkpt lat="43.152531898" lon="11.699388782">
      <ele>557.22</ele>
    </trkpt>
    <trkpt lat="43.152349927" lon="11.699524568">
      <ele>558.18</ele>
    </trkpt>
    <trkpt lat="43.151921025" lon="11.700718487">
      <ele>560.11</ele>
    </trkpt>
    <trkpt lat="43.151475526" lon="11.701701935">
      <ele>560.59</ele>
    </trkpt>
    <trkpt lat="43.150227042" lon="11.702781022">
      <ele>554.82</ele>
    </trkpt>
    <trkpt lat="43.148877053" lon="11.702769119">
      <ele>558.66</ele>
    </trkpt>
    <trkpt lat="43.148658788" lon="11.702816729">
      <ele>559.62</ele>
    </trkpt>
    <trkpt lat="43.14850674" lon="11.702956036">
      <ele>560.59</ele>
    </trkpt>
    <trkpt lat="43.148188395" lon="11.703639999">
      <ele>560.11</ele>
    </trkpt>
    <trkpt lat="43.148041964" lon="11.703850217">
      <ele>561.55</ele>
    </trkpt>
    <trkpt lat="43.147848928" lon="11.703996817">
      <ele>563.47</ele>
    </trkpt>
    <trkpt lat="43.147141831" lon="11.703827502">
      <ele>568.76</ele>
    </trkpt>
    <trkpt lat="43.146467255" lon="11.703840578">
      <ele>573.56</ele>
    </trkpt>
    <trkpt lat="43.146299366" lon="11.704011401">
      <ele>574.04</ele>
    </trkpt>
    <trkpt lat="43.146272041" lon="11.704295212">
      <ele>574.53</ele>
    </trkpt>
    <trkpt lat="43.146397937" lon="11.705763973">
      <ele>568.76</ele>
    </trkpt>
    <trkpt lat="43.146369774" lon="11.706623286">
      <ele>566.35</ele>
    </trkpt>
    <trkpt lat="43.14641973" lon="11.706876839">
      <ele>565.39</ele>
    </trkpt>
    <trkpt lat="43.146904288" lon="11.707701618">
      <ele>561.07</ele>
    </trkpt>
    <trkpt lat="43.147187931" lon="11.708729574">
      <ele>554.34</ele>
    </trkpt>
    <trkpt lat="43.147830823" lon="11.709691901">
      <ele>548.57</ele>
    </trkpt>
    <trkpt lat="43.147917492" lon="11.709938748">
      <ele>545.2</ele>
    </trkpt>
    <trkpt lat="43.147940375" lon="11.710222056">
      <ele>540.88</ele>
    </trkpt>
    <trkpt lat="43.147677099" lon="11.712150984">
      <ele>542.32</ele>
    </trkpt>
    <trkpt lat="43.14779453" lon="11.713119177">
      <ele>544.24</ele>
    </trkpt>
    <trkpt lat="43.147988487" lon="11.714233132">
      <ele>549.53</ele>
    </trkpt>
    <trkpt lat="43.14808731" lon="11.714500431">
      <ele>550.49</ele>
    </trkpt>
    <trkpt lat="43.148801532" lon="11.715408694">
      <ele>551.93</ele>
    </trkpt>
    <trkpt lat="43.148987107" lon="11.715863412">
      <ele>551.45</ele>
    </trkpt>
    <trkpt lat="43.149282318" lon="11.717093037">
      <ele>546.65</ele>
    </trkpt>
    <trkpt lat="43.149211239" lon="11.718405057">
      <ele>547.13</ele>
    </trkpt>
    <trkpt lat="43.149107723" lon="11.718658525">
      <ele>547.13</ele>
    </trkpt>
    <trkpt lat="43.148951987" lon="11.718842341">
      <ele>546.17</ele>
    </trkpt>
    <trkpt lat="43.14834631" lon="11.719167726">
      <ele>546.65</ele>
    </trkpt>
    <trkpt lat="43.148075575" lon="11.719516581">
      <ele>545.69</ele>
    </trkpt>
    <trkpt lat="43.147338806" lon="11.721970802">
      <ele>540.88</ele>
    </trkpt>
    <trkpt lat="43.147304105" lon="11.722235503">
      <ele>540.4</ele>
    </trkpt>
    <trkpt lat="43.147397395" lon="11.722990545">
      <ele>538.48</ele>
    </trkpt>
    <trkpt lat="43.147360263" lon="11.723248372">
      <ele>537.99</ele>
    </trkpt>
    <trkpt lat="43.14724627" lon="11.723450711">
      <ele>536.07</ele>
    </trkpt>
    <trkpt lat="43.147088774" lon="11.723577697">
      <ele>535.11</ele>
    </trkpt>
    <trkpt lat="43.146342281" lon="11.723901238">
      <ele>532.71</ele>
    </trkpt>
    <trkpt lat="43.145958139" lon="11.724179853">
      <ele>533.19</ele>
    </trkpt>
    <trkpt lat="43.144180253" lon="11.7262273">
      <ele>550.49</ele>
    </trkpt>
    <trkpt lat="43.142557181" lon="11.726934565">
      <ele>554.82</ele>
    </trkpt>
    <trkpt lat="43.140577795" lon="11.727913152">
      <ele>553.38</ele>
    </trkpt>
    <trkpt lat="43.139606584" lon="11.728099901">
      <ele>553.86</ele>
    </trkpt>
    <trkpt lat="43.138525905" lon="11.728703398">
      <ele>551.45</ele>
    </trkpt>
    <trkpt lat="43.138152659" lon="11.728838598">
      <ele>549.05</ele>
    </trkpt>
    <trkpt lat="43.137958283" lon="11.728876401">
      <ele>548.57</ele>
    </trkpt>
    <trkpt lat="43.137368029" lon="11.728751427">
      <ele>544.72</ele>
    </trkpt>
    <trkpt lat="43.13606305" lon="11.729247635">
      <ele>539.92</ele>
    </trkpt>
    <trkpt lat="43.134310311" lon="11.729457937">
      <ele>514.92</ele>
    </trkpt>
    <trkpt lat="43.133752914" lon="11.729605207">
      <ele>516.85</ele>
    </trkpt>
    <trkpt lat="43.133137934" lon="11.729929587">
      <ele>518.29</ele>
    </trkpt>
    <trkpt lat="43.132914472" lon="11.729934616">
      <ele>519.25</ele>
    </trkpt>
    <trkpt lat="43.131579068" lon="11.729041943">
      <ele>523.09</ele>
    </trkpt>
    <trkpt lat="43.131145975" lon="11.7285024">
      <ele>524.54</ele>
    </trkpt>
    <trkpt lat="43.130815476" lon="11.728245076">
      <ele>522.61</ele>
    </trkpt>
    <trkpt lat="43.129702862" lon="11.72798398">
      <ele>519.73</ele>
    </trkpt>
    <trkpt lat="43.128728969" lon="11.72809219">
      <ele>514.44</ele>
    </trkpt>
    <trkpt lat="43.128551356" lon="11.728040306">
      <ele>513.0</ele>
    </trkpt>
    <trkpt lat="43.128404086" lon="11.727863867">
      <ele>511.56</ele>
    </trkpt>
    <trkpt lat="43.128279112" lon="11.727127265">
      <ele>507.71</ele>
    </trkpt>
    <trkpt lat="43.128132597" lon="11.726637846">
      <ele>507.23</ele>
    </trkpt>
    <trkpt lat="43.127871081" lon="11.726263342">
      <ele>505.79</ele>
    </trkpt>
    <trkpt lat="43.126087831" lon="11.725115189">
      <ele>502.91</ele>
    </trkpt>
    <trkpt lat="43.125751968" lon="11.724860799">
      <ele>501.95</ele>
    </trkpt>
    <trkpt lat="43.125316864" lon="11.724393005">
      <ele>500.02</ele>
    </trkpt>
    <trkpt lat="43.12514009" lon="11.724300217">
      <ele>499.06</ele>
    </trkpt>
    <trkpt lat="43.124397285" lon="11.724162921">
      <ele>492.81</ele>
    </trkpt>
    <trkpt lat="43.123240666" lon="11.724007688">
      <ele>486.56</ele>
    </trkpt>
    <trkpt lat="43.120753253" lon="11.724374481">
      <ele>469.74</ele>
    </trkpt>
    <trkpt lat="43.11955791" lon="11.72441463">
      <ele>466.38</ele>
    </trkpt>
    <trkpt lat="43.119160691" lon="11.72429678">
      <ele>466.38</ele>
    </trkpt>
    <trkpt lat="43.118422749" lon="11.723886151">
      <ele>469.26</ele>
    </trkpt>
    <trkpt lat="43.116855584" lon="11.723749777">
      <ele>463.97</ele>
    </trkpt>
    <trkpt lat="43.115855791" lon="11.723305201">
      <ele>464.93</ele>
    </trkpt>
    <trkpt lat="43.113850756" lon="11.722715534">
      <ele>467.82</ele>
    </trkpt>
    <trkpt lat="43.113636933" lon="11.722702794">
      <ele>467.82</ele>
    </trkpt>
    <trkpt lat="43.113261759" lon="11.722875796">
      <ele>467.34</ele>
    </trkpt>
    <trkpt lat="43.112940816" lon="11.723155165">
      <ele>468.3</ele>
    </trkpt>
    <trkpt lat="43.112265486" lon="11.724114306">
      <ele>470.22</ele>
    </trkpt>
    <trkpt lat="43.112066165" lon="11.724249255">
      <ele>469.74</ele>
    </trkpt>
    <trkpt lat="43.111663163" lon="11.724383198">
      <ele>469.74</ele>
    </trkpt>
    <trkpt lat="43.111417824" lon="11.724389568">
      <ele>469.74</ele>
    </trkpt>
    <trkpt lat="43.110628333" lon="11.724093016">
      <ele>474.55</ele>
    </trkpt>
    <trkpt lat="43.110447535" lon="11.723862933">
      <ele>475.99</ele>
    </trkpt>
    <trkpt lat="43.110307977" lon="11.72355582">
      <ele>477.43</ele>
    </trkpt>
    <trkpt lat="43.109369874" lon="11.72125834">
      <ele>490.41</ele>
    </trkpt>
    <trkpt lat="43.108632015" lon="11.72080555">
      <ele>497.14</ele>
    </trkpt>
    <trkpt lat="43.10808124" lon="11.720023183">
      <ele>498.58</ele>
    </trkpt>
    <trkpt lat="43.107759962" lon="11.719716154">
      <ele>497.62</ele>
    </trkpt>
    <trkpt lat="43.106923783" lon="11.718051508">
      <ele>505.79</ele>
    </trkpt>
    <trkpt lat="43.105425769" lon="11.715917643">
      <ele>501.46</ele>
    </trkpt>
    <trkpt lat="43.105359217" lon="11.715362677">
      <ele>498.58</ele>
    </trkpt>
    <trkpt lat="43.105504643" lon="11.71312999">
      <ele>501.95</ele>
    </trkpt>
    <trkpt lat="43.105865568" lon="11.711854683">
      <ele>505.31</ele>
    </trkpt>
    <trkpt lat="43.106327411" lon="11.710707871">
      <ele>500.5</ele>
    </trkpt>
    <trkpt lat="43.106393544" lon="11.709338101">
      <ele>500.98</ele>
    </trkpt>
    <trkpt lat="43.106456576" lon="11.709109023">
      <ele>500.02</ele>
    </trkpt>
    <trkpt lat="43.106874162" lon="11.708591189">
      <ele>499.06</ele>
    </trkpt>
    <trkpt lat="43.106956808" lon="11.708351132">
      <ele>499.54</ele>
    </trkpt>
    <trkpt lat="43.106959742" lon="11.70809079">
      <ele>498.58</ele>
    </trkpt>
    <trkpt lat="43.106913976" lon="11.707848301">
      <ele>497.14</ele>
    </trkpt>
    <trkpt lat="43.106530504" lon="11.707246229">
      <ele>497.14</ele>
    </trkpt>
    <trkpt lat="43.106225571" lon="11.706956718">
      <ele>497.62</ele>
    </trkpt>
    <trkpt lat="43.105702959" lon="11.706624543">
      <ele>498.58</ele>
    </trkpt>
    <trkpt lat="43.10508186" lon="11.705648303">
      <ele>494.74</ele>
    </trkpt>
    <trkpt lat="43.104784638" lon="11.705312775">
      <ele>494.26</ele>
    </trkpt>
    <trkpt lat="43.104457324" lon="11.705064671">
      <ele>493.29</ele>
    </trkpt>
    <trkpt lat="43.103924571" lon="11.704810364">
      <ele>490.41</ele>
    </trkpt>
    <trkpt lat="43.103614273" lon="11.704559326">
      <ele>486.08</ele>
    </trkpt>
    <trkpt lat="43.103503799" lon="11.704361094">
      <ele>484.16</ele>
    </trkpt>
    <trkpt lat="43.103457363" lon="11.704125898">
      <ele>482.24</ele>
    </trkpt>
    <trkpt lat="43.103691135" lon="11.703159632">
      <ele>476.47</ele>
    </trkpt>
    <trkpt lat="43.103737319" lon="11.703096433">
      <ele>470.7</ele>
    </trkpt>
    <trkpt lat="43.104043426" lon="11.702755122">
      <ele>471.66</ele>
    </trkpt>
    <trkpt lat="43.104206538" lon="11.702259416">
      <ele>472.14</ele>
    </trkpt>
    <trkpt lat="43.104028758" lon="11.701449556">
      <ele>469.74</ele>
    </trkpt>
    <trkpt lat="43.103797501" lon="11.700852346">
      <ele>466.86</ele>
    </trkpt>
    <trkpt lat="43.103285367" lon="11.69998792">
      <ele>461.57</ele>
    </trkpt>
    <trkpt lat="43.102846742" lon="11.698936746">
      <ele>460.13</ele>
    </trkpt>
    <trkpt lat="43.102258081" lon="11.697787168">
      <ele>458.69</ele>
    </trkpt>
    <trkpt lat="43.101834962" lon="11.69728023">
      <ele>459.17</ele>
    </trkpt>
    <trkpt lat="43.101140186" lon="11.696715625">
      <ele>456.28</ele>
    </trkpt>
    <trkpt lat="43.100313144" lon="11.696494259">
      <ele>450.52</ele>
    </trkpt>
    <trkpt lat="43.09957034" lon="11.696203155">
      <ele>443.79</ele>
    </trkpt>
    <trkpt lat="43.096860135" lon="11.693200842">
      <ele>423.6</ele>
    </trkpt>
    <trkpt lat="43.096651677" lon="11.692717038">
      <ele>423.6</ele>
    </trkpt>
    <trkpt lat="43.096520333" lon="11.691056751">
      <ele>422.64</ele>
    </trkpt>
    <trkpt lat="43.096280443" lon="11.690633381">
      <ele>425.04</ele>
    </trkpt>
    <trkpt lat="43.09535617" lon="11.689611124">
      <ele>427.92</ele>
    </trkpt>
    <trkpt lat="43.095026677" lon="11.689341059">
      <ele>430.81</ele>
    </trkpt>
    <trkpt lat="43.094683439" lon="11.689151628">
      <ele>433.21</ele>
    </trkpt>
    <trkpt lat="43.094292758" lon="11.689013662">
      <ele>433.69</ele>
    </trkpt>
    <trkpt lat="43.093494801" lon="11.688866308">
      <ele>430.81</ele>
    </trkpt>
    <trkpt lat="43.092929525" lon="11.688525081">
      <ele>430.81</ele>
    </trkpt>
    <trkpt lat="43.091965606" lon="11.687681694">
      <ele>436.58</ele>
    </trkpt>
    <trkpt lat="43.0918465" lon="11.687486228">
      <ele>437.54</ele>
    </trkpt>
    <trkpt lat="43.09174642" lon="11.686960934">
      <ele>439.94</ele>
    </trkpt>
    <trkpt lat="43.091633935" lon="11.686763791">
      <ele>440.42</ele>
    </trkpt>
    <trkpt lat="43.090423001" lon="11.686002798">
      <ele>447.15</ele>
    </trkpt>
    <trkpt lat="43.088772604" lon="11.684205886">
      <ele>453.4</ele>
    </trkpt>
    <trkpt lat="43.088519387" lon="11.683836663">
      <ele>455.32</ele>
    </trkpt>
    <trkpt lat="43.088320401" lon="11.683378844">
      <ele>457.24</ele>
    </trkpt>
    <trkpt lat="43.087499142" lon="11.680105291">
      <ele>461.09</ele>
    </trkpt>
    <trkpt lat="43.087299988" lon="11.679672031">
      <ele>460.61</ele>
    </trkpt>
    <trkpt lat="43.086843677" lon="11.679105246">
      <ele>459.17</ele>
    </trkpt>
    <trkpt lat="43.085286487" lon="11.677754335">
      <ele>454.36</ele>
    </trkpt>
    <trkpt lat="43.084733533" lon="11.676834589">
      <ele>451.0</ele>
    </trkpt>
    <trkpt lat="43.084559273" lon="11.676725876">
      <ele>450.52</ele>
    </trkpt>
    <trkpt lat="43.084332542" lon="11.676681451">
      <ele>450.52</ele>
    </trkpt>
    <trkpt lat="43.082129108" lon="11.67633771">
      <ele>466.86</ele>
    </trkpt>
    <trkpt lat="43.081019428" lon="11.676327316">
      <ele>474.55</ele>
    </trkpt>
    <trkpt lat="43.080467982" lon="11.676471233">
      <ele>480.8</ele>
    </trkpt>
    <trkpt lat="43.078262536" lon="11.67786221">
      <ele>484.16</ele>
    </trkpt>
    <trkpt lat="43.078071009" lon="11.677816529">
      <ele>484.64</ele>
    </trkpt>
    <trkpt lat="43.077609502" lon="11.677405061">
      <ele>488.01</ele>
    </trkpt>
  </trkseg>
</trk>
</gpx>
