<?xml version="1.0" encoding="UTF-8"?>
<gpx
  version="1.1"
  creator="GPSBabel - http://www.gpsbabel.org"
  xmlns:xsi="http://www.w3.org/2001/XMLSchema-instance"
  xmlns="http://www.topografix.com/GPX/1/1"
  xsi:schemaLocation="http://www.topografix.com/GPX/1/1 http://www.topografix.com/GPX/1/1/gpx.xsd">
<metadata>
<time>2011-09-22T10:07:46Z</time>
<bounds minlat="44.814741000" minlon="12.281652000" maxlat="44.958185000" maxlon="12.464286000"/>
</metadata>
<trk>
  <name>E3</name>
<trkseg>
<trkpt lat="44.951530000" lon="12.333208000">
  <ele>0.000000</ele>
</trkpt>
<trkpt lat="44.952361000" lon="12.333108000">
  <ele>0.000000</ele>
</trkpt>
<trkpt lat="44.952430000" lon="12.332933000">
  <ele>0.000000</ele>
</trkpt>
<trkpt lat="44.952465000" lon="12.332630000">
  <ele>0.000000</ele>
</trkpt>
<trkpt lat="44.952505000" lon="12.332521000">
  <ele>0.000000</ele>
</trkpt>
<trkpt lat="44.952547000" lon="12.332481000">
  <ele>0.000000</ele>
</trkpt>
<trkpt lat="44.952585000" lon="12.332445000">
  <ele>0.000000</ele>
</trkpt>
<trkpt lat="44.952583000" lon="12.332039000">
  <ele>0.000000</ele>
</trkpt>
<trkpt lat="44.952482000" lon="12.330932000">
  <ele>0.000000</ele>
</trkpt>
<trkpt lat="44.952259000" lon="12.328517000">
  <ele>0.000000</ele>
</trkpt>
<trkpt lat="44.951970000" lon="12.325455000">
  <ele>0.000000</ele>
</trkpt>
<trkpt lat="44.951829000" lon="12.323926000">
  <ele>0.000000</ele>
</trkpt>
<trkpt lat="44.951670000" lon="12.322298000">
  <ele>0.000000</ele>
</trkpt>
<trkpt lat="44.951591000" lon="12.321384000">
  <ele>0.000000</ele>
</trkpt>
<trkpt lat="44.951475000" lon="12.320639000">
  <ele>0.000000</ele>
</trkpt>
<trkpt lat="44.951354000" lon="12.320066000">
  <ele>0.000000</ele>
</trkpt>
<trkpt lat="44.951226000" lon="12.319587000">
  <ele>0.000000</ele>
</trkpt>
<trkpt lat="44.951007000" lon="12.318911000">
  <ele>0.000000</ele>
</trkpt>
<trkpt lat="44.950752000" lon="12.318065000">
  <ele>0.000000</ele>
</trkpt>
<trkpt lat="44.950536000" lon="12.317314000">
  <ele>0.000000</ele>
</trkpt>
<trkpt lat="44.950475000" lon="12.316933000">
  <ele>0.000000</ele>
</trkpt>
<trkpt lat="44.950468000" lon="12.316678000">
  <ele>0.000000</ele>
</trkpt>
<trkpt lat="44.950475000" lon="12.316353000">
  <ele>0.000000</ele>
</trkpt>
<trkpt lat="44.950498000" lon="12.316159000">
  <ele>0.000000</ele>
</trkpt>
<trkpt lat="44.950526000" lon="12.316011000">
  <ele>0.000000</ele>
</trkpt>
<trkpt lat="44.950612000" lon="12.315791000">
  <ele>0.000000</ele>
</trkpt>
<trkpt lat="44.950783000" lon="12.315409000">
  <ele>0.000000</ele>
</trkpt>
<trkpt lat="44.950876000" lon="12.315152000">
  <ele>0.000000</ele>
</trkpt>
<trkpt lat="44.950897000" lon="12.315020000">
  <ele>0.000000</ele>
</trkpt>
<trkpt lat="44.950902000" lon="12.314862000">
  <ele>0.000000</ele>
</trkpt>
<trkpt lat="44.950896000" lon="12.314757000">
  <ele>0.000000</ele>
</trkpt>
<trkpt lat="44.950870000" lon="12.314556000">
  <ele>0.000000</ele>
</trkpt>
<trkpt lat="44.950791000" lon="12.314007000">
  <ele>0.000000</ele>
</trkpt>
<trkpt lat="44.950677000" lon="12.313227000">
  <ele>0.000000</ele>
</trkpt>
<trkpt lat="44.950624000" lon="12.312764000">
  <ele>0.000000</ele>
</trkpt>
<trkpt lat="44.950612000" lon="12.312492000">
  <ele>0.000000</ele>
</trkpt>
<trkpt lat="44.950598000" lon="12.312041000">
  <ele>0.000000</ele>
</trkpt>
<trkpt lat="44.950590000" lon="12.311637000">
  <ele>0.000000</ele>
</trkpt>
<trkpt lat="44.950564000" lon="12.310913000">
  <ele>0.000000</ele>
</trkpt>
<trkpt lat="44.950512000" lon="12.309248000">
  <ele>0.000000</ele>
</trkpt>
<trkpt lat="44.950505000" lon="12.308604000">
  <ele>0.000000</ele>
</trkpt>
<trkpt lat="44.950515000" lon="12.308099000">
  <ele>0.000000</ele>
</trkpt>
<trkpt lat="44.950540000" lon="12.307886000">
  <ele>0.000000</ele>
</trkpt>
<trkpt lat="44.950528000" lon="12.307812000">
  <ele>0.000000</ele>
</trkpt>
<trkpt lat="44.950492000" lon="12.307685000">
  <ele>0.000000</ele>
</trkpt>
<trkpt lat="44.950462000" lon="12.307505000">
  <ele>0.000000</ele>
</trkpt>
<trkpt lat="44.950464000" lon="12.307346000">
  <ele>0.000000</ele>
</trkpt>
<trkpt lat="44.950468000" lon="12.307125000">
  <ele>0.000000</ele>
</trkpt>
<trkpt lat="44.950467000" lon="12.307003000">
  <ele>0.000000</ele>
</trkpt>
<trkpt lat="44.950449000" lon="12.306814000">
  <ele>0.000000</ele>
</trkpt>
<trkpt lat="44.950434000" lon="12.306525000">
  <ele>0.000000</ele>
</trkpt>
<trkpt lat="44.950402000" lon="12.306424000">
  <ele>0.000000</ele>
</trkpt>
<trkpt lat="44.949913000" lon="12.307014000">
  <ele>0.000000</ele>
</trkpt>
<trkpt lat="44.949313000" lon="12.307730000">
  <ele>0.000000</ele>
</trkpt>
<trkpt lat="44.949115000" lon="12.308042000">
  <ele>0.000000</ele>
</trkpt>
<trkpt lat="44.948972000" lon="12.308315000">
  <ele>0.000000</ele>
</trkpt>
<trkpt lat="44.948763000" lon="12.308901000">
  <ele>0.000000</ele>
</trkpt>
<trkpt lat="44.948658000" lon="12.309418000">
  <ele>0.000000</ele>
</trkpt>
<trkpt lat="44.948637000" lon="12.309877000">
  <ele>0.000000</ele>
</trkpt>
<trkpt lat="44.948600000" lon="12.309992000">
  <ele>0.000000</ele>
</trkpt>
<trkpt lat="44.948558000" lon="12.310016000">
  <ele>0.000000</ele>
</trkpt>
<trkpt lat="44.948515000" lon="12.310040000">
  <ele>0.000000</ele>
</trkpt>
<trkpt lat="44.948514000" lon="12.310038000">
  <ele>0.000000</ele>
</trkpt>
<trkpt lat="44.948465000" lon="12.309912000">
  <ele>0.000000</ele>
</trkpt>
<trkpt lat="44.948387000" lon="12.309900000">
  <ele>0.000000</ele>
</trkpt>
<trkpt lat="44.948349000" lon="12.309892000">
  <ele>0.000000</ele>
</trkpt>
<trkpt lat="44.948242000" lon="12.309766000">
  <ele>0.000000</ele>
</trkpt>
<trkpt lat="44.948180000" lon="12.309631000">
  <ele>0.000000</ele>
</trkpt>
<trkpt lat="44.948118000" lon="12.309542000">
  <ele>0.000000</ele>
</trkpt>
<trkpt lat="44.948197000" lon="12.307957000">
  <ele>0.000000</ele>
</trkpt>
<trkpt lat="44.948324000" lon="12.305768000">
  <ele>0.000000</ele>
</trkpt>
<trkpt lat="44.948372000" lon="12.304679000">
  <ele>0.000000</ele>
</trkpt>
<trkpt lat="44.948382000" lon="12.304442000">
  <ele>0.000000</ele>
</trkpt>
<trkpt lat="44.948425000" lon="12.303368000">
  <ele>0.000000</ele>
</trkpt>
<trkpt lat="44.948430000" lon="12.303223000">
  <ele>0.000000</ele>
</trkpt>
<trkpt lat="44.948457000" lon="12.302536000">
  <ele>0.000000</ele>
</trkpt>
<trkpt lat="44.948458000" lon="12.302523000">
  <ele>0.000000</ele>
</trkpt>
<trkpt lat="44.948459000" lon="12.302498000">
  <ele>0.000000</ele>
</trkpt>
<trkpt lat="44.948479000" lon="12.301992000">
  <ele>0.000000</ele>
</trkpt>
<trkpt lat="44.948573000" lon="12.299899000">
  <ele>0.000000</ele>
</trkpt>
<trkpt lat="44.948604000" lon="12.299194000">
  <ele>0.000000</ele>
</trkpt>
<trkpt lat="44.948702000" lon="12.296680000">
  <ele>0.000000</ele>
</trkpt>
<trkpt lat="44.948716000" lon="12.295527000">
  <ele>0.000000</ele>
</trkpt>
<trkpt lat="44.948700000" lon="12.294901000">
  <ele>0.000000</ele>
</trkpt>
<trkpt lat="44.948693000" lon="12.294609000">
  <ele>0.000000</ele>
</trkpt>
<trkpt lat="44.948676000" lon="12.294321000">
  <ele>0.000000</ele>
</trkpt>
<trkpt lat="44.948666000" lon="12.294204000">
  <ele>0.000000</ele>
</trkpt>
<trkpt lat="44.948602000" lon="12.293435000">
  <ele>0.000000</ele>
</trkpt>
<trkpt lat="44.948586000" lon="12.292946000">
  <ele>0.000000</ele>
</trkpt>
<trkpt lat="44.948586000" lon="12.292945000">
  <ele>0.000000</ele>
</trkpt>
<trkpt lat="44.948560000" lon="12.292816000">
  <ele>0.000000</ele>
</trkpt>
<trkpt lat="44.948497000" lon="12.292416000">
  <ele>0.000000</ele>
</trkpt>
<trkpt lat="44.948415000" lon="12.291767000">
  <ele>0.000000</ele>
</trkpt>
<trkpt lat="44.948385000" lon="12.291499000">
  <ele>0.000000</ele>
</trkpt>
<trkpt lat="44.948347000" lon="12.291209000">
  <ele>0.000000</ele>
</trkpt>
<trkpt lat="44.948308000" lon="12.290889000">
  <ele>0.000000</ele>
</trkpt>
<trkpt lat="44.948288000" lon="12.290716000">
  <ele>0.000000</ele>
</trkpt>
<trkpt lat="44.948159000" lon="12.289699000">
  <ele>0.000000</ele>
</trkpt>
<trkpt lat="44.947996000" lon="12.288335000">
  <ele>0.000000</ele>
</trkpt>
<trkpt lat="44.947804000" lon="12.286743000">
  <ele>0.000000</ele>
</trkpt>
<trkpt lat="44.947604000" lon="12.285036000">
  <ele>0.000000</ele>
</trkpt>
<trkpt lat="44.947360000" lon="12.282962000">
  <ele>0.000000</ele>
</trkpt>
<trkpt lat="44.947272000" lon="12.282246000">
  <ele>0.000000</ele>
</trkpt>
<trkpt lat="44.945128000" lon="12.282771000">
  <ele>0.000000</ele>
</trkpt>
<trkpt lat="44.944645000" lon="12.282387000">
  <ele>0.000000</ele>
</trkpt>
<trkpt lat="44.944606000" lon="12.282168000">
  <ele>0.000000</ele>
</trkpt>
<trkpt lat="44.944693000" lon="12.281652000">
  <ele>0.000000</ele>
</trkpt>
<trkpt lat="44.944606000" lon="12.282168000">
  <ele>0.000000</ele>
</trkpt>
<trkpt lat="44.944645000" lon="12.282387000">
  <ele>0.000000</ele>
</trkpt>
<trkpt lat="44.945128000" lon="12.282771000">
  <ele>0.000000</ele>
</trkpt>
<trkpt lat="44.947272000" lon="12.282246000">
  <ele>0.000000</ele>
</trkpt>
<trkpt lat="44.947360000" lon="12.282962000">
  <ele>0.000000</ele>
</trkpt>
<trkpt lat="44.947604000" lon="12.285036000">
  <ele>0.000000</ele>
</trkpt>
<trkpt lat="44.947804000" lon="12.286743000">
  <ele>0.000000</ele>
</trkpt>
<trkpt lat="44.947996000" lon="12.288335000">
  <ele>0.000000</ele>
</trkpt>
<trkpt lat="44.948159000" lon="12.289699000">
  <ele>0.000000</ele>
</trkpt>
<trkpt lat="44.948288000" lon="12.290716000">
  <ele>0.000000</ele>
</trkpt>
<trkpt lat="44.948308000" lon="12.290889000">
  <ele>0.000000</ele>
</trkpt>
<trkpt lat="44.948347000" lon="12.291209000">
  <ele>0.000000</ele>
</trkpt>
<trkpt lat="44.948385000" lon="12.291499000">
  <ele>0.000000</ele>
</trkpt>
<trkpt lat="44.948415000" lon="12.291767000">
  <ele>0.000000</ele>
</trkpt>
<trkpt lat="44.948497000" lon="12.292416000">
  <ele>0.000000</ele>
</trkpt>
<trkpt lat="44.948560000" lon="12.292816000">
  <ele>0.000000</ele>
</trkpt>
<trkpt lat="44.948586000" lon="12.292945000">
  <ele>0.000000</ele>
</trkpt>
<trkpt lat="44.948586000" lon="12.292946000">
  <ele>0.000000</ele>
</trkpt>
<trkpt lat="44.948662000" lon="12.293317000">
  <ele>0.000000</ele>
</trkpt>
<trkpt lat="44.948756000" lon="12.293679000">
  <ele>0.000000</ele>
</trkpt>
<trkpt lat="44.948839000" lon="12.293952000">
  <ele>0.000000</ele>
</trkpt>
<trkpt lat="44.948898000" lon="12.294139000">
  <ele>0.000000</ele>
</trkpt>
<trkpt lat="44.948904000" lon="12.294160000">
  <ele>0.000000</ele>
</trkpt>
<trkpt lat="44.948988000" lon="12.294367000">
  <ele>0.000000</ele>
</trkpt>
<trkpt lat="44.949068000" lon="12.294531000">
  <ele>0.000000</ele>
</trkpt>
<trkpt lat="44.949090000" lon="12.294582000">
  <ele>0.000000</ele>
</trkpt>
<trkpt lat="44.949159000" lon="12.294739000">
  <ele>0.000000</ele>
</trkpt>
<trkpt lat="44.949590000" lon="12.295632000">
  <ele>0.000000</ele>
</trkpt>
<trkpt lat="44.949894000" lon="12.296399000">
  <ele>0.000000</ele>
</trkpt>
<trkpt lat="44.950064000" lon="12.296923000">
  <ele>0.000000</ele>
</trkpt>
<trkpt lat="44.950202000" lon="12.297509000">
  <ele>0.000000</ele>
</trkpt>
<trkpt lat="44.950490000" lon="12.298891000">
  <ele>0.000000</ele>
</trkpt>
<trkpt lat="44.950631000" lon="12.299641000">
  <ele>0.000000</ele>
</trkpt>
<trkpt lat="44.950585000" lon="12.299663000">
  <ele>0.000000</ele>
</trkpt>
<trkpt lat="44.950025000" lon="12.299857000">
  <ele>0.000000</ele>
</trkpt>
<trkpt lat="44.949680000" lon="12.299892000">
  <ele>0.000000</ele>
</trkpt>
<trkpt lat="44.949446000" lon="12.299916000">
  <ele>0.000000</ele>
</trkpt>
<trkpt lat="44.948573000" lon="12.299899000">
  <ele>0.000000</ele>
</trkpt>
<trkpt lat="44.948263000" lon="12.299805000">
  <ele>0.000000</ele>
</trkpt>
<trkpt lat="44.948101000" lon="12.299742000">
  <ele>0.000000</ele>
</trkpt>
<trkpt lat="44.948094000" lon="12.299738000">
  <ele>0.000000</ele>
</trkpt>
<trkpt lat="44.947877000" lon="12.299588000">
  <ele>0.000000</ele>
</trkpt>
<trkpt lat="44.947757000" lon="12.299459000">
  <ele>0.000000</ele>
</trkpt>
<trkpt lat="44.947543000" lon="12.299238000">
  <ele>0.000000</ele>
</trkpt>
<trkpt lat="44.947416000" lon="12.299134000">
  <ele>0.000000</ele>
</trkpt>
<trkpt lat="44.947208000" lon="12.299008000">
  <ele>0.000000</ele>
</trkpt>
<trkpt lat="44.946969000" lon="12.298891000">
  <ele>0.000000</ele>
</trkpt>
<trkpt lat="44.946868000" lon="12.298858000">
  <ele>0.000000</ele>
</trkpt>
<trkpt lat="44.946728000" lon="12.298823000">
  <ele>0.000000</ele>
</trkpt>
<trkpt lat="44.946565000" lon="12.298772000">
  <ele>0.000000</ele>
</trkpt>
<trkpt lat="44.946461000" lon="12.298729000">
  <ele>0.000000</ele>
</trkpt>
<trkpt lat="44.946322000" lon="12.298672000">
  <ele>0.000000</ele>
</trkpt>
<trkpt lat="44.946092000" lon="12.298535000">
  <ele>0.000000</ele>
</trkpt>
<trkpt lat="44.945913000" lon="12.298420000">
  <ele>0.000000</ele>
</trkpt>
<trkpt lat="44.945742000" lon="12.298310000">
  <ele>0.000000</ele>
</trkpt>
<trkpt lat="44.945633000" lon="12.298247000">
  <ele>0.000000</ele>
</trkpt>
<trkpt lat="44.945495000" lon="12.298173000">
  <ele>0.000000</ele>
</trkpt>
<trkpt lat="44.945316000" lon="12.298108000">
  <ele>0.000000</ele>
</trkpt>
<trkpt lat="44.945135000" lon="12.298077000">
  <ele>0.000000</ele>
</trkpt>
<trkpt lat="44.944945000" lon="12.298057000">
  <ele>0.000000</ele>
</trkpt>
<trkpt lat="44.944788000" lon="12.298064000">
  <ele>0.000000</ele>
</trkpt>
<trkpt lat="44.944635000" lon="12.298085000">
  <ele>0.000000</ele>
</trkpt>
<trkpt lat="44.944374000" lon="12.298107000">
  <ele>0.000000</ele>
</trkpt>
<trkpt lat="44.944278000" lon="12.298126000">
  <ele>0.000000</ele>
</trkpt>
<trkpt lat="44.944180000" lon="12.298146000">
  <ele>0.000000</ele>
</trkpt>
<trkpt lat="44.944050000" lon="12.298194000">
  <ele>0.000000</ele>
</trkpt>
<trkpt lat="44.943731000" lon="12.298314000">
  <ele>0.000000</ele>
</trkpt>
<trkpt lat="44.943439000" lon="12.298384000">
  <ele>0.000000</ele>
</trkpt>
<trkpt lat="44.943220000" lon="12.298428000">
  <ele>0.000000</ele>
</trkpt>
<trkpt lat="44.943203000" lon="12.298431000">
  <ele>0.000000</ele>
</trkpt>
<trkpt lat="44.943059000" lon="12.298450000">
  <ele>0.000000</ele>
</trkpt>
<trkpt lat="44.942809000" lon="12.298500000">
  <ele>0.000000</ele>
</trkpt>
<trkpt lat="44.942606000" lon="12.298546000">
  <ele>0.000000</ele>
</trkpt>
<trkpt lat="44.942463000" lon="12.298592000">
  <ele>0.000000</ele>
</trkpt>
<trkpt lat="44.942271000" lon="12.298647000">
  <ele>0.000000</ele>
</trkpt>
<trkpt lat="44.942107000" lon="12.298710000">
  <ele>0.000000</ele>
</trkpt>
<trkpt lat="44.942035000" lon="12.298742000">
  <ele>0.000000</ele>
</trkpt>
<trkpt lat="44.941900000" lon="12.298807000">
  <ele>0.000000</ele>
</trkpt>
<trkpt lat="44.941803000" lon="12.298847000">
  <ele>0.000000</ele>
</trkpt>
<trkpt lat="44.941656000" lon="12.298932000">
  <ele>0.000000</ele>
</trkpt>
<trkpt lat="44.941585000" lon="12.298977000">
  <ele>0.000000</ele>
</trkpt>
<trkpt lat="44.941502000" lon="12.299031000">
  <ele>0.000000</ele>
</trkpt>
<trkpt lat="44.941423000" lon="12.299102000">
  <ele>0.000000</ele>
</trkpt>
<trkpt lat="44.941238000" lon="12.299276000">
  <ele>0.000000</ele>
</trkpt>
<trkpt lat="44.941068000" lon="12.299428000">
  <ele>0.000000</ele>
</trkpt>
<trkpt lat="44.940831000" lon="12.299645000">
  <ele>0.000000</ele>
</trkpt>
<trkpt lat="44.940709000" lon="12.299750000">
  <ele>0.000000</ele>
</trkpt>
<trkpt lat="44.940591000" lon="12.299826000">
  <ele>0.000000</ele>
</trkpt>
<trkpt lat="44.940417000" lon="12.299931000">
  <ele>0.000000</ele>
</trkpt>
<trkpt lat="44.940240000" lon="12.300053000">
  <ele>0.000000</ele>
</trkpt>
<trkpt lat="44.940124000" lon="12.300112000">
  <ele>0.000000</ele>
</trkpt>
<trkpt lat="44.939971000" lon="12.300192000">
  <ele>0.000000</ele>
</trkpt>
<trkpt lat="44.939871000" lon="12.300271000">
  <ele>0.000000</ele>
</trkpt>
<trkpt lat="44.939732000" lon="12.300423000">
  <ele>0.000000</ele>
</trkpt>
<trkpt lat="44.939613000" lon="12.300605000">
  <ele>0.000000</ele>
</trkpt>
<trkpt lat="44.939525000" lon="12.300793000">
  <ele>0.000000</ele>
</trkpt>
<trkpt lat="44.939301000" lon="12.301283000">
  <ele>0.000000</ele>
</trkpt>
<trkpt lat="44.939161000" lon="12.301565000">
  <ele>0.000000</ele>
</trkpt>
<trkpt lat="44.939034000" lon="12.301776000">
  <ele>0.000000</ele>
</trkpt>
<trkpt lat="44.938965000" lon="12.301941000">
  <ele>0.000000</ele>
</trkpt>
<trkpt lat="44.938767000" lon="12.302316000">
  <ele>0.000000</ele>
</trkpt>
<trkpt lat="44.938516000" lon="12.302776000">
  <ele>0.000000</ele>
</trkpt>
<trkpt lat="44.938388000" lon="12.303034000">
  <ele>0.000000</ele>
</trkpt>
<trkpt lat="44.938295000" lon="12.303210000">
  <ele>0.000000</ele>
</trkpt>
<trkpt lat="44.938163000" lon="12.303504000">
  <ele>0.000000</ele>
</trkpt>
<trkpt lat="44.937991000" lon="12.303885000">
  <ele>0.000000</ele>
</trkpt>
<trkpt lat="44.937809000" lon="12.304313000">
  <ele>0.000000</ele>
</trkpt>
<trkpt lat="44.937688000" lon="12.304577000">
  <ele>0.000000</ele>
</trkpt>
<trkpt lat="44.937602000" lon="12.304759000">
  <ele>0.000000</ele>
</trkpt>
<trkpt lat="44.937573000" lon="12.304795000">
  <ele>0.000000</ele>
</trkpt>
<trkpt lat="44.937538000" lon="12.304923000">
  <ele>0.000000</ele>
</trkpt>
<trkpt lat="44.937304000" lon="12.305923000">
  <ele>0.000000</ele>
</trkpt>
<trkpt lat="44.937261000" lon="12.306226000">
  <ele>0.000000</ele>
</trkpt>
<trkpt lat="44.937243000" lon="12.306365000">
  <ele>0.000000</ele>
</trkpt>
<trkpt lat="44.937211000" lon="12.306667000">
  <ele>0.000000</ele>
</trkpt>
<trkpt lat="44.937192000" lon="12.306822000">
  <ele>0.000000</ele>
</trkpt>
<trkpt lat="44.937176000" lon="12.306943000">
  <ele>0.000000</ele>
</trkpt>
<trkpt lat="44.937132000" lon="12.307337000">
  <ele>0.000000</ele>
</trkpt>
<trkpt lat="44.937096000" lon="12.307538000">
  <ele>0.000000</ele>
</trkpt>
<trkpt lat="44.937008000" lon="12.307817000">
  <ele>0.000000</ele>
</trkpt>
<trkpt lat="44.936981000" lon="12.307903000">
  <ele>0.000000</ele>
</trkpt>
<trkpt lat="44.937015000" lon="12.308953000">
  <ele>0.000000</ele>
</trkpt>
<trkpt lat="44.937031000" lon="12.309513000">
  <ele>0.000000</ele>
</trkpt>
<trkpt lat="44.936830000" lon="12.311616000">
  <ele>0.000000</ele>
</trkpt>
<trkpt lat="44.936512000" lon="12.312720000">
  <ele>0.000000</ele>
</trkpt>
<trkpt lat="44.936119000" lon="12.314089000">
  <ele>0.000000</ele>
</trkpt>
<trkpt lat="44.935829000" lon="12.315098000">
  <ele>0.000000</ele>
</trkpt>
<trkpt lat="44.934380000" lon="12.319079000">
  <ele>0.000000</ele>
</trkpt>
<trkpt lat="44.932401000" lon="12.321154000">
  <ele>0.000000</ele>
</trkpt>
<trkpt lat="44.932003000" lon="12.321570000">
  <ele>0.000000</ele>
</trkpt>
<trkpt lat="44.931322000" lon="12.322033000">
  <ele>0.000000</ele>
</trkpt>
<trkpt lat="44.930859000" lon="12.322290000">
  <ele>0.000000</ele>
</trkpt>
<trkpt lat="44.930320000" lon="12.322348000">
  <ele>0.000000</ele>
</trkpt>
<trkpt lat="44.929955000" lon="12.322347000">
  <ele>0.000000</ele>
</trkpt>
<trkpt lat="44.929378000" lon="12.322227000">
  <ele>0.000000</ele>
</trkpt>
<trkpt lat="44.928246000" lon="12.321622000">
  <ele>0.000000</ele>
</trkpt>
<trkpt lat="44.927625000" lon="12.321123000">
  <ele>0.000000</ele>
</trkpt>
<trkpt lat="44.927230000" lon="12.320887000">
  <ele>0.000000</ele>
</trkpt>
<trkpt lat="44.926214000" lon="12.320420000">
  <ele>0.000000</ele>
</trkpt>
<trkpt lat="44.925382000" lon="12.320037000">
  <ele>0.000000</ele>
</trkpt>
<trkpt lat="44.923860000" lon="12.319338000">
  <ele>0.000000</ele>
</trkpt>
<trkpt lat="44.923142000" lon="12.319008000">
  <ele>0.000000</ele>
</trkpt>
<trkpt lat="44.922169000" lon="12.318560000">
  <ele>0.000000</ele>
</trkpt>
<trkpt lat="44.920974000" lon="12.318363000">
  <ele>0.000000</ele>
</trkpt>
<trkpt lat="44.920665000" lon="12.318313000">
  <ele>0.000000</ele>
</trkpt>
<trkpt lat="44.920169000" lon="12.318231000">
  <ele>0.000000</ele>
</trkpt>
<trkpt lat="44.919481000" lon="12.318086000">
  <ele>0.000000</ele>
</trkpt>
<trkpt lat="44.918960000" lon="12.317978000">
  <ele>0.000000</ele>
</trkpt>
<trkpt lat="44.918161000" lon="12.317699000">
  <ele>0.000000</ele>
</trkpt>
<trkpt lat="44.916916000" lon="12.317710000">
  <ele>0.000000</ele>
</trkpt>
<trkpt lat="44.915516000" lon="12.317751000">
  <ele>0.000000</ele>
</trkpt>
<trkpt lat="44.915221000" lon="12.317640000">
  <ele>0.000000</ele>
</trkpt>
<trkpt lat="44.915014000" lon="12.317519000">
  <ele>0.000000</ele>
</trkpt>
<trkpt lat="44.913869000" lon="12.316424000">
  <ele>0.000000</ele>
</trkpt>
<trkpt lat="44.912570000" lon="12.315331000">
  <ele>0.000000</ele>
</trkpt>
<trkpt lat="44.910452000" lon="12.314075000">
  <ele>0.000000</ele>
</trkpt>
<trkpt lat="44.910232000" lon="12.313945000">
  <ele>0.000000</ele>
</trkpt>
<trkpt lat="44.908701000" lon="12.312954000">
  <ele>0.000000</ele>
</trkpt>
<trkpt lat="44.908236000" lon="12.312710000">
  <ele>0.000000</ele>
</trkpt>
<trkpt lat="44.907852000" lon="12.312581000">
  <ele>0.000000</ele>
</trkpt>
<trkpt lat="44.907347000" lon="12.312501000">
  <ele>0.000000</ele>
</trkpt>
<trkpt lat="44.905807000" lon="12.312798000">
  <ele>0.000000</ele>
</trkpt>
<trkpt lat="44.905535000" lon="12.312880000">
  <ele>0.000000</ele>
</trkpt>
<trkpt lat="44.904759000" lon="12.313117000">
  <ele>0.000000</ele>
</trkpt>
<trkpt lat="44.903774000" lon="12.313508000">
  <ele>0.000000</ele>
</trkpt>
<trkpt lat="44.903297000" lon="12.313820000">
  <ele>0.000000</ele>
</trkpt>
<trkpt lat="44.902887000" lon="12.314207000">
  <ele>0.000000</ele>
</trkpt>
<trkpt lat="44.901904000" lon="12.315136000">
  <ele>0.000000</ele>
</trkpt>
<trkpt lat="44.901504000" lon="12.315715000">
  <ele>0.000000</ele>
</trkpt>
<trkpt lat="44.900521000" lon="12.317229000">
  <ele>0.000000</ele>
</trkpt>
<trkpt lat="44.898976000" lon="12.319537000">
  <ele>0.000000</ele>
</trkpt>
<trkpt lat="44.898890000" lon="12.319689000">
  <ele>0.000000</ele>
</trkpt>
<trkpt lat="44.898684000" lon="12.320010000">
  <ele>0.000000</ele>
</trkpt>
<trkpt lat="44.898586000" lon="12.320161000">
  <ele>0.000000</ele>
</trkpt>
<trkpt lat="44.898324000" lon="12.320521000">
  <ele>0.000000</ele>
</trkpt>
<trkpt lat="44.898052000" lon="12.320852000">
  <ele>0.000000</ele>
</trkpt>
<trkpt lat="44.897751000" lon="12.321209000">
  <ele>0.000000</ele>
</trkpt>
<trkpt lat="44.897607000" lon="12.321376000">
  <ele>0.000000</ele>
</trkpt>
<trkpt lat="44.897351000" lon="12.321674000">
  <ele>0.000000</ele>
</trkpt>
<trkpt lat="44.896893000" lon="12.322235000">
  <ele>0.000000</ele>
</trkpt>
<trkpt lat="44.896816000" lon="12.322332000">
  <ele>0.000000</ele>
</trkpt>
<trkpt lat="44.896780000" lon="12.322373000">
  <ele>0.000000</ele>
</trkpt>
<trkpt lat="44.896272000" lon="12.322993000">
  <ele>0.000000</ele>
</trkpt>
<trkpt lat="44.895652000" lon="12.323748000">
  <ele>0.000000</ele>
</trkpt>
<trkpt lat="44.895237000" lon="12.324253000">
  <ele>0.000000</ele>
</trkpt>
<trkpt lat="44.895142000" lon="12.324359000">
  <ele>0.000000</ele>
</trkpt>
<trkpt lat="44.895027000" lon="12.324457000">
  <ele>0.000000</ele>
</trkpt>
<trkpt lat="44.894963000" lon="12.324510000">
  <ele>0.000000</ele>
</trkpt>
<trkpt lat="44.894821000" lon="12.324613000">
  <ele>0.000000</ele>
</trkpt>
<trkpt lat="44.894639000" lon="12.324715000">
  <ele>0.000000</ele>
</trkpt>
<trkpt lat="44.894455000" lon="12.324775000">
  <ele>0.000000</ele>
</trkpt>
<trkpt lat="44.894333000" lon="12.324814000">
  <ele>0.000000</ele>
</trkpt>
<trkpt lat="44.893647000" lon="12.325025000">
  <ele>0.000000</ele>
</trkpt>
<trkpt lat="44.893362000" lon="12.325117000">
  <ele>0.000000</ele>
</trkpt>
<trkpt lat="44.893163000" lon="12.325178000">
  <ele>0.000000</ele>
</trkpt>
<trkpt lat="44.892686000" lon="12.325304000">
  <ele>0.000000</ele>
</trkpt>
<trkpt lat="44.892495000" lon="12.325350000">
  <ele>0.000000</ele>
</trkpt>
<trkpt lat="44.892196000" lon="12.325417000">
  <ele>0.000000</ele>
</trkpt>
<trkpt lat="44.891821000" lon="12.325481000">
  <ele>0.000000</ele>
</trkpt>
<trkpt lat="44.891657000" lon="12.325505000">
  <ele>0.000000</ele>
</trkpt>
<trkpt lat="44.891147000" lon="12.325583000">
  <ele>0.000000</ele>
</trkpt>
<trkpt lat="44.890750000" lon="12.325643000">
  <ele>0.000000</ele>
</trkpt>
<trkpt lat="44.889708000" lon="12.325795000">
  <ele>0.000000</ele>
</trkpt>
<trkpt lat="44.889251000" lon="12.325862000">
  <ele>0.000000</ele>
</trkpt>
<trkpt lat="44.888721000" lon="12.325939000">
  <ele>0.000000</ele>
</trkpt>
<trkpt lat="44.888340000" lon="12.325985000">
  <ele>0.000000</ele>
</trkpt>
<trkpt lat="44.887917000" lon="12.326056000">
  <ele>0.000000</ele>
</trkpt>
<trkpt lat="44.887821000" lon="12.326069000">
  <ele>0.000000</ele>
</trkpt>
<trkpt lat="44.887763000" lon="12.326077000">
  <ele>0.000000</ele>
</trkpt>
<trkpt lat="44.887762000" lon="12.326077000">
  <ele>0.000000</ele>
</trkpt>
<trkpt lat="44.886902000" lon="12.326208000">
  <ele>0.000000</ele>
</trkpt>
<trkpt lat="44.886723000" lon="12.326232000">
  <ele>0.000000</ele>
</trkpt>
<trkpt lat="44.885756000" lon="12.326372000">
  <ele>0.000000</ele>
</trkpt>
<trkpt lat="44.885611000" lon="12.326402000">
  <ele>0.000000</ele>
</trkpt>
<trkpt lat="44.884966000" lon="12.326494000">
  <ele>0.000000</ele>
</trkpt>
<trkpt lat="44.884831000" lon="12.326515000">
  <ele>0.000000</ele>
</trkpt>
<trkpt lat="44.884691000" lon="12.326539000">
  <ele>0.000000</ele>
</trkpt>
<trkpt lat="44.884566000" lon="12.326575000">
  <ele>0.000000</ele>
</trkpt>
<trkpt lat="44.884427000" lon="12.326652000">
  <ele>0.000000</ele>
</trkpt>
<trkpt lat="44.883897000" lon="12.326987000">
  <ele>0.000000</ele>
</trkpt>
<trkpt lat="44.883858000" lon="12.327009000">
  <ele>0.000000</ele>
</trkpt>
<trkpt lat="44.883708000" lon="12.327107000">
  <ele>0.000000</ele>
</trkpt>
<trkpt lat="44.883107000" lon="12.327492000">
  <ele>0.000000</ele>
</trkpt>
<trkpt lat="44.883053000" lon="12.327541000">
  <ele>0.000000</ele>
</trkpt>
<trkpt lat="44.882855000" lon="12.327735000">
  <ele>0.000000</ele>
</trkpt>
<trkpt lat="44.882676000" lon="12.327929000">
  <ele>0.000000</ele>
</trkpt>
<trkpt lat="44.882405000" lon="12.328215000">
  <ele>0.000000</ele>
</trkpt>
<trkpt lat="44.881672000" lon="12.328988000">
  <ele>0.000000</ele>
</trkpt>
<trkpt lat="44.881547000" lon="12.329122000">
  <ele>0.000000</ele>
</trkpt>
<trkpt lat="44.881367000" lon="12.329313000">
  <ele>0.000000</ele>
</trkpt>
<trkpt lat="44.881049000" lon="12.329651000">
  <ele>0.000000</ele>
</trkpt>
<trkpt lat="44.880546000" lon="12.330201000">
  <ele>0.000000</ele>
</trkpt>
<trkpt lat="44.880237000" lon="12.330536000">
  <ele>0.000000</ele>
</trkpt>
<trkpt lat="44.879954000" lon="12.330889000">
  <ele>0.000000</ele>
</trkpt>
<trkpt lat="44.879488000" lon="12.331440000">
  <ele>0.000000</ele>
</trkpt>
<trkpt lat="44.879145000" lon="12.331828000">
  <ele>0.000000</ele>
</trkpt>
<trkpt lat="44.878570000" lon="12.332383000">
  <ele>0.000000</ele>
</trkpt>
<trkpt lat="44.878481000" lon="12.332467000">
  <ele>0.000000</ele>
</trkpt>
<trkpt lat="44.878180000" lon="12.332776000">
  <ele>0.000000</ele>
</trkpt>
<trkpt lat="44.877969000" lon="12.333078000">
  <ele>0.000000</ele>
</trkpt>
<trkpt lat="44.877593000" lon="12.333651000">
  <ele>0.000000</ele>
</trkpt>
<trkpt lat="44.876698000" lon="12.334994000">
  <ele>0.000000</ele>
</trkpt>
<trkpt lat="44.876492000" lon="12.335334000">
  <ele>0.000000</ele>
</trkpt>
<trkpt lat="44.876479000" lon="12.335374000">
  <ele>0.000000</ele>
</trkpt>
<trkpt lat="44.876440000" lon="12.335492000">
  <ele>0.000000</ele>
</trkpt>
<trkpt lat="44.876299000" lon="12.335863000">
  <ele>0.000000</ele>
</trkpt>
<trkpt lat="44.876045000" lon="12.336450000">
  <ele>0.000000</ele>
</trkpt>
<trkpt lat="44.875431000" lon="12.337874000">
  <ele>0.000000</ele>
</trkpt>
<trkpt lat="44.874913000" lon="12.339154000">
  <ele>0.000000</ele>
</trkpt>
<trkpt lat="44.874829000" lon="12.339299000">
  <ele>0.000000</ele>
</trkpt>
<trkpt lat="44.874202000" lon="12.339824000">
  <ele>0.000000</ele>
</trkpt>
<trkpt lat="44.874136000" lon="12.339936000">
  <ele>0.000000</ele>
</trkpt>
<trkpt lat="44.874088000" lon="12.340042000">
  <ele>0.000000</ele>
</trkpt>
<trkpt lat="44.874066000" lon="12.340099000">
  <ele>0.000000</ele>
</trkpt>
<trkpt lat="44.874017000" lon="12.340247000">
  <ele>0.000000</ele>
</trkpt>
<trkpt lat="44.874000000" lon="12.340344000">
  <ele>0.000000</ele>
</trkpt>
<trkpt lat="44.873985000" lon="12.340519000">
  <ele>0.000000</ele>
</trkpt>
<trkpt lat="44.873985000" lon="12.340671000">
  <ele>0.000000</ele>
</trkpt>
<trkpt lat="44.873985000" lon="12.340735000">
  <ele>0.000000</ele>
</trkpt>
<trkpt lat="44.873978000" lon="12.341236000">
  <ele>0.000000</ele>
</trkpt>
<trkpt lat="44.873946000" lon="12.341491000">
  <ele>0.000000</ele>
</trkpt>
<trkpt lat="44.873879000" lon="12.341662000">
  <ele>0.000000</ele>
</trkpt>
<trkpt lat="44.873604000" lon="12.342365000">
  <ele>0.000000</ele>
</trkpt>
<trkpt lat="44.873481000" lon="12.342671000">
  <ele>0.000000</ele>
</trkpt>
<trkpt lat="44.873190000" lon="12.343422000">
  <ele>0.000000</ele>
</trkpt>
<trkpt lat="44.872761000" lon="12.344639000">
  <ele>0.000000</ele>
</trkpt>
<trkpt lat="44.872626000" lon="12.344991000">
  <ele>0.000000</ele>
</trkpt>
<trkpt lat="44.872614000" lon="12.345020000">
  <ele>0.000000</ele>
</trkpt>
<trkpt lat="44.872423000" lon="12.345502000">
  <ele>0.000000</ele>
</trkpt>
<trkpt lat="44.872103000" lon="12.346283000">
  <ele>0.000000</ele>
</trkpt>
<trkpt lat="44.871957000" lon="12.346549000">
  <ele>0.000000</ele>
</trkpt>
<trkpt lat="44.871550000" lon="12.347237000">
  <ele>0.000000</ele>
</trkpt>
<trkpt lat="44.871314000" lon="12.347636000">
  <ele>0.000000</ele>
</trkpt>
<trkpt lat="44.870987000" lon="12.348300000">
  <ele>0.000000</ele>
</trkpt>
<trkpt lat="44.870880000" lon="12.348581000">
  <ele>0.000000</ele>
</trkpt>
<trkpt lat="44.870752000" lon="12.349081000">
  <ele>0.000000</ele>
</trkpt>
<trkpt lat="44.870592000" lon="12.349856000">
  <ele>0.000000</ele>
</trkpt>
<trkpt lat="44.870222000" lon="12.351687000">
  <ele>0.000000</ele>
</trkpt>
<trkpt lat="44.869995000" lon="12.352752000">
  <ele>0.000000</ele>
</trkpt>
<trkpt lat="44.869899000" lon="12.353073000">
  <ele>0.000000</ele>
</trkpt>
<trkpt lat="44.869718000" lon="12.353461000">
  <ele>0.000000</ele>
</trkpt>
<trkpt lat="44.869373000" lon="12.353940000">
  <ele>0.000000</ele>
</trkpt>
<trkpt lat="44.869093000" lon="12.354206000">
  <ele>0.000000</ele>
</trkpt>
<trkpt lat="44.868191000" lon="12.355007000">
  <ele>0.000000</ele>
</trkpt>
<trkpt lat="44.867502000" lon="12.355656000">
  <ele>0.000000</ele>
</trkpt>
<trkpt lat="44.867258000" lon="12.355921000">
  <ele>0.000000</ele>
</trkpt>
<trkpt lat="44.866919000" lon="12.356288000">
  <ele>0.000000</ele>
</trkpt>
<trkpt lat="44.866163000" lon="12.357134000">
  <ele>0.000000</ele>
</trkpt>
<trkpt lat="44.865471000" lon="12.357904000">
  <ele>0.000000</ele>
</trkpt>
<trkpt lat="44.864857000" lon="12.358603000">
  <ele>0.000000</ele>
</trkpt>
<trkpt lat="44.864030000" lon="12.359622000">
  <ele>0.000000</ele>
</trkpt>
<trkpt lat="44.863937000" lon="12.359741000">
  <ele>0.000000</ele>
</trkpt>
<trkpt lat="44.863736000" lon="12.359999000">
  <ele>0.000000</ele>
</trkpt>
<trkpt lat="44.863651000" lon="12.360070000">
  <ele>0.000000</ele>
</trkpt>
<trkpt lat="44.863349000" lon="12.360279000">
  <ele>0.000000</ele>
</trkpt>
<trkpt lat="44.862579000" lon="12.360851000">
  <ele>0.000000</ele>
</trkpt>
<trkpt lat="44.861181000" lon="12.361880000">
  <ele>0.000000</ele>
</trkpt>
<trkpt lat="44.860990000" lon="12.362033000">
  <ele>0.000000</ele>
</trkpt>
<trkpt lat="44.860688000" lon="12.362237000">
  <ele>0.000000</ele>
</trkpt>
<trkpt lat="44.860376000" lon="12.362375000">
  <ele>0.000000</ele>
</trkpt>
<trkpt lat="44.859723000" lon="12.362595000">
  <ele>0.000000</ele>
</trkpt>
<trkpt lat="44.858297000" lon="12.363055000">
  <ele>0.000000</ele>
</trkpt>
<trkpt lat="44.857272000" lon="12.363387000">
  <ele>0.000000</ele>
</trkpt>
<trkpt lat="44.856886000" lon="12.363560000">
  <ele>0.000000</ele>
</trkpt>
<trkpt lat="44.856567000" lon="12.363693000">
  <ele>0.000000</ele>
</trkpt>
<trkpt lat="44.855425000" lon="12.364182000">
  <ele>0.000000</ele>
</trkpt>
<trkpt lat="44.854103000" lon="12.364754000">
  <ele>0.000000</ele>
</trkpt>
<trkpt lat="44.853564000" lon="12.364988000">
  <ele>0.000000</ele>
</trkpt>
<trkpt lat="44.853248000" lon="12.365130000">
  <ele>0.000000</ele>
</trkpt>
<trkpt lat="44.853234000" lon="12.365136000">
  <ele>0.000000</ele>
</trkpt>
<trkpt lat="44.853011000" lon="12.365319000">
  <ele>0.000000</ele>
</trkpt>
<trkpt lat="44.852678000" lon="12.365635000">
  <ele>0.000000</ele>
</trkpt>
<trkpt lat="44.851941000" lon="12.366372000">
  <ele>0.000000</ele>
</trkpt>
<trkpt lat="44.851502000" lon="12.366785000">
  <ele>0.000000</ele>
</trkpt>
<trkpt lat="44.851378000" lon="12.366871000">
  <ele>0.000000</ele>
</trkpt>
<trkpt lat="44.851226000" lon="12.367014000">
  <ele>0.000000</ele>
</trkpt>
<trkpt lat="44.850837000" lon="12.367334000">
  <ele>0.000000</ele>
</trkpt>
<trkpt lat="44.850571000" lon="12.367553000">
  <ele>0.000000</ele>
</trkpt>
<trkpt lat="44.849909000" lon="12.368107000">
  <ele>0.000000</ele>
</trkpt>
<trkpt lat="44.849611000" lon="12.368321000">
  <ele>0.000000</ele>
</trkpt>
<trkpt lat="44.849409000" lon="12.368431000">
  <ele>0.000000</ele>
</trkpt>
<trkpt lat="44.849395000" lon="12.368438000">
  <ele>0.000000</ele>
</trkpt>
<trkpt lat="44.849069000" lon="12.368537000">
  <ele>0.000000</ele>
</trkpt>
<trkpt lat="44.848684000" lon="12.368641000">
  <ele>0.000000</ele>
</trkpt>
<trkpt lat="44.848186000" lon="12.368808000">
  <ele>0.000000</ele>
</trkpt>
<trkpt lat="44.847673000" lon="12.368973000">
  <ele>0.000000</ele>
</trkpt>
<trkpt lat="44.847033000" lon="12.369207000">
  <ele>0.000000</ele>
</trkpt>
<trkpt lat="44.846696000" lon="12.369337000">
  <ele>0.000000</ele>
</trkpt>
<trkpt lat="44.846002000" lon="12.369604000">
  <ele>0.000000</ele>
</trkpt>
<trkpt lat="44.845592000" lon="12.369778000">
  <ele>0.000000</ele>
</trkpt>
<trkpt lat="44.845094000" lon="12.369965000">
  <ele>0.000000</ele>
</trkpt>
<trkpt lat="44.844410000" lon="12.370277000">
  <ele>0.000000</ele>
</trkpt>
<trkpt lat="44.844115000" lon="12.370424000">
  <ele>0.000000</ele>
</trkpt>
<trkpt lat="44.843911000" lon="12.370542000">
  <ele>0.000000</ele>
</trkpt>
<trkpt lat="44.843103000" lon="12.371209000">
  <ele>0.000000</ele>
</trkpt>
<trkpt lat="44.842693000" lon="12.371508000">
  <ele>0.000000</ele>
</trkpt>
<trkpt lat="44.842337000" lon="12.371771000">
  <ele>0.000000</ele>
</trkpt>
<trkpt lat="44.841898000" lon="12.372086000">
  <ele>0.000000</ele>
</trkpt>
<trkpt lat="44.841624000" lon="12.372256000">
  <ele>0.000000</ele>
</trkpt>
<trkpt lat="44.841237000" lon="12.372487000">
  <ele>0.000000</ele>
</trkpt>
<trkpt lat="44.840971000" lon="12.372634000">
  <ele>0.000000</ele>
</trkpt>
<trkpt lat="44.840602000" lon="12.372842000">
  <ele>0.000000</ele>
</trkpt>
<trkpt lat="44.839863000" lon="12.373232000">
  <ele>0.000000</ele>
</trkpt>
<trkpt lat="44.839731000" lon="12.373304000">
  <ele>0.000000</ele>
</trkpt>
<trkpt lat="44.839672000" lon="12.373395000">
  <ele>0.000000</ele>
</trkpt>
<trkpt lat="44.839619000" lon="12.373451000">
  <ele>0.000000</ele>
</trkpt>
<trkpt lat="44.839396000" lon="12.373589000">
  <ele>0.000000</ele>
</trkpt>
<trkpt lat="44.839314000" lon="12.373662000">
  <ele>0.000000</ele>
</trkpt>
<trkpt lat="44.839266000" lon="12.373740000">
  <ele>0.000000</ele>
</trkpt>
<trkpt lat="44.839253000" lon="12.373846000">
  <ele>0.000000</ele>
</trkpt>
<trkpt lat="44.839253000" lon="12.373848000">
  <ele>0.000000</ele>
</trkpt>
<trkpt lat="44.839321000" lon="12.374056000">
  <ele>0.000000</ele>
</trkpt>
<trkpt lat="44.839399000" lon="12.374327000">
  <ele>0.000000</ele>
</trkpt>
<trkpt lat="44.839457000" lon="12.374632000">
  <ele>0.000000</ele>
</trkpt>
<trkpt lat="44.839482000" lon="12.374754000">
  <ele>0.000000</ele>
</trkpt>
<trkpt lat="44.839650000" lon="12.375574000">
  <ele>0.000000</ele>
</trkpt>
<trkpt lat="44.839657000" lon="12.375608000">
  <ele>0.000000</ele>
</trkpt>
<trkpt lat="44.839688000" lon="12.375740000">
  <ele>0.000000</ele>
</trkpt>
<trkpt lat="44.839693000" lon="12.375763000">
  <ele>0.000000</ele>
</trkpt>
<trkpt lat="44.839682000" lon="12.375826000">
  <ele>0.000000</ele>
</trkpt>
<trkpt lat="44.839677000" lon="12.375856000">
  <ele>0.000000</ele>
</trkpt>
<trkpt lat="44.839629000" lon="12.375961000">
  <ele>0.000000</ele>
</trkpt>
<trkpt lat="44.839575000" lon="12.376058000">
  <ele>0.000000</ele>
</trkpt>
<trkpt lat="44.839461000" lon="12.376193000">
  <ele>0.000000</ele>
</trkpt>
<trkpt lat="44.839421000" lon="12.376277000">
  <ele>0.000000</ele>
</trkpt>
<trkpt lat="44.839281000" lon="12.376354000">
  <ele>0.000000</ele>
</trkpt>
<trkpt lat="44.839128000" lon="12.376419000">
  <ele>0.000000</ele>
</trkpt>
<trkpt lat="44.838962000" lon="12.376466000">
  <ele>0.000000</ele>
</trkpt>
<trkpt lat="44.838793000" lon="12.376489000">
  <ele>0.000000</ele>
</trkpt>
<trkpt lat="44.838528000" lon="12.376494000">
  <ele>0.000000</ele>
</trkpt>
<trkpt lat="44.838044000" lon="12.376529000">
  <ele>0.000000</ele>
</trkpt>
<trkpt lat="44.837734000" lon="12.376576000">
  <ele>0.000000</ele>
</trkpt>
<trkpt lat="44.836899000" lon="12.376698000">
  <ele>0.000000</ele>
</trkpt>
<trkpt lat="44.836572000" lon="12.376757000">
  <ele>0.000000</ele>
</trkpt>
<trkpt lat="44.836541000" lon="12.376763000">
  <ele>0.000000</ele>
</trkpt>
<trkpt lat="44.836349000" lon="12.376804000">
  <ele>0.000000</ele>
</trkpt>
<trkpt lat="44.836155000" lon="12.376809000">
  <ele>0.000000</ele>
</trkpt>
<trkpt lat="44.836060000" lon="12.376809000">
  <ele>0.000000</ele>
</trkpt>
<trkpt lat="44.836022000" lon="12.376809000">
  <ele>0.000000</ele>
</trkpt>
<trkpt lat="44.835778000" lon="12.376897000">
  <ele>0.000000</ele>
</trkpt>
<trkpt lat="44.835439000" lon="12.377050000">
  <ele>0.000000</ele>
</trkpt>
<trkpt lat="44.834173000" lon="12.377645000">
  <ele>0.000000</ele>
</trkpt>
<trkpt lat="44.834040000" lon="12.377716000">
  <ele>0.000000</ele>
</trkpt>
<trkpt lat="44.833974000" lon="12.377739000">
  <ele>0.000000</ele>
</trkpt>
<trkpt lat="44.833734000" lon="12.377816000">
  <ele>0.000000</ele>
</trkpt>
<trkpt lat="44.833155000" lon="12.377998000">
  <ele>0.000000</ele>
</trkpt>
<trkpt lat="44.832505000" lon="12.378192000">
  <ele>0.000000</ele>
</trkpt>
<trkpt lat="44.832257000" lon="12.378274000">
  <ele>0.000000</ele>
</trkpt>
<trkpt lat="44.831665000" lon="12.378457000">
  <ele>0.000000</ele>
</trkpt>
<trkpt lat="44.831425000" lon="12.378539000">
  <ele>0.000000</ele>
</trkpt>
<trkpt lat="44.831011000" lon="12.378716000">
  <ele>0.000000</ele>
</trkpt>
<trkpt lat="44.830581000" lon="12.378892000">
  <ele>0.000000</ele>
</trkpt>
<trkpt lat="44.830407000" lon="12.378963000">
  <ele>0.000000</ele>
</trkpt>
<trkpt lat="44.830320000" lon="12.379004000">
  <ele>0.000000</ele>
</trkpt>
<trkpt lat="44.830225000" lon="12.379028000">
  <ele>0.000000</ele>
</trkpt>
<trkpt lat="44.830126000" lon="12.379051000">
  <ele>0.000000</ele>
</trkpt>
<trkpt lat="44.830035000" lon="12.379063000">
  <ele>0.000000</ele>
</trkpt>
<trkpt lat="44.829939000" lon="12.379069000">
  <ele>0.000000</ele>
</trkpt>
<trkpt lat="44.829890000" lon="12.379080000">
  <ele>0.000000</ele>
</trkpt>
<trkpt lat="44.829530000" lon="12.379216000">
  <ele>0.000000</ele>
</trkpt>
<trkpt lat="44.828817000" lon="12.379528000">
  <ele>0.000000</ele>
</trkpt>
<trkpt lat="44.828611000" lon="12.379593000">
  <ele>0.000000</ele>
</trkpt>
<trkpt lat="44.828308000" lon="12.379728000">
  <ele>0.000000</ele>
</trkpt>
<trkpt lat="44.827774000" lon="12.379988000">
  <ele>0.000000</ele>
</trkpt>
<trkpt lat="44.827298000" lon="12.380294000">
  <ele>0.000000</ele>
</trkpt>
<trkpt lat="44.827020000" lon="12.380501000">
  <ele>0.000000</ele>
</trkpt>
<trkpt lat="44.826527000" lon="12.380867000">
  <ele>0.000000</ele>
</trkpt>
<trkpt lat="44.826195000" lon="12.381150000">
  <ele>0.000000</ele>
</trkpt>
<trkpt lat="44.825947000" lon="12.381416000">
  <ele>0.000000</ele>
</trkpt>
<trkpt lat="44.825718000" lon="12.381694000">
  <ele>0.000000</ele>
</trkpt>
<trkpt lat="44.825590000" lon="12.381901000">
  <ele>0.000000</ele>
</trkpt>
<trkpt lat="44.825316000" lon="12.382273000">
  <ele>0.000000</ele>
</trkpt>
<trkpt lat="44.824814000" lon="12.382995000">
  <ele>0.000000</ele>
</trkpt>
<trkpt lat="44.824370000" lon="12.383616000">
  <ele>0.000000</ele>
</trkpt>
<trkpt lat="44.824064000" lon="12.384062000">
  <ele>0.000000</ele>
</trkpt>
<trkpt lat="44.824052000" lon="12.384084000">
  <ele>0.000000</ele>
</trkpt>
<trkpt lat="44.824043000" lon="12.384096000">
  <ele>0.000000</ele>
</trkpt>
<trkpt lat="44.824042000" lon="12.384099000">
  <ele>0.000000</ele>
</trkpt>
<trkpt lat="44.824041000" lon="12.384102000">
  <ele>0.000000</ele>
</trkpt>
<trkpt lat="44.823844000" lon="12.384392000">
  <ele>0.000000</ele>
</trkpt>
<trkpt lat="44.823600000" lon="12.384755000">
  <ele>0.000000</ele>
</trkpt>
<trkpt lat="44.823403000" lon="12.385020000">
  <ele>0.000000</ele>
</trkpt>
<trkpt lat="44.823062000" lon="12.385507000">
  <ele>0.000000</ele>
</trkpt>
<trkpt lat="44.822045000" lon="12.386910000">
  <ele>0.000000</ele>
</trkpt>
<trkpt lat="44.821792000" lon="12.387248000">
  <ele>0.000000</ele>
</trkpt>
<trkpt lat="44.821488000" lon="12.387676000">
  <ele>0.000000</ele>
</trkpt>
<trkpt lat="44.820851000" lon="12.388568000">
  <ele>0.000000</ele>
</trkpt>
<trkpt lat="44.820140000" lon="12.389554000">
  <ele>0.000000</ele>
</trkpt>
<trkpt lat="44.819539000" lon="12.390379000">
  <ele>0.000000</ele>
</trkpt>
<trkpt lat="44.819276000" lon="12.390754000">
  <ele>0.000000</ele>
</trkpt>
<trkpt lat="44.818223000" lon="12.392188000">
  <ele>0.000000</ele>
</trkpt>
<trkpt lat="44.817960000" lon="12.392586000">
  <ele>0.000000</ele>
</trkpt>
<trkpt lat="44.817293000" lon="12.394064000">
  <ele>0.000000</ele>
</trkpt>
<trkpt lat="44.816788000" lon="12.395181000">
  <ele>0.000000</ele>
</trkpt>
<trkpt lat="44.816345000" lon="12.396270000">
  <ele>0.000000</ele>
</trkpt>
<trkpt lat="44.816215000" lon="12.396626000">
  <ele>0.000000</ele>
</trkpt>
<trkpt lat="44.816119000" lon="12.396854000">
  <ele>0.000000</ele>
</trkpt>
<trkpt lat="44.816047000" lon="12.397203000">
  <ele>0.000000</ele>
</trkpt>
<trkpt lat="44.815920000" lon="12.397936000">
  <ele>0.000000</ele>
</trkpt>
<trkpt lat="44.815733000" lon="12.398842000">
  <ele>0.000000</ele>
</trkpt>
<trkpt lat="44.815629000" lon="12.399278000">
  <ele>0.000000</ele>
</trkpt>
<trkpt lat="44.815596000" lon="12.399423000">
  <ele>0.000000</ele>
</trkpt>
<trkpt lat="44.815463000" lon="12.399775000">
  <ele>0.000000</ele>
</trkpt>
<trkpt lat="44.815285000" lon="12.400613000">
  <ele>0.000000</ele>
</trkpt>
<trkpt lat="44.814757000" lon="12.403357000">
  <ele>0.000000</ele>
</trkpt>
<trkpt lat="44.814741000" lon="12.403563000">
  <ele>0.000000</ele>
</trkpt>
<trkpt lat="44.814821000" lon="12.403666000">
  <ele>0.000000</ele>
</trkpt>
<trkpt lat="44.815109000" lon="12.403678000">
  <ele>0.000000</ele>
</trkpt>
<trkpt lat="44.815749000" lon="12.403678000">
  <ele>0.000000</ele>
</trkpt>
<trkpt lat="44.816314000" lon="12.403667000">
  <ele>0.000000</ele>
</trkpt>
<trkpt lat="44.816931000" lon="12.403644000">
  <ele>0.000000</ele>
</trkpt>
<trkpt lat="44.817664000" lon="12.403542000">
  <ele>0.000000</ele>
</trkpt>
<trkpt lat="44.818594000" lon="12.403432000">
  <ele>0.000000</ele>
</trkpt>
<trkpt lat="44.819581000" lon="12.403409000">
  <ele>0.000000</ele>
</trkpt>
<trkpt lat="44.819670000" lon="12.403376000">
  <ele>0.000000</ele>
</trkpt>
<trkpt lat="44.819844000" lon="12.403120000">
  <ele>0.000000</ele>
</trkpt>
<trkpt lat="44.820123000" lon="12.402709000">
  <ele>0.000000</ele>
</trkpt>
<trkpt lat="44.820435000" lon="12.402263000">
  <ele>0.000000</ele>
</trkpt>
<trkpt lat="44.821120000" lon="12.401237000">
  <ele>0.000000</ele>
</trkpt>
<trkpt lat="44.822454000" lon="12.399291000">
  <ele>0.000000</ele>
</trkpt>
<trkpt lat="44.823109000" lon="12.398354000">
  <ele>0.000000</ele>
</trkpt>
<trkpt lat="44.823805000" lon="12.397387000">
  <ele>0.000000</ele>
</trkpt>
<trkpt lat="44.823979000" lon="12.397166000">
  <ele>0.000000</ele>
</trkpt>
<trkpt lat="44.824066000" lon="12.397089000">
  <ele>0.000000</ele>
</trkpt>
<trkpt lat="44.824072000" lon="12.397082000">
  <ele>0.000000</ele>
</trkpt>
<trkpt lat="44.824131000" lon="12.397047000">
  <ele>0.000000</ele>
</trkpt>
<trkpt lat="44.825181000" lon="12.396345000">
  <ele>0.000000</ele>
</trkpt>
<trkpt lat="44.826317000" lon="12.395585000">
  <ele>0.000000</ele>
</trkpt>
<trkpt lat="44.827256000" lon="12.394945000">
  <ele>0.000000</ele>
</trkpt>
<trkpt lat="44.828240000" lon="12.394283000">
  <ele>0.000000</ele>
</trkpt>
<trkpt lat="44.829348000" lon="12.393545000">
  <ele>0.000000</ele>
</trkpt>
<trkpt lat="44.829899000" lon="12.393170000">
  <ele>0.000000</ele>
</trkpt>
<trkpt lat="44.829996000" lon="12.393109000">
  <ele>0.000000</ele>
</trkpt>
<trkpt lat="44.830695000" lon="12.392711000">
  <ele>0.000000</ele>
</trkpt>
<trkpt lat="44.831053000" lon="12.392606000">
  <ele>0.000000</ele>
</trkpt>
<trkpt lat="44.831261000" lon="12.392571000">
  <ele>0.000000</ele>
</trkpt>
<trkpt lat="44.831384000" lon="12.392575000">
  <ele>0.000000</ele>
</trkpt>
<trkpt lat="44.831520000" lon="12.392602000">
  <ele>0.000000</ele>
</trkpt>
<trkpt lat="44.831631000" lon="12.392682000">
  <ele>0.000000</ele>
</trkpt>
<trkpt lat="44.831721000" lon="12.392824000">
  <ele>0.000000</ele>
</trkpt>
<trkpt lat="44.831801000" lon="12.392961000">
  <ele>0.000000</ele>
</trkpt>
<trkpt lat="44.832035000" lon="12.393519000">
  <ele>0.000000</ele>
</trkpt>
<trkpt lat="44.832438000" lon="12.394374000">
  <ele>0.000000</ele>
</trkpt>
<trkpt lat="44.832547000" lon="12.394458000">
  <ele>0.000000</ele>
</trkpt>
<trkpt lat="44.833109000" lon="12.394764000">
  <ele>0.000000</ele>
</trkpt>
<trkpt lat="44.833983000" lon="12.395226000">
  <ele>0.000000</ele>
</trkpt>
<trkpt lat="44.834150000" lon="12.395284000">
  <ele>0.000000</ele>
</trkpt>
<trkpt lat="44.835209000" lon="12.395476000">
  <ele>0.000000</ele>
</trkpt>
<trkpt lat="44.836109000" lon="12.395628000">
  <ele>0.000000</ele>
</trkpt>
<trkpt lat="44.836402000" lon="12.395677000">
  <ele>0.000000</ele>
</trkpt>
<trkpt lat="44.837073000" lon="12.395784000">
  <ele>0.000000</ele>
</trkpt>
<trkpt lat="44.837165000" lon="12.395802000">
  <ele>0.000000</ele>
</trkpt>
<trkpt lat="44.837286000" lon="12.395842000">
  <ele>0.000000</ele>
</trkpt>
<trkpt lat="44.837523000" lon="12.395962000">
  <ele>0.000000</ele>
</trkpt>
<trkpt lat="44.838061000" lon="12.396224000">
  <ele>0.000000</ele>
</trkpt>
<trkpt lat="44.838286000" lon="12.396326000">
  <ele>0.000000</ele>
</trkpt>
<trkpt lat="44.839188000" lon="12.396779000">
  <ele>0.000000</ele>
</trkpt>
<trkpt lat="44.840182000" lon="12.397263000">
  <ele>0.000000</ele>
</trkpt>
<trkpt lat="44.840976000" lon="12.397650000">
  <ele>0.000000</ele>
</trkpt>
<trkpt lat="44.841180000" lon="12.397756000">
  <ele>0.000000</ele>
</trkpt>
<trkpt lat="44.841424000" lon="12.397872000">
  <ele>0.000000</ele>
</trkpt>
<trkpt lat="44.841748000" lon="12.398120000">
  <ele>0.000000</ele>
</trkpt>
<trkpt lat="44.842066000" lon="12.398395000">
  <ele>0.000000</ele>
</trkpt>
<trkpt lat="44.842516000" lon="12.398883000">
  <ele>0.000000</ele>
</trkpt>
<trkpt lat="44.842831000" lon="12.399251000">
  <ele>0.000000</ele>
</trkpt>
<trkpt lat="44.843522000" lon="12.400040000">
  <ele>0.000000</ele>
</trkpt>
<trkpt lat="44.844429000" lon="12.401086000">
  <ele>0.000000</ele>
</trkpt>
<trkpt lat="44.844559000" lon="12.401206000">
  <ele>0.000000</ele>
</trkpt>
<trkpt lat="44.844707000" lon="12.401242000">
  <ele>0.000000</ele>
</trkpt>
<trkpt lat="44.845220000" lon="12.401176000">
  <ele>0.000000</ele>
</trkpt>
<trkpt lat="44.845368000" lon="12.401229000">
  <ele>0.000000</ele>
</trkpt>
<trkpt lat="44.845554000" lon="12.401402000">
  <ele>0.000000</ele>
</trkpt>
<trkpt lat="44.845868000" lon="12.401704000">
  <ele>0.000000</ele>
</trkpt>
<trkpt lat="44.845933000" lon="12.401726000">
  <ele>0.000000</ele>
</trkpt>
<trkpt lat="44.845995000" lon="12.401753000">
  <ele>0.000000</ele>
</trkpt>
<trkpt lat="44.846103000" lon="12.401757000">
  <ele>0.000000</ele>
</trkpt>
<trkpt lat="44.846341000" lon="12.401735000">
  <ele>0.000000</ele>
</trkpt>
<trkpt lat="44.846950000" lon="12.401657000">
  <ele>0.000000</ele>
</trkpt>
<trkpt lat="44.847527000" lon="12.401587000">
  <ele>0.000000</ele>
</trkpt>
<trkpt lat="44.847886000" lon="12.401543000">
  <ele>0.000000</ele>
</trkpt>
<trkpt lat="44.848293000" lon="12.401491000">
  <ele>0.000000</ele>
</trkpt>
<trkpt lat="44.849068000" lon="12.401398000">
  <ele>0.000000</ele>
</trkpt>
<trkpt lat="44.849930000" lon="12.401309000">
  <ele>0.000000</ele>
</trkpt>
<trkpt lat="44.850041000" lon="12.401333000">
  <ele>0.000000</ele>
</trkpt>
<trkpt lat="44.850075000" lon="12.401367000">
  <ele>0.000000</ele>
</trkpt>
<trkpt lat="44.850107000" lon="12.401410000">
  <ele>0.000000</ele>
</trkpt>
<trkpt lat="44.850161000" lon="12.401531000">
  <ele>0.000000</ele>
</trkpt>
<trkpt lat="44.850248000" lon="12.401729000">
  <ele>0.000000</ele>
</trkpt>
<trkpt lat="44.850713000" lon="12.402830000">
  <ele>0.000000</ele>
</trkpt>
<trkpt lat="44.851275000" lon="12.404133000">
  <ele>0.000000</ele>
</trkpt>
<trkpt lat="44.851492000" lon="12.404647000">
  <ele>0.000000</ele>
</trkpt>
<trkpt lat="44.851586000" lon="12.404789000">
  <ele>0.000000</ele>
</trkpt>
<trkpt lat="44.851794000" lon="12.404662000">
  <ele>0.000000</ele>
</trkpt>
<trkpt lat="44.852595000" lon="12.404006000">
  <ele>0.000000</ele>
</trkpt>
<trkpt lat="44.853465000" lon="12.403289000">
  <ele>0.000000</ele>
</trkpt>
<trkpt lat="44.854242000" lon="12.402650000">
  <ele>0.000000</ele>
</trkpt>
<trkpt lat="44.855043000" lon="12.401987000">
  <ele>0.000000</ele>
</trkpt>
<trkpt lat="44.855955000" lon="12.401242000">
  <ele>0.000000</ele>
</trkpt>
<trkpt lat="44.856795000" lon="12.400531000">
  <ele>0.000000</ele>
</trkpt>
<trkpt lat="44.857633000" lon="12.399851000">
  <ele>0.000000</ele>
</trkpt>
<trkpt lat="44.858492000" lon="12.399152000">
  <ele>0.000000</ele>
</trkpt>
<trkpt lat="44.859267000" lon="12.398513000">
  <ele>0.000000</ele>
</trkpt>
<trkpt lat="44.860216000" lon="12.397735000">
  <ele>0.000000</ele>
</trkpt>
<trkpt lat="44.860769000" lon="12.397277000">
  <ele>0.000000</ele>
</trkpt>
<trkpt lat="44.861506000" lon="12.396676000">
  <ele>0.000000</ele>
</trkpt>
<trkpt lat="44.861675000" lon="12.396534000">
  <ele>0.000000</ele>
</trkpt>
<trkpt lat="44.861725000" lon="12.396473000">
  <ele>0.000000</ele>
</trkpt>
<trkpt lat="44.861909000" lon="12.396072000">
  <ele>0.000000</ele>
</trkpt>
<trkpt lat="44.862364000" lon="12.395038000">
  <ele>0.000000</ele>
</trkpt>
<trkpt lat="44.863124000" lon="12.393383000">
  <ele>0.000000</ele>
</trkpt>
<trkpt lat="44.863874000" lon="12.391737000">
  <ele>0.000000</ele>
</trkpt>
<trkpt lat="44.864567000" lon="12.390209000">
  <ele>0.000000</ele>
</trkpt>
<trkpt lat="44.864714000" lon="12.389885000">
  <ele>0.000000</ele>
</trkpt>
<trkpt lat="44.865289000" lon="12.388618000">
  <ele>0.000000</ele>
</trkpt>
<trkpt lat="44.865558000" lon="12.388028000">
  <ele>0.000000</ele>
</trkpt>
<trkpt lat="44.865960000" lon="12.387140000">
  <ele>0.000000</ele>
</trkpt>
<trkpt lat="44.866014000" lon="12.387017000">
  <ele>0.000000</ele>
</trkpt>
<trkpt lat="44.866092000" lon="12.386899000">
  <ele>0.000000</ele>
</trkpt>
<trkpt lat="44.866151000" lon="12.386853000">
  <ele>0.000000</ele>
</trkpt>
<trkpt lat="44.866235000" lon="12.386810000">
  <ele>0.000000</ele>
</trkpt>
<trkpt lat="44.866512000" lon="12.386759000">
  <ele>0.000000</ele>
</trkpt>
<trkpt lat="44.866880000" lon="12.386696000">
  <ele>0.000000</ele>
</trkpt>
<trkpt lat="44.867470000" lon="12.386576000">
  <ele>0.000000</ele>
</trkpt>
<trkpt lat="44.867714000" lon="12.386524000">
  <ele>0.000000</ele>
</trkpt>
<trkpt lat="44.867972000" lon="12.386469000">
  <ele>0.000000</ele>
</trkpt>
<trkpt lat="44.868285000" lon="12.386387000">
  <ele>0.000000</ele>
</trkpt>
<trkpt lat="44.868587000" lon="12.386340000">
  <ele>0.000000</ele>
</trkpt>
<trkpt lat="44.868958000" lon="12.386261000">
  <ele>0.000000</ele>
</trkpt>
<trkpt lat="44.869031000" lon="12.386255000">
  <ele>0.000000</ele>
</trkpt>
<trkpt lat="44.869099000" lon="12.386268000">
  <ele>0.000000</ele>
</trkpt>
<trkpt lat="44.869155000" lon="12.386291000">
  <ele>0.000000</ele>
</trkpt>
<trkpt lat="44.869213000" lon="12.386338000">
  <ele>0.000000</ele>
</trkpt>
<trkpt lat="44.869877000" lon="12.387024000">
  <ele>0.000000</ele>
</trkpt>
<trkpt lat="44.870342000" lon="12.387516000">
  <ele>0.000000</ele>
</trkpt>
<trkpt lat="44.870803000" lon="12.388003000">
  <ele>0.000000</ele>
</trkpt>
<trkpt lat="44.871173000" lon="12.388585000">
  <ele>0.000000</ele>
</trkpt>
<trkpt lat="44.871306000" lon="12.388803000">
  <ele>0.000000</ele>
</trkpt>
<trkpt lat="44.871212000" lon="12.389251000">
  <ele>0.000000</ele>
</trkpt>
<trkpt lat="44.871144000" lon="12.389597000">
  <ele>0.000000</ele>
</trkpt>
<trkpt lat="44.871132000" lon="12.389788000">
  <ele>0.000000</ele>
</trkpt>
<trkpt lat="44.871181000" lon="12.390016000">
  <ele>0.000000</ele>
</trkpt>
<trkpt lat="44.871273000" lon="12.390179000">
  <ele>0.000000</ele>
</trkpt>
<trkpt lat="44.871418000" lon="12.390315000">
  <ele>0.000000</ele>
</trkpt>
<trkpt lat="44.872059000" lon="12.390918000">
  <ele>0.000000</ele>
</trkpt>
<trkpt lat="44.872778000" lon="12.391626000">
  <ele>0.000000</ele>
</trkpt>
<trkpt lat="44.873527000" lon="12.392354000">
  <ele>0.000000</ele>
</trkpt>
<trkpt lat="44.874067000" lon="12.392853000">
  <ele>0.000000</ele>
</trkpt>
<trkpt lat="44.874131000" lon="12.392866000">
  <ele>0.000000</ele>
</trkpt>
<trkpt lat="44.874205000" lon="12.392866000">
  <ele>0.000000</ele>
</trkpt>
<trkpt lat="44.874377000" lon="12.392686000">
  <ele>0.000000</ele>
</trkpt>
<trkpt lat="44.874657000" lon="12.392379000">
  <ele>0.000000</ele>
</trkpt>
<trkpt lat="44.875024000" lon="12.391972000">
  <ele>0.000000</ele>
</trkpt>
<trkpt lat="44.876054000" lon="12.390806000">
  <ele>0.000000</ele>
</trkpt>
<trkpt lat="44.876710000" lon="12.390019000">
  <ele>0.000000</ele>
</trkpt>
<trkpt lat="44.876910000" lon="12.389786000">
  <ele>0.000000</ele>
</trkpt>
<trkpt lat="44.877022000" lon="12.389699000">
  <ele>0.000000</ele>
</trkpt>
<trkpt lat="44.877185000" lon="12.389619000">
  <ele>0.000000</ele>
</trkpt>
<trkpt lat="44.877283000" lon="12.389619000">
  <ele>0.000000</ele>
</trkpt>
<trkpt lat="44.877385000" lon="12.389673000">
  <ele>0.000000</ele>
</trkpt>
<trkpt lat="44.878114000" lon="12.390513000">
  <ele>0.000000</ele>
</trkpt>
<trkpt lat="44.878268000" lon="12.390713000">
  <ele>0.000000</ele>
</trkpt>
<trkpt lat="44.878314000" lon="12.390880000">
  <ele>0.000000</ele>
</trkpt>
<trkpt lat="44.878467000" lon="12.391580000">
  <ele>0.000000</ele>
</trkpt>
<trkpt lat="44.878638000" lon="12.392320000">
  <ele>0.000000</ele>
</trkpt>
<trkpt lat="44.878694000" lon="12.392494000">
  <ele>0.000000</ele>
</trkpt>
<trkpt lat="44.878800000" lon="12.392647000">
  <ele>0.000000</ele>
</trkpt>
<trkpt lat="44.878945000" lon="12.392814000">
  <ele>0.000000</ele>
</trkpt>
<trkpt lat="44.879274000" lon="12.393187000">
  <ele>0.000000</ele>
</trkpt>
<trkpt lat="44.879632000" lon="12.393601000">
  <ele>0.000000</ele>
</trkpt>
<trkpt lat="44.879688000" lon="12.393701000">
  <ele>0.000000</ele>
</trkpt>
<trkpt lat="44.880013000" lon="12.394442000">
  <ele>0.000000</ele>
</trkpt>
<trkpt lat="44.880602000" lon="12.395789000">
  <ele>0.000000</ele>
</trkpt>
<trkpt lat="44.880871000" lon="12.396463000">
  <ele>0.000000</ele>
</trkpt>
<trkpt lat="44.881720000" lon="12.398791000">
  <ele>0.000000</ele>
</trkpt>
<trkpt lat="44.881822000" lon="12.399005000">
  <ele>0.000000</ele>
</trkpt>
<trkpt lat="44.881915000" lon="12.399098000">
  <ele>0.000000</ele>
</trkpt>
<trkpt lat="44.882027000" lon="12.399178000">
  <ele>0.000000</ele>
</trkpt>
<trkpt lat="44.882561000" lon="12.399399000">
  <ele>0.000000</ele>
</trkpt>
<trkpt lat="44.882655000" lon="12.399459000">
  <ele>0.000000</ele>
</trkpt>
<trkpt lat="44.882766000" lon="12.399545000">
  <ele>0.000000</ele>
</trkpt>
<trkpt lat="44.882980000" lon="12.399739000">
  <ele>0.000000</ele>
</trkpt>
<trkpt lat="44.883110000" lon="12.399899000">
  <ele>0.000000</ele>
</trkpt>
<trkpt lat="44.883272000" lon="12.400126000">
  <ele>0.000000</ele>
</trkpt>
<trkpt lat="44.883653000" lon="12.400673000">
  <ele>0.000000</ele>
</trkpt>
<trkpt lat="44.883756000" lon="12.400827000">
  <ele>0.000000</ele>
</trkpt>
<trkpt lat="44.883830000" lon="12.400994000">
  <ele>0.000000</ele>
</trkpt>
<trkpt lat="44.883946000" lon="12.401327000">
  <ele>0.000000</ele>
</trkpt>
<trkpt lat="44.884159000" lon="12.402008000">
  <ele>0.000000</ele>
</trkpt>
<trkpt lat="44.884266000" lon="12.402228000">
  <ele>0.000000</ele>
</trkpt>
<trkpt lat="44.884600000" lon="12.402842000">
  <ele>0.000000</ele>
</trkpt>
<trkpt lat="44.884828000" lon="12.403256000">
  <ele>0.000000</ele>
</trkpt>
<trkpt lat="44.884953000" lon="12.403549000">
  <ele>0.000000</ele>
</trkpt>
<trkpt lat="44.885180000" lon="12.404290000">
  <ele>0.000000</ele>
</trkpt>
<trkpt lat="44.885366000" lon="12.404323000">
  <ele>0.000000</ele>
</trkpt>
<trkpt lat="44.885594000" lon="12.404324000">
  <ele>0.000000</ele>
</trkpt>
<trkpt lat="44.885720000" lon="12.404270000">
  <ele>0.000000</ele>
</trkpt>
<trkpt lat="44.885841000" lon="12.404150000">
  <ele>0.000000</ele>
</trkpt>
<trkpt lat="44.886004000" lon="12.403963000">
  <ele>0.000000</ele>
</trkpt>
<trkpt lat="44.886130000" lon="12.403810000">
  <ele>0.000000</ele>
</trkpt>
<trkpt lat="44.886437000" lon="12.403276000">
  <ele>0.000000</ele>
</trkpt>
<trkpt lat="44.886661000" lon="12.402929000">
  <ele>0.000000</ele>
</trkpt>
<trkpt lat="44.886842000" lon="12.402709000">
  <ele>0.000000</ele>
</trkpt>
<trkpt lat="44.887080000" lon="12.402436000">
  <ele>0.000000</ele>
</trkpt>
<trkpt lat="44.887536000" lon="12.401916000">
  <ele>0.000000</ele>
</trkpt>
<trkpt lat="44.888095000" lon="12.401275000">
  <ele>0.000000</ele>
</trkpt>
<trkpt lat="44.888924000" lon="12.400321000">
  <ele>0.000000</ele>
</trkpt>
<trkpt lat="44.889459000" lon="12.399712000">
  <ele>0.000000</ele>
</trkpt>
<trkpt lat="44.889546000" lon="12.399624000">
  <ele>0.000000</ele>
</trkpt>
<trkpt lat="44.889587000" lon="12.399602000">
  <ele>0.000000</ele>
</trkpt>
<trkpt lat="44.889673000" lon="12.399595000">
  <ele>0.000000</ele>
</trkpt>
<trkpt lat="44.889883000" lon="12.399661000">
  <ele>0.000000</ele>
</trkpt>
<trkpt lat="44.890174000" lon="12.399786000">
  <ele>0.000000</ele>
</trkpt>
<trkpt lat="44.890512000" lon="12.399969000">
  <ele>0.000000</ele>
</trkpt>
<trkpt lat="44.890640000" lon="12.400072000">
  <ele>0.000000</ele>
</trkpt>
<trkpt lat="44.890808000" lon="12.400263000">
  <ele>0.000000</ele>
</trkpt>
<trkpt lat="44.891018000" lon="12.400556000">
  <ele>0.000000</ele>
</trkpt>
<trkpt lat="44.891457000" lon="12.401041000">
  <ele>0.000000</ele>
</trkpt>
<trkpt lat="44.892004000" lon="12.401694000">
  <ele>0.000000</ele>
</trkpt>
<trkpt lat="44.892969000" lon="12.402816000">
  <ele>0.000000</ele>
</trkpt>
<trkpt lat="44.893644000" lon="12.403587000">
  <ele>0.000000</ele>
</trkpt>
<trkpt lat="44.894323000" lon="12.404365000">
  <ele>0.000000</ele>
</trkpt>
<trkpt lat="44.894420000" lon="12.404490000">
  <ele>0.000000</ele>
</trkpt>
<trkpt lat="44.894471000" lon="12.404703000">
  <ele>0.000000</ele>
</trkpt>
<trkpt lat="44.894507000" lon="12.404908000">
  <ele>0.000000</ele>
</trkpt>
<trkpt lat="44.894593000" lon="12.406178000">
  <ele>0.000000</ele>
</trkpt>
<trkpt lat="44.894628000" lon="12.406816000">
  <ele>0.000000</ele>
</trkpt>
<trkpt lat="44.894709000" lon="12.408188000">
  <ele>0.000000</ele>
</trkpt>
<trkpt lat="44.894334000" lon="12.409465000">
  <ele>0.000000</ele>
</trkpt>
<trkpt lat="44.894329000" lon="12.409597000">
  <ele>0.000000</ele>
</trkpt>
<trkpt lat="44.894344000" lon="12.409780000">
  <ele>0.000000</ele>
</trkpt>
<trkpt lat="44.894451000" lon="12.410037000">
  <ele>0.000000</ele>
</trkpt>
<trkpt lat="44.894753000" lon="12.410742000">
  <ele>0.000000</ele>
</trkpt>
<trkpt lat="44.895100000" lon="12.411579000">
  <ele>0.000000</ele>
</trkpt>
<trkpt lat="44.895477000" lon="12.412467000">
  <ele>0.000000</ele>
</trkpt>
<trkpt lat="44.896023000" lon="12.413965000">
  <ele>0.000000</ele>
</trkpt>
<trkpt lat="44.896634000" lon="12.415718000">
  <ele>0.000000</ele>
</trkpt>
<trkpt lat="44.896803000" lon="12.416152000">
  <ele>0.000000</ele>
</trkpt>
<trkpt lat="44.897514000" lon="12.417923000">
  <ele>0.000000</ele>
</trkpt>
<trkpt lat="44.897761000" lon="12.418494000">
  <ele>0.000000</ele>
</trkpt>
<trkpt lat="44.897861000" lon="12.418746000">
  <ele>0.000000</ele>
</trkpt>
<trkpt lat="44.898179000" lon="12.419334000">
  <ele>0.000000</ele>
</trkpt>
<trkpt lat="44.898361000" lon="12.419518000">
  <ele>0.000000</ele>
</trkpt>
<trkpt lat="44.898365000" lon="12.419526000">
  <ele>0.000000</ele>
</trkpt>
<trkpt lat="44.898637000" lon="12.420056000">
  <ele>0.000000</ele>
</trkpt>
<trkpt lat="44.898843000" lon="12.420467000">
  <ele>0.000000</ele>
</trkpt>
<trkpt lat="44.899072000" lon="12.420893000">
  <ele>0.000000</ele>
</trkpt>
<trkpt lat="44.899706000" lon="12.422325000">
  <ele>0.000000</ele>
</trkpt>
<trkpt lat="44.900470000" lon="12.424095000">
  <ele>0.000000</ele>
</trkpt>
<trkpt lat="44.900542000" lon="12.424315000">
  <ele>0.000000</ele>
</trkpt>
<trkpt lat="44.900574000" lon="12.424466000">
  <ele>0.000000</ele>
</trkpt>
<trkpt lat="44.900581000" lon="12.424564000">
  <ele>0.000000</ele>
</trkpt>
<trkpt lat="44.900587000" lon="12.424677000">
  <ele>0.000000</ele>
</trkpt>
<trkpt lat="44.900583000" lon="12.424813000">
  <ele>0.000000</ele>
</trkpt>
<trkpt lat="44.900580000" lon="12.424874000">
  <ele>0.000000</ele>
</trkpt>
<trkpt lat="44.900564000" lon="12.425001000">
  <ele>0.000000</ele>
</trkpt>
<trkpt lat="44.900528000" lon="12.425104000">
  <ele>0.000000</ele>
</trkpt>
<trkpt lat="44.899825000" lon="12.427363000">
  <ele>0.000000</ele>
</trkpt>
<trkpt lat="44.899072000" lon="12.429675000">
  <ele>0.000000</ele>
</trkpt>
<trkpt lat="44.898305000" lon="12.432003000">
  <ele>0.000000</ele>
</trkpt>
<trkpt lat="44.895668000" lon="12.440300000">
  <ele>0.000000</ele>
</trkpt>
<trkpt lat="44.895667000" lon="12.440324000">
  <ele>0.000000</ele>
</trkpt>
<trkpt lat="44.895152000" lon="12.440958000">
  <ele>0.000000</ele>
</trkpt>
<trkpt lat="44.895117000" lon="12.440974000">
  <ele>0.000000</ele>
</trkpt>
<trkpt lat="44.894853000" lon="12.441330000">
  <ele>0.000000</ele>
</trkpt>
<trkpt lat="44.894585000" lon="12.441621000">
  <ele>0.000000</ele>
</trkpt>
<trkpt lat="44.894421000" lon="12.441792000">
  <ele>0.000000</ele>
</trkpt>
<trkpt lat="44.894327000" lon="12.441841000">
  <ele>0.000000</ele>
</trkpt>
<trkpt lat="44.890011000" lon="12.441774000">
  <ele>0.000000</ele>
</trkpt>
<trkpt lat="44.889896000" lon="12.441767000">
  <ele>0.000000</ele>
</trkpt>
<trkpt lat="44.889776000" lon="12.441741000">
  <ele>0.000000</ele>
</trkpt>
<trkpt lat="44.888675000" lon="12.441328000">
  <ele>0.000000</ele>
</trkpt>
<trkpt lat="44.887808000" lon="12.441003000">
  <ele>0.000000</ele>
</trkpt>
<trkpt lat="44.887568000" lon="12.440951000">
  <ele>0.000000</ele>
</trkpt>
<trkpt lat="44.886825000" lon="12.440866000">
  <ele>0.000000</ele>
</trkpt>
<trkpt lat="44.885703000" lon="12.440761000">
  <ele>0.000000</ele>
</trkpt>
<trkpt lat="44.883851000" lon="12.440465000">
  <ele>0.000000</ele>
</trkpt>
<trkpt lat="44.883620000" lon="12.440432000">
  <ele>0.000000</ele>
</trkpt>
<trkpt lat="44.880988000" lon="12.439986000">
  <ele>0.000000</ele>
</trkpt>
<trkpt lat="44.880850000" lon="12.439973000">
  <ele>0.000000</ele>
</trkpt>
<trkpt lat="44.876911000" lon="12.440576000">
  <ele>0.000000</ele>
</trkpt>
<trkpt lat="44.876329000" lon="12.440623000">
  <ele>0.000000</ele>
</trkpt>
<trkpt lat="44.874195000" lon="12.440718000">
  <ele>0.000000</ele>
</trkpt>
<trkpt lat="44.874066000" lon="12.440724000">
  <ele>0.000000</ele>
</trkpt>
<trkpt lat="44.874065000" lon="12.440724000">
  <ele>0.000000</ele>
</trkpt>
<trkpt lat="44.874029000" lon="12.440722000">
  <ele>0.000000</ele>
</trkpt>
<trkpt lat="44.871818000" lon="12.440747000">
  <ele>0.000000</ele>
</trkpt>
<trkpt lat="44.870945000" lon="12.440772000">
  <ele>0.000000</ele>
</trkpt>
<trkpt lat="44.870687000" lon="12.440777000">
  <ele>0.000000</ele>
</trkpt>
<trkpt lat="44.869496000" lon="12.440812000">
  <ele>0.000000</ele>
</trkpt>
<trkpt lat="44.868136000" lon="12.440857000">
  <ele>0.000000</ele>
</trkpt>
<trkpt lat="44.866421000" lon="12.440904000">
  <ele>0.000000</ele>
</trkpt>
<trkpt lat="44.866161000" lon="12.440967000">
  <ele>0.000000</ele>
</trkpt>
<trkpt lat="44.866102000" lon="12.441034000">
  <ele>0.000000</ele>
</trkpt>
<trkpt lat="44.865552000" lon="12.441915000">
  <ele>0.000000</ele>
</trkpt>
<trkpt lat="44.864892000" lon="12.442970000">
  <ele>0.000000</ele>
</trkpt>
<trkpt lat="44.864543000" lon="12.443551000">
  <ele>0.000000</ele>
</trkpt>
<trkpt lat="44.864429000" lon="12.443720000">
  <ele>0.000000</ele>
</trkpt>
<trkpt lat="44.864307000" lon="12.443826000">
  <ele>0.000000</ele>
</trkpt>
<trkpt lat="44.864211000" lon="12.443876000">
  <ele>0.000000</ele>
</trkpt>
<trkpt lat="44.864142000" lon="12.443888000">
  <ele>0.000000</ele>
</trkpt>
<trkpt lat="44.864063000" lon="12.443882000">
  <ele>0.000000</ele>
</trkpt>
<trkpt lat="44.863980000" lon="12.443832000">
  <ele>0.000000</ele>
</trkpt>
<trkpt lat="44.863928000" lon="12.443788000">
  <ele>0.000000</ele>
</trkpt>
<trkpt lat="44.863836000" lon="12.443657000">
  <ele>0.000000</ele>
</trkpt>
<trkpt lat="44.862318000" lon="12.441052000">
  <ele>0.000000</ele>
</trkpt>
<trkpt lat="44.862032000" lon="12.440570000">
  <ele>0.000000</ele>
</trkpt>
<trkpt lat="44.861904000" lon="12.440385000">
  <ele>0.000000</ele>
</trkpt>
<trkpt lat="44.861439000" lon="12.439821000">
  <ele>0.000000</ele>
</trkpt>
<trkpt lat="44.859566000" lon="12.437555000">
  <ele>0.000000</ele>
</trkpt>
<trkpt lat="44.859287000" lon="12.437227000">
  <ele>0.000000</ele>
</trkpt>
<trkpt lat="44.857249000" lon="12.435710000">
  <ele>0.000000</ele>
</trkpt>
<trkpt lat="44.854925000" lon="12.433977000">
  <ele>0.000000</ele>
</trkpt>
<trkpt lat="44.854810000" lon="12.433905000">
  <ele>0.000000</ele>
</trkpt>
<trkpt lat="44.854617000" lon="12.433823000">
  <ele>0.000000</ele>
</trkpt>
<trkpt lat="44.852171000" lon="12.433033000">
  <ele>0.000000</ele>
</trkpt>
<trkpt lat="44.851992000" lon="12.433022000">
  <ele>0.000000</ele>
</trkpt>
<trkpt lat="44.851720000" lon="12.433299000">
  <ele>0.000000</ele>
</trkpt>
<trkpt lat="44.850632000" lon="12.435274000">
  <ele>0.000000</ele>
</trkpt>
<trkpt lat="44.849067000" lon="12.438096000">
  <ele>0.000000</ele>
</trkpt>
<trkpt lat="44.848526000" lon="12.439018000">
  <ele>0.000000</ele>
</trkpt>
<trkpt lat="44.847681000" lon="12.440452000">
  <ele>0.000000</ele>
</trkpt>
<trkpt lat="44.846591000" lon="12.442353000">
  <ele>0.000000</ele>
</trkpt>
<trkpt lat="44.845366000" lon="12.444516000">
  <ele>0.000000</ele>
</trkpt>
<trkpt lat="44.844394000" lon="12.446245000">
  <ele>0.000000</ele>
</trkpt>
<trkpt lat="44.844058000" lon="12.446850000">
  <ele>0.000000</ele>
</trkpt>
<trkpt lat="44.843822000" lon="12.447573000">
  <ele>0.000000</ele>
</trkpt>
<trkpt lat="44.843409000" lon="12.448828000">
  <ele>0.000000</ele>
</trkpt>
<trkpt lat="44.842722000" lon="12.450963000">
  <ele>0.000000</ele>
</trkpt>
<trkpt lat="44.842711000" lon="12.451039000">
  <ele>0.000000</ele>
</trkpt>
<trkpt lat="44.842715000" lon="12.451139000">
  <ele>0.000000</ele>
</trkpt>
<trkpt lat="44.842921000" lon="12.453207000">
  <ele>0.000000</ele>
</trkpt>
<trkpt lat="44.843179000" lon="12.455823000">
  <ele>0.000000</ele>
</trkpt>
<trkpt lat="44.843309000" lon="12.457170000">
  <ele>0.000000</ele>
</trkpt>
<trkpt lat="44.843313000" lon="12.457386000">
  <ele>0.000000</ele>
</trkpt>
<trkpt lat="44.843334000" lon="12.457788000">
  <ele>0.000000</ele>
</trkpt>
<trkpt lat="44.843555000" lon="12.460073000">
  <ele>0.000000</ele>
</trkpt>
<trkpt lat="44.843803000" lon="12.462615000">
  <ele>0.000000</ele>
</trkpt>
<trkpt lat="44.843947000" lon="12.464096000">
  <ele>0.000000</ele>
</trkpt>
<trkpt lat="44.843966000" lon="12.464227000">
  <ele>0.000000</ele>
</trkpt>
<trkpt lat="44.843970000" lon="12.464267000">
  <ele>0.000000</ele>
</trkpt>
<trkpt lat="44.843980000" lon="12.464286000">
  <ele>0.000000</ele>
</trkpt>
<trkpt lat="44.843998000" lon="12.464286000">
  <ele>0.000000</ele>
</trkpt>
<trkpt lat="44.844090000" lon="12.464240000">
  <ele>0.000000</ele>
</trkpt>
<trkpt lat="44.844268000" lon="12.464200000">
  <ele>0.000000</ele>
</trkpt>
<trkpt lat="44.844698000" lon="12.464155000">
  <ele>0.000000</ele>
</trkpt>
<trkpt lat="44.844712000" lon="12.464153000">
  <ele>0.000000</ele>
</trkpt>
<trkpt lat="44.845708000" lon="12.464049000">
  <ele>0.000000</ele>
</trkpt>
<trkpt lat="44.847377000" lon="12.463871000">
  <ele>0.000000</ele>
</trkpt>
<trkpt lat="44.847435000" lon="12.463865000">
  <ele>0.000000</ele>
</trkpt>
<trkpt lat="44.848225000" lon="12.463791000">
  <ele>0.000000</ele>
</trkpt>
<trkpt lat="44.849066000" lon="12.463725000">
  <ele>0.000000</ele>
</trkpt>
<trkpt lat="44.849309000" lon="12.463706000">
  <ele>0.000000</ele>
</trkpt>
<trkpt lat="44.849694000" lon="12.463663000">
  <ele>0.000000</ele>
</trkpt>
<trkpt lat="44.850017000" lon="12.463633000">
  <ele>0.000000</ele>
</trkpt>
<trkpt lat="44.850624000" lon="12.463552000">
  <ele>0.000000</ele>
</trkpt>
<trkpt lat="44.850886000" lon="12.463523000">
  <ele>0.000000</ele>
</trkpt>
<trkpt lat="44.851307000" lon="12.463471000">
  <ele>0.000000</ele>
</trkpt>
<trkpt lat="44.851713000" lon="12.463427000">
  <ele>0.000000</ele>
</trkpt>
<trkpt lat="44.852247000" lon="12.463361000">
  <ele>0.000000</ele>
</trkpt>
<trkpt lat="44.852591000" lon="12.463310000">
  <ele>0.000000</ele>
</trkpt>
<trkpt lat="44.852725000" lon="12.463302000">
  <ele>0.000000</ele>
</trkpt>
<trkpt lat="44.853079000" lon="12.463258000">
  <ele>0.000000</ele>
</trkpt>
<trkpt lat="44.853254000" lon="12.463251000">
  <ele>0.000000</ele>
</trkpt>
<trkpt lat="44.853424000" lon="12.463251000">
  <ele>0.000000</ele>
</trkpt>
<trkpt lat="44.853686000" lon="12.463273000">
  <ele>0.000000</ele>
</trkpt>
<trkpt lat="44.853876000" lon="12.463295000">
  <ele>0.000000</ele>
</trkpt>
<trkpt lat="44.854364000" lon="12.463332000">
  <ele>0.000000</ele>
</trkpt>
<trkpt lat="44.854620000" lon="12.463354000">
  <ele>0.000000</ele>
</trkpt>
<trkpt lat="44.854867000" lon="12.463362000">
  <ele>0.000000</ele>
</trkpt>
<trkpt lat="44.855067000" lon="12.463399000">
  <ele>0.000000</ele>
</trkpt>
<trkpt lat="44.855365000" lon="12.463413000">
  <ele>0.000000</ele>
</trkpt>
<trkpt lat="44.855792000" lon="12.463450000">
  <ele>0.000000</ele>
</trkpt>
<trkpt lat="44.856290000" lon="12.463487000">
  <ele>0.000000</ele>
</trkpt>
<trkpt lat="44.856588000" lon="12.463517000">
  <ele>0.000000</ele>
</trkpt>
<trkpt lat="44.857091000" lon="12.463546000">
  <ele>0.000000</ele>
</trkpt>
<trkpt lat="44.857477000" lon="12.463583000">
  <ele>0.000000</ele>
</trkpt>
<trkpt lat="44.857893000" lon="12.463613000">
  <ele>0.000000</ele>
</trkpt>
<trkpt lat="44.858530000" lon="12.463657000">
  <ele>0.000000</ele>
</trkpt>
<trkpt lat="44.858802000" lon="12.463679000">
  <ele>0.000000</ele>
</trkpt>
<trkpt lat="44.859285000" lon="12.463724000">
  <ele>0.000000</ele>
</trkpt>
<trkpt lat="44.859937000" lon="12.463775000">
  <ele>0.000000</ele>
</trkpt>
<trkpt lat="44.860446000" lon="12.463827000">
  <ele>0.000000</ele>
</trkpt>
<trkpt lat="44.860590000" lon="12.463834000">
  <ele>0.000000</ele>
</trkpt>
<trkpt lat="44.861088000" lon="12.463871000">
  <ele>0.000000</ele>
</trkpt>
<trkpt lat="44.861874000" lon="12.463938000">
  <ele>0.000000</ele>
</trkpt>
<trkpt lat="44.862393000" lon="12.463982000">
  <ele>0.000000</ele>
</trkpt>
<trkpt lat="44.862531000" lon="12.463997000">
  <ele>0.000000</ele>
</trkpt>
<trkpt lat="44.862850000" lon="12.464026000">
  <ele>0.000000</ele>
</trkpt>
<trkpt lat="44.863379000" lon="12.464063000">
  <ele>0.000000</ele>
</trkpt>
<trkpt lat="44.863816000" lon="12.464100000">
  <ele>0.000000</ele>
</trkpt>
<trkpt lat="44.864124000" lon="12.464122000">
  <ele>0.000000</ele>
</trkpt>
<trkpt lat="44.864402000" lon="12.464152000">
  <ele>0.000000</ele>
</trkpt>
<trkpt lat="44.864581000" lon="12.464167000">
  <ele>0.000000</ele>
</trkpt>
<trkpt lat="44.864648000" lon="12.464145000">
  <ele>0.000000</ele>
</trkpt>
<trkpt lat="44.864720000" lon="12.464093000">
  <ele>0.000000</ele>
</trkpt>
<trkpt lat="44.864782000" lon="12.464071000">
  <ele>0.000000</ele>
</trkpt>
<trkpt lat="44.864972000" lon="12.464071000">
  <ele>0.000000</ele>
</trkpt>
<trkpt lat="44.865069000" lon="12.464130000">
  <ele>0.000000</ele>
</trkpt>
<trkpt lat="44.865177000" lon="12.464196000">
  <ele>0.000000</ele>
</trkpt>
<trkpt lat="44.865224000" lon="12.464218000">
  <ele>0.000000</ele>
</trkpt>
<trkpt lat="44.865259000" lon="12.464218000">
  <ele>0.000000</ele>
</trkpt>
<trkpt lat="44.865460000" lon="12.464196000">
  <ele>0.000000</ele>
</trkpt>
<trkpt lat="44.865593000" lon="12.464189000">
  <ele>0.000000</ele>
</trkpt>
<trkpt lat="44.866169000" lon="12.464115000">
  <ele>0.000000</ele>
</trkpt>
<trkpt lat="44.866297000" lon="12.464108000">
  <ele>0.000000</ele>
</trkpt>
<trkpt lat="44.866559000" lon="12.464071000">
  <ele>0.000000</ele>
</trkpt>
<trkpt lat="44.866791000" lon="12.464042000">
  <ele>0.000000</ele>
</trkpt>
<trkpt lat="44.867243000" lon="12.463990000">
  <ele>0.000000</ele>
</trkpt>
<trkpt lat="44.867654000" lon="12.463946000">
  <ele>0.000000</ele>
</trkpt>
<trkpt lat="44.868162000" lon="12.463895000">
  <ele>0.000000</ele>
</trkpt>
<trkpt lat="44.868645000" lon="12.463836000">
  <ele>0.000000</ele>
</trkpt>
<trkpt lat="44.869118000" lon="12.463785000">
  <ele>0.000000</ele>
</trkpt>
<trkpt lat="44.869467000" lon="12.463748000">
  <ele>0.000000</ele>
</trkpt>
<trkpt lat="44.869981000" lon="12.463689000">
  <ele>0.000000</ele>
</trkpt>
<trkpt lat="44.870402000" lon="12.463645000">
  <ele>0.000000</ele>
</trkpt>
<trkpt lat="44.870942000" lon="12.463586000">
  <ele>0.000000</ele>
</trkpt>
<trkpt lat="44.871471000" lon="12.463535000">
  <ele>0.000000</ele>
</trkpt>
<trkpt lat="44.871918000" lon="12.463483000">
  <ele>0.000000</ele>
</trkpt>
<trkpt lat="44.872090000" lon="12.463465000">
  <ele>0.000000</ele>
</trkpt>
<trkpt lat="44.872233000" lon="12.463452000">
  <ele>0.000000</ele>
</trkpt>
<trkpt lat="44.872438000" lon="12.463434000">
  <ele>0.000000</ele>
</trkpt>
<trkpt lat="44.872912000" lon="12.463381000">
  <ele>0.000000</ele>
</trkpt>
<trkpt lat="44.873218000" lon="12.463345000">
  <ele>0.000000</ele>
</trkpt>
<trkpt lat="44.873251000" lon="12.463338000">
  <ele>0.000000</ele>
</trkpt>
<trkpt lat="44.875318000" lon="12.462647000">
  <ele>0.000000</ele>
</trkpt>
<trkpt lat="44.877884000" lon="12.462229000">
  <ele>0.000000</ele>
</trkpt>
<trkpt lat="44.878070000" lon="12.462275000">
  <ele>0.000000</ele>
</trkpt>
<trkpt lat="44.878172000" lon="12.462293000">
  <ele>0.000000</ele>
</trkpt>
<trkpt lat="44.878364000" lon="12.462384000">
  <ele>0.000000</ele>
</trkpt>
<trkpt lat="44.879113000" lon="12.462841000">
  <ele>0.000000</ele>
</trkpt>
<trkpt lat="44.879119000" lon="12.462842000">
  <ele>0.000000</ele>
</trkpt>
<trkpt lat="44.879170000" lon="12.462856000">
  <ele>0.000000</ele>
</trkpt>
<trkpt lat="44.879312000" lon="12.462896000">
  <ele>0.000000</ele>
</trkpt>
<trkpt lat="44.879530000" lon="12.462895000">
  <ele>0.000000</ele>
</trkpt>
<trkpt lat="44.881645000" lon="12.462604000">
  <ele>0.000000</ele>
</trkpt>
<trkpt lat="44.884587000" lon="12.462200000">
  <ele>0.000000</ele>
</trkpt>
<trkpt lat="44.885386000" lon="12.462090000">
  <ele>0.000000</ele>
</trkpt>
<trkpt lat="44.885597000" lon="12.462062000">
  <ele>0.000000</ele>
</trkpt>
<trkpt lat="44.885719000" lon="12.462025000">
  <ele>0.000000</ele>
</trkpt>
<trkpt lat="44.885821000" lon="12.461998000">
  <ele>0.000000</ele>
</trkpt>
<trkpt lat="44.885994000" lon="12.461915000">
  <ele>0.000000</ele>
</trkpt>
<trkpt lat="44.886211000" lon="12.461777000">
  <ele>0.000000</ele>
</trkpt>
<trkpt lat="44.886454000" lon="12.461649000">
  <ele>0.000000</ele>
</trkpt>
<trkpt lat="44.886590000" lon="12.461605000">
  <ele>0.000000</ele>
</trkpt>
<trkpt lat="44.886595000" lon="12.461603000">
  <ele>0.000000</ele>
</trkpt>
<trkpt lat="44.887824000" lon="12.461455000">
  <ele>0.000000</ele>
</trkpt>
<trkpt lat="44.888461000" lon="12.461381000">
  <ele>0.000000</ele>
</trkpt>
<trkpt lat="44.888854000" lon="12.461352000">
  <ele>0.000000</ele>
</trkpt>
<trkpt lat="44.889117000" lon="12.461390000">
  <ele>0.000000</ele>
</trkpt>
<trkpt lat="44.889245000" lon="12.461408000">
  <ele>0.000000</ele>
</trkpt>
<trkpt lat="44.889299000" lon="12.461416000">
  <ele>0.000000</ele>
</trkpt>
<trkpt lat="44.889750000" lon="12.461535000">
  <ele>0.000000</ele>
</trkpt>
<trkpt lat="44.889997000" lon="12.461600000">
  <ele>0.000000</ele>
</trkpt>
<trkpt lat="44.890697000" lon="12.461612000">
  <ele>0.000000</ele>
</trkpt>
<trkpt lat="44.890720000" lon="12.461613000">
  <ele>0.000000</ele>
</trkpt>
<trkpt lat="44.890840000" lon="12.461686000">
  <ele>0.000000</ele>
</trkpt>
<trkpt lat="44.890960000" lon="12.461706000">
  <ele>0.000000</ele>
</trkpt>
<trkpt lat="44.891077000" lon="12.461541000">
  <ele>0.000000</ele>
</trkpt>
<trkpt lat="44.891121000" lon="12.461493000">
  <ele>0.000000</ele>
</trkpt>
<trkpt lat="44.891193000" lon="12.461436000">
  <ele>0.000000</ele>
</trkpt>
<trkpt lat="44.891250000" lon="12.461407000">
  <ele>0.000000</ele>
</trkpt>
<trkpt lat="44.891377000" lon="12.461400000">
  <ele>0.000000</ele>
</trkpt>
<trkpt lat="44.891581000" lon="12.461435000">
  <ele>0.000000</ele>
</trkpt>
<trkpt lat="44.891913000" lon="12.461539000">
  <ele>0.000000</ele>
</trkpt>
<trkpt lat="44.892054000" lon="12.461636000">
  <ele>0.000000</ele>
</trkpt>
<trkpt lat="44.892215000" lon="12.461691000">
  <ele>0.000000</ele>
</trkpt>
<trkpt lat="44.892434000" lon="12.461726000">
  <ele>0.000000</ele>
</trkpt>
<trkpt lat="44.892916000" lon="12.461753000">
  <ele>0.000000</ele>
</trkpt>
<trkpt lat="44.894827000" lon="12.461830000">
  <ele>0.000000</ele>
</trkpt>
<trkpt lat="44.895048000" lon="12.461839000">
  <ele>0.000000</ele>
</trkpt>
<trkpt lat="44.895191000" lon="12.461845000">
  <ele>0.000000</ele>
</trkpt>
<trkpt lat="44.896919000" lon="12.461914000">
  <ele>0.000000</ele>
</trkpt>
<trkpt lat="44.897269000" lon="12.461941000">
  <ele>0.000000</ele>
</trkpt>
<trkpt lat="44.897275000" lon="12.461941000">
  <ele>0.000000</ele>
</trkpt>
<trkpt lat="44.899070000" lon="12.461997000">
  <ele>0.000000</ele>
</trkpt>
<trkpt lat="44.899289000" lon="12.462016000">
  <ele>0.000000</ele>
</trkpt>
<trkpt lat="44.899345000" lon="12.462040000">
  <ele>0.000000</ele>
</trkpt>
<trkpt lat="44.899414000" lon="12.462071000">
  <ele>0.000000</ele>
</trkpt>
<trkpt lat="44.899715000" lon="12.462258000">
  <ele>0.000000</ele>
</trkpt>
<trkpt lat="44.900091000" lon="12.462509000">
  <ele>0.000000</ele>
</trkpt>
<trkpt lat="44.900283000" lon="12.462641000">
  <ele>0.000000</ele>
</trkpt>
<trkpt lat="44.900644000" lon="12.462886000">
  <ele>0.000000</ele>
</trkpt>
<trkpt lat="44.900984000" lon="12.463109000">
  <ele>0.000000</ele>
</trkpt>
<trkpt lat="44.901078000" lon="12.463158000">
  <ele>0.000000</ele>
</trkpt>
<trkpt lat="44.901197000" lon="12.463202000">
  <ele>0.000000</ele>
</trkpt>
<trkpt lat="44.901347000" lon="12.463228000">
  <ele>0.000000</ele>
</trkpt>
<trkpt lat="44.901416000" lon="12.463241000">
  <ele>0.000000</ele>
</trkpt>
<trkpt lat="44.901513000" lon="12.463237000">
  <ele>0.000000</ele>
</trkpt>
<trkpt lat="44.901613000" lon="12.463218000">
  <ele>0.000000</ele>
</trkpt>
<trkpt lat="44.901699000" lon="12.463178000">
  <ele>0.000000</ele>
</trkpt>
<trkpt lat="44.901744000" lon="12.463157000">
  <ele>0.000000</ele>
</trkpt>
<trkpt lat="44.901795000" lon="12.463128000">
  <ele>0.000000</ele>
</trkpt>
<trkpt lat="44.902068000" lon="12.462926000">
  <ele>0.000000</ele>
</trkpt>
<trkpt lat="44.902132000" lon="12.462879000">
  <ele>0.000000</ele>
</trkpt>
<trkpt lat="44.902452000" lon="12.462643000">
  <ele>0.000000</ele>
</trkpt>
<trkpt lat="44.902633000" lon="12.462505000">
  <ele>0.000000</ele>
</trkpt>
<trkpt lat="44.902873000" lon="12.462316000">
  <ele>0.000000</ele>
</trkpt>
<trkpt lat="44.903172000" lon="12.462094000">
  <ele>0.000000</ele>
</trkpt>
<trkpt lat="44.903425000" lon="12.461900000">
  <ele>0.000000</ele>
</trkpt>
<trkpt lat="44.903786000" lon="12.461632000">
  <ele>0.000000</ele>
</trkpt>
<trkpt lat="44.904190000" lon="12.461322000">
  <ele>0.000000</ele>
</trkpt>
<trkpt lat="44.904417000" lon="12.461151000">
  <ele>0.000000</ele>
</trkpt>
<trkpt lat="44.904621000" lon="12.461000000">
  <ele>0.000000</ele>
</trkpt>
<trkpt lat="44.904875000" lon="12.460799000">
  <ele>0.000000</ele>
</trkpt>
<trkpt lat="44.905140000" lon="12.460593000">
  <ele>0.000000</ele>
</trkpt>
<trkpt lat="44.905288000" lon="12.460472000">
  <ele>0.000000</ele>
</trkpt>
<trkpt lat="44.905350000" lon="12.460411000">
  <ele>0.000000</ele>
</trkpt>
<trkpt lat="44.905586000" lon="12.460199000">
  <ele>0.000000</ele>
</trkpt>
<trkpt lat="44.905681000" lon="12.460081000">
  <ele>0.000000</ele>
</trkpt>
<trkpt lat="44.905991000" lon="12.459713000">
  <ele>0.000000</ele>
</trkpt>
<trkpt lat="44.906053000" lon="12.459617000">
  <ele>0.000000</ele>
</trkpt>
<trkpt lat="44.906270000" lon="12.459259000">
  <ele>0.000000</ele>
</trkpt>
<trkpt lat="44.906378000" lon="12.459043000">
  <ele>0.000000</ele>
</trkpt>
<trkpt lat="44.906546000" lon="12.458705000">
  <ele>0.000000</ele>
</trkpt>
<trkpt lat="44.906638000" lon="12.458472000">
  <ele>0.000000</ele>
</trkpt>
<trkpt lat="44.906696000" lon="12.458284000">
  <ele>0.000000</ele>
</trkpt>
<trkpt lat="44.906753000" lon="12.458103000">
  <ele>0.000000</ele>
</trkpt>
<trkpt lat="44.906770000" lon="12.458029000">
  <ele>0.000000</ele>
</trkpt>
<trkpt lat="44.906847000" lon="12.457693000">
  <ele>0.000000</ele>
</trkpt>
<trkpt lat="44.906875000" lon="12.457568000">
  <ele>0.000000</ele>
</trkpt>
<trkpt lat="44.906912000" lon="12.457386000">
  <ele>0.000000</ele>
</trkpt>
<trkpt lat="44.907081000" lon="12.456499000">
  <ele>0.000000</ele>
</trkpt>
<trkpt lat="44.907167000" lon="12.456035000">
  <ele>0.000000</ele>
</trkpt>
<trkpt lat="44.907221000" lon="12.455748000">
  <ele>0.000000</ele>
</trkpt>
<trkpt lat="44.907307000" lon="12.455290000">
  <ele>0.000000</ele>
</trkpt>
<trkpt lat="44.907363000" lon="12.455009000">
  <ele>0.000000</ele>
</trkpt>
<trkpt lat="44.907406000" lon="12.454706000">
  <ele>0.000000</ele>
</trkpt>
<trkpt lat="44.907461000" lon="12.454271000">
  <ele>0.000000</ele>
</trkpt>
<trkpt lat="44.907499000" lon="12.453949000">
  <ele>0.000000</ele>
</trkpt>
<trkpt lat="44.907567000" lon="12.453388000">
  <ele>0.000000</ele>
</trkpt>
<trkpt lat="44.907674000" lon="12.452521000">
  <ele>0.000000</ele>
</trkpt>
<trkpt lat="44.907735000" lon="12.452053000">
  <ele>0.000000</ele>
</trkpt>
<trkpt lat="44.907800000" lon="12.451528000">
  <ele>0.000000</ele>
</trkpt>
<trkpt lat="44.907895000" lon="12.450773000">
  <ele>0.000000</ele>
</trkpt>
<trkpt lat="44.907943000" lon="12.450403000">
  <ele>0.000000</ele>
</trkpt>
<trkpt lat="44.907979000" lon="12.450093000">
  <ele>0.000000</ele>
</trkpt>
<trkpt lat="44.908056000" lon="12.449678000">
  <ele>0.000000</ele>
</trkpt>
<trkpt lat="44.908126000" lon="12.449420000">
  <ele>0.000000</ele>
</trkpt>
<trkpt lat="44.908252000" lon="12.449078000">
  <ele>0.000000</ele>
</trkpt>
<trkpt lat="44.908755000" lon="12.447845000">
  <ele>0.000000</ele>
</trkpt>
<trkpt lat="44.908971000" lon="12.447316000">
  <ele>0.000000</ele>
</trkpt>
<trkpt lat="44.909097000" lon="12.447010000">
  <ele>0.000000</ele>
</trkpt>
<trkpt lat="44.909394000" lon="12.446268000">
  <ele>0.000000</ele>
</trkpt>
<trkpt lat="44.909406000" lon="12.446235000">
  <ele>0.000000</ele>
</trkpt>
<trkpt lat="44.909448000" lon="12.446117000">
  <ele>0.000000</ele>
</trkpt>
<trkpt lat="44.909486000" lon="12.445917000">
  <ele>0.000000</ele>
</trkpt>
<trkpt lat="44.909484000" lon="12.445766000">
  <ele>0.000000</ele>
</trkpt>
<trkpt lat="44.909538000" lon="12.445666000">
  <ele>0.000000</ele>
</trkpt>
<trkpt lat="44.909628000" lon="12.445492000">
  <ele>0.000000</ele>
</trkpt>
<trkpt lat="44.909727000" lon="12.445202000">
  <ele>0.000000</ele>
</trkpt>
<trkpt lat="44.909869000" lon="12.444725000">
  <ele>0.000000</ele>
</trkpt>
<trkpt lat="44.910087000" lon="12.444065000">
  <ele>0.000000</ele>
</trkpt>
<trkpt lat="44.910253000" lon="12.443691000">
  <ele>0.000000</ele>
</trkpt>
<trkpt lat="44.910957000" lon="12.442435000">
  <ele>0.000000</ele>
</trkpt>
<trkpt lat="44.911839000" lon="12.440892000">
  <ele>0.000000</ele>
</trkpt>
<trkpt lat="44.912735000" lon="12.439359000">
  <ele>0.000000</ele>
</trkpt>
<trkpt lat="44.913142000" lon="12.438667000">
  <ele>0.000000</ele>
</trkpt>
<trkpt lat="44.913625000" lon="12.437852000">
  <ele>0.000000</ele>
</trkpt>
<trkpt lat="44.913845000" lon="12.437459000">
  <ele>0.000000</ele>
</trkpt>
<trkpt lat="44.914175000" lon="12.436928000">
  <ele>0.000000</ele>
</trkpt>
<trkpt lat="44.914509000" lon="12.436441000">
  <ele>0.000000</ele>
</trkpt>
<trkpt lat="44.915375000" lon="12.435173000">
  <ele>0.000000</ele>
</trkpt>
<trkpt lat="44.915746000" lon="12.434619000">
  <ele>0.000000</ele>
</trkpt>
<trkpt lat="44.915939000" lon="12.434410000">
  <ele>0.000000</ele>
</trkpt>
<trkpt lat="44.916210000" lon="12.434162000">
  <ele>0.000000</ele>
</trkpt>
<trkpt lat="44.916661000" lon="12.433933000">
  <ele>0.000000</ele>
</trkpt>
<trkpt lat="44.917071000" lon="12.433747000">
  <ele>0.000000</ele>
</trkpt>
<trkpt lat="44.917407000" lon="12.433627000">
  <ele>0.000000</ele>
</trkpt>
<trkpt lat="44.917955000" lon="12.433409000">
  <ele>0.000000</ele>
</trkpt>
<trkpt lat="44.918856000" lon="12.433055000">
  <ele>0.000000</ele>
</trkpt>
<trkpt lat="44.919746000" lon="12.432704000">
  <ele>0.000000</ele>
</trkpt>
<trkpt lat="44.920295000" lon="12.432475000">
  <ele>0.000000</ele>
</trkpt>
<trkpt lat="44.920486000" lon="12.432414000">
  <ele>0.000000</ele>
</trkpt>
<trkpt lat="44.921374000" lon="12.432073000">
  <ele>0.000000</ele>
</trkpt>
<trkpt lat="44.922271000" lon="12.431735000">
  <ele>0.000000</ele>
</trkpt>
<trkpt lat="44.923154000" lon="12.431397000">
  <ele>0.000000</ele>
</trkpt>
<trkpt lat="44.924046000" lon="12.431033000">
  <ele>0.000000</ele>
</trkpt>
<trkpt lat="44.924071000" lon="12.431020000">
  <ele>0.000000</ele>
</trkpt>
<trkpt lat="44.924487000" lon="12.430864000">
  <ele>0.000000</ele>
</trkpt>
<trkpt lat="44.924921000" lon="12.430702000">
  <ele>0.000000</ele>
</trkpt>
<trkpt lat="44.924946000" lon="12.430692000">
  <ele>0.000000</ele>
</trkpt>
<trkpt lat="44.925366000" lon="12.430535000">
  <ele>0.000000</ele>
</trkpt>
<trkpt lat="44.925792000" lon="12.430375000">
  <ele>0.000000</ele>
</trkpt>
<trkpt lat="44.925931000" lon="12.430335000">
  <ele>0.000000</ele>
</trkpt>
<trkpt lat="44.926287000" lon="12.430233000">
  <ele>0.000000</ele>
</trkpt>
<trkpt lat="44.926603000" lon="12.430225000">
  <ele>0.000000</ele>
</trkpt>
<trkpt lat="44.927012000" lon="12.430243000">
  <ele>0.000000</ele>
</trkpt>
<trkpt lat="44.927909000" lon="12.430368000">
  <ele>0.000000</ele>
</trkpt>
<trkpt lat="44.930534000" lon="12.430725000">
  <ele>0.000000</ele>
</trkpt>
<trkpt lat="44.931221000" lon="12.430877000">
  <ele>0.000000</ele>
</trkpt>
<trkpt lat="44.932051000" lon="12.431055000">
  <ele>0.000000</ele>
</trkpt>
<trkpt lat="44.932167000" lon="12.431055000">
  <ele>0.000000</ele>
</trkpt>
<trkpt lat="44.932187000" lon="12.431055000">
  <ele>0.000000</ele>
</trkpt>
<trkpt lat="44.932348000" lon="12.431162000">
  <ele>0.000000</ele>
</trkpt>
<trkpt lat="44.932875000" lon="12.431314000">
  <ele>0.000000</ele>
</trkpt>
<trkpt lat="44.933073000" lon="12.431358000">
  <ele>0.000000</ele>
</trkpt>
<trkpt lat="44.933304000" lon="12.431412000">
  <ele>0.000000</ele>
</trkpt>
<trkpt lat="44.934226000" lon="12.431452000">
  <ele>0.000000</ele>
</trkpt>
<trkpt lat="44.934719000" lon="12.431445000">
  <ele>0.000000</ele>
</trkpt>
<trkpt lat="44.935386000" lon="12.431459000">
  <ele>0.000000</ele>
</trkpt>
<trkpt lat="44.936026000" lon="12.431459000">
  <ele>0.000000</ele>
</trkpt>
<trkpt lat="44.936137000" lon="12.431479000">
  <ele>0.000000</ele>
</trkpt>
<trkpt lat="44.936218000" lon="12.431494000">
  <ele>0.000000</ele>
</trkpt>
<trkpt lat="44.936609000" lon="12.431547000">
  <ele>0.000000</ele>
</trkpt>
<trkpt lat="44.937364000" lon="12.431633000">
  <ele>0.000000</ele>
</trkpt>
<trkpt lat="44.937401000" lon="12.431637000">
  <ele>0.000000</ele>
</trkpt>
<trkpt lat="44.937608000" lon="12.431656000">
  <ele>0.000000</ele>
</trkpt>
<trkpt lat="44.937651000" lon="12.431660000">
  <ele>0.000000</ele>
</trkpt>
<trkpt lat="44.937665000" lon="12.431661000">
  <ele>0.000000</ele>
</trkpt>
<trkpt lat="44.937862000" lon="12.431679000">
  <ele>0.000000</ele>
</trkpt>
<trkpt lat="44.937890000" lon="12.431682000">
  <ele>0.000000</ele>
</trkpt>
<trkpt lat="44.939971000" lon="12.431834000">
  <ele>0.000000</ele>
</trkpt>
<trkpt lat="44.940430000" lon="12.431870000">
  <ele>0.000000</ele>
</trkpt>
<trkpt lat="44.940609000" lon="12.431915000">
  <ele>0.000000</ele>
</trkpt>
<trkpt lat="44.940631000" lon="12.431919000">
  <ele>0.000000</ele>
</trkpt>
<trkpt lat="44.940984000" lon="12.431989000">
  <ele>0.000000</ele>
</trkpt>
<trkpt lat="44.941334000" lon="12.432058000">
  <ele>0.000000</ele>
</trkpt>
<trkpt lat="44.942195000" lon="12.432112000">
  <ele>0.000000</ele>
</trkpt>
<trkpt lat="44.942399000" lon="12.432103000">
  <ele>0.000000</ele>
</trkpt>
<trkpt lat="44.942684000" lon="12.432041000">
  <ele>0.000000</ele>
</trkpt>
<trkpt lat="44.942963000" lon="12.431916000">
  <ele>0.000000</ele>
</trkpt>
<trkpt lat="44.944059000" lon="12.431330000">
  <ele>0.000000</ele>
</trkpt>
<trkpt lat="44.944306000" lon="12.431143000">
  <ele>0.000000</ele>
</trkpt>
<trkpt lat="44.944616000" lon="12.430788000">
  <ele>0.000000</ele>
</trkpt>
<trkpt lat="44.944795000" lon="12.430557000">
  <ele>0.000000</ele>
</trkpt>
<trkpt lat="44.945340000" lon="12.429748000">
  <ele>0.000000</ele>
</trkpt>
<trkpt lat="44.947202000" lon="12.426929000">
  <ele>0.000000</ele>
</trkpt>
<trkpt lat="44.947806000" lon="12.426027000">
  <ele>0.000000</ele>
</trkpt>
<trkpt lat="44.948483000" lon="12.425035000">
  <ele>0.000000</ele>
</trkpt>
<trkpt lat="44.949068000" lon="12.424258000">
  <ele>0.000000</ele>
</trkpt>
<trkpt lat="44.949122000" lon="12.424170000">
  <ele>0.000000</ele>
</trkpt>
<trkpt lat="44.949683000" lon="12.423333000">
  <ele>0.000000</ele>
</trkpt>
<trkpt lat="44.950180000" lon="12.422622000">
  <ele>0.000000</ele>
</trkpt>
<trkpt lat="44.950516000" lon="12.422153000">
  <ele>0.000000</ele>
</trkpt>
<trkpt lat="44.950711000" lon="12.421886000">
  <ele>0.000000</ele>
</trkpt>
<trkpt lat="44.951358000" lon="12.421163000">
  <ele>0.000000</ele>
</trkpt>
<trkpt lat="44.951589000" lon="12.420884000">
  <ele>0.000000</ele>
</trkpt>
<trkpt lat="44.952457000" lon="12.419882000">
  <ele>0.000000</ele>
</trkpt>
<trkpt lat="44.952758000" lon="12.419514000">
  <ele>0.000000</ele>
</trkpt>
<trkpt lat="44.952871000" lon="12.419315000">
  <ele>0.000000</ele>
</trkpt>
<trkpt lat="44.953121000" lon="12.418892000">
  <ele>0.000000</ele>
</trkpt>
<trkpt lat="44.953239000" lon="12.418729000">
  <ele>0.000000</ele>
</trkpt>
<trkpt lat="44.953468000" lon="12.418393000">
  <ele>0.000000</ele>
</trkpt>
<trkpt lat="44.953757000" lon="12.418142000">
  <ele>0.000000</ele>
</trkpt>
<trkpt lat="44.954204000" lon="12.417370000">
  <ele>0.000000</ele>
</trkpt>
<trkpt lat="44.954468000" lon="12.416809000">
  <ele>0.000000</ele>
</trkpt>
<trkpt lat="44.954774000" lon="12.416046000">
  <ele>0.000000</ele>
</trkpt>
<trkpt lat="44.955203000" lon="12.414944000">
  <ele>0.000000</ele>
</trkpt>
<trkpt lat="44.955846000" lon="12.413332000">
  <ele>0.000000</ele>
</trkpt>
<trkpt lat="44.956208000" lon="12.412240000">
  <ele>0.000000</ele>
</trkpt>
<trkpt lat="44.956231000" lon="12.412094000">
  <ele>0.000000</ele>
</trkpt>
<trkpt lat="44.956376000" lon="12.411706000">
  <ele>0.000000</ele>
</trkpt>
<trkpt lat="44.956660000" lon="12.410824000">
  <ele>0.000000</ele>
</trkpt>
<trkpt lat="44.957360000" lon="12.408739000">
  <ele>0.000000</ele>
</trkpt>
<trkpt lat="44.957535000" lon="12.408176000">
  <ele>0.000000</ele>
</trkpt>
<trkpt lat="44.957786000" lon="12.407426000">
  <ele>0.000000</ele>
</trkpt>
<trkpt lat="44.957809000" lon="12.407125000">
  <ele>0.000000</ele>
</trkpt>
<trkpt lat="44.957947000" lon="12.406637000">
  <ele>0.000000</ele>
</trkpt>
<trkpt lat="44.958151000" lon="12.405884000">
  <ele>0.000000</ele>
</trkpt>
<trkpt lat="44.958185000" lon="12.405551000">
  <ele>0.000000</ele>
</trkpt>
<trkpt lat="44.958155000" lon="12.404315000">
  <ele>0.000000</ele>
</trkpt>
<trkpt lat="44.958074000" lon="12.401586000">
  <ele>0.000000</ele>
</trkpt>
<trkpt lat="44.958050000" lon="12.400773000">
  <ele>0.000000</ele>
</trkpt>
<trkpt lat="44.957922000" lon="12.397240000">
  <ele>0.000000</ele>
</trkpt>
<trkpt lat="44.957853000" lon="12.395565000">
  <ele>0.000000</ele>
</trkpt>
<trkpt lat="44.957818000" lon="12.394657000">
  <ele>0.000000</ele>
</trkpt>
<trkpt lat="44.957808000" lon="12.393711000">
  <ele>0.000000</ele>
</trkpt>
<trkpt lat="44.957799000" lon="12.392261000">
  <ele>0.000000</ele>
</trkpt>
<trkpt lat="44.957700000" lon="12.390283000">
  <ele>0.000000</ele>
</trkpt>
<trkpt lat="44.957689000" lon="12.390014000">
  <ele>0.000000</ele>
</trkpt>
<trkpt lat="44.957608000" lon="12.388419000">
  <ele>0.000000</ele>
</trkpt>
<trkpt lat="44.957345000" lon="12.385891000">
  <ele>0.000000</ele>
</trkpt>
<trkpt lat="44.956640000" lon="12.379376000">
  <ele>0.000000</ele>
</trkpt>
<trkpt lat="44.956577000" lon="12.378956000">
  <ele>0.000000</ele>
</trkpt>
<trkpt lat="44.956397000" lon="12.377309000">
  <ele>0.000000</ele>
</trkpt>
<trkpt lat="44.956350000" lon="12.376320000">
  <ele>0.000000</ele>
</trkpt>
<trkpt lat="44.956341000" lon="12.375990000">
  <ele>0.000000</ele>
</trkpt>
<trkpt lat="44.956300000" lon="12.372060000">
  <ele>0.000000</ele>
</trkpt>
<trkpt lat="44.956302000" lon="12.371027000">
  <ele>0.000000</ele>
</trkpt>
<trkpt lat="44.956282000" lon="12.369268000">
  <ele>0.000000</ele>
</trkpt>
<trkpt lat="44.956287000" lon="12.368135000">
  <ele>0.000000</ele>
</trkpt>
<trkpt lat="44.956259000" lon="12.367321000">
  <ele>0.000000</ele>
</trkpt>
<trkpt lat="44.956222000" lon="12.366782000">
  <ele>0.000000</ele>
</trkpt>
<trkpt lat="44.956171000" lon="12.365592000">
  <ele>0.000000</ele>
</trkpt>
<trkpt lat="44.956158000" lon="12.365390000">
  <ele>0.000000</ele>
</trkpt>
<trkpt lat="44.956116000" lon="12.364254000">
  <ele>0.000000</ele>
</trkpt>
<trkpt lat="44.956024000" lon="12.363309000">
  <ele>0.000000</ele>
</trkpt>
<trkpt lat="44.955831000" lon="12.362452000">
  <ele>0.000000</ele>
</trkpt>
<trkpt lat="44.955702000" lon="12.362123000">
  <ele>0.000000</ele>
</trkpt>
<trkpt lat="44.955469000" lon="12.361452000">
  <ele>0.000000</ele>
</trkpt>
<trkpt lat="44.955216000" lon="12.360357000">
  <ele>0.000000</ele>
</trkpt>
<trkpt lat="44.955213000" lon="12.360142000">
  <ele>0.000000</ele>
</trkpt>
<trkpt lat="44.954946000" lon="12.359020000">
  <ele>0.000000</ele>
</trkpt>
<trkpt lat="44.954500000" lon="12.357833000">
  <ele>0.000000</ele>
</trkpt>
<trkpt lat="44.954377000" lon="12.357638000">
  <ele>0.000000</ele>
</trkpt>
<trkpt lat="44.954257000" lon="12.357336000">
  <ele>0.000000</ele>
</trkpt>
<trkpt lat="44.954131000" lon="12.357188000">
  <ele>0.000000</ele>
</trkpt>
<trkpt lat="44.954157000" lon="12.356269000">
  <ele>0.000000</ele>
</trkpt>
<trkpt lat="44.954180000" lon="12.355939000">
  <ele>0.000000</ele>
</trkpt>
<trkpt lat="44.954172000" lon="12.355652000">
  <ele>0.000000</ele>
</trkpt>
<trkpt lat="44.954173000" lon="12.355399000">
  <ele>0.000000</ele>
</trkpt>
<trkpt lat="44.954150000" lon="12.355177000">
  <ele>0.000000</ele>
</trkpt>
<trkpt lat="44.954152000" lon="12.354917000">
  <ele>0.000000</ele>
</trkpt>
<trkpt lat="44.954127000" lon="12.354295000">
  <ele>0.000000</ele>
</trkpt>
<trkpt lat="44.954090000" lon="12.353849000">
  <ele>0.000000</ele>
</trkpt>
<trkpt lat="44.954052000" lon="12.353520000">
  <ele>0.000000</ele>
</trkpt>
<trkpt lat="44.954021000" lon="12.353248000">
  <ele>0.000000</ele>
</trkpt>
<trkpt lat="44.953820000" lon="12.351639000">
  <ele>0.000000</ele>
</trkpt>
<trkpt lat="44.953747000" lon="12.350997000">
  <ele>0.000000</ele>
</trkpt>
<trkpt lat="44.953656000" lon="12.350226000">
  <ele>0.000000</ele>
</trkpt>
<trkpt lat="44.953550000" lon="12.349325000">
  <ele>0.000000</ele>
</trkpt>
<trkpt lat="44.953378000" lon="12.347940000">
  <ele>0.000000</ele>
</trkpt>
<trkpt lat="44.953016000" lon="12.345215000">
  <ele>0.000000</ele>
</trkpt>
<trkpt lat="44.952936000" lon="12.344488000">
  <ele>0.000000</ele>
</trkpt>
<trkpt lat="44.952682000" lon="12.342557000">
  <ele>0.000000</ele>
</trkpt>
<trkpt lat="44.952636000" lon="12.342148000">
  <ele>0.000000</ele>
</trkpt>
<trkpt lat="44.952328000" lon="12.339631000">
  <ele>0.000000</ele>
</trkpt>
<trkpt lat="44.951985000" lon="12.336667000">
  <ele>0.000000</ele>
</trkpt>
<trkpt lat="44.951754000" lon="12.334888000">
  <ele>0.000000</ele>
</trkpt>
<trkpt lat="44.951689000" lon="12.334389000">
  <ele>0.000000</ele>
</trkpt>
<trkpt lat="44.951536000" lon="12.333251000">
  <ele>0.000000</ele>
</trkpt>
<trkpt lat="44.951530000" lon="12.333208000">
  <ele>0.000000</ele>
</trkpt>
</trkseg>
</trk>
</gpx>
