<?xml version="1.0" encoding="UTF-8"?>
<gpx
  version="1.1"
  creator="GPSBabel - http://www.gpsbabel.org"
  xmlns:xsi="http://www.w3.org/2001/XMLSchema-instance"
  xmlns="http://www.topografix.com/GPX/1/1"
  xsi:schemaLocation="http://www.topografix.com/GPX/1/1 http://www.topografix.com/GPX/1/1/gpx.xsd">
<metadata>
<time>2011-09-15T14:07:58Z</time>
<bounds minlat="45.353240000" minlon="11.545132000" maxlat="45.547755000" maxlon="11.883177000"/>
</metadata>
<trk>
  <name>I2-3</name>
<trkseg>
<trkpt lat="45.353240000" lon="11.834062000">
  <ele>0.000000</ele>
</trkpt>
<trkpt lat="45.356679000" lon="11.836445000">
  <ele>0.000000</ele>
</trkpt>
<trkpt lat="45.356826000" lon="11.836540000">
  <ele>0.000000</ele>
</trkpt>
<trkpt lat="45.357259000" lon="11.836809000">
  <ele>0.000000</ele>
</trkpt>
<trkpt lat="45.358148000" lon="11.837393000">
  <ele>0.000000</ele>
</trkpt>
<trkpt lat="45.359648000" lon="11.838361000">
  <ele>0.000000</ele>
</trkpt>
<trkpt lat="45.360459000" lon="11.838884000">
  <ele>0.000000</ele>
</trkpt>
<trkpt lat="45.361434000" lon="11.839501000">
  <ele>0.000000</ele>
</trkpt>
<trkpt lat="45.363032000" lon="11.840457000">
  <ele>0.000000</ele>
</trkpt>
<trkpt lat="45.363455000" lon="11.840702000">
  <ele>0.000000</ele>
</trkpt>
<trkpt lat="45.364953000" lon="11.841577000">
  <ele>0.000000</ele>
</trkpt>
<trkpt lat="45.365142000" lon="11.841682000">
  <ele>0.000000</ele>
</trkpt>
<trkpt lat="45.368234000" lon="11.843410000">
  <ele>0.000000</ele>
</trkpt>
<trkpt lat="45.368716000" lon="11.843773000">
  <ele>0.000000</ele>
</trkpt>
<trkpt lat="45.369187000" lon="11.844130000">
  <ele>0.000000</ele>
</trkpt>
<trkpt lat="45.370607000" lon="11.845247000">
  <ele>0.000000</ele>
</trkpt>
<trkpt lat="45.372134000" lon="11.846486000">
  <ele>0.000000</ele>
</trkpt>
<trkpt lat="45.373598000" lon="11.847581000">
  <ele>0.000000</ele>
</trkpt>
<trkpt lat="45.374081000" lon="11.848016000">
  <ele>0.000000</ele>
</trkpt>
<trkpt lat="45.375436000" lon="11.849107000">
  <ele>0.000000</ele>
</trkpt>
<trkpt lat="45.376755000" lon="11.850158000">
  <ele>0.000000</ele>
</trkpt>
<trkpt lat="45.377304000" lon="11.850695000">
  <ele>0.000000</ele>
</trkpt>
<trkpt lat="45.378094000" lon="11.851507000">
  <ele>0.000000</ele>
</trkpt>
<trkpt lat="45.378814000" lon="11.852359000">
  <ele>0.000000</ele>
</trkpt>
<trkpt lat="45.379529000" lon="11.853279000">
  <ele>0.000000</ele>
</trkpt>
<trkpt lat="45.380020000" lon="11.853940000">
  <ele>0.000000</ele>
</trkpt>
<trkpt lat="45.380985000" lon="11.855597000">
  <ele>0.000000</ele>
</trkpt>
<trkpt lat="45.381523000" lon="11.856482000">
  <ele>0.000000</ele>
</trkpt>
<trkpt lat="45.381974000" lon="11.857312000">
  <ele>0.000000</ele>
</trkpt>
<trkpt lat="45.382120000" lon="11.857613000">
  <ele>0.000000</ele>
</trkpt>
<trkpt lat="45.382332000" lon="11.857988000">
  <ele>0.000000</ele>
</trkpt>
<trkpt lat="45.382744000" lon="11.858514000">
  <ele>0.000000</ele>
</trkpt>
<trkpt lat="45.383323000" lon="11.859378000">
  <ele>0.000000</ele>
</trkpt>
<trkpt lat="45.383511000" lon="11.859769000">
  <ele>0.000000</ele>
</trkpt>
<trkpt lat="45.383666000" lon="11.860145000">
  <ele>0.000000</ele>
</trkpt>
<trkpt lat="45.383840000" lon="11.860565000">
  <ele>0.000000</ele>
</trkpt>
<trkpt lat="45.384053000" lon="11.861170000">
  <ele>0.000000</ele>
</trkpt>
<trkpt lat="45.384187000" lon="11.861476000">
  <ele>0.000000</ele>
</trkpt>
<trkpt lat="45.384314000" lon="11.861662000">
  <ele>0.000000</ele>
</trkpt>
<trkpt lat="45.384494000" lon="11.861909000">
  <ele>0.000000</ele>
</trkpt>
<trkpt lat="45.384644000" lon="11.862095000">
  <ele>0.000000</ele>
</trkpt>
<trkpt lat="45.384683000" lon="11.862144000">
  <ele>0.000000</ele>
</trkpt>
<trkpt lat="45.385008000" lon="11.862635000">
  <ele>0.000000</ele>
</trkpt>
<trkpt lat="45.385242000" lon="11.862973000">
  <ele>0.000000</ele>
</trkpt>
<trkpt lat="45.385312000" lon="11.863026000">
  <ele>0.000000</ele>
</trkpt>
<trkpt lat="45.385377000" lon="11.863033000">
  <ele>0.000000</ele>
</trkpt>
<trkpt lat="45.385411000" lon="11.863018000">
  <ele>0.000000</ele>
</trkpt>
<trkpt lat="45.385473000" lon="11.862992000">
  <ele>0.000000</ele>
</trkpt>
<trkpt lat="45.385600000" lon="11.863470000">
  <ele>0.000000</ele>
</trkpt>
<trkpt lat="45.385606000" lon="11.863532000">
  <ele>0.000000</ele>
</trkpt>
<trkpt lat="45.385620000" lon="11.863663000">
  <ele>0.000000</ele>
</trkpt>
<trkpt lat="45.385745000" lon="11.863622000">
  <ele>0.000000</ele>
</trkpt>
</trkseg>
</trk>
<trk>
  <name>I2-3</name>
<trkseg>
<trkpt lat="45.386102000" lon="11.868609000">
  <ele>0.000000</ele>
</trkpt>
<trkpt lat="45.385412000" lon="11.868331000">
  <ele>0.000000</ele>
</trkpt>
<trkpt lat="45.385478000" lon="11.867963000">
  <ele>0.000000</ele>
</trkpt>
<trkpt lat="45.385713000" lon="11.867250000">
  <ele>0.000000</ele>
</trkpt>
<trkpt lat="45.385845000" lon="11.866865000">
  <ele>0.000000</ele>
</trkpt>
<trkpt lat="45.386130000" lon="11.866373000">
  <ele>0.000000</ele>
</trkpt>
<trkpt lat="45.386311000" lon="11.866231000">
  <ele>0.000000</ele>
</trkpt>
<trkpt lat="45.386494000" lon="11.866030000">
  <ele>0.000000</ele>
</trkpt>
<trkpt lat="45.386566000" lon="11.865858000">
  <ele>0.000000</ele>
</trkpt>
<trkpt lat="45.386586000" lon="11.865661000">
  <ele>0.000000</ele>
</trkpt>
<trkpt lat="45.386530000" lon="11.865442000">
  <ele>0.000000</ele>
</trkpt>
<trkpt lat="45.386327000" lon="11.865049000">
  <ele>0.000000</ele>
</trkpt>
<trkpt lat="45.386170000" lon="11.864677000">
  <ele>0.000000</ele>
</trkpt>
<trkpt lat="45.385762000" lon="11.863687000">
  <ele>0.000000</ele>
</trkpt>
<trkpt lat="45.385745000" lon="11.863622000">
  <ele>0.000000</ele>
</trkpt>
</trkseg>
</trk>
<trk>
  <name>I2-3</name>
<trkseg>
<trkpt lat="45.386268000" lon="11.863160000">
  <ele>0.000000</ele>
</trkpt>
<trkpt lat="45.386220000" lon="11.863193000">
  <ele>0.000000</ele>
</trkpt>
<trkpt lat="45.385694000" lon="11.863368000">
  <ele>0.000000</ele>
</trkpt>
<trkpt lat="45.385709000" lon="11.863456000">
  <ele>0.000000</ele>
</trkpt>
<trkpt lat="45.385745000" lon="11.863622000">
  <ele>0.000000</ele>
</trkpt>
</trkseg>
</trk>
<trk>
  <name>I2-3</name>
<trkseg>
<trkpt lat="45.386268000" lon="11.863160000">
  <ele>0.000000</ele>
</trkpt>
<trkpt lat="45.386285000" lon="11.863208000">
  <ele>0.000000</ele>
</trkpt>
<trkpt lat="45.386344000" lon="11.863186000">
  <ele>0.000000</ele>
</trkpt>
<trkpt lat="45.386365000" lon="11.863239000">
  <ele>0.000000</ele>
</trkpt>
<trkpt lat="45.387236000" lon="11.865201000">
  <ele>0.000000</ele>
</trkpt>
<trkpt lat="45.387619000" lon="11.866021000">
  <ele>0.000000</ele>
</trkpt>
<trkpt lat="45.387593000" lon="11.866061000">
  <ele>0.000000</ele>
</trkpt>
<trkpt lat="45.387559000" lon="11.866132000">
  <ele>0.000000</ele>
</trkpt>
<trkpt lat="45.387531000" lon="11.866246000">
  <ele>0.000000</ele>
</trkpt>
<trkpt lat="45.387526000" lon="11.866291000">
  <ele>0.000000</ele>
</trkpt>
<trkpt lat="45.387531000" lon="11.866332000">
  <ele>0.000000</ele>
</trkpt>
<trkpt lat="45.387445000" lon="11.866427000">
  <ele>0.000000</ele>
</trkpt>
<trkpt lat="45.387313000" lon="11.866629000">
  <ele>0.000000</ele>
</trkpt>
<trkpt lat="45.387287000" lon="11.866669000">
  <ele>0.000000</ele>
</trkpt>
<trkpt lat="45.387092000" lon="11.866945000">
  <ele>0.000000</ele>
</trkpt>
<trkpt lat="45.387066000" lon="11.867007000">
  <ele>0.000000</ele>
</trkpt>
<trkpt lat="45.387055000" lon="11.867080000">
  <ele>0.000000</ele>
</trkpt>
<trkpt lat="45.387053000" lon="11.867160000">
  <ele>0.000000</ele>
</trkpt>
<trkpt lat="45.387075000" lon="11.867276000">
  <ele>0.000000</ele>
</trkpt>
<trkpt lat="45.387110000" lon="11.867388000">
  <ele>0.000000</ele>
</trkpt>
<trkpt lat="45.387177000" lon="11.867522000">
  <ele>0.000000</ele>
</trkpt>
<trkpt lat="45.387237000" lon="11.867627000">
  <ele>0.000000</ele>
</trkpt>
<trkpt lat="45.387177000" lon="11.867694000">
  <ele>0.000000</ele>
</trkpt>
<trkpt lat="45.387127000" lon="11.867746000">
  <ele>0.000000</ele>
</trkpt>
<trkpt lat="45.386893000" lon="11.867315000">
  <ele>0.000000</ele>
</trkpt>
<trkpt lat="45.386807000" lon="11.867147000">
  <ele>0.000000</ele>
</trkpt>
<trkpt lat="45.386504000" lon="11.867554000">
  <ele>0.000000</ele>
</trkpt>
<trkpt lat="45.386379000" lon="11.867761000">
  <ele>0.000000</ele>
</trkpt>
<trkpt lat="45.386245000" lon="11.868053000">
  <ele>0.000000</ele>
</trkpt>
<trkpt lat="45.386148000" lon="11.868394000">
  <ele>0.000000</ele>
</trkpt>
<trkpt lat="45.386102000" lon="11.868609000">
  <ele>0.000000</ele>
</trkpt>
</trkseg>
</trk>
<trk>
  <name>I2-3</name>
<trkseg>
<trkpt lat="45.395645000" lon="11.881295000">
  <ele>0.000000</ele>
</trkpt>
<trkpt lat="45.395282000" lon="11.881040000">
  <ele>0.000000</ele>
</trkpt>
<trkpt lat="45.395039000" lon="11.880866000">
  <ele>0.000000</ele>
</trkpt>
<trkpt lat="45.394586000" lon="11.880543000">
  <ele>0.000000</ele>
</trkpt>
<trkpt lat="45.394529000" lon="11.880498000">
  <ele>0.000000</ele>
</trkpt>
<trkpt lat="45.394467000" lon="11.880387000">
  <ele>0.000000</ele>
</trkpt>
<trkpt lat="45.394416000" lon="11.880228000">
  <ele>0.000000</ele>
</trkpt>
<trkpt lat="45.394282000" lon="11.879732000">
  <ele>0.000000</ele>
</trkpt>
<trkpt lat="45.393863000" lon="11.878169000">
  <ele>0.000000</ele>
</trkpt>
<trkpt lat="45.393828000" lon="11.878059000">
  <ele>0.000000</ele>
</trkpt>
<trkpt lat="45.393793000" lon="11.877942000">
  <ele>0.000000</ele>
</trkpt>
<trkpt lat="45.393573000" lon="11.878100000">
  <ele>0.000000</ele>
</trkpt>
<trkpt lat="45.393152000" lon="11.878376000">
  <ele>0.000000</ele>
</trkpt>
<trkpt lat="45.393136000" lon="11.878427000">
  <ele>0.000000</ele>
</trkpt>
<trkpt lat="45.393146000" lon="11.878481000">
  <ele>0.000000</ele>
</trkpt>
<trkpt lat="45.393173000" lon="11.878635000">
  <ele>0.000000</ele>
</trkpt>
<trkpt lat="45.393159000" lon="11.878643000">
  <ele>0.000000</ele>
</trkpt>
<trkpt lat="45.393127000" lon="11.878659000">
  <ele>0.000000</ele>
</trkpt>
<trkpt lat="45.393087000" lon="11.878684000">
  <ele>0.000000</ele>
</trkpt>
<trkpt lat="45.393058000" lon="11.878568000">
  <ele>0.000000</ele>
</trkpt>
<trkpt lat="45.393025000" lon="11.878530000">
  <ele>0.000000</ele>
</trkpt>
<trkpt lat="45.392991000" lon="11.878522000">
  <ele>0.000000</ele>
</trkpt>
<trkpt lat="45.392919000" lon="11.878535000">
  <ele>0.000000</ele>
</trkpt>
<trkpt lat="45.392502000" lon="11.878712000">
  <ele>0.000000</ele>
</trkpt>
<trkpt lat="45.392129000" lon="11.878878000">
  <ele>0.000000</ele>
</trkpt>
<trkpt lat="45.391946000" lon="11.878991000">
  <ele>0.000000</ele>
</trkpt>
<trkpt lat="45.391466000" lon="11.879199000">
  <ele>0.000000</ele>
</trkpt>
<trkpt lat="45.390619000" lon="11.879596000">
  <ele>0.000000</ele>
</trkpt>
<trkpt lat="45.390494000" lon="11.879664000">
  <ele>0.000000</ele>
</trkpt>
<trkpt lat="45.389957000" lon="11.879895000">
  <ele>0.000000</ele>
</trkpt>
<trkpt lat="45.389804000" lon="11.879973000">
  <ele>0.000000</ele>
</trkpt>
<trkpt lat="45.389342000" lon="11.880187000">
  <ele>0.000000</ele>
</trkpt>
<trkpt lat="45.389263000" lon="11.880223000">
  <ele>0.000000</ele>
</trkpt>
<trkpt lat="45.388372000" lon="11.880625000">
  <ele>0.000000</ele>
</trkpt>
<trkpt lat="45.387823000" lon="11.880861000">
  <ele>0.000000</ele>
</trkpt>
<trkpt lat="45.387598000" lon="11.880983000">
  <ele>0.000000</ele>
</trkpt>
<trkpt lat="45.386962000" lon="11.881294000">
  <ele>0.000000</ele>
</trkpt>
<trkpt lat="45.386046000" lon="11.881712000">
  <ele>0.000000</ele>
</trkpt>
<trkpt lat="45.385913000" lon="11.881768000">
  <ele>0.000000</ele>
</trkpt>
<trkpt lat="45.385719000" lon="11.881861000">
  <ele>0.000000</ele>
</trkpt>
<trkpt lat="45.385578000" lon="11.881934000">
  <ele>0.000000</ele>
</trkpt>
<trkpt lat="45.385500000" lon="11.881977000">
  <ele>0.000000</ele>
</trkpt>
<trkpt lat="45.385429000" lon="11.882025000">
  <ele>0.000000</ele>
</trkpt>
<trkpt lat="45.385382000" lon="11.882071000">
  <ele>0.000000</ele>
</trkpt>
<trkpt lat="45.385315000" lon="11.882143000">
  <ele>0.000000</ele>
</trkpt>
<trkpt lat="45.385242000" lon="11.883177000">
  <ele>0.000000</ele>
</trkpt>
<trkpt lat="45.385209000" lon="11.882769000">
  <ele>0.000000</ele>
</trkpt>
<trkpt lat="45.385179000" lon="11.882158000">
  <ele>0.000000</ele>
</trkpt>
<trkpt lat="45.385204000" lon="11.881849000">
  <ele>0.000000</ele>
</trkpt>
<trkpt lat="45.385319000" lon="11.881059000">
  <ele>0.000000</ele>
</trkpt>
<trkpt lat="45.385357000" lon="11.880932000">
  <ele>0.000000</ele>
</trkpt>
<trkpt lat="45.385431000" lon="11.879775000">
  <ele>0.000000</ele>
</trkpt>
<trkpt lat="45.385892000" lon="11.871979000">
  <ele>0.000000</ele>
</trkpt>
<trkpt lat="45.385942000" lon="11.871146000">
  <ele>0.000000</ele>
</trkpt>
<trkpt lat="45.385998000" lon="11.869871000">
  <ele>0.000000</ele>
</trkpt>
<trkpt lat="45.386016000" lon="11.869454000">
  <ele>0.000000</ele>
</trkpt>
<trkpt lat="45.386050000" lon="11.868970000">
  <ele>0.000000</ele>
</trkpt>
<trkpt lat="45.386102000" lon="11.868609000">
  <ele>0.000000</ele>
</trkpt>
</trkseg>
</trk>
<trk>
  <name>I2-3</name>
<trkseg>
<trkpt lat="45.541332000" lon="11.546901000">
  <ele>0.000000</ele>
</trkpt>
<trkpt lat="45.541299000" lon="11.546981000">
  <ele>0.000000</ele>
</trkpt>
<trkpt lat="45.541226000" lon="11.547066000">
  <ele>0.000000</ele>
</trkpt>
<trkpt lat="45.541141000" lon="11.547273000">
  <ele>0.000000</ele>
</trkpt>
<trkpt lat="45.541096000" lon="11.547328000">
  <ele>0.000000</ele>
</trkpt>
<trkpt lat="45.541070000" lon="11.547344000">
  <ele>0.000000</ele>
</trkpt>
<trkpt lat="45.541039000" lon="11.547335000">
  <ele>0.000000</ele>
</trkpt>
<trkpt lat="45.541015000" lon="11.547310000">
  <ele>0.000000</ele>
</trkpt>
<trkpt lat="45.540943000" lon="11.547155000">
  <ele>0.000000</ele>
</trkpt>
<trkpt lat="45.540964000" lon="11.547721000">
  <ele>0.000000</ele>
</trkpt>
<trkpt lat="45.540837000" lon="11.547749000">
  <ele>0.000000</ele>
</trkpt>
<trkpt lat="45.540597000" lon="11.547943000">
  <ele>0.000000</ele>
</trkpt>
<trkpt lat="45.540485000" lon="11.548079000">
  <ele>0.000000</ele>
</trkpt>
<trkpt lat="45.540401000" lon="11.548242000">
  <ele>0.000000</ele>
</trkpt>
<trkpt lat="45.540357000" lon="11.548528000">
  <ele>0.000000</ele>
</trkpt>
<trkpt lat="45.540369000" lon="11.550073000">
  <ele>0.000000</ele>
</trkpt>
<trkpt lat="45.540316000" lon="11.550443000">
  <ele>0.000000</ele>
</trkpt>
<trkpt lat="45.540182000" lon="11.550899000">
  <ele>0.000000</ele>
</trkpt>
<trkpt lat="45.539974000" lon="11.551276000">
  <ele>0.000000</ele>
</trkpt>
<trkpt lat="45.539794000" lon="11.551481000">
  <ele>0.000000</ele>
</trkpt>
<trkpt lat="45.539638000" lon="11.551549000">
  <ele>0.000000</ele>
</trkpt>
<trkpt lat="45.539432000" lon="11.551552000">
  <ele>0.000000</ele>
</trkpt>
<trkpt lat="45.539197000" lon="11.551453000">
  <ele>0.000000</ele>
</trkpt>
<trkpt lat="45.538968000" lon="11.551250000">
  <ele>0.000000</ele>
</trkpt>
<trkpt lat="45.538781000" lon="11.550996000">
  <ele>0.000000</ele>
</trkpt>
<trkpt lat="45.538588000" lon="11.550572000">
  <ele>0.000000</ele>
</trkpt>
<trkpt lat="45.538235000" lon="11.549978000">
  <ele>0.000000</ele>
</trkpt>
<trkpt lat="45.538138000" lon="11.549630000">
  <ele>0.000000</ele>
</trkpt>
<trkpt lat="45.538106000" lon="11.549254000">
  <ele>0.000000</ele>
</trkpt>
<trkpt lat="45.537960000" lon="11.548986000">
  <ele>0.000000</ele>
</trkpt>
<trkpt lat="45.537749000" lon="11.548951000">
  <ele>0.000000</ele>
</trkpt>
<trkpt lat="45.537593000" lon="11.548884000">
  <ele>0.000000</ele>
</trkpt>
<trkpt lat="45.537853000" lon="11.549509000">
  <ele>0.000000</ele>
</trkpt>
<trkpt lat="45.538129000" lon="11.550482000">
  <ele>0.000000</ele>
</trkpt>
<trkpt lat="45.538259000" lon="11.551083000">
  <ele>0.000000</ele>
</trkpt>
<trkpt lat="45.538279000" lon="11.551276000">
  <ele>0.000000</ele>
</trkpt>
<trkpt lat="45.538208000" lon="11.551427000">
  <ele>0.000000</ele>
</trkpt>
<trkpt lat="45.538067000" lon="11.551784000">
  <ele>0.000000</ele>
</trkpt>
<trkpt lat="45.538037000" lon="11.552073000">
  <ele>0.000000</ele>
</trkpt>
<trkpt lat="45.538057000" lon="11.552569000">
  <ele>0.000000</ele>
</trkpt>
<trkpt lat="45.538076000" lon="11.552685000">
  <ele>0.000000</ele>
</trkpt>
<trkpt lat="45.537990000" lon="11.552988000">
  <ele>0.000000</ele>
</trkpt>
<trkpt lat="45.537881000" lon="11.553309000">
  <ele>0.000000</ele>
</trkpt>
<trkpt lat="45.537806000" lon="11.553535000">
  <ele>0.000000</ele>
</trkpt>
<trkpt lat="45.537738000" lon="11.553733000">
  <ele>0.000000</ele>
</trkpt>
<trkpt lat="45.537497000" lon="11.554284000">
  <ele>0.000000</ele>
</trkpt>
<trkpt lat="45.537367000" lon="11.554506000">
  <ele>0.000000</ele>
</trkpt>
<trkpt lat="45.537102000" lon="11.554836000">
  <ele>0.000000</ele>
</trkpt>
<trkpt lat="45.536853000" lon="11.555111000">
  <ele>0.000000</ele>
</trkpt>
<trkpt lat="45.536696000" lon="11.555265000">
  <ele>0.000000</ele>
</trkpt>
<trkpt lat="45.536592000" lon="11.555428000">
  <ele>0.000000</ele>
</trkpt>
<trkpt lat="45.536498000" lon="11.555584000">
  <ele>0.000000</ele>
</trkpt>
<trkpt lat="45.536446000" lon="11.555772000">
  <ele>0.000000</ele>
</trkpt>
<trkpt lat="45.536364000" lon="11.555868000">
  <ele>0.000000</ele>
</trkpt>
<trkpt lat="45.536204000" lon="11.556016000">
  <ele>0.000000</ele>
</trkpt>
<trkpt lat="45.536032000" lon="11.556172000">
  <ele>0.000000</ele>
</trkpt>
<trkpt lat="45.536007000" lon="11.556250000">
  <ele>0.000000</ele>
</trkpt>
<trkpt lat="45.536501000" lon="11.556053000">
  <ele>0.000000</ele>
</trkpt>
<trkpt lat="45.536808000" lon="11.556029000">
  <ele>0.000000</ele>
</trkpt>
<trkpt lat="45.537081000" lon="11.556172000">
  <ele>0.000000</ele>
</trkpt>
<trkpt lat="45.538091000" lon="11.555807000">
  <ele>0.000000</ele>
</trkpt>
<trkpt lat="45.538624000" lon="11.555325000">
  <ele>0.000000</ele>
</trkpt>
<trkpt lat="45.538876000" lon="11.555042000">
  <ele>0.000000</ele>
</trkpt>
<trkpt lat="45.538916000" lon="11.555090000">
  <ele>0.000000</ele>
</trkpt>
<trkpt lat="45.538494000" lon="11.555535000">
  <ele>0.000000</ele>
</trkpt>
<trkpt lat="45.538114000" lon="11.556026000">
  <ele>0.000000</ele>
</trkpt>
<trkpt lat="45.537856000" lon="11.556272000">
  <ele>0.000000</ele>
</trkpt>
<trkpt lat="45.537138000" lon="11.556692000">
  <ele>0.000000</ele>
</trkpt>
<trkpt lat="45.536424000" lon="11.557139000">
  <ele>0.000000</ele>
</trkpt>
<trkpt lat="45.535914000" lon="11.557476000">
  <ele>0.000000</ele>
</trkpt>
<trkpt lat="45.535640000" lon="11.557768000">
  <ele>0.000000</ele>
</trkpt>
<trkpt lat="45.535478000" lon="11.558066000">
  <ele>0.000000</ele>
</trkpt>
<trkpt lat="45.535060000" lon="11.559350000">
  <ele>0.000000</ele>
</trkpt>
<trkpt lat="45.535123000" lon="11.559468000">
  <ele>0.000000</ele>
</trkpt>
<trkpt lat="45.534957000" lon="11.559623000">
  <ele>0.000000</ele>
</trkpt>
<trkpt lat="45.534385000" lon="11.560257000">
  <ele>0.000000</ele>
</trkpt>
<trkpt lat="45.533188000" lon="11.561440000">
  <ele>0.000000</ele>
</trkpt>
<trkpt lat="45.532386000" lon="11.562109000">
  <ele>0.000000</ele>
</trkpt>
<trkpt lat="45.531765000" lon="11.562364000">
  <ele>0.000000</ele>
</trkpt>
<trkpt lat="45.529995000" lon="11.562939000">
  <ele>0.000000</ele>
</trkpt>
<trkpt lat="45.528696000" lon="11.563265000">
  <ele>0.000000</ele>
</trkpt>
<trkpt lat="45.526696000" lon="11.563973000">
  <ele>0.000000</ele>
</trkpt>
<trkpt lat="45.524408000" lon="11.564784000">
  <ele>0.000000</ele>
</trkpt>
<trkpt lat="45.521411000" lon="11.565877000">
  <ele>0.000000</ele>
</trkpt>
<trkpt lat="45.520903000" lon="11.566063000">
  <ele>0.000000</ele>
</trkpt>
<trkpt lat="45.516873000" lon="11.567376000">
  <ele>0.000000</ele>
</trkpt>
<trkpt lat="45.514952000" lon="11.567982000">
  <ele>0.000000</ele>
</trkpt>
<trkpt lat="45.514925000" lon="11.567990000">
  <ele>0.000000</ele>
</trkpt>
<trkpt lat="45.513950000" lon="11.568306000">
  <ele>0.000000</ele>
</trkpt>
<trkpt lat="45.510354000" lon="11.569478000">
  <ele>0.000000</ele>
</trkpt>
<trkpt lat="45.509495000" lon="11.569779000">
  <ele>0.000000</ele>
</trkpt>
<trkpt lat="45.509360000" lon="11.569892000">
  <ele>0.000000</ele>
</trkpt>
<trkpt lat="45.509220000" lon="11.570143000">
  <ele>0.000000</ele>
</trkpt>
<trkpt lat="45.509034000" lon="11.570253000">
  <ele>0.000000</ele>
</trkpt>
<trkpt lat="45.508575000" lon="11.570234000">
  <ele>0.000000</ele>
</trkpt>
<trkpt lat="45.508241000" lon="11.570288000">
  <ele>0.000000</ele>
</trkpt>
<trkpt lat="45.508020000" lon="11.570271000">
  <ele>0.000000</ele>
</trkpt>
<trkpt lat="45.507755000" lon="11.570176000">
  <ele>0.000000</ele>
</trkpt>
<trkpt lat="45.506584000" lon="11.570202000">
  <ele>0.000000</ele>
</trkpt>
<trkpt lat="45.506299000" lon="11.570260000">
  <ele>0.000000</ele>
</trkpt>
<trkpt lat="45.506021000" lon="11.570373000">
  <ele>0.000000</ele>
</trkpt>
<trkpt lat="45.505646000" lon="11.570615000">
  <ele>0.000000</ele>
</trkpt>
<trkpt lat="45.505210000" lon="11.571030000">
  <ele>0.000000</ele>
</trkpt>
<trkpt lat="45.504322000" lon="11.572440000">
  <ele>0.000000</ele>
</trkpt>
<trkpt lat="45.503910000" lon="11.572946000">
  <ele>0.000000</ele>
</trkpt>
<trkpt lat="45.503557000" lon="11.573244000">
  <ele>0.000000</ele>
</trkpt>
<trkpt lat="45.502690000" lon="11.573843000">
  <ele>0.000000</ele>
</trkpt>
<trkpt lat="45.501680000" lon="11.575942000">
  <ele>0.000000</ele>
</trkpt>
<trkpt lat="45.500745000" lon="11.577620000">
  <ele>0.000000</ele>
</trkpt>
<trkpt lat="45.500042000" lon="11.579344000">
  <ele>0.000000</ele>
</trkpt>
<trkpt lat="45.499104000" lon="11.581898000">
  <ele>0.000000</ele>
</trkpt>
<trkpt lat="45.498586000" lon="11.583223000">
  <ele>0.000000</ele>
</trkpt>
<trkpt lat="45.498041000" lon="11.584739000">
  <ele>0.000000</ele>
</trkpt>
<trkpt lat="45.497607000" lon="11.586312000">
  <ele>0.000000</ele>
</trkpt>
<trkpt lat="45.497582000" lon="11.586419000">
  <ele>0.000000</ele>
</trkpt>
<trkpt lat="45.497558000" lon="11.586495000">
  <ele>0.000000</ele>
</trkpt>
<trkpt lat="45.497339000" lon="11.587257000">
  <ele>0.000000</ele>
</trkpt>
<trkpt lat="45.497228000" lon="11.587689000">
  <ele>0.000000</ele>
</trkpt>
<trkpt lat="45.497004000" lon="11.588301000">
  <ele>0.000000</ele>
</trkpt>
<trkpt lat="45.496648000" lon="11.589053000">
  <ele>0.000000</ele>
</trkpt>
<trkpt lat="45.496186000" lon="11.589754000">
  <ele>0.000000</ele>
</trkpt>
<trkpt lat="45.495777000" lon="11.590063000">
  <ele>0.000000</ele>
</trkpt>
<trkpt lat="45.495620000" lon="11.590168000">
  <ele>0.000000</ele>
</trkpt>
<trkpt lat="45.495181000" lon="11.590252000">
  <ele>0.000000</ele>
</trkpt>
<trkpt lat="45.494742000" lon="11.590355000">
  <ele>0.000000</ele>
</trkpt>
<trkpt lat="45.494325000" lon="11.590547000">
  <ele>0.000000</ele>
</trkpt>
<trkpt lat="45.494169000" lon="11.590677000">
  <ele>0.000000</ele>
</trkpt>
<trkpt lat="45.493947000" lon="11.590862000">
  <ele>0.000000</ele>
</trkpt>
<trkpt lat="45.492829000" lon="11.592495000">
  <ele>0.000000</ele>
</trkpt>
<trkpt lat="45.491831000" lon="11.594089000">
  <ele>0.000000</ele>
</trkpt>
<trkpt lat="45.490788000" lon="11.595680000">
  <ele>0.000000</ele>
</trkpt>
<trkpt lat="45.489119000" lon="11.598299000">
  <ele>0.000000</ele>
</trkpt>
<trkpt lat="45.487897000" lon="11.600238000">
  <ele>0.000000</ele>
</trkpt>
<trkpt lat="45.487625000" lon="11.600530000">
  <ele>0.000000</ele>
</trkpt>
<trkpt lat="45.487329000" lon="11.600668000">
  <ele>0.000000</ele>
</trkpt>
<trkpt lat="45.485885000" lon="11.600930000">
  <ele>0.000000</ele>
</trkpt>
<trkpt lat="45.484437000" lon="11.601249000">
  <ele>0.000000</ele>
</trkpt>
<trkpt lat="45.484072000" lon="11.601437000">
  <ele>0.000000</ele>
</trkpt>
<trkpt lat="45.484002000" lon="11.601445000">
  <ele>0.000000</ele>
</trkpt>
<trkpt lat="45.483971000" lon="11.601384000">
  <ele>0.000000</ele>
</trkpt>
<trkpt lat="45.483948000" lon="11.601340000">
  <ele>0.000000</ele>
</trkpt>
<trkpt lat="45.483792000" lon="11.601378000">
  <ele>0.000000</ele>
</trkpt>
<trkpt lat="45.483100000" lon="11.601714000">
  <ele>0.000000</ele>
</trkpt>
<trkpt lat="45.479934000" lon="11.605811000">
  <ele>0.000000</ele>
</trkpt>
<trkpt lat="45.478131000" lon="11.607431000">
  <ele>0.000000</ele>
</trkpt>
<trkpt lat="45.477864000" lon="11.607761000">
  <ele>0.000000</ele>
</trkpt>
<trkpt lat="45.477706000" lon="11.607899000">
  <ele>0.000000</ele>
</trkpt>
<trkpt lat="45.477531000" lon="11.608013000">
  <ele>0.000000</ele>
</trkpt>
<trkpt lat="45.476946000" lon="11.608518000">
  <ele>0.000000</ele>
</trkpt>
<trkpt lat="45.476867000" lon="11.608585000">
  <ele>0.000000</ele>
</trkpt>
<trkpt lat="45.476779000" lon="11.608635000">
  <ele>0.000000</ele>
</trkpt>
<trkpt lat="45.476403000" lon="11.608861000">
  <ele>0.000000</ele>
</trkpt>
<trkpt lat="45.476019000" lon="11.609140000">
  <ele>0.000000</ele>
</trkpt>
<trkpt lat="45.475620000" lon="11.609495000">
  <ele>0.000000</ele>
</trkpt>
<trkpt lat="45.475569000" lon="11.609541000">
  <ele>0.000000</ele>
</trkpt>
<trkpt lat="45.475417000" lon="11.609676000">
  <ele>0.000000</ele>
</trkpt>
<trkpt lat="45.475038000" lon="11.609954000">
  <ele>0.000000</ele>
</trkpt>
<trkpt lat="45.474846000" lon="11.610088000">
  <ele>0.000000</ele>
</trkpt>
<trkpt lat="45.474602000" lon="11.610195000">
  <ele>0.000000</ele>
</trkpt>
<trkpt lat="45.474274000" lon="11.610277000">
  <ele>0.000000</ele>
</trkpt>
<trkpt lat="45.473942000" lon="11.610313000">
  <ele>0.000000</ele>
</trkpt>
<trkpt lat="45.473909000" lon="11.610335000">
  <ele>0.000000</ele>
</trkpt>
<trkpt lat="45.473886000" lon="11.610354000">
  <ele>0.000000</ele>
</trkpt>
<trkpt lat="45.473877000" lon="11.610385000">
  <ele>0.000000</ele>
</trkpt>
<trkpt lat="45.473864000" lon="11.610470000">
  <ele>0.000000</ele>
</trkpt>
<trkpt lat="45.473793000" lon="11.610534000">
  <ele>0.000000</ele>
</trkpt>
<trkpt lat="45.473706000" lon="11.610534000">
  <ele>0.000000</ele>
</trkpt>
<trkpt lat="45.473605000" lon="11.610449000">
  <ele>0.000000</ele>
</trkpt>
<trkpt lat="45.473465000" lon="11.610384000">
  <ele>0.000000</ele>
</trkpt>
<trkpt lat="45.473315000" lon="11.610352000">
  <ele>0.000000</ele>
</trkpt>
<trkpt lat="45.472969000" lon="11.610363000">
  <ele>0.000000</ele>
</trkpt>
<trkpt lat="45.472326000" lon="11.610411000">
  <ele>0.000000</ele>
</trkpt>
<trkpt lat="45.471246000" lon="11.610481000">
  <ele>0.000000</ele>
</trkpt>
<trkpt lat="45.471174000" lon="11.610487000">
  <ele>0.000000</ele>
</trkpt>
<trkpt lat="45.470648000" lon="11.610534000">
  <ele>0.000000</ele>
</trkpt>
<trkpt lat="45.469843000" lon="11.610567000">
  <ele>0.000000</ele>
</trkpt>
<trkpt lat="45.469538000" lon="11.610567000">
  <ele>0.000000</ele>
</trkpt>
<trkpt lat="45.469335000" lon="11.610550000">
  <ele>0.000000</ele>
</trkpt>
<trkpt lat="45.469175000" lon="11.610541000">
  <ele>0.000000</ele>
</trkpt>
<trkpt lat="45.468840000" lon="11.611587000">
  <ele>0.000000</ele>
</trkpt>
<trkpt lat="45.468774000" lon="11.611736000">
  <ele>0.000000</ele>
</trkpt>
<trkpt lat="45.468511000" lon="11.612380000">
  <ele>0.000000</ele>
</trkpt>
<trkpt lat="45.468127000" lon="11.612916000">
  <ele>0.000000</ele>
</trkpt>
<trkpt lat="45.467924000" lon="11.613184000">
  <ele>0.000000</ele>
</trkpt>
<trkpt lat="45.467829000" lon="11.613493000">
  <ele>0.000000</ele>
</trkpt>
<trkpt lat="45.467766000" lon="11.614128000">
  <ele>0.000000</ele>
</trkpt>
<trkpt lat="45.467669000" lon="11.614611000">
  <ele>0.000000</ele>
</trkpt>
<trkpt lat="45.467394000" lon="11.615153000">
  <ele>0.000000</ele>
</trkpt>
<trkpt lat="45.467085000" lon="11.615511000">
  <ele>0.000000</ele>
</trkpt>
<trkpt lat="45.466055000" lon="11.616465000">
  <ele>0.000000</ele>
</trkpt>
<trkpt lat="45.465234000" lon="11.617462000">
  <ele>0.000000</ele>
</trkpt>
<trkpt lat="45.464568000" lon="11.618152000">
  <ele>0.000000</ele>
</trkpt>
<trkpt lat="45.464353000" lon="11.618588000">
  <ele>0.000000</ele>
</trkpt>
<trkpt lat="45.464105000" lon="11.619214000">
  <ele>0.000000</ele>
</trkpt>
<trkpt lat="45.463818000" lon="11.619692000">
  <ele>0.000000</ele>
</trkpt>
<trkpt lat="45.462986000" lon="11.620376000">
  <ele>0.000000</ele>
</trkpt>
<trkpt lat="45.461379000" lon="11.621622000">
  <ele>0.000000</ele>
</trkpt>
<trkpt lat="45.460169000" lon="11.622653000">
  <ele>0.000000</ele>
</trkpt>
<trkpt lat="45.459914000" lon="11.622685000">
  <ele>0.000000</ele>
</trkpt>
<trkpt lat="45.458947000" lon="11.621810000">
  <ele>0.000000</ele>
</trkpt>
<trkpt lat="45.457622000" lon="11.620587000">
  <ele>0.000000</ele>
</trkpt>
<trkpt lat="45.457089000" lon="11.620335000">
  <ele>0.000000</ele>
</trkpt>
<trkpt lat="45.456853000" lon="11.620357000">
  <ele>0.000000</ele>
</trkpt>
<trkpt lat="45.456701000" lon="11.620397000">
  <ele>0.000000</ele>
</trkpt>
<trkpt lat="45.456629000" lon="11.620480000">
  <ele>0.000000</ele>
</trkpt>
<trkpt lat="45.455969000" lon="11.622460000">
  <ele>0.000000</ele>
</trkpt>
<trkpt lat="45.455749000" lon="11.622658000">
  <ele>0.000000</ele>
</trkpt>
<trkpt lat="45.455124000" lon="11.622432000">
  <ele>0.000000</ele>
</trkpt>
<trkpt lat="45.454953000" lon="11.622432000">
  <ele>0.000000</ele>
</trkpt>
<trkpt lat="45.454884000" lon="11.622578000">
  <ele>0.000000</ele>
</trkpt>
<trkpt lat="45.454832000" lon="11.622900000">
  <ele>0.000000</ele>
</trkpt>
<trkpt lat="45.454336000" lon="11.625979000">
  <ele>0.000000</ele>
</trkpt>
<trkpt lat="45.454281000" lon="11.626628000">
  <ele>0.000000</ele>
</trkpt>
<trkpt lat="45.454263000" lon="11.627566000">
  <ele>0.000000</ele>
</trkpt>
<trkpt lat="45.454173000" lon="11.628384000">
  <ele>0.000000</ele>
</trkpt>
<trkpt lat="45.453889000" lon="11.629618000">
  <ele>0.000000</ele>
</trkpt>
<trkpt lat="45.453757000" lon="11.630240000">
  <ele>0.000000</ele>
</trkpt>
<trkpt lat="45.453647000" lon="11.630541000">
  <ele>0.000000</ele>
</trkpt>
<trkpt lat="45.453506000" lon="11.630868000">
  <ele>0.000000</ele>
</trkpt>
<trkpt lat="45.453339000" lon="11.631145000">
  <ele>0.000000</ele>
</trkpt>
<trkpt lat="45.452261000" lon="11.632882000">
  <ele>0.000000</ele>
</trkpt>
<trkpt lat="45.452073000" lon="11.633161000">
  <ele>0.000000</ele>
</trkpt>
<trkpt lat="45.451994000" lon="11.633269000">
  <ele>0.000000</ele>
</trkpt>
<trkpt lat="45.451587000" lon="11.634256000">
  <ele>0.000000</ele>
</trkpt>
<trkpt lat="45.451225000" lon="11.635479000">
  <ele>0.000000</ele>
</trkpt>
<trkpt lat="45.450772000" lon="11.636163000">
  <ele>0.000000</ele>
</trkpt>
<trkpt lat="45.449969000" lon="11.637378000">
  <ele>0.000000</ele>
</trkpt>
<trkpt lat="45.449834000" lon="11.637703000">
  <ele>0.000000</ele>
</trkpt>
<trkpt lat="45.449480000" lon="11.638553000">
  <ele>0.000000</ele>
</trkpt>
<trkpt lat="45.449423000" lon="11.638690000">
  <ele>0.000000</ele>
</trkpt>
<trkpt lat="45.449382000" lon="11.638791000">
  <ele>0.000000</ele>
</trkpt>
<trkpt lat="45.449227000" lon="11.639164000">
  <ele>0.000000</ele>
</trkpt>
<trkpt lat="45.449215000" lon="11.639191000">
  <ele>0.000000</ele>
</trkpt>
<trkpt lat="45.449125000" lon="11.639288000">
  <ele>0.000000</ele>
</trkpt>
<trkpt lat="45.449216000" lon="11.639425000">
  <ele>0.000000</ele>
</trkpt>
<trkpt lat="45.450308000" lon="11.640326000">
  <ele>0.000000</ele>
</trkpt>
<trkpt lat="45.451339000" lon="11.640916000">
  <ele>0.000000</ele>
</trkpt>
<trkpt lat="45.452889000" lon="11.641388000">
  <ele>0.000000</ele>
</trkpt>
<trkpt lat="45.453123000" lon="11.641645000">
  <ele>0.000000</ele>
</trkpt>
<trkpt lat="45.453251000" lon="11.642598000">
  <ele>0.000000</ele>
</trkpt>
<trkpt lat="45.453360000" lon="11.642911000">
  <ele>0.000000</ele>
</trkpt>
<trkpt lat="45.453604000" lon="11.643147000">
  <ele>0.000000</ele>
</trkpt>
<trkpt lat="45.454364000" lon="11.643845000">
  <ele>0.000000</ele>
</trkpt>
<trkpt lat="45.454417000" lon="11.643974000">
  <ele>0.000000</ele>
</trkpt>
<trkpt lat="45.452632000" lon="11.646850000">
  <ele>0.000000</ele>
</trkpt>
<trkpt lat="45.451888000" lon="11.648115000">
  <ele>0.000000</ele>
</trkpt>
<trkpt lat="45.450528000" lon="11.649982000">
  <ele>0.000000</ele>
</trkpt>
<trkpt lat="45.450141000" lon="11.650412000">
  <ele>0.000000</ele>
</trkpt>
<trkpt lat="45.449821000" lon="11.650873000">
  <ele>0.000000</ele>
</trkpt>
<trkpt lat="45.449110000" lon="11.652751000">
  <ele>0.000000</ele>
</trkpt>
<trkpt lat="45.448500000" lon="11.653673000">
  <ele>0.000000</ele>
</trkpt>
<trkpt lat="45.448117000" lon="11.654637000">
  <ele>0.000000</ele>
</trkpt>
<trkpt lat="45.447675000" lon="11.655418000">
  <ele>0.000000</ele>
</trkpt>
<trkpt lat="45.447443000" lon="11.656075000">
  <ele>0.000000</ele>
</trkpt>
<trkpt lat="45.447388000" lon="11.656772000">
  <ele>0.000000</ele>
</trkpt>
<trkpt lat="45.447321000" lon="11.657223000">
  <ele>0.000000</ele>
</trkpt>
<trkpt lat="45.447043000" lon="11.657931000">
  <ele>0.000000</ele>
</trkpt>
<trkpt lat="45.445867000" lon="11.656805000">
  <ele>0.000000</ele>
</trkpt>
<trkpt lat="45.443566000" lon="11.656165000">
  <ele>0.000000</ele>
</trkpt>
<trkpt lat="45.443287000" lon="11.657818000">
  <ele>0.000000</ele>
</trkpt>
<trkpt lat="45.442931000" lon="11.659930000">
  <ele>0.000000</ele>
</trkpt>
<trkpt lat="45.442898000" lon="11.660146000">
  <ele>0.000000</ele>
</trkpt>
<trkpt lat="45.442859000" lon="11.660393000">
  <ele>0.000000</ele>
</trkpt>
<trkpt lat="45.442814000" lon="11.661031000">
  <ele>0.000000</ele>
</trkpt>
<trkpt lat="45.442843000" lon="11.661819000">
  <ele>0.000000</ele>
</trkpt>
<trkpt lat="45.442755000" lon="11.662500000">
  <ele>0.000000</ele>
</trkpt>
<trkpt lat="45.442470000" lon="11.663651000">
  <ele>0.000000</ele>
</trkpt>
<trkpt lat="45.442168000" lon="11.664225000">
  <ele>0.000000</ele>
</trkpt>
<trkpt lat="45.441773000" lon="11.664912000">
  <ele>0.000000</ele>
</trkpt>
<trkpt lat="45.441643000" lon="11.665065000">
  <ele>0.000000</ele>
</trkpt>
<trkpt lat="45.440723000" lon="11.666142000">
  <ele>0.000000</ele>
</trkpt>
<trkpt lat="45.440536000" lon="11.666215000">
  <ele>0.000000</ele>
</trkpt>
<trkpt lat="45.440325000" lon="11.666591000">
  <ele>0.000000</ele>
</trkpt>
<trkpt lat="45.439949000" lon="11.667331000">
  <ele>0.000000</ele>
</trkpt>
<trkpt lat="45.439595000" lon="11.668114000">
  <ele>0.000000</ele>
</trkpt>
<trkpt lat="45.439339000" lon="11.668801000">
  <ele>0.000000</ele>
</trkpt>
<trkpt lat="45.439078000" lon="11.669664000">
  <ele>0.000000</ele>
</trkpt>
<trkpt lat="45.439085000" lon="11.669711000">
  <ele>0.000000</ele>
</trkpt>
<trkpt lat="45.439099000" lon="11.669747000">
  <ele>0.000000</ele>
</trkpt>
<trkpt lat="45.439226000" lon="11.669851000">
  <ele>0.000000</ele>
</trkpt>
<trkpt lat="45.439369000" lon="11.669974000">
  <ele>0.000000</ele>
</trkpt>
<trkpt lat="45.439439000" lon="11.670030000">
  <ele>0.000000</ele>
</trkpt>
<trkpt lat="45.439470000" lon="11.670061000">
  <ele>0.000000</ele>
</trkpt>
<trkpt lat="45.439481000" lon="11.670102000">
  <ele>0.000000</ele>
</trkpt>
<trkpt lat="45.439475000" lon="11.670299000">
  <ele>0.000000</ele>
</trkpt>
<trkpt lat="45.439462000" lon="11.670559000">
  <ele>0.000000</ele>
</trkpt>
<trkpt lat="45.439463000" lon="11.670671000">
  <ele>0.000000</ele>
</trkpt>
<trkpt lat="45.439634000" lon="11.670785000">
  <ele>0.000000</ele>
</trkpt>
<trkpt lat="45.440418000" lon="11.671190000">
  <ele>0.000000</ele>
</trkpt>
<trkpt lat="45.441993000" lon="11.671905000">
  <ele>0.000000</ele>
</trkpt>
<trkpt lat="45.442591000" lon="11.672170000">
  <ele>0.000000</ele>
</trkpt>
<trkpt lat="45.442837000" lon="11.672348000">
  <ele>0.000000</ele>
</trkpt>
<trkpt lat="45.443009000" lon="11.672490000">
  <ele>0.000000</ele>
</trkpt>
<trkpt lat="45.443501000" lon="11.672894000">
  <ele>0.000000</ele>
</trkpt>
<trkpt lat="45.443815000" lon="11.673152000">
  <ele>0.000000</ele>
</trkpt>
<trkpt lat="45.443756000" lon="11.673948000">
  <ele>0.000000</ele>
</trkpt>
<trkpt lat="45.443684000" lon="11.674169000">
  <ele>0.000000</ele>
</trkpt>
<trkpt lat="45.443543000" lon="11.674442000">
  <ele>0.000000</ele>
</trkpt>
<trkpt lat="45.443475000" lon="11.674622000">
  <ele>0.000000</ele>
</trkpt>
<trkpt lat="45.443458000" lon="11.674726000">
  <ele>0.000000</ele>
</trkpt>
<trkpt lat="45.443465000" lon="11.674829000">
  <ele>0.000000</ele>
</trkpt>
<trkpt lat="45.443044000" lon="11.675257000">
  <ele>0.000000</ele>
</trkpt>
<trkpt lat="45.442566000" lon="11.675760000">
  <ele>0.000000</ele>
</trkpt>
<trkpt lat="45.442378000" lon="11.676042000">
  <ele>0.000000</ele>
</trkpt>
<trkpt lat="45.441863000" lon="11.676890000">
  <ele>0.000000</ele>
</trkpt>
<trkpt lat="45.441450000" lon="11.677556000">
  <ele>0.000000</ele>
</trkpt>
<trkpt lat="45.441201000" lon="11.678088000">
  <ele>0.000000</ele>
</trkpt>
<trkpt lat="45.440966000" lon="11.678505000">
  <ele>0.000000</ele>
</trkpt>
<trkpt lat="45.440887000" lon="11.678586000">
  <ele>0.000000</ele>
</trkpt>
<trkpt lat="45.440792000" lon="11.678682000">
  <ele>0.000000</ele>
</trkpt>
<trkpt lat="45.440335000" lon="11.678987000">
  <ele>0.000000</ele>
</trkpt>
<trkpt lat="45.440209000" lon="11.679149000">
  <ele>0.000000</ele>
</trkpt>
<trkpt lat="45.440134000" lon="11.679381000">
  <ele>0.000000</ele>
</trkpt>
<trkpt lat="45.440055000" lon="11.679830000">
  <ele>0.000000</ele>
</trkpt>
<trkpt lat="45.439977000" lon="11.680367000">
  <ele>0.000000</ele>
</trkpt>
<trkpt lat="45.439842000" lon="11.680881000">
  <ele>0.000000</ele>
</trkpt>
<trkpt lat="45.439182000" lon="11.683009000">
  <ele>0.000000</ele>
</trkpt>
<trkpt lat="45.439129000" lon="11.683868000">
  <ele>0.000000</ele>
</trkpt>
<trkpt lat="45.439107000" lon="11.684224000">
  <ele>0.000000</ele>
</trkpt>
<trkpt lat="45.439019000" lon="11.685430000">
  <ele>0.000000</ele>
</trkpt>
<trkpt lat="45.438968000" lon="11.686120000">
  <ele>0.000000</ele>
</trkpt>
<trkpt lat="45.438952000" lon="11.686636000">
  <ele>0.000000</ele>
</trkpt>
<trkpt lat="45.438955000" lon="11.687023000">
  <ele>0.000000</ele>
</trkpt>
<trkpt lat="45.439082000" lon="11.687816000">
  <ele>0.000000</ele>
</trkpt>
<trkpt lat="45.439175000" lon="11.688317000">
  <ele>0.000000</ele>
</trkpt>
<trkpt lat="45.439279000" lon="11.690970000">
  <ele>0.000000</ele>
</trkpt>
<trkpt lat="45.439311000" lon="11.691600000">
  <ele>0.000000</ele>
</trkpt>
<trkpt lat="45.439290000" lon="11.692005000">
  <ele>0.000000</ele>
</trkpt>
<trkpt lat="45.439096000" lon="11.693076000">
  <ele>0.000000</ele>
</trkpt>
<trkpt lat="45.438928000" lon="11.693878000">
  <ele>0.000000</ele>
</trkpt>
<trkpt lat="45.438895000" lon="11.694152000">
  <ele>0.000000</ele>
</trkpt>
<trkpt lat="45.438930000" lon="11.694443000">
  <ele>0.000000</ele>
</trkpt>
<trkpt lat="45.439051000" lon="11.694659000">
  <ele>0.000000</ele>
</trkpt>
<trkpt lat="45.439183000" lon="11.694813000">
  <ele>0.000000</ele>
</trkpt>
<trkpt lat="45.439408000" lon="11.695262000">
  <ele>0.000000</ele>
</trkpt>
<trkpt lat="45.439575000" lon="11.695643000">
  <ele>0.000000</ele>
</trkpt>
<trkpt lat="45.439676000" lon="11.695896000">
  <ele>0.000000</ele>
</trkpt>
<trkpt lat="45.439692000" lon="11.696094000">
  <ele>0.000000</ele>
</trkpt>
<trkpt lat="45.439646000" lon="11.696448000">
  <ele>0.000000</ele>
</trkpt>
<trkpt lat="45.439337000" lon="11.697691000">
  <ele>0.000000</ele>
</trkpt>
<trkpt lat="45.439150000" lon="11.698463000">
  <ele>0.000000</ele>
</trkpt>
<trkpt lat="45.439082000" lon="11.698709000">
  <ele>0.000000</ele>
</trkpt>
<trkpt lat="45.439050000" lon="11.698824000">
  <ele>0.000000</ele>
</trkpt>
<trkpt lat="45.439049000" lon="11.698956000">
  <ele>0.000000</ele>
</trkpt>
<trkpt lat="45.438916000" lon="11.698709000">
  <ele>0.000000</ele>
</trkpt>
<trkpt lat="45.438657000" lon="11.698359000">
  <ele>0.000000</ele>
</trkpt>
<trkpt lat="45.438334000" lon="11.697950000">
  <ele>0.000000</ele>
</trkpt>
<trkpt lat="45.437890000" lon="11.697208000">
  <ele>0.000000</ele>
</trkpt>
<trkpt lat="45.436864000" lon="11.695366000">
  <ele>0.000000</ele>
</trkpt>
<trkpt lat="45.435662000" lon="11.693680000">
  <ele>0.000000</ele>
</trkpt>
<trkpt lat="45.435376000" lon="11.693236000">
  <ele>0.000000</ele>
</trkpt>
<trkpt lat="45.435043000" lon="11.692745000">
  <ele>0.000000</ele>
</trkpt>
<trkpt lat="45.434680000" lon="11.692348000">
  <ele>0.000000</ele>
</trkpt>
<trkpt lat="45.434214000" lon="11.691831000">
  <ele>0.000000</ele>
</trkpt>
<trkpt lat="45.432986000" lon="11.690358000">
  <ele>0.000000</ele>
</trkpt>
<trkpt lat="45.432496000" lon="11.689883000">
  <ele>0.000000</ele>
</trkpt>
<trkpt lat="45.432080000" lon="11.689516000">
  <ele>0.000000</ele>
</trkpt>
<trkpt lat="45.431927000" lon="11.689504000">
  <ele>0.000000</ele>
</trkpt>
<trkpt lat="45.431861000" lon="11.689530000">
  <ele>0.000000</ele>
</trkpt>
<trkpt lat="45.431716000" lon="11.689740000">
  <ele>0.000000</ele>
</trkpt>
<trkpt lat="45.431144000" lon="11.691242000">
  <ele>0.000000</ele>
</trkpt>
<trkpt lat="45.430532000" lon="11.693007000">
  <ele>0.000000</ele>
</trkpt>
<trkpt lat="45.430325000" lon="11.693550000">
  <ele>0.000000</ele>
</trkpt>
<trkpt lat="45.430029000" lon="11.694068000">
  <ele>0.000000</ele>
</trkpt>
<trkpt lat="45.429842000" lon="11.693727000">
  <ele>0.000000</ele>
</trkpt>
<trkpt lat="45.429789000" lon="11.693645000">
  <ele>0.000000</ele>
</trkpt>
<trkpt lat="45.429656000" lon="11.693437000">
  <ele>0.000000</ele>
</trkpt>
<trkpt lat="45.429185000" lon="11.692876000">
  <ele>0.000000</ele>
</trkpt>
<trkpt lat="45.428644000" lon="11.692416000">
  <ele>0.000000</ele>
</trkpt>
<trkpt lat="45.428596000" lon="11.692155000">
  <ele>0.000000</ele>
</trkpt>
<trkpt lat="45.428557000" lon="11.691866000">
  <ele>0.000000</ele>
</trkpt>
<trkpt lat="45.428345000" lon="11.691635000">
  <ele>0.000000</ele>
</trkpt>
<trkpt lat="45.427989000" lon="11.691452000">
  <ele>0.000000</ele>
</trkpt>
<trkpt lat="45.427874000" lon="11.691364000">
  <ele>0.000000</ele>
</trkpt>
<trkpt lat="45.427823000" lon="11.691152000">
  <ele>0.000000</ele>
</trkpt>
<trkpt lat="45.427729000" lon="11.690980000">
  <ele>0.000000</ele>
</trkpt>
<trkpt lat="45.427391000" lon="11.690816000">
  <ele>0.000000</ele>
</trkpt>
<trkpt lat="45.427175000" lon="11.690801000">
  <ele>0.000000</ele>
</trkpt>
<trkpt lat="45.426977000" lon="11.690922000">
  <ele>0.000000</ele>
</trkpt>
<trkpt lat="45.426866000" lon="11.691009000">
  <ele>0.000000</ele>
</trkpt>
<trkpt lat="45.426826000" lon="11.691181000">
  <ele>0.000000</ele>
</trkpt>
<trkpt lat="45.426762000" lon="11.691559000">
  <ele>0.000000</ele>
</trkpt>
<trkpt lat="45.426721000" lon="11.691978000">
  <ele>0.000000</ele>
</trkpt>
<trkpt lat="45.426663000" lon="11.692172000">
  <ele>0.000000</ele>
</trkpt>
<trkpt lat="45.426591000" lon="11.692281000">
  <ele>0.000000</ele>
</trkpt>
<trkpt lat="45.426513000" lon="11.692294000">
  <ele>0.000000</ele>
</trkpt>
<trkpt lat="45.426196000" lon="11.692348000">
  <ele>0.000000</ele>
</trkpt>
<trkpt lat="45.425903000" lon="11.692313000">
  <ele>0.000000</ele>
</trkpt>
<trkpt lat="45.425752000" lon="11.692185000">
  <ele>0.000000</ele>
</trkpt>
<trkpt lat="45.425637000" lon="11.692047000">
  <ele>0.000000</ele>
</trkpt>
<trkpt lat="45.425425000" lon="11.691700000">
  <ele>0.000000</ele>
</trkpt>
<trkpt lat="45.425072000" lon="11.690969000">
  <ele>0.000000</ele>
</trkpt>
<trkpt lat="45.424847000" lon="11.690585000">
  <ele>0.000000</ele>
</trkpt>
<trkpt lat="45.424613000" lon="11.690304000">
  <ele>0.000000</ele>
</trkpt>
<trkpt lat="45.424575000" lon="11.690504000">
  <ele>0.000000</ele>
</trkpt>
<trkpt lat="45.424413000" lon="11.691346000">
  <ele>0.000000</ele>
</trkpt>
<trkpt lat="45.424363000" lon="11.691786000">
  <ele>0.000000</ele>
</trkpt>
<trkpt lat="45.424283000" lon="11.692251000">
  <ele>0.000000</ele>
</trkpt>
<trkpt lat="45.424115000" lon="11.693003000">
  <ele>0.000000</ele>
</trkpt>
<trkpt lat="45.423793000" lon="11.693913000">
  <ele>0.000000</ele>
</trkpt>
<trkpt lat="45.423060000" lon="11.695361000">
  <ele>0.000000</ele>
</trkpt>
<trkpt lat="45.421769000" lon="11.698054000">
  <ele>0.000000</ele>
</trkpt>
<trkpt lat="45.421065000" lon="11.700080000">
  <ele>0.000000</ele>
</trkpt>
<trkpt lat="45.420540000" lon="11.700697000">
  <ele>0.000000</ele>
</trkpt>
<trkpt lat="45.420294000" lon="11.701391000">
  <ele>0.000000</ele>
</trkpt>
<trkpt lat="45.419816000" lon="11.702809000">
  <ele>0.000000</ele>
</trkpt>
<trkpt lat="45.419106000" lon="11.704552000">
  <ele>0.000000</ele>
</trkpt>
<trkpt lat="45.418967000" lon="11.704714000">
  <ele>0.000000</ele>
</trkpt>
<trkpt lat="45.418759000" lon="11.704721000">
  <ele>0.000000</ele>
</trkpt>
<trkpt lat="45.418482000" lon="11.704644000">
  <ele>0.000000</ele>
</trkpt>
<trkpt lat="45.418196000" lon="11.704745000">
  <ele>0.000000</ele>
</trkpt>
<trkpt lat="45.417552000" lon="11.705684000">
  <ele>0.000000</ele>
</trkpt>
<trkpt lat="45.417231000" lon="11.705908000">
  <ele>0.000000</ele>
</trkpt>
<trkpt lat="45.416807000" lon="11.706494000">
  <ele>0.000000</ele>
</trkpt>
<trkpt lat="45.416666000" lon="11.706841000">
  <ele>0.000000</ele>
</trkpt>
<trkpt lat="45.416464000" lon="11.707920000">
  <ele>0.000000</ele>
</trkpt>
<trkpt lat="45.416282000" lon="11.708483000">
  <ele>0.000000</ele>
</trkpt>
<trkpt lat="45.416111000" lon="11.708802000">
  <ele>0.000000</ele>
</trkpt>
<trkpt lat="45.415883000" lon="11.709073000">
  <ele>0.000000</ele>
</trkpt>
<trkpt lat="45.415627000" lon="11.709234000">
  <ele>0.000000</ele>
</trkpt>
<trkpt lat="45.415292000" lon="11.709447000">
  <ele>0.000000</ele>
</trkpt>
<trkpt lat="45.414688000" lon="11.709909000">
  <ele>0.000000</ele>
</trkpt>
<trkpt lat="45.413891000" lon="11.710481000">
  <ele>0.000000</ele>
</trkpt>
<trkpt lat="45.413640000" lon="11.710449000">
  <ele>0.000000</ele>
</trkpt>
<trkpt lat="45.413255000" lon="11.710350000">
  <ele>0.000000</ele>
</trkpt>
<trkpt lat="45.411582000" lon="11.709596000">
  <ele>0.000000</ele>
</trkpt>
<trkpt lat="45.411016000" lon="11.709478000">
  <ele>0.000000</ele>
</trkpt>
<trkpt lat="45.411424000" lon="11.710368000">
  <ele>0.000000</ele>
</trkpt>
<trkpt lat="45.411522000" lon="11.710631000">
  <ele>0.000000</ele>
</trkpt>
<trkpt lat="45.411787000" lon="11.710875000">
  <ele>0.000000</ele>
</trkpt>
<trkpt lat="45.411986000" lon="11.711334000">
  <ele>0.000000</ele>
</trkpt>
<trkpt lat="45.412117000" lon="11.712013000">
  <ele>0.000000</ele>
</trkpt>
<trkpt lat="45.412148000" lon="11.712583000">
  <ele>0.000000</ele>
</trkpt>
<trkpt lat="45.412016000" lon="11.713902000">
  <ele>0.000000</ele>
</trkpt>
<trkpt lat="45.412009000" lon="11.714827000">
  <ele>0.000000</ele>
</trkpt>
<trkpt lat="45.412109000" lon="11.715505000">
  <ele>0.000000</ele>
</trkpt>
<trkpt lat="45.412294000" lon="11.716192000">
  <ele>0.000000</ele>
</trkpt>
<trkpt lat="45.412664000" lon="11.717287000">
  <ele>0.000000</ele>
</trkpt>
<trkpt lat="45.412903000" lon="11.718135000">
  <ele>0.000000</ele>
</trkpt>
<trkpt lat="45.412865000" lon="11.718443000">
  <ele>0.000000</ele>
</trkpt>
<trkpt lat="45.412764000" lon="11.718705000">
  <ele>0.000000</ele>
</trkpt>
<trkpt lat="45.412548000" lon="11.719276000">
  <ele>0.000000</ele>
</trkpt>
<trkpt lat="45.412488000" lon="11.719906000">
  <ele>0.000000</ele>
</trkpt>
<trkpt lat="45.412178000" lon="11.721396000">
  <ele>0.000000</ele>
</trkpt>
<trkpt lat="45.412209000" lon="11.721620000">
  <ele>0.000000</ele>
</trkpt>
<trkpt lat="45.412324000" lon="11.721997000">
  <ele>0.000000</ele>
</trkpt>
<trkpt lat="45.412670000" lon="11.722554000">
  <ele>0.000000</ele>
</trkpt>
<trkpt lat="45.413074000" lon="11.723058000">
  <ele>0.000000</ele>
</trkpt>
<trkpt lat="45.413211000" lon="11.723284000">
  <ele>0.000000</ele>
</trkpt>
<trkpt lat="45.413363000" lon="11.723576000">
  <ele>0.000000</ele>
</trkpt>
<trkpt lat="45.413575000" lon="11.724016000">
  <ele>0.000000</ele>
</trkpt>
<trkpt lat="45.413810000" lon="11.724679000">
  <ele>0.000000</ele>
</trkpt>
<trkpt lat="45.414051000" lon="11.725266000">
  <ele>0.000000</ele>
</trkpt>
<trkpt lat="45.414198000" lon="11.725704000">
  <ele>0.000000</ele>
</trkpt>
<trkpt lat="45.414253000" lon="11.725936000">
  <ele>0.000000</ele>
</trkpt>
<trkpt lat="45.414643000" lon="11.727226000">
  <ele>0.000000</ele>
</trkpt>
<trkpt lat="45.414732000" lon="11.727816000">
  <ele>0.000000</ele>
</trkpt>
<trkpt lat="45.414875000" lon="11.729158000">
  <ele>0.000000</ele>
</trkpt>
<trkpt lat="45.414846000" lon="11.729640000">
  <ele>0.000000</ele>
</trkpt>
<trkpt lat="45.414997000" lon="11.730027000">
  <ele>0.000000</ele>
</trkpt>
<trkpt lat="45.415195000" lon="11.730491000">
  <ele>0.000000</ele>
</trkpt>
<trkpt lat="45.415509000" lon="11.730703000">
  <ele>0.000000</ele>
</trkpt>
<trkpt lat="45.415772000" lon="11.730745000">
  <ele>0.000000</ele>
</trkpt>
<trkpt lat="45.416016000" lon="11.730780000">
  <ele>0.000000</ele>
</trkpt>
<trkpt lat="45.416204000" lon="11.730877000">
  <ele>0.000000</ele>
</trkpt>
<trkpt lat="45.416317000" lon="11.731059000">
  <ele>0.000000</ele>
</trkpt>
<trkpt lat="45.416317000" lon="11.731349000">
  <ele>0.000000</ele>
</trkpt>
<trkpt lat="45.416277000" lon="11.731775000">
  <ele>0.000000</ele>
</trkpt>
<trkpt lat="45.416217000" lon="11.732301000">
  <ele>0.000000</ele>
</trkpt>
<trkpt lat="45.416156000" lon="11.732945000">
  <ele>0.000000</ele>
</trkpt>
<trkpt lat="45.416134000" lon="11.733996000">
  <ele>0.000000</ele>
</trkpt>
<trkpt lat="45.416164000" lon="11.734747000">
  <ele>0.000000</ele>
</trkpt>
<trkpt lat="45.416194000" lon="11.735423000">
  <ele>0.000000</ele>
</trkpt>
<trkpt lat="45.416166000" lon="11.736102000">
  <ele>0.000000</ele>
</trkpt>
<trkpt lat="45.416013000" lon="11.736861000">
  <ele>0.000000</ele>
</trkpt>
<trkpt lat="45.415805000" lon="11.737507000">
  <ele>0.000000</ele>
</trkpt>
<trkpt lat="45.415509000" lon="11.738020000">
  <ele>0.000000</ele>
</trkpt>
<trkpt lat="45.415034000" lon="11.738835000">
  <ele>0.000000</ele>
</trkpt>
<trkpt lat="45.414718000" lon="11.739329000">
  <ele>0.000000</ele>
</trkpt>
<trkpt lat="45.414449000" lon="11.739653000">
  <ele>0.000000</ele>
</trkpt>
<trkpt lat="45.414133000" lon="11.740007000">
  <ele>0.000000</ele>
</trkpt>
<trkpt lat="45.413701000" lon="11.740552000">
  <ele>0.000000</ele>
</trkpt>
<trkpt lat="45.413284000" lon="11.741077000">
  <ele>0.000000</ele>
</trkpt>
<trkpt lat="45.413263000" lon="11.741246000">
  <ele>0.000000</ele>
</trkpt>
<trkpt lat="45.413276000" lon="11.741404000">
  <ele>0.000000</ele>
</trkpt>
<trkpt lat="45.413480000" lon="11.742038000">
  <ele>0.000000</ele>
</trkpt>
<trkpt lat="45.413564000" lon="11.742223000">
  <ele>0.000000</ele>
</trkpt>
<trkpt lat="45.413641000" lon="11.742354000">
  <ele>0.000000</ele>
</trkpt>
<trkpt lat="45.414672000" lon="11.743688000">
  <ele>0.000000</ele>
</trkpt>
<trkpt lat="45.414942000" lon="11.744037000">
  <ele>0.000000</ele>
</trkpt>
<trkpt lat="45.415193000" lon="11.744346000">
  <ele>0.000000</ele>
</trkpt>
<trkpt lat="45.415283000" lon="11.744574000">
  <ele>0.000000</ele>
</trkpt>
<trkpt lat="45.415309000" lon="11.744739000">
  <ele>0.000000</ele>
</trkpt>
<trkpt lat="45.415314000" lon="11.744879000">
  <ele>0.000000</ele>
</trkpt>
<trkpt lat="45.415320000" lon="11.745290000">
  <ele>0.000000</ele>
</trkpt>
<trkpt lat="45.415331000" lon="11.745755000">
  <ele>0.000000</ele>
</trkpt>
<trkpt lat="45.415329000" lon="11.746061000">
  <ele>0.000000</ele>
</trkpt>
<trkpt lat="45.415050000" lon="11.746032000">
  <ele>0.000000</ele>
</trkpt>
<trkpt lat="45.414894000" lon="11.746051000">
  <ele>0.000000</ele>
</trkpt>
<trkpt lat="45.414653000" lon="11.746144000">
  <ele>0.000000</ele>
</trkpt>
<trkpt lat="45.414014000" lon="11.746429000">
  <ele>0.000000</ele>
</trkpt>
<trkpt lat="45.413595000" lon="11.746607000">
  <ele>0.000000</ele>
</trkpt>
<trkpt lat="45.413079000" lon="11.746855000">
  <ele>0.000000</ele>
</trkpt>
<trkpt lat="45.412608000" lon="11.747095000">
  <ele>0.000000</ele>
</trkpt>
<trkpt lat="45.412205000" lon="11.747301000">
  <ele>0.000000</ele>
</trkpt>
<trkpt lat="45.411725000" lon="11.747418000">
  <ele>0.000000</ele>
</trkpt>
<trkpt lat="45.411528000" lon="11.747477000">
  <ele>0.000000</ele>
</trkpt>
<trkpt lat="45.411350000" lon="11.747568000">
  <ele>0.000000</ele>
</trkpt>
<trkpt lat="45.411233000" lon="11.747645000">
  <ele>0.000000</ele>
</trkpt>
<trkpt lat="45.411025000" lon="11.747813000">
  <ele>0.000000</ele>
</trkpt>
<trkpt lat="45.410858000" lon="11.747969000">
  <ele>0.000000</ele>
</trkpt>
<trkpt lat="45.410666000" lon="11.748167000">
  <ele>0.000000</ele>
</trkpt>
<trkpt lat="45.410240000" lon="11.748608000">
  <ele>0.000000</ele>
</trkpt>
<trkpt lat="45.410120000" lon="11.748731000">
  <ele>0.000000</ele>
</trkpt>
<trkpt lat="45.409921000" lon="11.748944000">
  <ele>0.000000</ele>
</trkpt>
<trkpt lat="45.409745000" lon="11.749162000">
  <ele>0.000000</ele>
</trkpt>
<trkpt lat="45.409532000" lon="11.749475000">
  <ele>0.000000</ele>
</trkpt>
<trkpt lat="45.408666000" lon="11.750826000">
  <ele>0.000000</ele>
</trkpt>
<trkpt lat="45.408390000" lon="11.751286000">
  <ele>0.000000</ele>
</trkpt>
<trkpt lat="45.408203000" lon="11.751622000">
  <ele>0.000000</ele>
</trkpt>
<trkpt lat="45.408000000" lon="11.751897000">
  <ele>0.000000</ele>
</trkpt>
<trkpt lat="45.407639000" lon="11.752280000">
  <ele>0.000000</ele>
</trkpt>
<trkpt lat="45.407293000" lon="11.752625000">
  <ele>0.000000</ele>
</trkpt>
<trkpt lat="45.407148000" lon="11.752788000">
  <ele>0.000000</ele>
</trkpt>
<trkpt lat="45.407078000" lon="11.752924000">
  <ele>0.000000</ele>
</trkpt>
<trkpt lat="45.407029000" lon="11.753082000">
  <ele>0.000000</ele>
</trkpt>
<trkpt lat="45.406971000" lon="11.753381000">
  <ele>0.000000</ele>
</trkpt>
<trkpt lat="45.406851000" lon="11.753836000">
  <ele>0.000000</ele>
</trkpt>
<trkpt lat="45.406731000" lon="11.754254000">
  <ele>0.000000</ele>
</trkpt>
<trkpt lat="45.406579000" lon="11.754728000">
  <ele>0.000000</ele>
</trkpt>
<trkpt lat="45.406477000" lon="11.754929000">
  <ele>0.000000</ele>
</trkpt>
<trkpt lat="45.406343000" lon="11.755125000">
  <ele>0.000000</ele>
</trkpt>
<trkpt lat="45.406156000" lon="11.755347000">
  <ele>0.000000</ele>
</trkpt>
<trkpt lat="45.405914000" lon="11.755533000">
  <ele>0.000000</ele>
</trkpt>
<trkpt lat="45.405588000" lon="11.755748000">
  <ele>0.000000</ele>
</trkpt>
<trkpt lat="45.405435000" lon="11.755905000">
  <ele>0.000000</ele>
</trkpt>
<trkpt lat="45.405196000" lon="11.756237000">
  <ele>0.000000</ele>
</trkpt>
<trkpt lat="45.405090000" lon="11.756408000">
  <ele>0.000000</ele>
</trkpt>
<trkpt lat="45.404605000" lon="11.757196000">
  <ele>0.000000</ele>
</trkpt>
<trkpt lat="45.403827000" lon="11.758397000">
  <ele>0.000000</ele>
</trkpt>
<trkpt lat="45.403583000" lon="11.758871000">
  <ele>0.000000</ele>
</trkpt>
<trkpt lat="45.403506000" lon="11.759121000">
  <ele>0.000000</ele>
</trkpt>
<trkpt lat="45.403404000" lon="11.759558000">
  <ele>0.000000</ele>
</trkpt>
<trkpt lat="45.403378000" lon="11.759862000">
  <ele>0.000000</ele>
</trkpt>
<trkpt lat="45.403375000" lon="11.760177000">
  <ele>0.000000</ele>
</trkpt>
<trkpt lat="45.403412000" lon="11.760606000">
  <ele>0.000000</ele>
</trkpt>
<trkpt lat="45.403517000" lon="11.761039000">
  <ele>0.000000</ele>
</trkpt>
<trkpt lat="45.403620000" lon="11.761423000">
  <ele>0.000000</ele>
</trkpt>
<trkpt lat="45.403682000" lon="11.761836000">
  <ele>0.000000</ele>
</trkpt>
<trkpt lat="45.403719000" lon="11.762790000">
  <ele>0.000000</ele>
</trkpt>
<trkpt lat="45.403662000" lon="11.763138000">
  <ele>0.000000</ele>
</trkpt>
<trkpt lat="45.403534000" lon="11.763434000">
  <ele>0.000000</ele>
</trkpt>
<trkpt lat="45.403367000" lon="11.763640000">
  <ele>0.000000</ele>
</trkpt>
<trkpt lat="45.403186000" lon="11.763782000">
  <ele>0.000000</ele>
</trkpt>
<trkpt lat="45.403094000" lon="11.763854000">
  <ele>0.000000</ele>
</trkpt>
<trkpt lat="45.402856000" lon="11.764085000">
  <ele>0.000000</ele>
</trkpt>
<trkpt lat="45.402574000" lon="11.764510000">
  <ele>0.000000</ele>
</trkpt>
<trkpt lat="45.402180000" lon="11.765294000">
  <ele>0.000000</ele>
</trkpt>
<trkpt lat="45.401498000" lon="11.766646000">
  <ele>0.000000</ele>
</trkpt>
<trkpt lat="45.401274000" lon="11.767188000">
  <ele>0.000000</ele>
</trkpt>
<trkpt lat="45.401236000" lon="11.767346000">
  <ele>0.000000</ele>
</trkpt>
<trkpt lat="45.400995000" lon="11.768377000">
  <ele>0.000000</ele>
</trkpt>
<trkpt lat="45.400123000" lon="11.772111000">
  <ele>0.000000</ele>
</trkpt>
<trkpt lat="45.400030000" lon="11.772413000">
  <ele>0.000000</ele>
</trkpt>
<trkpt lat="45.399976000" lon="11.772588000">
  <ele>0.000000</ele>
</trkpt>
<trkpt lat="45.399745000" lon="11.773171000">
  <ele>0.000000</ele>
</trkpt>
<trkpt lat="45.398955000" lon="11.775296000">
  <ele>0.000000</ele>
</trkpt>
<trkpt lat="45.398777000" lon="11.775776000">
  <ele>0.000000</ele>
</trkpt>
<trkpt lat="45.398575000" lon="11.776379000">
  <ele>0.000000</ele>
</trkpt>
<trkpt lat="45.398513000" lon="11.776666000">
  <ele>0.000000</ele>
</trkpt>
<trkpt lat="45.398427000" lon="11.777511000">
  <ele>0.000000</ele>
</trkpt>
<trkpt lat="45.398419000" lon="11.778146000">
  <ele>0.000000</ele>
</trkpt>
<trkpt lat="45.398453000" lon="11.778988000">
  <ele>0.000000</ele>
</trkpt>
<trkpt lat="45.398560000" lon="11.780034000">
  <ele>0.000000</ele>
</trkpt>
<trkpt lat="45.398672000" lon="11.780671000">
  <ele>0.000000</ele>
</trkpt>
<trkpt lat="45.398655000" lon="11.780909000">
  <ele>0.000000</ele>
</trkpt>
<trkpt lat="45.398629000" lon="11.781666000">
  <ele>0.000000</ele>
</trkpt>
<trkpt lat="45.398604000" lon="11.781880000">
  <ele>0.000000</ele>
</trkpt>
<trkpt lat="45.398612000" lon="11.781989000">
  <ele>0.000000</ele>
</trkpt>
<trkpt lat="45.398581000" lon="11.782216000">
  <ele>0.000000</ele>
</trkpt>
<trkpt lat="45.398513000" lon="11.782349000">
  <ele>0.000000</ele>
</trkpt>
<trkpt lat="45.398456000" lon="11.782426000">
  <ele>0.000000</ele>
</trkpt>
<trkpt lat="45.398143000" lon="11.782653000">
  <ele>0.000000</ele>
</trkpt>
<trkpt lat="45.398070000" lon="11.782770000">
  <ele>0.000000</ele>
</trkpt>
<trkpt lat="45.398038000" lon="11.782883000">
  <ele>0.000000</ele>
</trkpt>
<trkpt lat="45.398013000" lon="11.783061000">
  <ele>0.000000</ele>
</trkpt>
<trkpt lat="45.398030000" lon="11.783215000">
  <ele>0.000000</ele>
</trkpt>
<trkpt lat="45.398081000" lon="11.783336000">
  <ele>0.000000</ele>
</trkpt>
<trkpt lat="45.398365000" lon="11.783785000">
  <ele>0.000000</ele>
</trkpt>
<trkpt lat="45.398433000" lon="11.783931000">
  <ele>0.000000</ele>
</trkpt>
<trkpt lat="45.398453000" lon="11.784048000">
  <ele>0.000000</ele>
</trkpt>
<trkpt lat="45.398416000" lon="11.784170000">
  <ele>0.000000</ele>
</trkpt>
<trkpt lat="45.398067000" lon="11.784870000">
  <ele>0.000000</ele>
</trkpt>
<trkpt lat="45.397888000" lon="11.785383000">
  <ele>0.000000</ele>
</trkpt>
<trkpt lat="45.397876000" lon="11.785578000">
  <ele>0.000000</ele>
</trkpt>
<trkpt lat="45.397928000" lon="11.785764000">
  <ele>0.000000</ele>
</trkpt>
<trkpt lat="45.398033000" lon="11.785962000">
  <ele>0.000000</ele>
</trkpt>
<trkpt lat="45.398146000" lon="11.786091000">
  <ele>0.000000</ele>
</trkpt>
<trkpt lat="45.398663000" lon="11.786569000">
  <ele>0.000000</ele>
</trkpt>
<trkpt lat="45.398748000" lon="11.786706000">
  <ele>0.000000</ele>
</trkpt>
<trkpt lat="45.398817000" lon="11.786892000">
  <ele>0.000000</ele>
</trkpt>
<trkpt lat="45.398828000" lon="11.787066000">
  <ele>0.000000</ele>
</trkpt>
<trkpt lat="45.398805000" lon="11.787277000">
  <ele>0.000000</ele>
</trkpt>
<trkpt lat="45.398709000" lon="11.787653000">
  <ele>0.000000</ele>
</trkpt>
<trkpt lat="45.398578000" lon="11.788931000">
  <ele>0.000000</ele>
</trkpt>
<trkpt lat="45.398372000" lon="11.789563000">
  <ele>0.000000</ele>
</trkpt>
<trkpt lat="45.398075000" lon="11.790472000">
  <ele>0.000000</ele>
</trkpt>
<trkpt lat="45.397695000" lon="11.792010000">
  <ele>0.000000</ele>
</trkpt>
<trkpt lat="45.397541000" lon="11.792443000">
  <ele>0.000000</ele>
</trkpt>
<trkpt lat="45.397297000" lon="11.793130000">
  <ele>0.000000</ele>
</trkpt>
<trkpt lat="45.397118000" lon="11.793757000">
  <ele>0.000000</ele>
</trkpt>
<trkpt lat="45.397054000" lon="11.793974000">
  <ele>0.000000</ele>
</trkpt>
<trkpt lat="45.396964000" lon="11.794206000">
  <ele>0.000000</ele>
</trkpt>
<trkpt lat="45.396922000" lon="11.794314000">
  <ele>0.000000</ele>
</trkpt>
<trkpt lat="45.396763000" lon="11.794667000">
  <ele>0.000000</ele>
</trkpt>
<trkpt lat="45.396280000" lon="11.795889000">
  <ele>0.000000</ele>
</trkpt>
<trkpt lat="45.396214000" lon="11.796080000">
  <ele>0.000000</ele>
</trkpt>
<trkpt lat="45.395277000" lon="11.798789000">
  <ele>0.000000</ele>
</trkpt>
<trkpt lat="45.394791000" lon="11.800161000">
  <ele>0.000000</ele>
</trkpt>
<trkpt lat="45.394468000" lon="11.801075000">
  <ele>0.000000</ele>
</trkpt>
<trkpt lat="45.394286000" lon="11.801698000">
  <ele>0.000000</ele>
</trkpt>
<trkpt lat="45.394059000" lon="11.802183000">
  <ele>0.000000</ele>
</trkpt>
<trkpt lat="45.393797000" lon="11.802535000">
  <ele>0.000000</ele>
</trkpt>
<trkpt lat="45.393448000" lon="11.802928000">
  <ele>0.000000</ele>
</trkpt>
<trkpt lat="45.393090000" lon="11.803231000">
  <ele>0.000000</ele>
</trkpt>
<trkpt lat="45.392919000" lon="11.803470000">
  <ele>0.000000</ele>
</trkpt>
<trkpt lat="45.392837000" lon="11.803628000">
  <ele>0.000000</ele>
</trkpt>
<trkpt lat="45.392758000" lon="11.803834000">
  <ele>0.000000</ele>
</trkpt>
<trkpt lat="45.392638000" lon="11.804263000">
  <ele>0.000000</ele>
</trkpt>
<trkpt lat="45.392447000" lon="11.805247000">
  <ele>0.000000</ele>
</trkpt>
<trkpt lat="45.392417000" lon="11.805409000">
  <ele>0.000000</ele>
</trkpt>
<trkpt lat="45.392235000" lon="11.806394000">
  <ele>0.000000</ele>
</trkpt>
<trkpt lat="45.392218000" lon="11.806487000">
  <ele>0.000000</ele>
</trkpt>
<trkpt lat="45.392060000" lon="11.807296000">
  <ele>0.000000</ele>
</trkpt>
<trkpt lat="45.391904000" lon="11.807679000">
  <ele>0.000000</ele>
</trkpt>
<trkpt lat="45.391822000" lon="11.807803000">
  <ele>0.000000</ele>
</trkpt>
<trkpt lat="45.391742000" lon="11.807894000">
  <ele>0.000000</ele>
</trkpt>
<trkpt lat="45.391639000" lon="11.807997000">
  <ele>0.000000</ele>
</trkpt>
<trkpt lat="45.391510000" lon="11.808114000">
  <ele>0.000000</ele>
</trkpt>
<trkpt lat="45.391349000" lon="11.808225000">
  <ele>0.000000</ele>
</trkpt>
<trkpt lat="45.391267000" lon="11.808278000">
  <ele>0.000000</ele>
</trkpt>
<trkpt lat="45.391025000" lon="11.808395000">
  <ele>0.000000</ele>
</trkpt>
<trkpt lat="45.390967000" lon="11.808435000">
  <ele>0.000000</ele>
</trkpt>
<trkpt lat="45.390920000" lon="11.808465000">
  <ele>0.000000</ele>
</trkpt>
<trkpt lat="45.390903000" lon="11.808477000">
  <ele>0.000000</ele>
</trkpt>
<trkpt lat="45.390864000" lon="11.808566000">
  <ele>0.000000</ele>
</trkpt>
<trkpt lat="45.390809000" lon="11.808886000">
  <ele>0.000000</ele>
</trkpt>
<trkpt lat="45.390775000" lon="11.808974000">
  <ele>0.000000</ele>
</trkpt>
<trkpt lat="45.390718000" lon="11.809061000">
  <ele>0.000000</ele>
</trkpt>
<trkpt lat="45.390661000" lon="11.809122000">
  <ele>0.000000</ele>
</trkpt>
<trkpt lat="45.390610000" lon="11.809160000">
  <ele>0.000000</ele>
</trkpt>
<trkpt lat="45.390464000" lon="11.809175000">
  <ele>0.000000</ele>
</trkpt>
<trkpt lat="45.390104000" lon="11.809133000">
  <ele>0.000000</ele>
</trkpt>
<trkpt lat="45.389758000" lon="11.809166000">
  <ele>0.000000</ele>
</trkpt>
<trkpt lat="45.389263000" lon="11.809327000">
  <ele>0.000000</ele>
</trkpt>
<trkpt lat="45.389042000" lon="11.809469000">
  <ele>0.000000</ele>
</trkpt>
<trkpt lat="45.388383000" lon="11.809983000">
  <ele>0.000000</ele>
</trkpt>
<trkpt lat="45.387661000" lon="11.810533000">
  <ele>0.000000</ele>
</trkpt>
<trkpt lat="45.387439000" lon="11.810844000">
  <ele>0.000000</ele>
</trkpt>
<trkpt lat="45.387258000" lon="11.811213000">
  <ele>0.000000</ele>
</trkpt>
<trkpt lat="45.387118000" lon="11.811674000">
  <ele>0.000000</ele>
</trkpt>
<trkpt lat="45.387056000" lon="11.812135000">
  <ele>0.000000</ele>
</trkpt>
<trkpt lat="45.387059000" lon="11.812495000">
  <ele>0.000000</ele>
</trkpt>
<trkpt lat="45.387184000" lon="11.813119000">
  <ele>0.000000</ele>
</trkpt>
<trkpt lat="45.387428000" lon="11.814121000">
  <ele>0.000000</ele>
</trkpt>
<trkpt lat="45.387536000" lon="11.814732000">
  <ele>0.000000</ele>
</trkpt>
<trkpt lat="45.387790000" lon="11.816944000">
  <ele>0.000000</ele>
</trkpt>
<trkpt lat="45.387829000" lon="11.817284000">
  <ele>0.000000</ele>
</trkpt>
<trkpt lat="45.387854000" lon="11.817575000">
  <ele>0.000000</ele>
</trkpt>
<trkpt lat="45.387862000" lon="11.817869000">
  <ele>0.000000</ele>
</trkpt>
<trkpt lat="45.387900000" lon="11.819428000">
  <ele>0.000000</ele>
</trkpt>
<trkpt lat="45.387900000" lon="11.820076000">
  <ele>0.000000</ele>
</trkpt>
<trkpt lat="45.387874000" lon="11.820510000">
  <ele>0.000000</ele>
</trkpt>
<trkpt lat="45.387893000" lon="11.821034000">
  <ele>0.000000</ele>
</trkpt>
<trkpt lat="45.388155000" lon="11.822501000">
  <ele>0.000000</ele>
</trkpt>
<trkpt lat="45.388468000" lon="11.824255000">
  <ele>0.000000</ele>
</trkpt>
<trkpt lat="45.388528000" lon="11.824653000">
  <ele>0.000000</ele>
</trkpt>
<trkpt lat="45.388539000" lon="11.825122000">
  <ele>0.000000</ele>
</trkpt>
<trkpt lat="45.388459000" lon="11.826565000">
  <ele>0.000000</ele>
</trkpt>
<trkpt lat="45.388462000" lon="11.826795000">
  <ele>0.000000</ele>
</trkpt>
<trkpt lat="45.388507000" lon="11.827018000">
  <ele>0.000000</ele>
</trkpt>
<trkpt lat="45.388574000" lon="11.827231000">
  <ele>0.000000</ele>
</trkpt>
<trkpt lat="45.388700000" lon="11.827568000">
  <ele>0.000000</ele>
</trkpt>
<trkpt lat="45.389124000" lon="11.828704000">
  <ele>0.000000</ele>
</trkpt>
<trkpt lat="45.389143000" lon="11.828730000">
  <ele>0.000000</ele>
</trkpt>
<trkpt lat="45.389173000" lon="11.828738000">
  <ele>0.000000</ele>
</trkpt>
<trkpt lat="45.390258000" lon="11.828148000">
  <ele>0.000000</ele>
</trkpt>
<trkpt lat="45.390475000" lon="11.827840000">
  <ele>0.000000</ele>
</trkpt>
<trkpt lat="45.391518000" lon="11.826023000">
  <ele>0.000000</ele>
</trkpt>
<trkpt lat="45.391740000" lon="11.825478000">
  <ele>0.000000</ele>
</trkpt>
<trkpt lat="45.392012000" lon="11.825027000">
  <ele>0.000000</ele>
</trkpt>
<trkpt lat="45.392372000" lon="11.824672000">
  <ele>0.000000</ele>
</trkpt>
<trkpt lat="45.392689000" lon="11.824601000">
  <ele>0.000000</ele>
</trkpt>
<trkpt lat="45.393488000" lon="11.824601000">
  <ele>0.000000</ele>
</trkpt>
<trkpt lat="45.394891000" lon="11.824561000">
  <ele>0.000000</ele>
</trkpt>
<trkpt lat="45.394992000" lon="11.824565000">
  <ele>0.000000</ele>
</trkpt>
<trkpt lat="45.394996000" lon="11.824666000">
  <ele>0.000000</ele>
</trkpt>
<trkpt lat="45.395028000" lon="11.825062000">
  <ele>0.000000</ele>
</trkpt>
<trkpt lat="45.395037000" lon="11.825186000">
  <ele>0.000000</ele>
</trkpt>
<trkpt lat="45.394963000" lon="11.825177000">
  <ele>0.000000</ele>
</trkpt>
<trkpt lat="45.393285000" lon="11.825149000">
  <ele>0.000000</ele>
</trkpt>
<trkpt lat="45.392823000" lon="11.825206000">
  <ele>0.000000</ele>
</trkpt>
<trkpt lat="45.392508000" lon="11.825345000">
  <ele>0.000000</ele>
</trkpt>
<trkpt lat="45.392313000" lon="11.825699000">
  <ele>0.000000</ele>
</trkpt>
<trkpt lat="45.392246000" lon="11.825971000">
  <ele>0.000000</ele>
</trkpt>
<trkpt lat="45.392179000" lon="11.826932000">
  <ele>0.000000</ele>
</trkpt>
<trkpt lat="45.392117000" lon="11.827222000">
  <ele>0.000000</ele>
</trkpt>
<trkpt lat="45.391962000" lon="11.827608000">
  <ele>0.000000</ele>
</trkpt>
<trkpt lat="45.391758000" lon="11.827817000">
  <ele>0.000000</ele>
</trkpt>
<trkpt lat="45.391265000" lon="11.828114000">
  <ele>0.000000</ele>
</trkpt>
<trkpt lat="45.390777000" lon="11.828411000">
  <ele>0.000000</ele>
</trkpt>
<trkpt lat="45.390621000" lon="11.828803000">
  <ele>0.000000</ele>
</trkpt>
<trkpt lat="45.390515000" lon="11.829372000">
  <ele>0.000000</ele>
</trkpt>
<trkpt lat="45.390510000" lon="11.829650000">
  <ele>0.000000</ele>
</trkpt>
<trkpt lat="45.390595000" lon="11.829884000">
  <ele>0.000000</ele>
</trkpt>
<trkpt lat="45.390821000" lon="11.830206000">
  <ele>0.000000</ele>
</trkpt>
<trkpt lat="45.391221000" lon="11.830655000">
  <ele>0.000000</ele>
</trkpt>
<trkpt lat="45.391407000" lon="11.830945000">
  <ele>0.000000</ele>
</trkpt>
<trkpt lat="45.391562000" lon="11.831400000">
  <ele>0.000000</ele>
</trkpt>
<trkpt lat="45.391642000" lon="11.831792000">
  <ele>0.000000</ele>
</trkpt>
<trkpt lat="45.391607000" lon="11.832387000">
  <ele>0.000000</ele>
</trkpt>
<trkpt lat="45.391483000" lon="11.834390000">
  <ele>0.000000</ele>
</trkpt>
<trkpt lat="45.391536000" lon="11.834586000">
  <ele>0.000000</ele>
</trkpt>
<trkpt lat="45.391656000" lon="11.834744000">
  <ele>0.000000</ele>
</trkpt>
<trkpt lat="45.391949000" lon="11.834927000">
  <ele>0.000000</ele>
</trkpt>
<trkpt lat="45.392282000" lon="11.835029000">
  <ele>0.000000</ele>
</trkpt>
<trkpt lat="45.392477000" lon="11.835111000">
  <ele>0.000000</ele>
</trkpt>
<trkpt lat="45.392734000" lon="11.835357000">
  <ele>0.000000</ele>
</trkpt>
<trkpt lat="45.392796000" lon="11.835604000">
  <ele>0.000000</ele>
</trkpt>
<trkpt lat="45.392743000" lon="11.836021000">
  <ele>0.000000</ele>
</trkpt>
<trkpt lat="45.392521000" lon="11.836811000">
  <ele>0.000000</ele>
</trkpt>
<trkpt lat="45.392237000" lon="11.838315000">
  <ele>0.000000</ele>
</trkpt>
<trkpt lat="45.391724000" lon="11.839760000">
  <ele>0.000000</ele>
</trkpt>
<trkpt lat="45.391613000" lon="11.840008000">
  <ele>0.000000</ele>
</trkpt>
<trkpt lat="45.391538000" lon="11.840192000">
  <ele>0.000000</ele>
</trkpt>
<trkpt lat="45.391462000" lon="11.840346000">
  <ele>0.000000</ele>
</trkpt>
<trkpt lat="45.391343000" lon="11.840828000">
  <ele>0.000000</ele>
</trkpt>
<trkpt lat="45.391296000" lon="11.841027000">
  <ele>0.000000</ele>
</trkpt>
<trkpt lat="45.391056000" lon="11.841634000">
  <ele>0.000000</ele>
</trkpt>
<trkpt lat="45.389978000" lon="11.844383000">
  <ele>0.000000</ele>
</trkpt>
<trkpt lat="45.388944000" lon="11.847032000">
  <ele>0.000000</ele>
</trkpt>
<trkpt lat="45.388871000" lon="11.847347000">
  <ele>0.000000</ele>
</trkpt>
<trkpt lat="45.388755000" lon="11.847631000">
  <ele>0.000000</ele>
</trkpt>
<trkpt lat="45.388587000" lon="11.848199000">
  <ele>0.000000</ele>
</trkpt>
<trkpt lat="45.388399000" lon="11.848859000">
  <ele>0.000000</ele>
</trkpt>
<trkpt lat="45.388179000" lon="11.849507000">
  <ele>0.000000</ele>
</trkpt>
<trkpt lat="45.387923000" lon="11.850107000">
  <ele>0.000000</ele>
</trkpt>
<trkpt lat="45.387755000" lon="11.850375000">
  <ele>0.000000</ele>
</trkpt>
<trkpt lat="45.387591000" lon="11.850551000">
  <ele>0.000000</ele>
</trkpt>
<trkpt lat="45.387407000" lon="11.850675000">
  <ele>0.000000</ele>
</trkpt>
<trkpt lat="45.387027000" lon="11.850727000">
  <ele>0.000000</ele>
</trkpt>
<trkpt lat="45.386835000" lon="11.850795000">
  <ele>0.000000</ele>
</trkpt>
<trkpt lat="45.386647000" lon="11.850915000">
  <ele>0.000000</ele>
</trkpt>
<trkpt lat="45.386287000" lon="11.851279000">
  <ele>0.000000</ele>
</trkpt>
<trkpt lat="45.386007000" lon="11.851627000">
  <ele>0.000000</ele>
</trkpt>
<trkpt lat="45.385899000" lon="11.851811000">
  <ele>0.000000</ele>
</trkpt>
<trkpt lat="45.385699000" lon="11.852255000">
  <ele>0.000000</ele>
</trkpt>
<trkpt lat="45.385559000" lon="11.852707000">
  <ele>0.000000</ele>
</trkpt>
<trkpt lat="45.385503000" lon="11.853075000">
  <ele>0.000000</ele>
</trkpt>
<trkpt lat="45.385479000" lon="11.853423000">
  <ele>0.000000</ele>
</trkpt>
<trkpt lat="45.385494000" lon="11.853753000">
  <ele>0.000000</ele>
</trkpt>
<trkpt lat="45.385554000" lon="11.854056000">
  <ele>0.000000</ele>
</trkpt>
<trkpt lat="45.385691000" lon="11.854406000">
  <ele>0.000000</ele>
</trkpt>
<trkpt lat="45.385837000" lon="11.854714000">
  <ele>0.000000</ele>
</trkpt>
<trkpt lat="45.386121000" lon="11.855200000">
  <ele>0.000000</ele>
</trkpt>
<trkpt lat="45.386254000" lon="11.855446000">
  <ele>0.000000</ele>
</trkpt>
<trkpt lat="45.386343000" lon="11.855670000">
  <ele>0.000000</ele>
</trkpt>
<trkpt lat="45.386387000" lon="11.856166000">
  <ele>0.000000</ele>
</trkpt>
<trkpt lat="45.386365000" lon="11.856465000">
  <ele>0.000000</ele>
</trkpt>
<trkpt lat="45.386330000" lon="11.856729000">
  <ele>0.000000</ele>
</trkpt>
<trkpt lat="45.386281000" lon="11.856974000">
  <ele>0.000000</ele>
</trkpt>
<trkpt lat="45.386234000" lon="11.857216000">
  <ele>0.000000</ele>
</trkpt>
<trkpt lat="45.386196000" lon="11.857427000">
  <ele>0.000000</ele>
</trkpt>
<trkpt lat="45.386160000" lon="11.857723000">
  <ele>0.000000</ele>
</trkpt>
<trkpt lat="45.386083000" lon="11.858723000">
  <ele>0.000000</ele>
</trkpt>
<trkpt lat="45.386052000" lon="11.859153000">
  <ele>0.000000</ele>
</trkpt>
<trkpt lat="45.386004000" lon="11.859752000">
  <ele>0.000000</ele>
</trkpt>
<trkpt lat="45.385970000" lon="11.860031000">
  <ele>0.000000</ele>
</trkpt>
<trkpt lat="45.385909000" lon="11.860716000">
  <ele>0.000000</ele>
</trkpt>
<trkpt lat="45.385872000" lon="11.861473000">
  <ele>0.000000</ele>
</trkpt>
<trkpt lat="45.385882000" lon="11.861817000">
  <ele>0.000000</ele>
</trkpt>
<trkpt lat="45.385930000" lon="11.862203000">
  <ele>0.000000</ele>
</trkpt>
<trkpt lat="45.386001000" lon="11.862470000">
  <ele>0.000000</ele>
</trkpt>
<trkpt lat="45.386061000" lon="11.862644000">
  <ele>0.000000</ele>
</trkpt>
<trkpt lat="45.386215000" lon="11.863010000">
  <ele>0.000000</ele>
</trkpt>
<trkpt lat="45.386268000" lon="11.863160000">
  <ele>0.000000</ele>
</trkpt>
</trkseg>
</trk>
<trk>
  <name>I2-3</name>
<trkseg>
<trkpt lat="45.396686000" lon="11.880073000">
  <ele>0.000000</ele>
</trkpt>
<trkpt lat="45.396605000" lon="11.880430000">
  <ele>0.000000</ele>
</trkpt>
<trkpt lat="45.396341000" lon="11.881669000">
  <ele>0.000000</ele>
</trkpt>
<trkpt lat="45.396316000" lon="11.881767000">
  <ele>0.000000</ele>
</trkpt>
<trkpt lat="45.395645000" lon="11.881295000">
  <ele>0.000000</ele>
</trkpt>
</trkseg>
</trk>
<trk>
  <name>I2-3</name>
<trkseg>
<trkpt lat="45.395645000" lon="11.881295000">
  <ele>0.000000</ele>
</trkpt>
<trkpt lat="45.395673000" lon="11.881220000">
  <ele>0.000000</ele>
</trkpt>
<trkpt lat="45.395674000" lon="11.881087000">
  <ele>0.000000</ele>
</trkpt>
<trkpt lat="45.395714000" lon="11.880986000">
  <ele>0.000000</ele>
</trkpt>
<trkpt lat="45.395777000" lon="11.880852000">
  <ele>0.000000</ele>
</trkpt>
<trkpt lat="45.395879000" lon="11.880724000">
  <ele>0.000000</ele>
</trkpt>
<trkpt lat="45.396686000" lon="11.880073000">
  <ele>0.000000</ele>
</trkpt>
</trkseg>
</trk>
<trk>
  <name>I2-3</name>
<trkseg>
<trkpt lat="45.396920000" lon="11.878843000">
  <ele>0.000000</ele>
</trkpt>
<trkpt lat="45.396920000" lon="11.878907000">
  <ele>0.000000</ele>
</trkpt>
<trkpt lat="45.396879000" lon="11.879133000">
  <ele>0.000000</ele>
</trkpt>
<trkpt lat="45.396686000" lon="11.880073000">
  <ele>0.000000</ele>
</trkpt>
</trkseg>
</trk>
<trk>
  <name>I2-3</name>
<trkseg>
<trkpt lat="45.406096000" lon="11.877807000">
  <ele>0.000000</ele>
</trkpt>
<trkpt lat="45.406361000" lon="11.876771000">
  <ele>0.000000</ele>
</trkpt>
<trkpt lat="45.405957000" lon="11.876623000">
  <ele>0.000000</ele>
</trkpt>
<trkpt lat="45.405676000" lon="11.876500000">
  <ele>0.000000</ele>
</trkpt>
<trkpt lat="45.405152000" lon="11.876279000">
  <ele>0.000000</ele>
</trkpt>
<trkpt lat="45.404990000" lon="11.876180000">
  <ele>0.000000</ele>
</trkpt>
<trkpt lat="45.404390000" lon="11.875905000">
  <ele>0.000000</ele>
</trkpt>
<trkpt lat="45.404014000" lon="11.875769000">
  <ele>0.000000</ele>
</trkpt>
<trkpt lat="45.403602000" lon="11.875666000">
  <ele>0.000000</ele>
</trkpt>
<trkpt lat="45.403382000" lon="11.875633000">
  <ele>0.000000</ele>
</trkpt>
<trkpt lat="45.403200000" lon="11.875615000">
  <ele>0.000000</ele>
</trkpt>
<trkpt lat="45.403065000" lon="11.875597000">
  <ele>0.000000</ele>
</trkpt>
<trkpt lat="45.402480000" lon="11.875497000">
  <ele>0.000000</ele>
</trkpt>
<trkpt lat="45.402232000" lon="11.875520000">
  <ele>0.000000</ele>
</trkpt>
<trkpt lat="45.401796000" lon="11.875632000">
  <ele>0.000000</ele>
</trkpt>
<trkpt lat="45.401382000" lon="11.875752000">
  <ele>0.000000</ele>
</trkpt>
<trkpt lat="45.400984000" lon="11.875928000">
  <ele>0.000000</ele>
</trkpt>
<trkpt lat="45.400864000" lon="11.875944000">
  <ele>0.000000</ele>
</trkpt>
<trkpt lat="45.400759000" lon="11.875935000">
  <ele>0.000000</ele>
</trkpt>
<trkpt lat="45.400619000" lon="11.875901000">
  <ele>0.000000</ele>
</trkpt>
<trkpt lat="45.400451000" lon="11.875848000">
  <ele>0.000000</ele>
</trkpt>
<trkpt lat="45.400391000" lon="11.875823000">
  <ele>0.000000</ele>
</trkpt>
<trkpt lat="45.400034000" lon="11.875663000">
  <ele>0.000000</ele>
</trkpt>
<trkpt lat="45.399991000" lon="11.875639000">
  <ele>0.000000</ele>
</trkpt>
<trkpt lat="45.399787000" lon="11.875520000">
  <ele>0.000000</ele>
</trkpt>
<trkpt lat="45.397830000" lon="11.874476000">
  <ele>0.000000</ele>
</trkpt>
<trkpt lat="45.397752000" lon="11.874704000">
  <ele>0.000000</ele>
</trkpt>
<trkpt lat="45.397602000" lon="11.875205000">
  <ele>0.000000</ele>
</trkpt>
<trkpt lat="45.397519000" lon="11.875465000">
  <ele>0.000000</ele>
</trkpt>
<trkpt lat="45.397407000" lon="11.875805000">
  <ele>0.000000</ele>
</trkpt>
<trkpt lat="45.397261000" lon="11.876281000">
  <ele>0.000000</ele>
</trkpt>
<trkpt lat="45.397129000" lon="11.876719000">
  <ele>0.000000</ele>
</trkpt>
<trkpt lat="45.396995000" lon="11.877424000">
  <ele>0.000000</ele>
</trkpt>
<trkpt lat="45.396915000" lon="11.878227000">
  <ele>0.000000</ele>
</trkpt>
<trkpt lat="45.396912000" lon="11.878616000">
  <ele>0.000000</ele>
</trkpt>
<trkpt lat="45.396920000" lon="11.878843000">
  <ele>0.000000</ele>
</trkpt>
</trkseg>
</trk>
<trk>
  <name>I2-3</name>
<trkseg>
<trkpt lat="45.400032000" lon="11.875672000">
  <ele>0.000000</ele>
</trkpt>
<trkpt lat="45.400040000" lon="11.875795000">
  <ele>0.000000</ele>
</trkpt>
<trkpt lat="45.400038000" lon="11.876138000">
  <ele>0.000000</ele>
</trkpt>
<trkpt lat="45.399987000" lon="11.876476000">
  <ele>0.000000</ele>
</trkpt>
<trkpt lat="45.399865000" lon="11.876822000">
  <ele>0.000000</ele>
</trkpt>
<trkpt lat="45.399759000" lon="11.877071000">
  <ele>0.000000</ele>
</trkpt>
<trkpt lat="45.399658000" lon="11.877227000">
  <ele>0.000000</ele>
</trkpt>
<trkpt lat="45.399534000" lon="11.877371000">
  <ele>0.000000</ele>
</trkpt>
<trkpt lat="45.399495000" lon="11.877362000">
  <ele>0.000000</ele>
</trkpt>
<trkpt lat="45.399448000" lon="11.877380000">
  <ele>0.000000</ele>
</trkpt>
<trkpt lat="45.399419000" lon="11.877422000">
  <ele>0.000000</ele>
</trkpt>
<trkpt lat="45.399225000" lon="11.877583000">
  <ele>0.000000</ele>
</trkpt>
<trkpt lat="45.398079000" lon="11.878212000">
  <ele>0.000000</ele>
</trkpt>
<trkpt lat="45.397654000" lon="11.878411000">
  <ele>0.000000</ele>
</trkpt>
<trkpt lat="45.397241000" lon="11.878595000">
  <ele>0.000000</ele>
</trkpt>
<trkpt lat="45.397122000" lon="11.878679000">
  <ele>0.000000</ele>
</trkpt>
<trkpt lat="45.397023000" lon="11.878749000">
  <ele>0.000000</ele>
</trkpt>
<trkpt lat="45.396920000" lon="11.878843000">
  <ele>0.000000</ele>
</trkpt>
</trkseg>
</trk>
<trk>
  <name>I2-3</name>
<trkseg>
<trkpt lat="45.542076000" lon="11.545798000">
  <ele>0.000000</ele>
</trkpt>
<trkpt lat="45.541916000" lon="11.545801000">
  <ele>0.000000</ele>
</trkpt>
<trkpt lat="45.541807000" lon="11.545808000">
  <ele>0.000000</ele>
</trkpt>
<trkpt lat="45.541737000" lon="11.545841000">
  <ele>0.000000</ele>
</trkpt>
<trkpt lat="45.541718000" lon="11.545898000">
  <ele>0.000000</ele>
</trkpt>
<trkpt lat="45.541612000" lon="11.546176000">
  <ele>0.000000</ele>
</trkpt>
<trkpt lat="45.541549000" lon="11.546357000">
  <ele>0.000000</ele>
</trkpt>
<trkpt lat="45.541523000" lon="11.546436000">
  <ele>0.000000</ele>
</trkpt>
<trkpt lat="45.541474000" lon="11.546555000">
  <ele>0.000000</ele>
</trkpt>
<trkpt lat="45.541399000" lon="11.546742000">
  <ele>0.000000</ele>
</trkpt>
<trkpt lat="45.541332000" lon="11.546901000">
  <ele>0.000000</ele>
</trkpt>
</trkseg>
</trk>
<trk>
  <name>I2-3</name>
<trkseg>
<trkpt lat="45.541332000" lon="11.546901000">
  <ele>0.000000</ele>
</trkpt>
<trkpt lat="45.541343000" lon="11.546776000">
  <ele>0.000000</ele>
</trkpt>
<trkpt lat="45.541343000" lon="11.546608000">
  <ele>0.000000</ele>
</trkpt>
<trkpt lat="45.541357000" lon="11.546434000">
  <ele>0.000000</ele>
</trkpt>
<trkpt lat="45.541355000" lon="11.546253000">
  <ele>0.000000</ele>
</trkpt>
<trkpt lat="45.541370000" lon="11.546082000">
  <ele>0.000000</ele>
</trkpt>
<trkpt lat="45.541457000" lon="11.545773000">
  <ele>0.000000</ele>
</trkpt>
<trkpt lat="45.541485000" lon="11.545620000">
  <ele>0.000000</ele>
</trkpt>
<trkpt lat="45.541574000" lon="11.545574000">
  <ele>0.000000</ele>
</trkpt>
<trkpt lat="45.541646000" lon="11.545557000">
  <ele>0.000000</ele>
</trkpt>
<trkpt lat="45.541728000" lon="11.545565000">
  <ele>0.000000</ele>
</trkpt>
<trkpt lat="45.541866000" lon="11.545682000">
  <ele>0.000000</ele>
</trkpt>
<trkpt lat="45.542076000" lon="11.545798000">
  <ele>0.000000</ele>
</trkpt>
</trkseg>
</trk>
<trk>
  <name>I2-3</name>
<trkseg>
<trkpt lat="45.542076000" lon="11.545798000">
  <ele>0.000000</ele>
</trkpt>
<trkpt lat="45.543317000" lon="11.545992000">
  <ele>0.000000</ele>
</trkpt>
<trkpt lat="45.543981000" lon="11.546090000">
  <ele>0.000000</ele>
</trkpt>
<trkpt lat="45.544226000" lon="11.546035000">
  <ele>0.000000</ele>
</trkpt>
<trkpt lat="45.544306000" lon="11.545845000">
  <ele>0.000000</ele>
</trkpt>
<trkpt lat="45.544755000" lon="11.545676000">
  <ele>0.000000</ele>
</trkpt>
<trkpt lat="45.544985000" lon="11.545578000">
  <ele>0.000000</ele>
</trkpt>
<trkpt lat="45.545138000" lon="11.545512000">
  <ele>0.000000</ele>
</trkpt>
<trkpt lat="45.545573000" lon="11.545681000">
  <ele>0.000000</ele>
</trkpt>
<trkpt lat="45.545899000" lon="11.545544000">
  <ele>0.000000</ele>
</trkpt>
<trkpt lat="45.545905000" lon="11.545506000">
  <ele>0.000000</ele>
</trkpt>
<trkpt lat="45.545918000" lon="11.545478000">
  <ele>0.000000</ele>
</trkpt>
<trkpt lat="45.545920000" lon="11.545435000">
  <ele>0.000000</ele>
</trkpt>
<trkpt lat="45.546208000" lon="11.545294000">
  <ele>0.000000</ele>
</trkpt>
<trkpt lat="45.546348000" lon="11.545244000">
  <ele>0.000000</ele>
</trkpt>
<trkpt lat="45.546404000" lon="11.545234000">
  <ele>0.000000</ele>
</trkpt>
<trkpt lat="45.546477000" lon="11.545242000">
  <ele>0.000000</ele>
</trkpt>
<trkpt lat="45.546538000" lon="11.545334000">
  <ele>0.000000</ele>
</trkpt>
<trkpt lat="45.546604000" lon="11.545464000">
  <ele>0.000000</ele>
</trkpt>
<trkpt lat="45.546670000" lon="11.545609000">
  <ele>0.000000</ele>
</trkpt>
<trkpt lat="45.546785000" lon="11.545890000">
  <ele>0.000000</ele>
</trkpt>
<trkpt lat="45.546825000" lon="11.546045000">
  <ele>0.000000</ele>
</trkpt>
<trkpt lat="45.546889000" lon="11.545998000">
  <ele>0.000000</ele>
</trkpt>
<trkpt lat="45.547060000" lon="11.545831000">
  <ele>0.000000</ele>
</trkpt>
<trkpt lat="45.547238000" lon="11.545677000">
  <ele>0.000000</ele>
</trkpt>
<trkpt lat="45.547328000" lon="11.545586000">
  <ele>0.000000</ele>
</trkpt>
<trkpt lat="45.547394000" lon="11.545504000">
  <ele>0.000000</ele>
</trkpt>
<trkpt lat="45.547573000" lon="11.545297000">
  <ele>0.000000</ele>
</trkpt>
<trkpt lat="45.547755000" lon="11.545132000">
  <ele>0.000000</ele>
</trkpt>
</trkseg>
</trk>
</gpx>
