<?xml version="1.0" encoding="UTF-8"?>
<gpx
  version="1.1"
  creator="GPSBabel - http://www.gpsbabel.org"
  xmlns:xsi="http://www.w3.org/2001/XMLSchema-instance"
  xmlns="http://www.topografix.com/GPX/1/1"
  xsi:schemaLocation="http://www.topografix.com/GPX/1/1 http://www.topografix.com/GPX/1/1/gpx.xsd">
<metadata>
<time>2011-09-15T14:08:25Z</time>
<bounds minlat="45.547254000" minlon="11.538459000" maxlat="45.768232000" maxlon="11.740863000"/>
</metadata>
<trk>
  <name>I2-4</name>
<trkseg>
<trkpt lat="45.590959000" lon="11.557355000">
  <ele>0.000000</ele>
</trkpt>
<trkpt lat="45.590516000" lon="11.557353000">
  <ele>0.000000</ele>
</trkpt>
<trkpt lat="45.590326000" lon="11.557338000">
  <ele>0.000000</ele>
</trkpt>
<trkpt lat="45.590318000" lon="11.556802000">
  <ele>0.000000</ele>
</trkpt>
<trkpt lat="45.590294000" lon="11.556175000">
  <ele>0.000000</ele>
</trkpt>
<trkpt lat="45.590216000" lon="11.554381000">
  <ele>0.000000</ele>
</trkpt>
<trkpt lat="45.590402000" lon="11.553205000">
  <ele>0.000000</ele>
</trkpt>
<trkpt lat="45.590647000" lon="11.551780000">
  <ele>0.000000</ele>
</trkpt>
<trkpt lat="45.590865000" lon="11.550510000">
  <ele>0.000000</ele>
</trkpt>
<trkpt lat="45.590877000" lon="11.550456000">
  <ele>0.000000</ele>
</trkpt>
<trkpt lat="45.590796000" lon="11.550418000">
  <ele>0.000000</ele>
</trkpt>
<trkpt lat="45.590698000" lon="11.550391000">
  <ele>0.000000</ele>
</trkpt>
<trkpt lat="45.587099000" lon="11.549290000">
  <ele>0.000000</ele>
</trkpt>
<trkpt lat="45.586912000" lon="11.549153000">
  <ele>0.000000</ele>
</trkpt>
<trkpt lat="45.587789000" lon="11.546510000">
  <ele>0.000000</ele>
</trkpt>
<trkpt lat="45.587698000" lon="11.546483000">
  <ele>0.000000</ele>
</trkpt>
<trkpt lat="45.586733000" lon="11.546700000">
  <ele>0.000000</ele>
</trkpt>
<trkpt lat="45.586493000" lon="11.546743000">
  <ele>0.000000</ele>
</trkpt>
<trkpt lat="45.586405000" lon="11.546752000">
  <ele>0.000000</ele>
</trkpt>
<trkpt lat="45.586262000" lon="11.546730000">
  <ele>0.000000</ele>
</trkpt>
<trkpt lat="45.586183000" lon="11.546690000">
  <ele>0.000000</ele>
</trkpt>
<trkpt lat="45.585950000" lon="11.546518000">
  <ele>0.000000</ele>
</trkpt>
<trkpt lat="45.585748000" lon="11.546443000">
  <ele>0.000000</ele>
</trkpt>
<trkpt lat="45.585429000" lon="11.546467000">
  <ele>0.000000</ele>
</trkpt>
<trkpt lat="45.585163000" lon="11.546457000">
  <ele>0.000000</ele>
</trkpt>
<trkpt lat="45.584124000" lon="11.546277000">
  <ele>0.000000</ele>
</trkpt>
<trkpt lat="45.583854000" lon="11.546231000">
  <ele>0.000000</ele>
</trkpt>
<trkpt lat="45.583333000" lon="11.546039000">
  <ele>0.000000</ele>
</trkpt>
<trkpt lat="45.583188000" lon="11.546027000">
  <ele>0.000000</ele>
</trkpt>
<trkpt lat="45.582967000" lon="11.546153000">
  <ele>0.000000</ele>
</trkpt>
<trkpt lat="45.582760000" lon="11.546203000">
  <ele>0.000000</ele>
</trkpt>
<trkpt lat="45.582421000" lon="11.546253000">
  <ele>0.000000</ele>
</trkpt>
<trkpt lat="45.582192000" lon="11.546271000">
  <ele>0.000000</ele>
</trkpt>
<trkpt lat="45.581920000" lon="11.546255000">
  <ele>0.000000</ele>
</trkpt>
<trkpt lat="45.581188000" lon="11.546116000">
  <ele>0.000000</ele>
</trkpt>
<trkpt lat="45.578546000" lon="11.545595000">
  <ele>0.000000</ele>
</trkpt>
<trkpt lat="45.578512000" lon="11.545652000">
  <ele>0.000000</ele>
</trkpt>
<trkpt lat="45.578452000" lon="11.545653000">
  <ele>0.000000</ele>
</trkpt>
<trkpt lat="45.577829000" lon="11.545603000">
  <ele>0.000000</ele>
</trkpt>
<trkpt lat="45.576782000" lon="11.545764000">
  <ele>0.000000</ele>
</trkpt>
<trkpt lat="45.576700000" lon="11.545773000">
  <ele>0.000000</ele>
</trkpt>
<trkpt lat="45.576626000" lon="11.545773000">
  <ele>0.000000</ele>
</trkpt>
<trkpt lat="45.576108000" lon="11.545778000">
  <ele>0.000000</ele>
</trkpt>
<trkpt lat="45.575875000" lon="11.545781000">
  <ele>0.000000</ele>
</trkpt>
<trkpt lat="45.575642000" lon="11.545681000">
  <ele>0.000000</ele>
</trkpt>
<trkpt lat="45.575574000" lon="11.545652000">
  <ele>0.000000</ele>
</trkpt>
<trkpt lat="45.574769000" lon="11.545258000">
  <ele>0.000000</ele>
</trkpt>
<trkpt lat="45.574563000" lon="11.545144000">
  <ele>0.000000</ele>
</trkpt>
<trkpt lat="45.573592000" lon="11.544665000">
  <ele>0.000000</ele>
</trkpt>
<trkpt lat="45.573492000" lon="11.544627000">
  <ele>0.000000</ele>
</trkpt>
<trkpt lat="45.573436000" lon="11.544605000">
  <ele>0.000000</ele>
</trkpt>
<trkpt lat="45.572336000" lon="11.544125000">
  <ele>0.000000</ele>
</trkpt>
<trkpt lat="45.572260000" lon="11.544100000">
  <ele>0.000000</ele>
</trkpt>
<trkpt lat="45.572204000" lon="11.544082000">
  <ele>0.000000</ele>
</trkpt>
<trkpt lat="45.571789000" lon="11.543927000">
  <ele>0.000000</ele>
</trkpt>
<trkpt lat="45.571074000" lon="11.543713000">
  <ele>0.000000</ele>
</trkpt>
<trkpt lat="45.570928000" lon="11.543687000">
  <ele>0.000000</ele>
</trkpt>
<trkpt lat="45.570865000" lon="11.543668000">
  <ele>0.000000</ele>
</trkpt>
<trkpt lat="45.569754000" lon="11.543256000">
  <ele>0.000000</ele>
</trkpt>
<trkpt lat="45.569561000" lon="11.543235000">
  <ele>0.000000</ele>
</trkpt>
<trkpt lat="45.568904000" lon="11.543181000">
  <ele>0.000000</ele>
</trkpt>
<trkpt lat="45.568132000" lon="11.543222000">
  <ele>0.000000</ele>
</trkpt>
<trkpt lat="45.567020000" lon="11.543376000">
  <ele>0.000000</ele>
</trkpt>
<trkpt lat="45.566913000" lon="11.543392000">
  <ele>0.000000</ele>
</trkpt>
<trkpt lat="45.566540000" lon="11.543449000">
  <ele>0.000000</ele>
</trkpt>
<trkpt lat="45.565988000" lon="11.543533000">
  <ele>0.000000</ele>
</trkpt>
<trkpt lat="45.565641000" lon="11.543557000">
  <ele>0.000000</ele>
</trkpt>
<trkpt lat="45.565610000" lon="11.543502000">
  <ele>0.000000</ele>
</trkpt>
<trkpt lat="45.565584000" lon="11.543457000">
  <ele>0.000000</ele>
</trkpt>
<trkpt lat="45.565495000" lon="11.543459000">
  <ele>0.000000</ele>
</trkpt>
<trkpt lat="45.564951000" lon="11.543441000">
  <ele>0.000000</ele>
</trkpt>
<trkpt lat="45.564407000" lon="11.543416000">
  <ele>0.000000</ele>
</trkpt>
<trkpt lat="45.563771000" lon="11.543554000">
  <ele>0.000000</ele>
</trkpt>
<trkpt lat="45.563108000" lon="11.543709000">
  <ele>0.000000</ele>
</trkpt>
<trkpt lat="45.562916000" lon="11.543762000">
  <ele>0.000000</ele>
</trkpt>
<trkpt lat="45.561935000" lon="11.543933000">
  <ele>0.000000</ele>
</trkpt>
<trkpt lat="45.561932000" lon="11.543933000">
  <ele>0.000000</ele>
</trkpt>
<trkpt lat="45.561819000" lon="11.542933000">
  <ele>0.000000</ele>
</trkpt>
<trkpt lat="45.561720000" lon="11.542057000">
  <ele>0.000000</ele>
</trkpt>
<trkpt lat="45.561621000" lon="11.541177000">
  <ele>0.000000</ele>
</trkpt>
<trkpt lat="45.561600000" lon="11.541181000">
  <ele>0.000000</ele>
</trkpt>
<trkpt lat="45.560665000" lon="11.541350000">
  <ele>0.000000</ele>
</trkpt>
<trkpt lat="45.559840000" lon="11.541500000">
  <ele>0.000000</ele>
</trkpt>
<trkpt lat="45.558365000" lon="11.541767000">
  <ele>0.000000</ele>
</trkpt>
<trkpt lat="45.557363000" lon="11.541925000">
  <ele>0.000000</ele>
</trkpt>
<trkpt lat="45.557232000" lon="11.541937000">
  <ele>0.000000</ele>
</trkpt>
<trkpt lat="45.556690000" lon="11.542001000">
  <ele>0.000000</ele>
</trkpt>
<trkpt lat="45.556303000" lon="11.541915000">
  <ele>0.000000</ele>
</trkpt>
<trkpt lat="45.555653000" lon="11.541734000">
  <ele>0.000000</ele>
</trkpt>
<trkpt lat="45.555584000" lon="11.541548000">
  <ele>0.000000</ele>
</trkpt>
<trkpt lat="45.554891000" lon="11.540730000">
  <ele>0.000000</ele>
</trkpt>
<trkpt lat="45.553992000" lon="11.539606000">
  <ele>0.000000</ele>
</trkpt>
<trkpt lat="45.553845000" lon="11.539828000">
  <ele>0.000000</ele>
</trkpt>
<trkpt lat="45.553742000" lon="11.539960000">
  <ele>0.000000</ele>
</trkpt>
<trkpt lat="45.553214000" lon="11.540333000">
  <ele>0.000000</ele>
</trkpt>
<trkpt lat="45.553055000" lon="11.539837000">
  <ele>0.000000</ele>
</trkpt>
<trkpt lat="45.552675000" lon="11.539620000">
  <ele>0.000000</ele>
</trkpt>
<trkpt lat="45.552587000" lon="11.539569000">
  <ele>0.000000</ele>
</trkpt>
<trkpt lat="45.552529000" lon="11.539756000">
  <ele>0.000000</ele>
</trkpt>
<trkpt lat="45.552386000" lon="11.539827000">
  <ele>0.000000</ele>
</trkpt>
<trkpt lat="45.552391000" lon="11.539735000">
  <ele>0.000000</ele>
</trkpt>
<trkpt lat="45.552343000" lon="11.539697000">
  <ele>0.000000</ele>
</trkpt>
<trkpt lat="45.552137000" lon="11.539347000">
  <ele>0.000000</ele>
</trkpt>
<trkpt lat="45.552117000" lon="11.539318000">
  <ele>0.000000</ele>
</trkpt>
<trkpt lat="45.552111000" lon="11.539252000">
  <ele>0.000000</ele>
</trkpt>
<trkpt lat="45.551837000" lon="11.538459000">
  <ele>0.000000</ele>
</trkpt>
<trkpt lat="45.551597000" lon="11.538611000">
  <ele>0.000000</ele>
</trkpt>
<trkpt lat="45.551330000" lon="11.538735000">
  <ele>0.000000</ele>
</trkpt>
<trkpt lat="45.551297000" lon="11.538707000">
  <ele>0.000000</ele>
</trkpt>
<trkpt lat="45.551256000" lon="11.538619000">
  <ele>0.000000</ele>
</trkpt>
<trkpt lat="45.551232000" lon="11.538569000">
  <ele>0.000000</ele>
</trkpt>
<trkpt lat="45.551070000" lon="11.538797000">
  <ele>0.000000</ele>
</trkpt>
<trkpt lat="45.550915000" lon="11.539009000">
  <ele>0.000000</ele>
</trkpt>
<trkpt lat="45.550713000" lon="11.539268000">
  <ele>0.000000</ele>
</trkpt>
<trkpt lat="45.550439000" lon="11.539619000">
  <ele>0.000000</ele>
</trkpt>
<trkpt lat="45.550103000" lon="11.540170000">
  <ele>0.000000</ele>
</trkpt>
<trkpt lat="45.549787000" lon="11.540863000">
  <ele>0.000000</ele>
</trkpt>
<trkpt lat="45.549628000" lon="11.541177000">
  <ele>0.000000</ele>
</trkpt>
<trkpt lat="45.549408000" lon="11.541498000">
  <ele>0.000000</ele>
</trkpt>
<trkpt lat="45.548975000" lon="11.542082000">
  <ele>0.000000</ele>
</trkpt>
<trkpt lat="45.548715000" lon="11.542333000">
  <ele>0.000000</ele>
</trkpt>
<trkpt lat="45.548639000" lon="11.542416000">
  <ele>0.000000</ele>
</trkpt>
<trkpt lat="45.548568000" lon="11.542499000">
  <ele>0.000000</ele>
</trkpt>
<trkpt lat="45.548063000" lon="11.543051000">
  <ele>0.000000</ele>
</trkpt>
<trkpt lat="45.547932000" lon="11.543204000">
  <ele>0.000000</ele>
</trkpt>
<trkpt lat="45.547814000" lon="11.543385000">
  <ele>0.000000</ele>
</trkpt>
<trkpt lat="45.547718000" lon="11.543536000">
  <ele>0.000000</ele>
</trkpt>
<trkpt lat="45.547555000" lon="11.543698000">
  <ele>0.000000</ele>
</trkpt>
<trkpt lat="45.547404000" lon="11.543828000">
  <ele>0.000000</ele>
</trkpt>
<trkpt lat="45.547254000" lon="11.543935000">
  <ele>0.000000</ele>
</trkpt>
<trkpt lat="45.547641000" lon="11.544903000">
  <ele>0.000000</ele>
</trkpt>
<trkpt lat="45.547716000" lon="11.545058000">
  <ele>0.000000</ele>
</trkpt>
<trkpt lat="45.547755000" lon="11.545132000">
  <ele>0.000000</ele>
</trkpt>
</trkseg>
</trk>
<trk>
  <name>I2-4</name>
<trkseg>
<trkpt lat="45.591222000" lon="11.557781000">
  <ele>0.000000</ele>
</trkpt>
<trkpt lat="45.591174000" lon="11.557635000">
  <ele>0.000000</ele>
</trkpt>
<trkpt lat="45.591131000" lon="11.557569000">
  <ele>0.000000</ele>
</trkpt>
<trkpt lat="45.591094000" lon="11.557536000">
  <ele>0.000000</ele>
</trkpt>
<trkpt lat="45.591068000" lon="11.557488000">
  <ele>0.000000</ele>
</trkpt>
<trkpt lat="45.591054000" lon="11.557430000">
  <ele>0.000000</ele>
</trkpt>
<trkpt lat="45.591007000" lon="11.557394000">
  <ele>0.000000</ele>
</trkpt>
<trkpt lat="45.590959000" lon="11.557355000">
  <ele>0.000000</ele>
</trkpt>
</trkseg>
</trk>
<trk>
  <name>I2-4</name>
<trkseg>
<trkpt lat="45.590959000" lon="11.557355000">
  <ele>0.000000</ele>
</trkpt>
<trkpt lat="45.591078000" lon="11.557295000">
  <ele>0.000000</ele>
</trkpt>
<trkpt lat="45.591123000" lon="11.557241000">
  <ele>0.000000</ele>
</trkpt>
<trkpt lat="45.591178000" lon="11.557222000">
  <ele>0.000000</ele>
</trkpt>
<trkpt lat="45.591235000" lon="11.557241000">
  <ele>0.000000</ele>
</trkpt>
<trkpt lat="45.591282000" lon="11.557298000">
  <ele>0.000000</ele>
</trkpt>
<trkpt lat="45.591304000" lon="11.557377000">
  <ele>0.000000</ele>
</trkpt>
<trkpt lat="45.591300000" lon="11.557457000">
  <ele>0.000000</ele>
</trkpt>
<trkpt lat="45.591279000" lon="11.557513000">
  <ele>0.000000</ele>
</trkpt>
<trkpt lat="45.591245000" lon="11.557557000">
  <ele>0.000000</ele>
</trkpt>
<trkpt lat="45.591222000" lon="11.557654000">
  <ele>0.000000</ele>
</trkpt>
<trkpt lat="45.591222000" lon="11.557781000">
  <ele>0.000000</ele>
</trkpt>
</trkseg>
</trk>
<trk>
  <name>I2-4</name>
<trkseg>
<trkpt lat="45.602024000" lon="11.569911000">
  <ele>0.000000</ele>
</trkpt>
<trkpt lat="45.601424000" lon="11.569903000">
  <ele>0.000000</ele>
</trkpt>
<trkpt lat="45.600638000" lon="11.569840000">
  <ele>0.000000</ele>
</trkpt>
<trkpt lat="45.599983000" lon="11.569808000">
  <ele>0.000000</ele>
</trkpt>
<trkpt lat="45.598716000" lon="11.569731000">
  <ele>0.000000</ele>
</trkpt>
<trkpt lat="45.598427000" lon="11.569757000">
  <ele>0.000000</ele>
</trkpt>
<trkpt lat="45.597545000" lon="11.569697000">
  <ele>0.000000</ele>
</trkpt>
<trkpt lat="45.596362000" lon="11.569671000">
  <ele>0.000000</ele>
</trkpt>
<trkpt lat="45.594037000" lon="11.569568000">
  <ele>0.000000</ele>
</trkpt>
<trkpt lat="45.594044000" lon="11.568742000">
  <ele>0.000000</ele>
</trkpt>
<trkpt lat="45.593927000" lon="11.568739000">
  <ele>0.000000</ele>
</trkpt>
<trkpt lat="45.593819000" lon="11.565939000">
  <ele>0.000000</ele>
</trkpt>
<trkpt lat="45.593774000" lon="11.565746000">
  <ele>0.000000</ele>
</trkpt>
<trkpt lat="45.593655000" lon="11.565497000">
  <ele>0.000000</ele>
</trkpt>
<trkpt lat="45.593850000" lon="11.564837000">
  <ele>0.000000</ele>
</trkpt>
<trkpt lat="45.593207000" lon="11.564344000">
  <ele>0.000000</ele>
</trkpt>
<trkpt lat="45.592881000" lon="11.564033000">
  <ele>0.000000</ele>
</trkpt>
<trkpt lat="45.592603000" lon="11.563657000">
  <ele>0.000000</ele>
</trkpt>
<trkpt lat="45.592337000" lon="11.563078000">
  <ele>0.000000</ele>
</trkpt>
<trkpt lat="45.592225000" lon="11.562747000">
  <ele>0.000000</ele>
</trkpt>
<trkpt lat="45.592025000" lon="11.562010000">
  <ele>0.000000</ele>
</trkpt>
<trkpt lat="45.591882000" lon="11.561485000">
  <ele>0.000000</ele>
</trkpt>
<trkpt lat="45.591804000" lon="11.561099000">
  <ele>0.000000</ele>
</trkpt>
<trkpt lat="45.591766000" lon="11.560868000">
  <ele>0.000000</ele>
</trkpt>
<trkpt lat="45.591492000" lon="11.558990000">
  <ele>0.000000</ele>
</trkpt>
<trkpt lat="45.591383000" lon="11.558475000">
  <ele>0.000000</ele>
</trkpt>
<trkpt lat="45.591222000" lon="11.557781000">
  <ele>0.000000</ele>
</trkpt>
</trkseg>
</trk>
<trk>
  <name>I2-4</name>
<trkseg>
<trkpt lat="45.602024000" lon="11.569911000">
  <ele>0.000000</ele>
</trkpt>
<trkpt lat="45.602091000" lon="11.569911000">
  <ele>0.000000</ele>
</trkpt>
<trkpt lat="45.602097000" lon="11.569800000">
  <ele>0.000000</ele>
</trkpt>
<trkpt lat="45.602031000" lon="11.569808000">
  <ele>0.000000</ele>
</trkpt>
<trkpt lat="45.602024000" lon="11.569911000">
  <ele>0.000000</ele>
</trkpt>
</trkseg>
</trk>
<trk>
  <name>I2-4</name>
<trkseg>
<trkpt lat="45.657183000" lon="11.603083000">
  <ele>0.000000</ele>
</trkpt>
<trkpt lat="45.656839000" lon="11.602953000">
  <ele>0.000000</ele>
</trkpt>
<trkpt lat="45.656422000" lon="11.602801000">
  <ele>0.000000</ele>
</trkpt>
<trkpt lat="45.656223000" lon="11.602891000">
  <ele>0.000000</ele>
</trkpt>
<trkpt lat="45.656014000" lon="11.602752000">
  <ele>0.000000</ele>
</trkpt>
<trkpt lat="45.655952000" lon="11.602699000">
  <ele>0.000000</ele>
</trkpt>
<trkpt lat="45.655655000" lon="11.602699000">
  <ele>0.000000</ele>
</trkpt>
<trkpt lat="45.655535000" lon="11.602690000">
  <ele>0.000000</ele>
</trkpt>
<trkpt lat="45.655366000" lon="11.602652000">
  <ele>0.000000</ele>
</trkpt>
<trkpt lat="45.655290000" lon="11.602633000">
  <ele>0.000000</ele>
</trkpt>
<trkpt lat="45.655237000" lon="11.602629000">
  <ele>0.000000</ele>
</trkpt>
<trkpt lat="45.655190000" lon="11.602659000">
  <ele>0.000000</ele>
</trkpt>
<trkpt lat="45.655147000" lon="11.602650000">
  <ele>0.000000</ele>
</trkpt>
<trkpt lat="45.655099000" lon="11.602592000">
  <ele>0.000000</ele>
</trkpt>
<trkpt lat="45.655018000" lon="11.602437000">
  <ele>0.000000</ele>
</trkpt>
<trkpt lat="45.654943000" lon="11.602226000">
  <ele>0.000000</ele>
</trkpt>
<trkpt lat="45.654898000" lon="11.602210000">
  <ele>0.000000</ele>
</trkpt>
<trkpt lat="45.654672000" lon="11.602158000">
  <ele>0.000000</ele>
</trkpt>
<trkpt lat="45.654265000" lon="11.602073000">
  <ele>0.000000</ele>
</trkpt>
<trkpt lat="45.653951000" lon="11.601977000">
  <ele>0.000000</ele>
</trkpt>
<trkpt lat="45.653755000" lon="11.601910000">
  <ele>0.000000</ele>
</trkpt>
<trkpt lat="45.653517000" lon="11.601779000">
  <ele>0.000000</ele>
</trkpt>
<trkpt lat="45.653117000" lon="11.601798000">
  <ele>0.000000</ele>
</trkpt>
<trkpt lat="45.653007000" lon="11.601758000">
  <ele>0.000000</ele>
</trkpt>
<trkpt lat="45.652125000" lon="11.601178000">
  <ele>0.000000</ele>
</trkpt>
<trkpt lat="45.651735000" lon="11.600929000">
  <ele>0.000000</ele>
</trkpt>
<trkpt lat="45.651706000" lon="11.600887000">
  <ele>0.000000</ele>
</trkpt>
<trkpt lat="45.651757000" lon="11.600633000">
  <ele>0.000000</ele>
</trkpt>
<trkpt lat="45.651747000" lon="11.600586000">
  <ele>0.000000</ele>
</trkpt>
<trkpt lat="45.651350000" lon="11.600340000">
  <ele>0.000000</ele>
</trkpt>
<trkpt lat="45.651391000" lon="11.600088000">
  <ele>0.000000</ele>
</trkpt>
<trkpt lat="45.651421000" lon="11.599831000">
  <ele>0.000000</ele>
</trkpt>
<trkpt lat="45.651435000" lon="11.599562000">
  <ele>0.000000</ele>
</trkpt>
<trkpt lat="45.651416000" lon="11.599388000">
  <ele>0.000000</ele>
</trkpt>
<trkpt lat="45.651391000" lon="11.599281000">
  <ele>0.000000</ele>
</trkpt>
<trkpt lat="45.651295000" lon="11.598947000">
  <ele>0.000000</ele>
</trkpt>
<trkpt lat="45.651151000" lon="11.598492000">
  <ele>0.000000</ele>
</trkpt>
<trkpt lat="45.651061000" lon="11.598209000">
  <ele>0.000000</ele>
</trkpt>
<trkpt lat="45.651031000" lon="11.597994000">
  <ele>0.000000</ele>
</trkpt>
<trkpt lat="45.651043000" lon="11.597719000">
  <ele>0.000000</ele>
</trkpt>
<trkpt lat="45.651053000" lon="11.597590000">
  <ele>0.000000</ele>
</trkpt>
<trkpt lat="45.651033000" lon="11.597576000">
  <ele>0.000000</ele>
</trkpt>
<trkpt lat="45.650347000" lon="11.596917000">
  <ele>0.000000</ele>
</trkpt>
<trkpt lat="45.650185000" lon="11.596795000">
  <ele>0.000000</ele>
</trkpt>
<trkpt lat="45.650138000" lon="11.596823000">
  <ele>0.000000</ele>
</trkpt>
<trkpt lat="45.649557000" lon="11.597008000">
  <ele>0.000000</ele>
</trkpt>
<trkpt lat="45.649129000" lon="11.597158000">
  <ele>0.000000</ele>
</trkpt>
<trkpt lat="45.648643000" lon="11.597392000">
  <ele>0.000000</ele>
</trkpt>
<trkpt lat="45.648476000" lon="11.597460000">
  <ele>0.000000</ele>
</trkpt>
<trkpt lat="45.648019000" lon="11.597644000">
  <ele>0.000000</ele>
</trkpt>
<trkpt lat="45.647975000" lon="11.597661000">
  <ele>0.000000</ele>
</trkpt>
<trkpt lat="45.647444000" lon="11.597898000">
  <ele>0.000000</ele>
</trkpt>
<trkpt lat="45.647240000" lon="11.597984000">
  <ele>0.000000</ele>
</trkpt>
<trkpt lat="45.647000000" lon="11.598044000">
  <ele>0.000000</ele>
</trkpt>
<trkpt lat="45.646739000" lon="11.598055000">
  <ele>0.000000</ele>
</trkpt>
<trkpt lat="45.646699000" lon="11.598023000">
  <ele>0.000000</ele>
</trkpt>
<trkpt lat="45.646670000" lon="11.597909000">
  <ele>0.000000</ele>
</trkpt>
<trkpt lat="45.646675000" lon="11.597686000">
  <ele>0.000000</ele>
</trkpt>
<trkpt lat="45.646652000" lon="11.597575000">
  <ele>0.000000</ele>
</trkpt>
<trkpt lat="45.646622000" lon="11.597522000">
  <ele>0.000000</ele>
</trkpt>
<trkpt lat="45.646566000" lon="11.597488000">
  <ele>0.000000</ele>
</trkpt>
<trkpt lat="45.645445000" lon="11.597440000">
  <ele>0.000000</ele>
</trkpt>
<trkpt lat="45.644338000" lon="11.597363000">
  <ele>0.000000</ele>
</trkpt>
<trkpt lat="45.644228000" lon="11.597372000">
  <ele>0.000000</ele>
</trkpt>
<trkpt lat="45.644173000" lon="11.597401000">
  <ele>0.000000</ele>
</trkpt>
<trkpt lat="45.644097000" lon="11.597639000">
  <ele>0.000000</ele>
</trkpt>
<trkpt lat="45.644030000" lon="11.597932000">
  <ele>0.000000</ele>
</trkpt>
<trkpt lat="45.643988000" lon="11.598310000">
  <ele>0.000000</ele>
</trkpt>
<trkpt lat="45.643981000" lon="11.598838000">
  <ele>0.000000</ele>
</trkpt>
<trkpt lat="45.643963000" lon="11.599282000">
  <ele>0.000000</ele>
</trkpt>
<trkpt lat="45.643933000" lon="11.600207000">
  <ele>0.000000</ele>
</trkpt>
<trkpt lat="45.643900000" lon="11.600567000">
  <ele>0.000000</ele>
</trkpt>
<trkpt lat="45.643843000" lon="11.600868000">
  <ele>0.000000</ele>
</trkpt>
<trkpt lat="45.643729000" lon="11.601134000">
  <ele>0.000000</ele>
</trkpt>
<trkpt lat="45.643609000" lon="11.601334000">
  <ele>0.000000</ele>
</trkpt>
<trkpt lat="45.643407000" lon="11.601490000">
  <ele>0.000000</ele>
</trkpt>
<trkpt lat="45.643182000" lon="11.601559000">
  <ele>0.000000</ele>
</trkpt>
<trkpt lat="45.642907000" lon="11.601595000">
  <ele>0.000000</ele>
</trkpt>
<trkpt lat="45.642730000" lon="11.601666000">
  <ele>0.000000</ele>
</trkpt>
<trkpt lat="45.642283000" lon="11.601943000">
  <ele>0.000000</ele>
</trkpt>
<trkpt lat="45.641683000" lon="11.602355000">
  <ele>0.000000</ele>
</trkpt>
<trkpt lat="45.640877000" lon="11.602891000">
  <ele>0.000000</ele>
</trkpt>
<trkpt lat="45.639987000" lon="11.603494000">
  <ele>0.000000</ele>
</trkpt>
<trkpt lat="45.639012000" lon="11.604155000">
  <ele>0.000000</ele>
</trkpt>
<trkpt lat="45.638959000" lon="11.603886000">
  <ele>0.000000</ele>
</trkpt>
<trkpt lat="45.638830000" lon="11.603536000">
  <ele>0.000000</ele>
</trkpt>
<trkpt lat="45.638683000" lon="11.603161000">
  <ele>0.000000</ele>
</trkpt>
<trkpt lat="45.638499000" lon="11.602743000">
  <ele>0.000000</ele>
</trkpt>
<trkpt lat="45.638211000" lon="11.602162000">
  <ele>0.000000</ele>
</trkpt>
<trkpt lat="45.638193000" lon="11.602127000">
  <ele>0.000000</ele>
</trkpt>
<trkpt lat="45.637907000" lon="11.601552000">
  <ele>0.000000</ele>
</trkpt>
<trkpt lat="45.637639000" lon="11.600971000">
  <ele>0.000000</ele>
</trkpt>
<trkpt lat="45.637550000" lon="11.600771000">
  <ele>0.000000</ele>
</trkpt>
<trkpt lat="45.637487000" lon="11.600638000">
  <ele>0.000000</ele>
</trkpt>
<trkpt lat="45.637417000" lon="11.600557000">
  <ele>0.000000</ele>
</trkpt>
<trkpt lat="45.637347000" lon="11.600502000">
  <ele>0.000000</ele>
</trkpt>
<trkpt lat="45.637277000" lon="11.600554000">
  <ele>0.000000</ele>
</trkpt>
<trkpt lat="45.637194000" lon="11.600684000">
  <ele>0.000000</ele>
</trkpt>
<trkpt lat="45.637094000" lon="11.600802000">
  <ele>0.000000</ele>
</trkpt>
<trkpt lat="45.637024000" lon="11.600853000">
  <ele>0.000000</ele>
</trkpt>
<trkpt lat="45.636824000" lon="11.600995000">
  <ele>0.000000</ele>
</trkpt>
<trkpt lat="45.636683000" lon="11.601088000">
  <ele>0.000000</ele>
</trkpt>
<trkpt lat="45.636622000" lon="11.601107000">
  <ele>0.000000</ele>
</trkpt>
<trkpt lat="45.636565000" lon="11.601099000">
  <ele>0.000000</ele>
</trkpt>
<trkpt lat="45.636503000" lon="11.601045000">
  <ele>0.000000</ele>
</trkpt>
<trkpt lat="45.636511000" lon="11.601235000">
  <ele>0.000000</ele>
</trkpt>
<trkpt lat="45.636395000" lon="11.601313000">
  <ele>0.000000</ele>
</trkpt>
<trkpt lat="45.636240000" lon="11.601410000">
  <ele>0.000000</ele>
</trkpt>
<trkpt lat="45.636123000" lon="11.601483000">
  <ele>0.000000</ele>
</trkpt>
<trkpt lat="45.636007000" lon="11.601556000">
  <ele>0.000000</ele>
</trkpt>
<trkpt lat="45.635839000" lon="11.601650000">
  <ele>0.000000</ele>
</trkpt>
<trkpt lat="45.635607000" lon="11.601754000">
  <ele>0.000000</ele>
</trkpt>
<trkpt lat="45.635314000" lon="11.601826000">
  <ele>0.000000</ele>
</trkpt>
<trkpt lat="45.635035000" lon="11.601858000">
  <ele>0.000000</ele>
</trkpt>
<trkpt lat="45.634820000" lon="11.601845000">
  <ele>0.000000</ele>
</trkpt>
<trkpt lat="45.632311000" lon="11.601521000">
  <ele>0.000000</ele>
</trkpt>
<trkpt lat="45.631287000" lon="11.601399000">
  <ele>0.000000</ele>
</trkpt>
<trkpt lat="45.630709000" lon="11.601324000">
  <ele>0.000000</ele>
</trkpt>
<trkpt lat="45.630499000" lon="11.601307000">
  <ele>0.000000</ele>
</trkpt>
<trkpt lat="45.630276000" lon="11.601324000">
  <ele>0.000000</ele>
</trkpt>
<trkpt lat="45.629958000" lon="11.601375000">
  <ele>0.000000</ele>
</trkpt>
<trkpt lat="45.629838000" lon="11.601393000">
  <ele>0.000000</ele>
</trkpt>
<trkpt lat="45.629712000" lon="11.601393000">
  <ele>0.000000</ele>
</trkpt>
<trkpt lat="45.629364000" lon="11.601341000">
  <ele>0.000000</ele>
</trkpt>
<trkpt lat="45.629070000" lon="11.601306000">
  <ele>0.000000</ele>
</trkpt>
<trkpt lat="45.628194000" lon="11.601204000">
  <ele>0.000000</ele>
</trkpt>
<trkpt lat="45.627984000" lon="11.601187000">
  <ele>0.000000</ele>
</trkpt>
<trkpt lat="45.627924000" lon="11.601161000">
  <ele>0.000000</ele>
</trkpt>
<trkpt lat="45.627894000" lon="11.601041000">
  <ele>0.000000</ele>
</trkpt>
<trkpt lat="45.627900000" lon="11.600878000">
  <ele>0.000000</ele>
</trkpt>
<trkpt lat="45.628038000" lon="11.600208000">
  <ele>0.000000</ele>
</trkpt>
<trkpt lat="45.628036000" lon="11.600119000">
  <ele>0.000000</ele>
</trkpt>
<trkpt lat="45.628001000" lon="11.600052000">
  <ele>0.000000</ele>
</trkpt>
<trkpt lat="45.626702000" lon="11.599501000">
  <ele>0.000000</ele>
</trkpt>
<trkpt lat="45.626339000" lon="11.599350000">
  <ele>0.000000</ele>
</trkpt>
<trkpt lat="45.626293000" lon="11.599338000">
  <ele>0.000000</ele>
</trkpt>
<trkpt lat="45.626375000" lon="11.598878000">
  <ele>0.000000</ele>
</trkpt>
<trkpt lat="45.626453000" lon="11.598234000">
  <ele>0.000000</ele>
</trkpt>
<trkpt lat="45.626501000" lon="11.597607000">
  <ele>0.000000</ele>
</trkpt>
<trkpt lat="45.626549000" lon="11.597376000">
  <ele>0.000000</ele>
</trkpt>
<trkpt lat="45.626687000" lon="11.597032000">
  <ele>0.000000</ele>
</trkpt>
<trkpt lat="45.626729000" lon="11.596861000">
  <ele>0.000000</ele>
</trkpt>
<trkpt lat="45.626855000" lon="11.595753000">
  <ele>0.000000</ele>
</trkpt>
<trkpt lat="45.626855000" lon="11.595522000">
  <ele>0.000000</ele>
</trkpt>
<trkpt lat="45.626795000" lon="11.595221000">
  <ele>0.000000</ele>
</trkpt>
<trkpt lat="45.626717000" lon="11.595015000">
  <ele>0.000000</ele>
</trkpt>
<trkpt lat="45.625658000" lon="11.592904000">
  <ele>0.000000</ele>
</trkpt>
<trkpt lat="45.625270000" lon="11.592118000">
  <ele>0.000000</ele>
</trkpt>
<trkpt lat="45.624214000" lon="11.590011000">
  <ele>0.000000</ele>
</trkpt>
<trkpt lat="45.623980000" lon="11.589505000">
  <ele>0.000000</ele>
</trkpt>
<trkpt lat="45.623890000" lon="11.589239000">
  <ele>0.000000</ele>
</trkpt>
<trkpt lat="45.623848000" lon="11.588956000">
  <ele>0.000000</ele>
</trkpt>
<trkpt lat="45.623848000" lon="11.588724000">
  <ele>0.000000</ele>
</trkpt>
<trkpt lat="45.623848000" lon="11.588269000">
  <ele>0.000000</ele>
</trkpt>
<trkpt lat="45.623854000" lon="11.588020000">
  <ele>0.000000</ele>
</trkpt>
<trkpt lat="45.623836000" lon="11.587703000">
  <ele>0.000000</ele>
</trkpt>
<trkpt lat="45.623776000" lon="11.587462000">
  <ele>0.000000</ele>
</trkpt>
<trkpt lat="45.623512000" lon="11.586887000">
  <ele>0.000000</ele>
</trkpt>
<trkpt lat="45.623164000" lon="11.586192000">
  <ele>0.000000</ele>
</trkpt>
<trkpt lat="45.623044000" lon="11.585994000">
  <ele>0.000000</ele>
</trkpt>
<trkpt lat="45.622923000" lon="11.585874000">
  <ele>0.000000</ele>
</trkpt>
<trkpt lat="45.622779000" lon="11.585737000">
  <ele>0.000000</ele>
</trkpt>
<trkpt lat="45.622665000" lon="11.585660000">
  <ele>0.000000</ele>
</trkpt>
<trkpt lat="45.621705000" lon="11.585428000">
  <ele>0.000000</ele>
</trkpt>
<trkpt lat="45.621459000" lon="11.585368000">
  <ele>0.000000</ele>
</trkpt>
<trkpt lat="45.621219000" lon="11.585342000">
  <ele>0.000000</ele>
</trkpt>
<trkpt lat="45.620919000" lon="11.585334000">
  <ele>0.000000</ele>
</trkpt>
<trkpt lat="45.620678000" lon="11.585351000">
  <ele>0.000000</ele>
</trkpt>
<trkpt lat="45.620426000" lon="11.585359000">
  <ele>0.000000</ele>
</trkpt>
<trkpt lat="45.620222000" lon="11.585394000">
  <ele>0.000000</ele>
</trkpt>
<trkpt lat="45.619914000" lon="11.585487000">
  <ele>0.000000</ele>
</trkpt>
<trkpt lat="45.619747000" lon="11.585560000">
  <ele>0.000000</ele>
</trkpt>
<trkpt lat="45.619735000" lon="11.585208000">
  <ele>0.000000</ele>
</trkpt>
<trkpt lat="45.619747000" lon="11.584741000">
  <ele>0.000000</ele>
</trkpt>
<trkpt lat="45.619797000" lon="11.583606000">
  <ele>0.000000</ele>
</trkpt>
<trkpt lat="45.619836000" lon="11.583000000">
  <ele>0.000000</ele>
</trkpt>
<trkpt lat="45.619879000" lon="11.582638000">
  <ele>0.000000</ele>
</trkpt>
<trkpt lat="45.619992000" lon="11.582434000">
  <ele>0.000000</ele>
</trkpt>
<trkpt lat="45.619453000" lon="11.582478000">
  <ele>0.000000</ele>
</trkpt>
<trkpt lat="45.619117000" lon="11.582383000">
  <ele>0.000000</ele>
</trkpt>
<trkpt lat="45.618056000" lon="11.581631000">
  <ele>0.000000</ele>
</trkpt>
<trkpt lat="45.616726000" lon="11.581030000">
  <ele>0.000000</ele>
</trkpt>
<trkpt lat="45.616170000" lon="11.580976000">
  <ele>0.000000</ele>
</trkpt>
<trkpt lat="45.615575000" lon="11.580675000">
  <ele>0.000000</ele>
</trkpt>
<trkpt lat="45.613193000" lon="11.579487000">
  <ele>0.000000</ele>
</trkpt>
<trkpt lat="45.613131000" lon="11.579324000">
  <ele>0.000000</ele>
</trkpt>
<trkpt lat="45.613128000" lon="11.579140000">
  <ele>0.000000</ele>
</trkpt>
<trkpt lat="45.613598000" lon="11.575571000">
  <ele>0.000000</ele>
</trkpt>
<trkpt lat="45.613603000" lon="11.575096000">
  <ele>0.000000</ele>
</trkpt>
<trkpt lat="45.613556000" lon="11.574951000">
  <ele>0.000000</ele>
</trkpt>
<trkpt lat="45.608776000" lon="11.573273000">
  <ele>0.000000</ele>
</trkpt>
<trkpt lat="45.608744000" lon="11.573258000">
  <ele>0.000000</ele>
</trkpt>
<trkpt lat="45.608637000" lon="11.573723000">
  <ele>0.000000</ele>
</trkpt>
<trkpt lat="45.608567000" lon="11.574275000">
  <ele>0.000000</ele>
</trkpt>
<trkpt lat="45.608534000" lon="11.574751000">
  <ele>0.000000</ele>
</trkpt>
<trkpt lat="45.607123000" lon="11.574512000">
  <ele>0.000000</ele>
</trkpt>
<trkpt lat="45.605748000" lon="11.573946000">
  <ele>0.000000</ele>
</trkpt>
<trkpt lat="45.605459000" lon="11.574160000">
  <ele>0.000000</ele>
</trkpt>
<trkpt lat="45.604727000" lon="11.573980000">
  <ele>0.000000</ele>
</trkpt>
<trkpt lat="45.604659000" lon="11.573912000">
  <ele>0.000000</ele>
</trkpt>
<trkpt lat="45.604596000" lon="11.573847000">
  <ele>0.000000</ele>
</trkpt>
<trkpt lat="45.602866000" lon="11.573092000">
  <ele>0.000000</ele>
</trkpt>
<trkpt lat="45.602817000" lon="11.573061000">
  <ele>0.000000</ele>
</trkpt>
<trkpt lat="45.601910000" lon="11.572778000">
  <ele>0.000000</ele>
</trkpt>
<trkpt lat="45.601989000" lon="11.571671000">
  <ele>0.000000</ele>
</trkpt>
<trkpt lat="45.602031000" lon="11.570418000">
  <ele>0.000000</ele>
</trkpt>
<trkpt lat="45.602014000" lon="11.570204000">
  <ele>0.000000</ele>
</trkpt>
<trkpt lat="45.602013000" lon="11.570109000">
  <ele>0.000000</ele>
</trkpt>
<trkpt lat="45.602024000" lon="11.569911000">
  <ele>0.000000</ele>
</trkpt>
</trkseg>
</trk>
<trk>
  <name>I2-4</name>
<trkseg>
<trkpt lat="45.657403000" lon="11.603627000">
  <ele>0.000000</ele>
</trkpt>
<trkpt lat="45.657317000" lon="11.603615000">
  <ele>0.000000</ele>
</trkpt>
<trkpt lat="45.657191000" lon="11.603215000">
  <ele>0.000000</ele>
</trkpt>
<trkpt lat="45.657183000" lon="11.603083000">
  <ele>0.000000</ele>
</trkpt>
</trkseg>
</trk>
<trk>
  <name>I2-4</name>
<trkseg>
<trkpt lat="45.657183000" lon="11.603083000">
  <ele>0.000000</ele>
</trkpt>
<trkpt lat="45.657214000" lon="11.603094000">
  <ele>0.000000</ele>
</trkpt>
<trkpt lat="45.657403000" lon="11.603627000">
  <ele>0.000000</ele>
</trkpt>
</trkseg>
</trk>
<trk>
  <name>I2-4</name>
<trkseg>
<trkpt lat="45.684236000" lon="11.605918000">
  <ele>0.000000</ele>
</trkpt>
<trkpt lat="45.682862000" lon="11.606029000">
  <ele>0.000000</ele>
</trkpt>
<trkpt lat="45.681618000" lon="11.606122000">
  <ele>0.000000</ele>
</trkpt>
<trkpt lat="45.681620000" lon="11.606047000">
  <ele>0.000000</ele>
</trkpt>
<trkpt lat="45.681631000" lon="11.605783000">
  <ele>0.000000</ele>
</trkpt>
<trkpt lat="45.681667000" lon="11.605225000">
  <ele>0.000000</ele>
</trkpt>
<trkpt lat="45.681698000" lon="11.604708000">
  <ele>0.000000</ele>
</trkpt>
<trkpt lat="45.681743000" lon="11.604059000">
  <ele>0.000000</ele>
</trkpt>
<trkpt lat="45.681768000" lon="11.603505000">
  <ele>0.000000</ele>
</trkpt>
<trkpt lat="45.681789000" lon="11.602876000">
  <ele>0.000000</ele>
</trkpt>
<trkpt lat="45.681829000" lon="11.602218000">
  <ele>0.000000</ele>
</trkpt>
<trkpt lat="45.681861000" lon="11.601481000">
  <ele>0.000000</ele>
</trkpt>
<trkpt lat="45.681907000" lon="11.600824000">
  <ele>0.000000</ele>
</trkpt>
<trkpt lat="45.681955000" lon="11.599867000">
  <ele>0.000000</ele>
</trkpt>
<trkpt lat="45.682060000" lon="11.598339000">
  <ele>0.000000</ele>
</trkpt>
<trkpt lat="45.682090000" lon="11.597721000">
  <ele>0.000000</ele>
</trkpt>
<trkpt lat="45.682105000" lon="11.597433000">
  <ele>0.000000</ele>
</trkpt>
<trkpt lat="45.682040000" lon="11.597427000">
  <ele>0.000000</ele>
</trkpt>
<trkpt lat="45.681896000" lon="11.597387000">
  <ele>0.000000</ele>
</trkpt>
<trkpt lat="45.680648000" lon="11.596905000">
  <ele>0.000000</ele>
</trkpt>
<trkpt lat="45.680498000" lon="11.596854000">
  <ele>0.000000</ele>
</trkpt>
<trkpt lat="45.680048000" lon="11.596682000">
  <ele>0.000000</ele>
</trkpt>
<trkpt lat="45.679101000" lon="11.596321000">
  <ele>0.000000</ele>
</trkpt>
<trkpt lat="45.675749000" lon="11.595068000">
  <ele>0.000000</ele>
</trkpt>
<trkpt lat="45.675253000" lon="11.594890000">
  <ele>0.000000</ele>
</trkpt>
<trkpt lat="45.674925000" lon="11.594709000">
  <ele>0.000000</ele>
</trkpt>
<trkpt lat="45.672836000" lon="11.593532000">
  <ele>0.000000</ele>
</trkpt>
<trkpt lat="45.672626000" lon="11.593411000">
  <ele>0.000000</ele>
</trkpt>
<trkpt lat="45.672422000" lon="11.593191000">
  <ele>0.000000</ele>
</trkpt>
<trkpt lat="45.672284000" lon="11.593051000">
  <ele>0.000000</ele>
</trkpt>
<trkpt lat="45.672168000" lon="11.592974000">
  <ele>0.000000</ele>
</trkpt>
<trkpt lat="45.671919000" lon="11.592933000">
  <ele>0.000000</ele>
</trkpt>
<trkpt lat="45.671855000" lon="11.592977000">
  <ele>0.000000</ele>
</trkpt>
<trkpt lat="45.671636000" lon="11.593146000">
  <ele>0.000000</ele>
</trkpt>
<trkpt lat="45.671432000" lon="11.593266000">
  <ele>0.000000</ele>
</trkpt>
<trkpt lat="45.671228000" lon="11.593361000">
  <ele>0.000000</ele>
</trkpt>
<trkpt lat="45.671042000" lon="11.593404000">
  <ele>0.000000</ele>
</trkpt>
<trkpt lat="45.670754000" lon="11.593447000">
  <ele>0.000000</ele>
</trkpt>
<trkpt lat="45.670299000" lon="11.593507000">
  <ele>0.000000</ele>
</trkpt>
<trkpt lat="45.669999000" lon="11.593558000">
  <ele>0.000000</ele>
</trkpt>
<trkpt lat="45.669615000" lon="11.593627000">
  <ele>0.000000</ele>
</trkpt>
<trkpt lat="45.669315000" lon="11.593704000">
  <ele>0.000000</ele>
</trkpt>
<trkpt lat="45.669168000" lon="11.593735000">
  <ele>0.000000</ele>
</trkpt>
<trkpt lat="45.668940000" lon="11.593788000">
  <ele>0.000000</ele>
</trkpt>
<trkpt lat="45.668858000" lon="11.593862000">
  <ele>0.000000</ele>
</trkpt>
<trkpt lat="45.668818000" lon="11.594002000">
  <ele>0.000000</ele>
</trkpt>
<trkpt lat="45.668806000" lon="11.594126000">
  <ele>0.000000</ele>
</trkpt>
<trkpt lat="45.668811000" lon="11.594260000">
  <ele>0.000000</ele>
</trkpt>
<trkpt lat="45.668826000" lon="11.594528000">
  <ele>0.000000</ele>
</trkpt>
<trkpt lat="45.668802000" lon="11.594732000">
  <ele>0.000000</ele>
</trkpt>
<trkpt lat="45.668741000" lon="11.594968000">
  <ele>0.000000</ele>
</trkpt>
<trkpt lat="45.668653000" lon="11.595202000">
  <ele>0.000000</ele>
</trkpt>
<trkpt lat="45.668528000" lon="11.595467000">
  <ele>0.000000</ele>
</trkpt>
<trkpt lat="45.668398000" lon="11.595749000">
  <ele>0.000000</ele>
</trkpt>
<trkpt lat="45.668269000" lon="11.596039000">
  <ele>0.000000</ele>
</trkpt>
<trkpt lat="45.668198000" lon="11.596199000">
  <ele>0.000000</ele>
</trkpt>
<trkpt lat="45.668129000" lon="11.596319000">
  <ele>0.000000</ele>
</trkpt>
<trkpt lat="45.668077000" lon="11.596370000">
  <ele>0.000000</ele>
</trkpt>
<trkpt lat="45.668000000" lon="11.596353000">
  <ele>0.000000</ele>
</trkpt>
<trkpt lat="45.667810000" lon="11.596310000">
  <ele>0.000000</ele>
</trkpt>
<trkpt lat="45.667673000" lon="11.596278000">
  <ele>0.000000</ele>
</trkpt>
<trkpt lat="45.667586000" lon="11.596258000">
  <ele>0.000000</ele>
</trkpt>
<trkpt lat="45.667490000" lon="11.596234000">
  <ele>0.000000</ele>
</trkpt>
<trkpt lat="45.667288000" lon="11.596201000">
  <ele>0.000000</ele>
</trkpt>
<trkpt lat="45.667164000" lon="11.596194000">
  <ele>0.000000</ele>
</trkpt>
<trkpt lat="45.667042000" lon="11.596232000">
  <ele>0.000000</ele>
</trkpt>
<trkpt lat="45.666951000" lon="11.596271000">
  <ele>0.000000</ele>
</trkpt>
<trkpt lat="45.666791000" lon="11.596334000">
  <ele>0.000000</ele>
</trkpt>
<trkpt lat="45.666423000" lon="11.596499000">
  <ele>0.000000</ele>
</trkpt>
<trkpt lat="45.666330000" lon="11.596531000">
  <ele>0.000000</ele>
</trkpt>
<trkpt lat="45.665996000" lon="11.596645000">
  <ele>0.000000</ele>
</trkpt>
<trkpt lat="45.665979000" lon="11.596653000">
  <ele>0.000000</ele>
</trkpt>
<trkpt lat="45.665535000" lon="11.596928000">
  <ele>0.000000</ele>
</trkpt>
<trkpt lat="45.665259000" lon="11.597108000">
  <ele>0.000000</ele>
</trkpt>
<trkpt lat="45.664489000" lon="11.597630000">
  <ele>0.000000</ele>
</trkpt>
<trkpt lat="45.664485000" lon="11.598096000">
  <ele>0.000000</ele>
</trkpt>
<trkpt lat="45.664483000" lon="11.598286000">
  <ele>0.000000</ele>
</trkpt>
<trkpt lat="45.664477000" lon="11.598792000">
  <ele>0.000000</ele>
</trkpt>
<trkpt lat="45.664477000" lon="11.598839000">
  <ele>0.000000</ele>
</trkpt>
<trkpt lat="45.664465000" lon="11.599513000">
  <ele>0.000000</ele>
</trkpt>
<trkpt lat="45.664464000" lon="11.599654000">
  <ele>0.000000</ele>
</trkpt>
<trkpt lat="45.664460000" lon="11.599981000">
  <ele>0.000000</ele>
</trkpt>
<trkpt lat="45.664453000" lon="11.600406000">
  <ele>0.000000</ele>
</trkpt>
<trkpt lat="45.664452000" lon="11.600980000">
  <ele>0.000000</ele>
</trkpt>
<trkpt lat="45.664630000" lon="11.600990000">
  <ele>0.000000</ele>
</trkpt>
<trkpt lat="45.664696000" lon="11.601381000">
  <ele>0.000000</ele>
</trkpt>
<trkpt lat="45.664726000" lon="11.601565000">
  <ele>0.000000</ele>
</trkpt>
<trkpt lat="45.664738000" lon="11.602234000">
  <ele>0.000000</ele>
</trkpt>
<trkpt lat="45.664738000" lon="11.602655000">
  <ele>0.000000</ele>
</trkpt>
<trkpt lat="45.664714000" lon="11.602972000">
  <ele>0.000000</ele>
</trkpt>
<trkpt lat="45.664537000" lon="11.603347000">
  <ele>0.000000</ele>
</trkpt>
<trkpt lat="45.664296000" lon="11.603760000">
  <ele>0.000000</ele>
</trkpt>
<trkpt lat="45.664034000" lon="11.604205000">
  <ele>0.000000</ele>
</trkpt>
<trkpt lat="45.663637000" lon="11.604876000">
  <ele>0.000000</ele>
</trkpt>
<trkpt lat="45.663189000" lon="11.605469000">
  <ele>0.000000</ele>
</trkpt>
<trkpt lat="45.663062000" lon="11.605761000">
  <ele>0.000000</ele>
</trkpt>
<trkpt lat="45.663022000" lon="11.605746000">
  <ele>0.000000</ele>
</trkpt>
<trkpt lat="45.662661000" lon="11.605572000">
  <ele>0.000000</ele>
</trkpt>
<trkpt lat="45.662338000" lon="11.605409000">
  <ele>0.000000</ele>
</trkpt>
<trkpt lat="45.662299000" lon="11.605394000">
  <ele>0.000000</ele>
</trkpt>
<trkpt lat="45.661988000" lon="11.605223000">
  <ele>0.000000</ele>
</trkpt>
<trkpt lat="45.661611000" lon="11.604969000">
  <ele>0.000000</ele>
</trkpt>
<trkpt lat="45.661345000" lon="11.604782000">
  <ele>0.000000</ele>
</trkpt>
<trkpt lat="45.661360000" lon="11.604712000">
  <ele>0.000000</ele>
</trkpt>
<trkpt lat="45.661316000" lon="11.604457000">
  <ele>0.000000</ele>
</trkpt>
<trkpt lat="45.661292000" lon="11.604425000">
  <ele>0.000000</ele>
</trkpt>
<trkpt lat="45.661243000" lon="11.604285000">
  <ele>0.000000</ele>
</trkpt>
<trkpt lat="45.661120000" lon="11.604047000">
  <ele>0.000000</ele>
</trkpt>
<trkpt lat="45.661088000" lon="11.603970000">
  <ele>0.000000</ele>
</trkpt>
<trkpt lat="45.661038000" lon="11.603766000">
  <ele>0.000000</ele>
</trkpt>
<trkpt lat="45.661003000" lon="11.603529000">
  <ele>0.000000</ele>
</trkpt>
<trkpt lat="45.660993000" lon="11.603393000">
  <ele>0.000000</ele>
</trkpt>
<trkpt lat="45.661007000" lon="11.603249000">
  <ele>0.000000</ele>
</trkpt>
<trkpt lat="45.660905000" lon="11.603220000">
  <ele>0.000000</ele>
</trkpt>
<trkpt lat="45.660881000" lon="11.603214000">
  <ele>0.000000</ele>
</trkpt>
<trkpt lat="45.660837000" lon="11.603202000">
  <ele>0.000000</ele>
</trkpt>
<trkpt lat="45.660563000" lon="11.603080000">
  <ele>0.000000</ele>
</trkpt>
<trkpt lat="45.660437000" lon="11.603028000">
  <ele>0.000000</ele>
</trkpt>
<trkpt lat="45.660390000" lon="11.603025000">
  <ele>0.000000</ele>
</trkpt>
<trkpt lat="45.660134000" lon="11.603008000">
  <ele>0.000000</ele>
</trkpt>
<trkpt lat="45.660074000" lon="11.602998000">
  <ele>0.000000</ele>
</trkpt>
<trkpt lat="45.659985000" lon="11.602984000">
  <ele>0.000000</ele>
</trkpt>
<trkpt lat="45.659634000" lon="11.602906000">
  <ele>0.000000</ele>
</trkpt>
<trkpt lat="45.659511000" lon="11.602931000">
  <ele>0.000000</ele>
</trkpt>
<trkpt lat="45.659339000" lon="11.602964000">
  <ele>0.000000</ele>
</trkpt>
<trkpt lat="45.659246000" lon="11.602997000">
  <ele>0.000000</ele>
</trkpt>
<trkpt lat="45.659084000" lon="11.603148000">
  <ele>0.000000</ele>
</trkpt>
<trkpt lat="45.658718000" lon="11.603389000">
  <ele>0.000000</ele>
</trkpt>
<trkpt lat="45.658270000" lon="11.603562000">
  <ele>0.000000</ele>
</trkpt>
<trkpt lat="45.657988000" lon="11.603656000">
  <ele>0.000000</ele>
</trkpt>
<trkpt lat="45.657834000" lon="11.603669000">
  <ele>0.000000</ele>
</trkpt>
<trkpt lat="45.657742000" lon="11.603674000">
  <ele>0.000000</ele>
</trkpt>
<trkpt lat="45.657431000" lon="11.603631000">
  <ele>0.000000</ele>
</trkpt>
<trkpt lat="45.657403000" lon="11.603627000">
  <ele>0.000000</ele>
</trkpt>
</trkseg>
</trk>
<trk>
  <name>I2-4</name>
<trkseg>
<trkpt lat="45.684539000" lon="11.605889000">
  <ele>0.000000</ele>
</trkpt>
<trkpt lat="45.684440000" lon="11.605972000">
  <ele>0.000000</ele>
</trkpt>
<trkpt lat="45.684456000" lon="11.606023000">
  <ele>0.000000</ele>
</trkpt>
<trkpt lat="45.684446000" lon="11.606081000">
  <ele>0.000000</ele>
</trkpt>
<trkpt lat="45.684415000" lon="11.606117000">
  <ele>0.000000</ele>
</trkpt>
<trkpt lat="45.684387000" lon="11.606123000">
  <ele>0.000000</ele>
</trkpt>
<trkpt lat="45.684354000" lon="11.606106000">
  <ele>0.000000</ele>
</trkpt>
<trkpt lat="45.684333000" lon="11.606069000">
  <ele>0.000000</ele>
</trkpt>
<trkpt lat="45.684328000" lon="11.606023000">
  <ele>0.000000</ele>
</trkpt>
<trkpt lat="45.684236000" lon="11.605918000">
  <ele>0.000000</ele>
</trkpt>
</trkseg>
</trk>
<trk>
  <name>I2-4</name>
<trkseg>
<trkpt lat="45.684236000" lon="11.605918000">
  <ele>0.000000</ele>
</trkpt>
<trkpt lat="45.684349000" lon="11.605964000">
  <ele>0.000000</ele>
</trkpt>
<trkpt lat="45.684389000" lon="11.605941000">
  <ele>0.000000</ele>
</trkpt>
<trkpt lat="45.684539000" lon="11.605889000">
  <ele>0.000000</ele>
</trkpt>
</trkseg>
</trk>
<trk>
  <name>I2-4</name>
<trkseg>
<trkpt lat="45.766695000" lon="11.733447000">
  <ele>0.000000</ele>
</trkpt>
<trkpt lat="45.766834000" lon="11.733234000">
  <ele>0.000000</ele>
</trkpt>
<trkpt lat="45.766809000" lon="11.732736000">
  <ele>0.000000</ele>
</trkpt>
<trkpt lat="45.766663000" lon="11.732714000">
  <ele>0.000000</ele>
</trkpt>
<trkpt lat="45.766529000" lon="11.732381000">
  <ele>0.000000</ele>
</trkpt>
<trkpt lat="45.766395000" lon="11.731800000">
  <ele>0.000000</ele>
</trkpt>
<trkpt lat="45.766485000" lon="11.731804000">
  <ele>0.000000</ele>
</trkpt>
<trkpt lat="45.766610000" lon="11.731842000">
  <ele>0.000000</ele>
</trkpt>
<trkpt lat="45.766718000" lon="11.731885000">
  <ele>0.000000</ele>
</trkpt>
<trkpt lat="45.766838000" lon="11.731928000">
  <ele>0.000000</ele>
</trkpt>
<trkpt lat="45.766970000" lon="11.731928000">
  <ele>0.000000</ele>
</trkpt>
<trkpt lat="45.767083000" lon="11.731890000">
  <ele>0.000000</ele>
</trkpt>
<trkpt lat="45.767207000" lon="11.731849000">
  <ele>0.000000</ele>
</trkpt>
<trkpt lat="45.767473000" lon="11.731817000">
  <ele>0.000000</ele>
</trkpt>
<trkpt lat="45.767478000" lon="11.731668000">
  <ele>0.000000</ele>
</trkpt>
<trkpt lat="45.767497000" lon="11.730670000">
  <ele>0.000000</ele>
</trkpt>
<trkpt lat="45.767504000" lon="11.730213000">
  <ele>0.000000</ele>
</trkpt>
<trkpt lat="45.767556000" lon="11.727717000">
  <ele>0.000000</ele>
</trkpt>
<trkpt lat="45.767651000" lon="11.725998000">
  <ele>0.000000</ele>
</trkpt>
<trkpt lat="45.767651000" lon="11.725601000">
  <ele>0.000000</ele>
</trkpt>
<trkpt lat="45.767633000" lon="11.725400000">
  <ele>0.000000</ele>
</trkpt>
<trkpt lat="45.767430000" lon="11.724782000">
  <ele>0.000000</ele>
</trkpt>
<trkpt lat="45.767160000" lon="11.723978000">
  <ele>0.000000</ele>
</trkpt>
<trkpt lat="45.767179000" lon="11.723854000">
  <ele>0.000000</ele>
</trkpt>
<trkpt lat="45.767161000" lon="11.723751000">
  <ele>0.000000</ele>
</trkpt>
<trkpt lat="45.767166000" lon="11.723614000">
  <ele>0.000000</ele>
</trkpt>
<trkpt lat="45.767198000" lon="11.723488000">
  <ele>0.000000</ele>
</trkpt>
<trkpt lat="45.767299000" lon="11.723358000">
  <ele>0.000000</ele>
</trkpt>
<trkpt lat="45.767420000" lon="11.723212000">
  <ele>0.000000</ele>
</trkpt>
<trkpt lat="45.767571000" lon="11.723041000">
  <ele>0.000000</ele>
</trkpt>
<trkpt lat="45.767728000" lon="11.722886000">
  <ele>0.000000</ele>
</trkpt>
<trkpt lat="45.767813000" lon="11.722764000">
  <ele>0.000000</ele>
</trkpt>
<trkpt lat="45.767873000" lon="11.722540000">
  <ele>0.000000</ele>
</trkpt>
<trkpt lat="45.767921000" lon="11.722231000">
  <ele>0.000000</ele>
</trkpt>
<trkpt lat="45.767945000" lon="11.722060000">
  <ele>0.000000</ele>
</trkpt>
<trkpt lat="45.768029000" lon="11.721605000">
  <ele>0.000000</ele>
</trkpt>
<trkpt lat="45.768095000" lon="11.721304000">
  <ele>0.000000</ele>
</trkpt>
<trkpt lat="45.768160000" lon="11.720995000">
  <ele>0.000000</ele>
</trkpt>
<trkpt lat="45.768202000" lon="11.720686000">
  <ele>0.000000</ele>
</trkpt>
<trkpt lat="45.768232000" lon="11.720343000">
  <ele>0.000000</ele>
</trkpt>
<trkpt lat="45.768154000" lon="11.720121000">
  <ele>0.000000</ele>
</trkpt>
<trkpt lat="45.768016000" lon="11.719975000">
  <ele>0.000000</ele>
</trkpt>
<trkpt lat="45.767885000" lon="11.719812000">
  <ele>0.000000</ele>
</trkpt>
<trkpt lat="45.767789000" lon="11.719632000">
  <ele>0.000000</ele>
</trkpt>
<trkpt lat="45.767699000" lon="11.719220000">
  <ele>0.000000</ele>
</trkpt>
<trkpt lat="45.767597000" lon="11.718859000">
  <ele>0.000000</ele>
</trkpt>
<trkpt lat="45.767549000" lon="11.718628000">
  <ele>0.000000</ele>
</trkpt>
<trkpt lat="45.767515000" lon="11.718542000">
  <ele>0.000000</ele>
</trkpt>
<trkpt lat="45.767376000" lon="11.718198000">
  <ele>0.000000</ele>
</trkpt>
<trkpt lat="45.767146000" lon="11.717624000">
  <ele>0.000000</ele>
</trkpt>
<trkpt lat="45.766993000" lon="11.717177000">
  <ele>0.000000</ele>
</trkpt>
<trkpt lat="45.766927000" lon="11.716739000">
  <ele>0.000000</ele>
</trkpt>
<trkpt lat="45.766915000" lon="11.716301000">
  <ele>0.000000</ele>
</trkpt>
<trkpt lat="45.766975000" lon="11.715718000">
  <ele>0.000000</ele>
</trkpt>
<trkpt lat="45.766997000" lon="11.715587000">
  <ele>0.000000</ele>
</trkpt>
<trkpt lat="45.767178000" lon="11.714516000">
  <ele>0.000000</ele>
</trkpt>
<trkpt lat="45.767272000" lon="11.714146000">
  <ele>0.000000</ele>
</trkpt>
<trkpt lat="45.766621000" lon="11.713665000">
  <ele>0.000000</ele>
</trkpt>
<trkpt lat="45.766651000" lon="11.713479000">
  <ele>0.000000</ele>
</trkpt>
<trkpt lat="45.766639000" lon="11.713230000">
  <ele>0.000000</ele>
</trkpt>
<trkpt lat="45.766580000" lon="11.712857000">
  <ele>0.000000</ele>
</trkpt>
<trkpt lat="45.766495000" lon="11.712312000">
  <ele>0.000000</ele>
</trkpt>
<trkpt lat="45.766477000" lon="11.711857000">
  <ele>0.000000</ele>
</trkpt>
<trkpt lat="45.766525000" lon="11.711531000">
  <ele>0.000000</ele>
</trkpt>
<trkpt lat="45.766621000" lon="11.711256000">
  <ele>0.000000</ele>
</trkpt>
<trkpt lat="45.766585000" lon="11.711119000">
  <ele>0.000000</ele>
</trkpt>
<trkpt lat="45.766471000" lon="11.710938000">
  <ele>0.000000</ele>
</trkpt>
<trkpt lat="45.766279000" lon="11.710732000">
  <ele>0.000000</ele>
</trkpt>
<trkpt lat="45.766112000" lon="11.710458000">
  <ele>0.000000</ele>
</trkpt>
<trkpt lat="45.766010000" lon="11.710089000">
  <ele>0.000000</ele>
</trkpt>
<trkpt lat="45.765956000" lon="11.709685000">
  <ele>0.000000</ele>
</trkpt>
<trkpt lat="45.766022000" lon="11.709222000">
  <ele>0.000000</ele>
</trkpt>
<trkpt lat="45.766142000" lon="11.708733000">
  <ele>0.000000</ele>
</trkpt>
<trkpt lat="45.766309000" lon="11.708303000">
  <ele>0.000000</ele>
</trkpt>
<trkpt lat="45.766465000" lon="11.707900000">
  <ele>0.000000</ele>
</trkpt>
<trkpt lat="45.766591000" lon="11.707497000">
  <ele>0.000000</ele>
</trkpt>
<trkpt lat="45.766728000" lon="11.706819000">
  <ele>0.000000</ele>
</trkpt>
<trkpt lat="45.766836000" lon="11.706338000">
  <ele>0.000000</ele>
</trkpt>
<trkpt lat="45.766950000" lon="11.705729000">
  <ele>0.000000</ele>
</trkpt>
<trkpt lat="45.767021000" lon="11.705425000">
  <ele>0.000000</ele>
</trkpt>
<trkpt lat="45.767057000" lon="11.705373000">
  <ele>0.000000</ele>
</trkpt>
<trkpt lat="45.767129000" lon="11.704875000">
  <ele>0.000000</ele>
</trkpt>
<trkpt lat="45.767141000" lon="11.704240000">
  <ele>0.000000</ele>
</trkpt>
<trkpt lat="45.767141000" lon="11.703845000">
  <ele>0.000000</ele>
</trkpt>
<trkpt lat="45.767117000" lon="11.703622000">
  <ele>0.000000</ele>
</trkpt>
<trkpt lat="45.767063000" lon="11.703408000">
  <ele>0.000000</ele>
</trkpt>
<trkpt lat="45.766979000" lon="11.703124000">
  <ele>0.000000</ele>
</trkpt>
<trkpt lat="45.766866000" lon="11.702850000">
  <ele>0.000000</ele>
</trkpt>
<trkpt lat="45.766722000" lon="11.702661000">
  <ele>0.000000</ele>
</trkpt>
<trkpt lat="45.766554000" lon="11.702446000">
  <ele>0.000000</ele>
</trkpt>
<trkpt lat="45.766458000" lon="11.702318000">
  <ele>0.000000</ele>
</trkpt>
<trkpt lat="45.766357000" lon="11.702086000">
  <ele>0.000000</ele>
</trkpt>
<trkpt lat="45.766279000" lon="11.701811000">
  <ele>0.000000</ele>
</trkpt>
<trkpt lat="45.766243000" lon="11.701588000">
  <ele>0.000000</ele>
</trkpt>
<trkpt lat="45.766255000" lon="11.701356000">
  <ele>0.000000</ele>
</trkpt>
<trkpt lat="45.766285000" lon="11.701133000">
  <ele>0.000000</ele>
</trkpt>
<trkpt lat="45.766297000" lon="11.701013000">
  <ele>0.000000</ele>
</trkpt>
<trkpt lat="45.766267000" lon="11.700858000">
  <ele>0.000000</ele>
</trkpt>
<trkpt lat="45.766183000" lon="11.700652000">
  <ele>0.000000</ele>
</trkpt>
<trkpt lat="45.766093000" lon="11.700455000">
  <ele>0.000000</ele>
</trkpt>
<trkpt lat="45.765967000" lon="11.700172000">
  <ele>0.000000</ele>
</trkpt>
<trkpt lat="45.765878000" lon="11.700000000">
  <ele>0.000000</ele>
</trkpt>
<trkpt lat="45.765746000" lon="11.699837000">
  <ele>0.000000</ele>
</trkpt>
<trkpt lat="45.765530000" lon="11.699691000">
  <ele>0.000000</ele>
</trkpt>
<trkpt lat="45.765393000" lon="11.699605000">
  <ele>0.000000</ele>
</trkpt>
<trkpt lat="45.765303000" lon="11.699511000">
  <ele>0.000000</ele>
</trkpt>
<trkpt lat="45.765207000" lon="11.699296000">
  <ele>0.000000</ele>
</trkpt>
<trkpt lat="45.765087000" lon="11.698936000">
  <ele>0.000000</ele>
</trkpt>
<trkpt lat="45.764968000" lon="11.698378000">
  <ele>0.000000</ele>
</trkpt>
<trkpt lat="45.764830000" lon="11.697820000">
  <ele>0.000000</ele>
</trkpt>
<trkpt lat="45.764746000" lon="11.697365000">
  <ele>0.000000</ele>
</trkpt>
<trkpt lat="45.764710000" lon="11.697090000">
  <ele>0.000000</ele>
</trkpt>
<trkpt lat="45.764698000" lon="11.696902000">
  <ele>0.000000</ele>
</trkpt>
<trkpt lat="45.764722000" lon="11.696790000">
  <ele>0.000000</ele>
</trkpt>
<trkpt lat="45.764758000" lon="11.696704000">
  <ele>0.000000</ele>
</trkpt>
<trkpt lat="45.764710000" lon="11.696464000">
  <ele>0.000000</ele>
</trkpt>
<trkpt lat="45.764638000" lon="11.696224000">
  <ele>0.000000</ele>
</trkpt>
<trkpt lat="45.764638000" lon="11.696026000">
  <ele>0.000000</ele>
</trkpt>
<trkpt lat="45.764680000" lon="11.695846000">
  <ele>0.000000</ele>
</trkpt>
<trkpt lat="45.764704000" lon="11.695717000">
  <ele>0.000000</ele>
</trkpt>
<trkpt lat="45.764692000" lon="11.695537000">
  <ele>0.000000</ele>
</trkpt>
<trkpt lat="45.764650000" lon="11.695142000">
  <ele>0.000000</ele>
</trkpt>
<trkpt lat="45.764584000" lon="11.694653000">
  <ele>0.000000</ele>
</trkpt>
<trkpt lat="45.764572000" lon="11.694498000">
  <ele>0.000000</ele>
</trkpt>
<trkpt lat="45.764572000" lon="11.694207000">
  <ele>0.000000</ele>
</trkpt>
<trkpt lat="45.764572000" lon="11.693975000">
  <ele>0.000000</ele>
</trkpt>
<trkpt lat="45.764554000" lon="11.693812000">
  <ele>0.000000</ele>
</trkpt>
<trkpt lat="45.764506000" lon="11.693597000">
  <ele>0.000000</ele>
</trkpt>
<trkpt lat="45.764453000" lon="11.693408000">
  <ele>0.000000</ele>
</trkpt>
<trkpt lat="45.764375000" lon="11.693228000">
  <ele>0.000000</ele>
</trkpt>
<trkpt lat="45.764213000" lon="11.692953000">
  <ele>0.000000</ele>
</trkpt>
<trkpt lat="45.764033000" lon="11.692679000">
  <ele>0.000000</ele>
</trkpt>
<trkpt lat="45.763944000" lon="11.692516000">
  <ele>0.000000</ele>
</trkpt>
<trkpt lat="45.763866000" lon="11.692353000">
  <ele>0.000000</ele>
</trkpt>
<trkpt lat="45.763776000" lon="11.692087000">
  <ele>0.000000</ele>
</trkpt>
<trkpt lat="45.763722000" lon="11.691915000">
  <ele>0.000000</ele>
</trkpt>
<trkpt lat="45.763680000" lon="11.691812000">
  <ele>0.000000</ele>
</trkpt>
<trkpt lat="45.763596000" lon="11.691683000">
  <ele>0.000000</ele>
</trkpt>
<trkpt lat="45.763483000" lon="11.691537000">
  <ele>0.000000</ele>
</trkpt>
<trkpt lat="45.763363000" lon="11.691357000">
  <ele>0.000000</ele>
</trkpt>
<trkpt lat="45.763243000" lon="11.690988000">
  <ele>0.000000</ele>
</trkpt>
<trkpt lat="45.763193000" lon="11.690812000">
  <ele>0.000000</ele>
</trkpt>
<trkpt lat="45.763105000" lon="11.690499000">
  <ele>0.000000</ele>
</trkpt>
<trkpt lat="45.763045000" lon="11.690215000">
  <ele>0.000000</ele>
</trkpt>
<trkpt lat="45.763034000" lon="11.690044000">
  <ele>0.000000</ele>
</trkpt>
<trkpt lat="45.763099000" lon="11.689709000">
  <ele>0.000000</ele>
</trkpt>
<trkpt lat="45.763171000" lon="11.689349000">
  <ele>0.000000</ele>
</trkpt>
<trkpt lat="45.763153000" lon="11.689177000">
  <ele>0.000000</ele>
</trkpt>
<trkpt lat="45.763087000" lon="11.688816000">
  <ele>0.000000</ele>
</trkpt>
<trkpt lat="45.762950000" lon="11.688447000">
  <ele>0.000000</ele>
</trkpt>
<trkpt lat="45.762806000" lon="11.688173000">
  <ele>0.000000</ele>
</trkpt>
<trkpt lat="45.762596000" lon="11.687821000">
  <ele>0.000000</ele>
</trkpt>
<trkpt lat="45.762423000" lon="11.687503000">
  <ele>0.000000</ele>
</trkpt>
<trkpt lat="45.762321000" lon="11.687186000">
  <ele>0.000000</ele>
</trkpt>
<trkpt lat="45.762189000" lon="11.686722000">
  <ele>0.000000</ele>
</trkpt>
<trkpt lat="45.762052000" lon="11.686422000">
  <ele>0.000000</ele>
</trkpt>
<trkpt lat="45.761890000" lon="11.686568000">
  <ele>0.000000</ele>
</trkpt>
<trkpt lat="45.761686000" lon="11.686756000">
  <ele>0.000000</ele>
</trkpt>
<trkpt lat="45.761543000" lon="11.686937000">
  <ele>0.000000</ele>
</trkpt>
<trkpt lat="45.761387000" lon="11.687220000">
  <ele>0.000000</ele>
</trkpt>
<trkpt lat="45.761183000" lon="11.687503000">
  <ele>0.000000</ele>
</trkpt>
<trkpt lat="45.760962000" lon="11.687718000">
  <ele>0.000000</ele>
</trkpt>
<trkpt lat="45.760662000" lon="11.687932000">
  <ele>0.000000</ele>
</trkpt>
<trkpt lat="45.760566000" lon="11.688002000">
  <ele>0.000000</ele>
</trkpt>
<trkpt lat="45.760459000" lon="11.688078000">
  <ele>0.000000</ele>
</trkpt>
<trkpt lat="45.760219000" lon="11.688301000">
  <ele>0.000000</ele>
</trkpt>
<trkpt lat="45.759896000" lon="11.688619000">
  <ele>0.000000</ele>
</trkpt>
<trkpt lat="45.759796000" lon="11.688423000">
  <ele>0.000000</ele>
</trkpt>
<trkpt lat="45.759296000" lon="11.687686000">
  <ele>0.000000</ele>
</trkpt>
<trkpt lat="45.759150000" lon="11.687470000">
  <ele>0.000000</ele>
</trkpt>
<trkpt lat="45.758728000" lon="11.686868000">
  <ele>0.000000</ele>
</trkpt>
<trkpt lat="45.758371000" lon="11.686457000">
  <ele>0.000000</ele>
</trkpt>
<trkpt lat="45.757980000" lon="11.686087000">
  <ele>0.000000</ele>
</trkpt>
<trkpt lat="45.757485000" lon="11.685676000">
  <ele>0.000000</ele>
</trkpt>
<trkpt lat="45.757258000" lon="11.685432000">
  <ele>0.000000</ele>
</trkpt>
<trkpt lat="45.757051000" lon="11.685160000">
  <ele>0.000000</ele>
</trkpt>
<trkpt lat="45.756885000" lon="11.684907000">
  <ele>0.000000</ele>
</trkpt>
<trkpt lat="45.756740000" lon="11.684585000">
  <ele>0.000000</ele>
</trkpt>
<trkpt lat="45.756042000" lon="11.682973000">
  <ele>0.000000</ele>
</trkpt>
<trkpt lat="45.755620000" lon="11.681864000">
  <ele>0.000000</ele>
</trkpt>
<trkpt lat="45.755345000" lon="11.681306000">
  <ele>0.000000</ele>
</trkpt>
<trkpt lat="45.755203000" lon="11.681067000">
  <ele>0.000000</ele>
</trkpt>
<trkpt lat="45.754998000" lon="11.680795000">
  <ele>0.000000</ele>
</trkpt>
<trkpt lat="45.754730000" lon="11.680441000">
  <ele>0.000000</ele>
</trkpt>
<trkpt lat="45.754191000" lon="11.679711000">
  <ele>0.000000</ele>
</trkpt>
<trkpt lat="45.753905000" lon="11.679209000">
  <ele>0.000000</ele>
</trkpt>
<trkpt lat="45.754125000" lon="11.679089000">
  <ele>0.000000</ele>
</trkpt>
<trkpt lat="45.754478000" lon="11.678866000">
  <ele>0.000000</ele>
</trkpt>
<trkpt lat="45.754919000" lon="11.678716000">
  <ele>0.000000</ele>
</trkpt>
<trkpt lat="45.755181000" lon="11.678469000">
  <ele>0.000000</ele>
</trkpt>
<trkpt lat="45.755815000" lon="11.678180000">
  <ele>0.000000</ele>
</trkpt>
<trkpt lat="45.756140000" lon="11.678029000">
  <ele>0.000000</ele>
</trkpt>
<trkpt lat="45.756102000" lon="11.677814000">
  <ele>0.000000</ele>
</trkpt>
<trkpt lat="45.755748000" lon="11.676749000">
  <ele>0.000000</ele>
</trkpt>
<trkpt lat="45.755449000" lon="11.675891000">
  <ele>0.000000</ele>
</trkpt>
<trkpt lat="45.755155000" lon="11.674947000">
  <ele>0.000000</ele>
</trkpt>
<trkpt lat="45.754892000" lon="11.674226000">
  <ele>0.000000</ele>
</trkpt>
<trkpt lat="45.754604000" lon="11.673711000">
  <ele>0.000000</ele>
</trkpt>
<trkpt lat="45.754592000" lon="11.673196000">
  <ele>0.000000</ele>
</trkpt>
<trkpt lat="45.754537000" lon="11.672857000">
  <ele>0.000000</ele>
</trkpt>
<trkpt lat="45.754509000" lon="11.672681000">
  <ele>0.000000</ele>
</trkpt>
<trkpt lat="45.754473000" lon="11.672321000">
  <ele>0.000000</ele>
</trkpt>
<trkpt lat="45.754497000" lon="11.671891000">
  <ele>0.000000</ele>
</trkpt>
<trkpt lat="45.754491000" lon="11.671436000">
  <ele>0.000000</ele>
</trkpt>
<trkpt lat="45.754401000" lon="11.671007000">
  <ele>0.000000</ele>
</trkpt>
<trkpt lat="45.754095000" lon="11.670235000">
  <ele>0.000000</ele>
</trkpt>
<trkpt lat="45.753796000" lon="11.669789000">
  <ele>0.000000</ele>
</trkpt>
<trkpt lat="45.753299000" lon="11.668879000">
  <ele>0.000000</ele>
</trkpt>
<trkpt lat="45.752948000" lon="11.667518000">
  <ele>0.000000</ele>
</trkpt>
<trkpt lat="45.752742000" lon="11.666647000">
  <ele>0.000000</ele>
</trkpt>
<trkpt lat="45.752633000" lon="11.666060000">
  <ele>0.000000</ele>
</trkpt>
<trkpt lat="45.752502000" lon="11.665763000">
  <ele>0.000000</ele>
</trkpt>
<trkpt lat="45.752359000" lon="11.665265000">
  <ele>0.000000</ele>
</trkpt>
<trkpt lat="45.752318000" lon="11.664791000">
  <ele>0.000000</ele>
</trkpt>
<trkpt lat="45.752221000" lon="11.664263000">
  <ele>0.000000</ele>
</trkpt>
<trkpt lat="45.751965000" lon="11.663688000">
  <ele>0.000000</ele>
</trkpt>
<trkpt lat="45.751912000" lon="11.663384000">
  <ele>0.000000</ele>
</trkpt>
<trkpt lat="45.751902000" lon="11.663330000">
  <ele>0.000000</ele>
</trkpt>
<trkpt lat="45.751865000" lon="11.663137000">
  <ele>0.000000</ele>
</trkpt>
<trkpt lat="45.751808000" lon="11.662768000">
  <ele>0.000000</ele>
</trkpt>
<trkpt lat="45.751568000" lon="11.661686000">
  <ele>0.000000</ele>
</trkpt>
<trkpt lat="45.751446000" lon="11.661302000">
  <ele>0.000000</ele>
</trkpt>
<trkpt lat="45.751332000" lon="11.661393000">
  <ele>0.000000</ele>
</trkpt>
<trkpt lat="45.751249000" lon="11.661433000">
  <ele>0.000000</ele>
</trkpt>
<trkpt lat="45.750920000" lon="11.661485000">
  <ele>0.000000</ele>
</trkpt>
<trkpt lat="45.749844000" lon="11.661652000">
  <ele>0.000000</ele>
</trkpt>
<trkpt lat="45.749751000" lon="11.661677000">
  <ele>0.000000</ele>
</trkpt>
<trkpt lat="45.749088000" lon="11.661776000">
  <ele>0.000000</ele>
</trkpt>
<trkpt lat="45.748155000" lon="11.661962000">
  <ele>0.000000</ele>
</trkpt>
<trkpt lat="45.747854000" lon="11.662026000">
  <ele>0.000000</ele>
</trkpt>
<trkpt lat="45.747629000" lon="11.662128000">
  <ele>0.000000</ele>
</trkpt>
<trkpt lat="45.747569000" lon="11.662154000">
  <ele>0.000000</ele>
</trkpt>
<trkpt lat="45.747508000" lon="11.662143000">
  <ele>0.000000</ele>
</trkpt>
<trkpt lat="45.747463000" lon="11.662087000">
  <ele>0.000000</ele>
</trkpt>
<trkpt lat="45.747435000" lon="11.662034000">
  <ele>0.000000</ele>
</trkpt>
<trkpt lat="45.747533000" lon="11.661957000">
  <ele>0.000000</ele>
</trkpt>
<trkpt lat="45.747537000" lon="11.661660000">
  <ele>0.000000</ele>
</trkpt>
<trkpt lat="45.747340000" lon="11.657583000">
  <ele>0.000000</ele>
</trkpt>
<trkpt lat="45.747393000" lon="11.657541000">
  <ele>0.000000</ele>
</trkpt>
<trkpt lat="45.747221000" lon="11.657185000">
  <ele>0.000000</ele>
</trkpt>
<trkpt lat="45.747143000" lon="11.657024000">
  <ele>0.000000</ele>
</trkpt>
<trkpt lat="45.747102000" lon="11.656919000">
  <ele>0.000000</ele>
</trkpt>
<trkpt lat="45.746837000" lon="11.656428000">
  <ele>0.000000</ele>
</trkpt>
<trkpt lat="45.746402000" lon="11.655786000">
  <ele>0.000000</ele>
</trkpt>
<trkpt lat="45.746372000" lon="11.655716000">
  <ele>0.000000</ele>
</trkpt>
<trkpt lat="45.746161000" lon="11.655255000">
  <ele>0.000000</ele>
</trkpt>
<trkpt lat="45.745970000" lon="11.654864000">
  <ele>0.000000</ele>
</trkpt>
<trkpt lat="45.745570000" lon="11.654001000">
  <ele>0.000000</ele>
</trkpt>
<trkpt lat="45.745153000" lon="11.653163000">
  <ele>0.000000</ele>
</trkpt>
<trkpt lat="45.745130000" lon="11.653046000">
  <ele>0.000000</ele>
</trkpt>
<trkpt lat="45.745072000" lon="11.652746000">
  <ele>0.000000</ele>
</trkpt>
<trkpt lat="45.745050000" lon="11.652633000">
  <ele>0.000000</ele>
</trkpt>
<trkpt lat="45.744876000" lon="11.651685000">
  <ele>0.000000</ele>
</trkpt>
<trkpt lat="45.744647000" lon="11.650690000">
  <ele>0.000000</ele>
</trkpt>
<trkpt lat="45.744439000" lon="11.650266000">
  <ele>0.000000</ele>
</trkpt>
<trkpt lat="45.744182000" lon="11.649683000">
  <ele>0.000000</ele>
</trkpt>
<trkpt lat="45.743375000" lon="11.648081000">
  <ele>0.000000</ele>
</trkpt>
<trkpt lat="45.743229000" lon="11.647746000">
  <ele>0.000000</ele>
</trkpt>
<trkpt lat="45.743093000" lon="11.647522000">
  <ele>0.000000</ele>
</trkpt>
<trkpt lat="45.742574000" lon="11.646786000">
  <ele>0.000000</ele>
</trkpt>
<trkpt lat="45.742135000" lon="11.646180000">
  <ele>0.000000</ele>
</trkpt>
<trkpt lat="45.742084000" lon="11.646112000">
  <ele>0.000000</ele>
</trkpt>
<trkpt lat="45.741668000" lon="11.645502000">
  <ele>0.000000</ele>
</trkpt>
<trkpt lat="45.741447000" lon="11.645178000">
  <ele>0.000000</ele>
</trkpt>
<trkpt lat="45.740836000" lon="11.644341000">
  <ele>0.000000</ele>
</trkpt>
<trkpt lat="45.740740000" lon="11.644132000">
  <ele>0.000000</ele>
</trkpt>
<trkpt lat="45.740593000" lon="11.643924000">
  <ele>0.000000</ele>
</trkpt>
<trkpt lat="45.739674000" lon="11.642578000">
  <ele>0.000000</ele>
</trkpt>
<trkpt lat="45.739317000" lon="11.642065000">
  <ele>0.000000</ele>
</trkpt>
<trkpt lat="45.738099000" lon="11.640246000">
  <ele>0.000000</ele>
</trkpt>
<trkpt lat="45.737927000" lon="11.639993000">
  <ele>0.000000</ele>
</trkpt>
<trkpt lat="45.736226000" lon="11.637530000">
  <ele>0.000000</ele>
</trkpt>
<trkpt lat="45.735015000" lon="11.635796000">
  <ele>0.000000</ele>
</trkpt>
<trkpt lat="45.734683000" lon="11.635322000">
  <ele>0.000000</ele>
</trkpt>
<trkpt lat="45.734619000" lon="11.635231000">
  <ele>0.000000</ele>
</trkpt>
<trkpt lat="45.733699000" lon="11.633894000">
  <ele>0.000000</ele>
</trkpt>
<trkpt lat="45.733488000" lon="11.633616000">
  <ele>0.000000</ele>
</trkpt>
<trkpt lat="45.731493000" lon="11.630723000">
  <ele>0.000000</ele>
</trkpt>
<trkpt lat="45.730726000" lon="11.629573000">
  <ele>0.000000</ele>
</trkpt>
<trkpt lat="45.730592000" lon="11.629325000">
  <ele>0.000000</ele>
</trkpt>
<trkpt lat="45.730436000" lon="11.629356000">
  <ele>0.000000</ele>
</trkpt>
<trkpt lat="45.730099000" lon="11.629635000">
  <ele>0.000000</ele>
</trkpt>
<trkpt lat="45.729612000" lon="11.630140000">
  <ele>0.000000</ele>
</trkpt>
<trkpt lat="45.729131000" lon="11.630606000">
  <ele>0.000000</ele>
</trkpt>
<trkpt lat="45.728706000" lon="11.630891000">
  <ele>0.000000</ele>
</trkpt>
<trkpt lat="45.728330000" lon="11.631067000">
  <ele>0.000000</ele>
</trkpt>
<trkpt lat="45.728015000" lon="11.631003000">
  <ele>0.000000</ele>
</trkpt>
<trkpt lat="45.727515000" lon="11.630966000">
  <ele>0.000000</ele>
</trkpt>
<trkpt lat="45.727094000" lon="11.631024000">
  <ele>0.000000</ele>
</trkpt>
<trkpt lat="45.726735000" lon="11.631056000">
  <ele>0.000000</ele>
</trkpt>
<trkpt lat="45.726017000" lon="11.631137000">
  <ele>0.000000</ele>
</trkpt>
<trkpt lat="45.725343000" lon="11.631320000">
  <ele>0.000000</ele>
</trkpt>
<trkpt lat="45.725208000" lon="11.631373000">
  <ele>0.000000</ele>
</trkpt>
<trkpt lat="45.724757000" lon="11.631507000">
  <ele>0.000000</ele>
</trkpt>
<trkpt lat="45.724121000" lon="11.631582000">
  <ele>0.000000</ele>
</trkpt>
<trkpt lat="45.723177000" lon="11.631561000">
  <ele>0.000000</ele>
</trkpt>
<trkpt lat="45.722226000" lon="11.631593000">
  <ele>0.000000</ele>
</trkpt>
<trkpt lat="45.721499000" lon="11.631539000">
  <ele>0.000000</ele>
</trkpt>
<trkpt lat="45.720668000" lon="11.631539000">
  <ele>0.000000</ele>
</trkpt>
<trkpt lat="45.719814000" lon="11.631486000">
  <ele>0.000000</ele>
</trkpt>
<trkpt lat="45.719095000" lon="11.631282000">
  <ele>0.000000</ele>
</trkpt>
<trkpt lat="45.718645000" lon="11.631024000">
  <ele>0.000000</ele>
</trkpt>
<trkpt lat="45.718387000" lon="11.630840000">
  <ele>0.000000</ele>
</trkpt>
<trkpt lat="45.718338000" lon="11.630750000">
  <ele>0.000000</ele>
</trkpt>
<trkpt lat="45.717792000" lon="11.630253000">
  <ele>0.000000</ele>
</trkpt>
<trkpt lat="45.717480000" lon="11.630052000">
  <ele>0.000000</ele>
</trkpt>
<trkpt lat="45.717270000" lon="11.630037000">
  <ele>0.000000</ele>
</trkpt>
<trkpt lat="45.716673000" lon="11.630153000">
  <ele>0.000000</ele>
</trkpt>
<trkpt lat="45.716078000" lon="11.630133000">
  <ele>0.000000</ele>
</trkpt>
<trkpt lat="45.715812000" lon="11.630047000">
  <ele>0.000000</ele>
</trkpt>
<trkpt lat="45.715652000" lon="11.629995000">
  <ele>0.000000</ele>
</trkpt>
<trkpt lat="45.714317000" lon="11.629721000">
  <ele>0.000000</ele>
</trkpt>
<trkpt lat="45.713252000" lon="11.629490000">
  <ele>0.000000</ele>
</trkpt>
<trkpt lat="45.712197000" lon="11.629228000">
  <ele>0.000000</ele>
</trkpt>
<trkpt lat="45.711716000" lon="11.629125000">
  <ele>0.000000</ele>
</trkpt>
<trkpt lat="45.711424000" lon="11.628964000">
  <ele>0.000000</ele>
</trkpt>
<trkpt lat="45.711006000" lon="11.628820000">
  <ele>0.000000</ele>
</trkpt>
<trkpt lat="45.710635000" lon="11.628765000">
  <ele>0.000000</ele>
</trkpt>
<trkpt lat="45.710575000" lon="11.628518000">
  <ele>0.000000</ele>
</trkpt>
<trkpt lat="45.710117000" lon="11.628242000">
  <ele>0.000000</ele>
</trkpt>
<trkpt lat="45.709043000" lon="11.627948000">
  <ele>0.000000</ele>
</trkpt>
<trkpt lat="45.708893000" lon="11.627810000">
  <ele>0.000000</ele>
</trkpt>
<trkpt lat="45.708687000" lon="11.627397000">
  <ele>0.000000</ele>
</trkpt>
<trkpt lat="45.708508000" lon="11.627275000">
  <ele>0.000000</ele>
</trkpt>
<trkpt lat="45.706433000" lon="11.626665000">
  <ele>0.000000</ele>
</trkpt>
<trkpt lat="45.705746000" lon="11.626544000">
  <ele>0.000000</ele>
</trkpt>
<trkpt lat="45.705800000" lon="11.626408000">
  <ele>0.000000</ele>
</trkpt>
<trkpt lat="45.706063000" lon="11.625243000">
  <ele>0.000000</ele>
</trkpt>
<trkpt lat="45.706038000" lon="11.625148000">
  <ele>0.000000</ele>
</trkpt>
<trkpt lat="45.704835000" lon="11.624733000">
  <ele>0.000000</ele>
</trkpt>
<trkpt lat="45.704734000" lon="11.624700000">
  <ele>0.000000</ele>
</trkpt>
<trkpt lat="45.704902000" lon="11.624198000">
  <ele>0.000000</ele>
</trkpt>
<trkpt lat="45.705090000" lon="11.623668000">
  <ele>0.000000</ele>
</trkpt>
<trkpt lat="45.705290000" lon="11.622640000">
  <ele>0.000000</ele>
</trkpt>
<trkpt lat="45.705403000" lon="11.622272000">
  <ele>0.000000</ele>
</trkpt>
<trkpt lat="45.705550000" lon="11.621932000">
  <ele>0.000000</ele>
</trkpt>
<trkpt lat="45.705888000" lon="11.621357000">
  <ele>0.000000</ele>
</trkpt>
<trkpt lat="45.706012000" lon="11.621037000">
  <ele>0.000000</ele>
</trkpt>
<trkpt lat="45.706227000" lon="11.620012000">
  <ele>0.000000</ele>
</trkpt>
<trkpt lat="45.706801000" lon="11.617998000">
  <ele>0.000000</ele>
</trkpt>
<trkpt lat="45.706887000" lon="11.617751000">
  <ele>0.000000</ele>
</trkpt>
<trkpt lat="45.706580000" lon="11.617815000">
  <ele>0.000000</ele>
</trkpt>
<trkpt lat="45.706269000" lon="11.617842000">
  <ele>0.000000</ele>
</trkpt>
<trkpt lat="45.705918000" lon="11.617862000">
  <ele>0.000000</ele>
</trkpt>
<trkpt lat="45.701941000" lon="11.619016000">
  <ele>0.000000</ele>
</trkpt>
<trkpt lat="45.701617000" lon="11.619205000">
  <ele>0.000000</ele>
</trkpt>
<trkpt lat="45.701347000" lon="11.619489000">
  <ele>0.000000</ele>
</trkpt>
<trkpt lat="45.701029000" lon="11.619703000">
  <ele>0.000000</ele>
</trkpt>
<trkpt lat="45.700454000" lon="11.619952000">
  <ele>0.000000</ele>
</trkpt>
<trkpt lat="45.699968000" lon="11.620098000">
  <ele>0.000000</ele>
</trkpt>
<trkpt lat="45.699477000" lon="11.620115000">
  <ele>0.000000</ele>
</trkpt>
<trkpt lat="45.699219000" lon="11.620167000">
  <ele>0.000000</ele>
</trkpt>
<trkpt lat="45.699084000" lon="11.620223000">
  <ele>0.000000</ele>
</trkpt>
<trkpt lat="45.698045000" lon="11.620255000">
  <ele>0.000000</ele>
</trkpt>
<trkpt lat="45.696714000" lon="11.620298000">
  <ele>0.000000</ele>
</trkpt>
<trkpt lat="45.696318000" lon="11.620332000">
  <ele>0.000000</ele>
</trkpt>
<trkpt lat="45.696312000" lon="11.619277000">
  <ele>0.000000</ele>
</trkpt>
<trkpt lat="45.696378000" lon="11.617680000">
  <ele>0.000000</ele>
</trkpt>
<trkpt lat="45.696462000" lon="11.616805000">
  <ele>0.000000</ele>
</trkpt>
<trkpt lat="45.696378000" lon="11.616736000">
  <ele>0.000000</ele>
</trkpt>
<trkpt lat="45.695892000" lon="11.616410000">
  <ele>0.000000</ele>
</trkpt>
<trkpt lat="45.695662000" lon="11.616327000">
  <ele>0.000000</ele>
</trkpt>
<trkpt lat="45.695546000" lon="11.616299000">
  <ele>0.000000</ele>
</trkpt>
<trkpt lat="45.695454000" lon="11.616306000">
  <ele>0.000000</ele>
</trkpt>
<trkpt lat="45.695147000" lon="11.616395000">
  <ele>0.000000</ele>
</trkpt>
<trkpt lat="45.694469000" lon="11.616420000">
  <ele>0.000000</ele>
</trkpt>
<trkpt lat="45.693938000" lon="11.616297000">
  <ele>0.000000</ele>
</trkpt>
<trkpt lat="45.693848000" lon="11.616155000">
  <ele>0.000000</ele>
</trkpt>
<trkpt lat="45.694394000" lon="11.612127000">
  <ele>0.000000</ele>
</trkpt>
<trkpt lat="45.694484000" lon="11.611414000">
  <ele>0.000000</ele>
</trkpt>
<trkpt lat="45.694520000" lon="11.610839000">
  <ele>0.000000</ele>
</trkpt>
<trkpt lat="45.694568000" lon="11.610007000">
  <ele>0.000000</ele>
</trkpt>
<trkpt lat="45.694646000" lon="11.609286000">
  <ele>0.000000</ele>
</trkpt>
<trkpt lat="45.694765000" lon="11.608282000">
  <ele>0.000000</ele>
</trkpt>
<trkpt lat="45.694795000" lon="11.607887000">
  <ele>0.000000</ele>
</trkpt>
<trkpt lat="45.694795000" lon="11.607578000">
  <ele>0.000000</ele>
</trkpt>
<trkpt lat="45.694753000" lon="11.607209000">
  <ele>0.000000</ele>
</trkpt>
<trkpt lat="45.694723000" lon="11.607073000">
  <ele>0.000000</ele>
</trkpt>
<trkpt lat="45.694664000" lon="11.606805000">
  <ele>0.000000</ele>
</trkpt>
<trkpt lat="45.694544000" lon="11.606333000">
  <ele>0.000000</ele>
</trkpt>
<trkpt lat="45.694478000" lon="11.605878000">
  <ele>0.000000</ele>
</trkpt>
<trkpt lat="45.694454000" lon="11.605484000">
  <ele>0.000000</ele>
</trkpt>
<trkpt lat="45.694449000" lon="11.605075000">
  <ele>0.000000</ele>
</trkpt>
<trkpt lat="45.694416000" lon="11.605129000">
  <ele>0.000000</ele>
</trkpt>
<trkpt lat="45.694332000" lon="11.605162000">
  <ele>0.000000</ele>
</trkpt>
<trkpt lat="45.694197000" lon="11.605191000">
  <ele>0.000000</ele>
</trkpt>
<trkpt lat="45.692221000" lon="11.605470000">
  <ele>0.000000</ele>
</trkpt>
<trkpt lat="45.690740000" lon="11.605611000">
  <ele>0.000000</ele>
</trkpt>
<trkpt lat="45.690496000" lon="11.605634000">
  <ele>0.000000</ele>
</trkpt>
<trkpt lat="45.688503000" lon="11.605781000">
  <ele>0.000000</ele>
</trkpt>
<trkpt lat="45.688217000" lon="11.605762000">
  <ele>0.000000</ele>
</trkpt>
<trkpt lat="45.687207000" lon="11.605697000">
  <ele>0.000000</ele>
</trkpt>
<trkpt lat="45.686810000" lon="11.605655000">
  <ele>0.000000</ele>
</trkpt>
<trkpt lat="45.686681000" lon="11.605610000">
  <ele>0.000000</ele>
</trkpt>
<trkpt lat="45.686471000" lon="11.605331000">
  <ele>0.000000</ele>
</trkpt>
<trkpt lat="45.686280000" lon="11.605326000">
  <ele>0.000000</ele>
</trkpt>
<trkpt lat="45.686160000" lon="11.605334000">
  <ele>0.000000</ele>
</trkpt>
<trkpt lat="45.685915000" lon="11.605420000">
  <ele>0.000000</ele>
</trkpt>
<trkpt lat="45.685507000" lon="11.605566000">
  <ele>0.000000</ele>
</trkpt>
<trkpt lat="45.685126000" lon="11.605705000">
  <ele>0.000000</ele>
</trkpt>
<trkpt lat="45.684876000" lon="11.605796000">
  <ele>0.000000</ele>
</trkpt>
<trkpt lat="45.684577000" lon="11.605875000">
  <ele>0.000000</ele>
</trkpt>
<trkpt lat="45.684539000" lon="11.605889000">
  <ele>0.000000</ele>
</trkpt>
</trkseg>
</trk>
<trk>
  <name>I2-4</name>
<trkseg>
<trkpt lat="45.766710000" lon="11.734863000">
  <ele>0.000000</ele>
</trkpt>
<trkpt lat="45.766677000" lon="11.734584000">
  <ele>0.000000</ele>
</trkpt>
<trkpt lat="45.766652000" lon="11.734405000">
  <ele>0.000000</ele>
</trkpt>
<trkpt lat="45.766671000" lon="11.734396000">
  <ele>0.000000</ele>
</trkpt>
</trkseg>
</trk>
<trk>
  <name>I2-4</name>
<trkseg>
<trkpt lat="45.766695000" lon="11.733447000">
  <ele>0.000000</ele>
</trkpt>
<trkpt lat="45.766892000" lon="11.734307000">
  <ele>0.000000</ele>
</trkpt>
<trkpt lat="45.766836000" lon="11.734329000">
  <ele>0.000000</ele>
</trkpt>
<trkpt lat="45.766671000" lon="11.734396000">
  <ele>0.000000</ele>
</trkpt>
</trkseg>
</trk>
<trk>
  <name>I2-4</name>
<trkseg>
<trkpt lat="45.766671000" lon="11.734396000">
  <ele>0.000000</ele>
</trkpt>
<trkpt lat="45.766646000" lon="11.734271000">
  <ele>0.000000</ele>
</trkpt>
<trkpt lat="45.766495000" lon="11.733522000">
  <ele>0.000000</ele>
</trkpt>
<trkpt lat="45.766695000" lon="11.733447000">
  <ele>0.000000</ele>
</trkpt>
</trkseg>
</trk>
<trk>
  <name>I2-4</name>
<trkseg>
<trkpt lat="45.767039000" lon="11.735850000">
  <ele>0.000000</ele>
</trkpt>
<trkpt lat="45.766968000" lon="11.735458000">
  <ele>0.000000</ele>
</trkpt>
<trkpt lat="45.766995000" lon="11.735453000">
  <ele>0.000000</ele>
</trkpt>
<trkpt lat="45.766907000" lon="11.734828000">
  <ele>0.000000</ele>
</trkpt>
<trkpt lat="45.766710000" lon="11.734863000">
  <ele>0.000000</ele>
</trkpt>
</trkseg>
</trk>
<trk>
  <name>I2-4</name>
<trkseg>
<trkpt lat="45.766710000" lon="11.734863000">
  <ele>0.000000</ele>
</trkpt>
<trkpt lat="45.766894000" lon="11.735893000">
  <ele>0.000000</ele>
</trkpt>
<trkpt lat="45.767039000" lon="11.735850000">
  <ele>0.000000</ele>
</trkpt>
</trkseg>
</trk>
<trk>
  <name>I2-4</name>
<trkseg>
<trkpt lat="45.767904000" lon="11.740863000">
  <ele>0.000000</ele>
</trkpt>
<trkpt lat="45.767875000" lon="11.740824000">
  <ele>0.000000</ele>
</trkpt>
<trkpt lat="45.767562000" lon="11.738726000">
  <ele>0.000000</ele>
</trkpt>
<trkpt lat="45.767494000" lon="11.738226000">
  <ele>0.000000</ele>
</trkpt>
<trkpt lat="45.767480000" lon="11.738157000">
  <ele>0.000000</ele>
</trkpt>
<trkpt lat="45.767469000" lon="11.738094000">
  <ele>0.000000</ele>
</trkpt>
<trkpt lat="45.767425000" lon="11.737787000">
  <ele>0.000000</ele>
</trkpt>
<trkpt lat="45.767359000" lon="11.737320000">
  <ele>0.000000</ele>
</trkpt>
<trkpt lat="45.767324000" lon="11.736928000">
  <ele>0.000000</ele>
</trkpt>
<trkpt lat="45.767300000" lon="11.736670000">
  <ele>0.000000</ele>
</trkpt>
<trkpt lat="45.767141000" lon="11.735886000">
  <ele>0.000000</ele>
</trkpt>
<trkpt lat="45.767039000" lon="11.735850000">
  <ele>0.000000</ele>
</trkpt>
</trkseg>
</trk>
</gpx>
