<?xml version="1.0" encoding="UTF-8"?>
<gpx
  version="1.1"
  creator="GPSBabel - http://www.gpsbabel.org"
  xmlns:xsi="http://www.w3.org/2001/XMLSchema-instance"
  xmlns="http://www.topografix.com/GPX/1/1"
  xsi:schemaLocation="http://www.topografix.com/GPX/1/1 http://www.topografix.com/GPX/1/1/gpx.xsd">
<metadata>
<time>2011-09-15T15:27:49Z</time>
<bounds minlat="45.454503000" minlon="12.455744000" maxlat="45.628606000" maxlon="12.907468000"/>
</metadata>
<trk>
  <name>I3-4</name>
<trkseg>
<trkpt lat="45.454573000" lon="12.461972000">
  <ele>0.000000</ele>
</trkpt>
<trkpt lat="45.454503000" lon="12.462002000">
  <ele>0.000000</ele>
</trkpt>
</trkseg>
</trk>
<trk>
  <name>I3-4</name>
<trkseg>
<trkpt lat="45.458023000" lon="12.460891000">
  <ele>0.000000</ele>
</trkpt>
<trkpt lat="45.458023000" lon="12.460974000">
  <ele>0.000000</ele>
</trkpt>
<trkpt lat="45.457903000" lon="12.460926000">
  <ele>0.000000</ele>
</trkpt>
<trkpt lat="45.456292000" lon="12.461261000">
  <ele>0.000000</ele>
</trkpt>
<trkpt lat="45.456198000" lon="12.461368000">
  <ele>0.000000</ele>
</trkpt>
<trkpt lat="45.456088000" lon="12.461312000">
  <ele>0.000000</ele>
</trkpt>
<trkpt lat="45.454573000" lon="12.461972000">
  <ele>0.000000</ele>
</trkpt>
</trkseg>
</trk>
<trk>
  <name>I3-4</name>
<trkseg>
<trkpt lat="45.474391000" lon="12.548473000">
  <ele>0.000000</ele>
</trkpt>
<trkpt lat="45.473403000" lon="12.548261000">
  <ele>0.000000</ele>
</trkpt>
<trkpt lat="45.473604000" lon="12.546774000">
  <ele>0.000000</ele>
</trkpt>
<trkpt lat="45.473274000" lon="12.545031000">
  <ele>0.000000</ele>
</trkpt>
<trkpt lat="45.473047000" lon="12.544141000">
  <ele>0.000000</ele>
</trkpt>
<trkpt lat="45.472470000" lon="12.543601000">
  <ele>0.000000</ele>
</trkpt>
<trkpt lat="45.472119000" lon="12.543180000">
  <ele>0.000000</ele>
</trkpt>
<trkpt lat="45.471808000" lon="12.543171000">
  <ele>0.000000</ele>
</trkpt>
<trkpt lat="45.471705000" lon="12.543212000">
  <ele>0.000000</ele>
</trkpt>
<trkpt lat="45.470725000" lon="12.543601000">
  <ele>0.000000</ele>
</trkpt>
<trkpt lat="45.470678000" lon="12.543342000">
  <ele>0.000000</ele>
</trkpt>
<trkpt lat="45.470267000" lon="12.541180000">
  <ele>0.000000</ele>
</trkpt>
<trkpt lat="45.470337000" lon="12.541204000">
  <ele>0.000000</ele>
</trkpt>
<trkpt lat="45.469867000" lon="12.538759000">
  <ele>0.000000</ele>
</trkpt>
<trkpt lat="45.469370000" lon="12.536261000">
  <ele>0.000000</ele>
</trkpt>
<trkpt lat="45.468716000" lon="12.532976000">
  <ele>0.000000</ele>
</trkpt>
<trkpt lat="45.468485000" lon="12.531772000">
  <ele>0.000000</ele>
</trkpt>
<trkpt lat="45.468283000" lon="12.530723000">
  <ele>0.000000</ele>
</trkpt>
<trkpt lat="45.468016000" lon="12.529339000">
  <ele>0.000000</ele>
</trkpt>
<trkpt lat="45.467159000" lon="12.525126000">
  <ele>0.000000</ele>
</trkpt>
<trkpt lat="45.467084000" lon="12.524774000">
  <ele>0.000000</ele>
</trkpt>
<trkpt lat="45.466783000" lon="12.523272000">
  <ele>0.000000</ele>
</trkpt>
<trkpt lat="45.466437000" lon="12.521573000">
  <ele>0.000000</ele>
</trkpt>
<trkpt lat="45.466007000" lon="12.519275000">
  <ele>0.000000</ele>
</trkpt>
<trkpt lat="45.465835000" lon="12.518412000">
  <ele>0.000000</ele>
</trkpt>
<trkpt lat="45.465457000" lon="12.516631000">
  <ele>0.000000</ele>
</trkpt>
<trkpt lat="45.465229000" lon="12.515522000">
  <ele>0.000000</ele>
</trkpt>
<trkpt lat="45.465113000" lon="12.514892000">
  <ele>0.000000</ele>
</trkpt>
<trkpt lat="45.464793000" lon="12.513309000">
  <ele>0.000000</ele>
</trkpt>
<trkpt lat="45.464194000" lon="12.510209000">
  <ele>0.000000</ele>
</trkpt>
<trkpt lat="45.463212000" lon="12.505353000">
  <ele>0.000000</ele>
</trkpt>
<trkpt lat="45.462501000" lon="12.501862000">
  <ele>0.000000</ele>
</trkpt>
<trkpt lat="45.461964000" lon="12.499182000">
  <ele>0.000000</ele>
</trkpt>
<trkpt lat="45.461320000" lon="12.495806000">
  <ele>0.000000</ele>
</trkpt>
<trkpt lat="45.461032000" lon="12.494470000">
  <ele>0.000000</ele>
</trkpt>
<trkpt lat="45.460048000" lon="12.489390000">
  <ele>0.000000</ele>
</trkpt>
<trkpt lat="45.459815000" lon="12.488219000">
  <ele>0.000000</ele>
</trkpt>
<trkpt lat="45.459084000" lon="12.484514000">
  <ele>0.000000</ele>
</trkpt>
<trkpt lat="45.458410000" lon="12.481094000">
  <ele>0.000000</ele>
</trkpt>
<trkpt lat="45.458041000" lon="12.479280000">
  <ele>0.000000</ele>
</trkpt>
<trkpt lat="45.457263000" lon="12.475360000">
  <ele>0.000000</ele>
</trkpt>
<trkpt lat="45.457144000" lon="12.474756000">
  <ele>0.000000</ele>
</trkpt>
<trkpt lat="45.456790000" lon="12.473132000">
  <ele>0.000000</ele>
</trkpt>
<trkpt lat="45.456316000" lon="12.470702000">
  <ele>0.000000</ele>
</trkpt>
<trkpt lat="45.455985000" lon="12.468952000">
  <ele>0.000000</ele>
</trkpt>
<trkpt lat="45.455401000" lon="12.466135000">
  <ele>0.000000</ele>
</trkpt>
<trkpt lat="45.454972000" lon="12.464070000">
  <ele>0.000000</ele>
</trkpt>
<trkpt lat="45.454860000" lon="12.463525000">
  <ele>0.000000</ele>
</trkpt>
<trkpt lat="45.454573000" lon="12.461972000">
  <ele>0.000000</ele>
</trkpt>
</trkseg>
</trk>
<trk>
  <name>I3-4</name>
<trkseg>
<trkpt lat="45.457961000" lon="12.460570000">
  <ele>0.000000</ele>
</trkpt>
<trkpt lat="45.457968000" lon="12.460412000">
  <ele>0.000000</ele>
</trkpt>
<trkpt lat="45.457606000" lon="12.459384000">
  <ele>0.000000</ele>
</trkpt>
<trkpt lat="45.457229000" lon="12.457289000">
  <ele>0.000000</ele>
</trkpt>
<trkpt lat="45.457120000" lon="12.456268000">
  <ele>0.000000</ele>
</trkpt>
<trkpt lat="45.457101000" lon="12.456096000">
  <ele>0.000000</ele>
</trkpt>
</trkseg>
</trk>
<trk>
  <name>I3-4</name>
<trkseg>
<trkpt lat="45.490095000" lon="12.489951000">
  <ele>0.000000</ele>
</trkpt>
<trkpt lat="45.489908000" lon="12.488599000">
  <ele>0.000000</ele>
</trkpt>
<trkpt lat="45.489981000" lon="12.488338000">
  <ele>0.000000</ele>
</trkpt>
<trkpt lat="45.490162000" lon="12.488094000">
  <ele>0.000000</ele>
</trkpt>
<trkpt lat="45.490331000" lon="12.487927000">
  <ele>0.000000</ele>
</trkpt>
<trkpt lat="45.490516000" lon="12.487394000">
  <ele>0.000000</ele>
</trkpt>
<trkpt lat="45.490599000" lon="12.486859000">
  <ele>0.000000</ele>
</trkpt>
<trkpt lat="45.490571000" lon="12.485961000">
  <ele>0.000000</ele>
</trkpt>
<trkpt lat="45.490430000" lon="12.485297000">
  <ele>0.000000</ele>
</trkpt>
<trkpt lat="45.490132000" lon="12.484577000">
  <ele>0.000000</ele>
</trkpt>
<trkpt lat="45.489915000" lon="12.484050000">
  <ele>0.000000</ele>
</trkpt>
<trkpt lat="45.489659000" lon="12.483631000">
  <ele>0.000000</ele>
</trkpt>
<trkpt lat="45.489358000" lon="12.483267000">
  <ele>0.000000</ele>
</trkpt>
<trkpt lat="45.489034000" lon="12.483108000">
  <ele>0.000000</ele>
</trkpt>
<trkpt lat="45.488565000" lon="12.483013000">
  <ele>0.000000</ele>
</trkpt>
<trkpt lat="45.484236000" lon="12.481759000">
  <ele>0.000000</ele>
</trkpt>
<trkpt lat="45.483802000" lon="12.481631000">
  <ele>0.000000</ele>
</trkpt>
<trkpt lat="45.478257000" lon="12.480334000">
  <ele>0.000000</ele>
</trkpt>
<trkpt lat="45.477969000" lon="12.479300000">
  <ele>0.000000</ele>
</trkpt>
<trkpt lat="45.477842000" lon="12.478917000">
  <ele>0.000000</ele>
</trkpt>
<trkpt lat="45.477738000" lon="12.478765000">
  <ele>0.000000</ele>
</trkpt>
<trkpt lat="45.477657000" lon="12.478678000">
  <ele>0.000000</ele>
</trkpt>
<trkpt lat="45.477131000" lon="12.478408000">
  <ele>0.000000</ele>
</trkpt>
<trkpt lat="45.477003000" lon="12.478303000">
  <ele>0.000000</ele>
</trkpt>
<trkpt lat="45.476869000" lon="12.478132000">
  <ele>0.000000</ele>
</trkpt>
<trkpt lat="45.476690000" lon="12.477856000">
  <ele>0.000000</ele>
</trkpt>
<trkpt lat="45.476531000" lon="12.477508000">
  <ele>0.000000</ele>
</trkpt>
<trkpt lat="45.476481000" lon="12.477347000">
  <ele>0.000000</ele>
</trkpt>
<trkpt lat="45.476453000" lon="12.477213000">
  <ele>0.000000</ele>
</trkpt>
<trkpt lat="45.476434000" lon="12.477114000">
  <ele>0.000000</ele>
</trkpt>
<trkpt lat="45.476382000" lon="12.477018000">
  <ele>0.000000</ele>
</trkpt>
<trkpt lat="45.476326000" lon="12.476974000">
  <ele>0.000000</ele>
</trkpt>
<trkpt lat="45.476034000" lon="12.476824000">
  <ele>0.000000</ele>
</trkpt>
<trkpt lat="45.475923000" lon="12.476731000">
  <ele>0.000000</ele>
</trkpt>
<trkpt lat="45.475806000" lon="12.476581000">
  <ele>0.000000</ele>
</trkpt>
<trkpt lat="45.475697000" lon="12.476380000">
  <ele>0.000000</ele>
</trkpt>
<trkpt lat="45.475372000" lon="12.475928000">
  <ele>0.000000</ele>
</trkpt>
<trkpt lat="45.475184000" lon="12.475702000">
  <ele>0.000000</ele>
</trkpt>
<trkpt lat="45.474904000" lon="12.475424000">
  <ele>0.000000</ele>
</trkpt>
<trkpt lat="45.474809000" lon="12.475380000">
  <ele>0.000000</ele>
</trkpt>
<trkpt lat="45.474262000" lon="12.475353000">
  <ele>0.000000</ele>
</trkpt>
<trkpt lat="45.474048000" lon="12.475361000">
  <ele>0.000000</ele>
</trkpt>
<trkpt lat="45.473808000" lon="12.475391000">
  <ele>0.000000</ele>
</trkpt>
<trkpt lat="45.473341000" lon="12.475518000">
  <ele>0.000000</ele>
</trkpt>
<trkpt lat="45.473239000" lon="12.475514000">
  <ele>0.000000</ele>
</trkpt>
<trkpt lat="45.472758000" lon="12.475168000">
  <ele>0.000000</ele>
</trkpt>
<trkpt lat="45.472579000" lon="12.475077000">
  <ele>0.000000</ele>
</trkpt>
<trkpt lat="45.472301000" lon="12.474923000">
  <ele>0.000000</ele>
</trkpt>
<trkpt lat="45.472271000" lon="12.472397000">
  <ele>0.000000</ele>
</trkpt>
<trkpt lat="45.472159000" lon="12.472234000">
  <ele>0.000000</ele>
</trkpt>
<trkpt lat="45.471160000" lon="12.472270000">
  <ele>0.000000</ele>
</trkpt>
<trkpt lat="45.470841000" lon="12.472044000">
  <ele>0.000000</ele>
</trkpt>
<trkpt lat="45.470338000" lon="12.472047000">
  <ele>0.000000</ele>
</trkpt>
<trkpt lat="45.469274000" lon="12.472110000">
  <ele>0.000000</ele>
</trkpt>
<trkpt lat="45.469090000" lon="12.468560000">
  <ele>0.000000</ele>
</trkpt>
<trkpt lat="45.469012000" lon="12.467719000">
  <ele>0.000000</ele>
</trkpt>
<trkpt lat="45.468949000" lon="12.467158000">
  <ele>0.000000</ele>
</trkpt>
<trkpt lat="45.468650000" lon="12.465839000">
  <ele>0.000000</ele>
</trkpt>
<trkpt lat="45.468482000" lon="12.464612000">
  <ele>0.000000</ele>
</trkpt>
<trkpt lat="45.467639000" lon="12.461376000">
  <ele>0.000000</ele>
</trkpt>
<trkpt lat="45.467549000" lon="12.459522000">
  <ele>0.000000</ele>
</trkpt>
<trkpt lat="45.467693000" lon="12.458595000">
  <ele>0.000000</ele>
</trkpt>
<trkpt lat="45.467699000" lon="12.457402000">
  <ele>0.000000</ele>
</trkpt>
<trkpt lat="45.467487000" lon="12.456534000">
  <ele>0.000000</ele>
</trkpt>
<trkpt lat="45.467149000" lon="12.456594000">
  <ele>0.000000</ele>
</trkpt>
<trkpt lat="45.466057000" lon="12.456375000">
  <ele>0.000000</ele>
</trkpt>
<trkpt lat="45.465696000" lon="12.456413000">
  <ele>0.000000</ele>
</trkpt>
<trkpt lat="45.465427000" lon="12.456458000">
  <ele>0.000000</ele>
</trkpt>
<trkpt lat="45.465181000" lon="12.456568000">
  <ele>0.000000</ele>
</trkpt>
<trkpt lat="45.464573000" lon="12.456980000">
  <ele>0.000000</ele>
</trkpt>
<trkpt lat="45.464380000" lon="12.457023000">
  <ele>0.000000</ele>
</trkpt>
<trkpt lat="45.463803000" lon="12.456834000">
  <ele>0.000000</ele>
</trkpt>
<trkpt lat="45.463520000" lon="12.456791000">
  <ele>0.000000</ele>
</trkpt>
<trkpt lat="45.463404000" lon="12.456779000">
  <ele>0.000000</ele>
</trkpt>
<trkpt lat="45.462663000" lon="12.456665000">
  <ele>0.000000</ele>
</trkpt>
<trkpt lat="45.461608000" lon="12.456525000">
  <ele>0.000000</ele>
</trkpt>
<trkpt lat="45.461389000" lon="12.456501000">
  <ele>0.000000</ele>
</trkpt>
<trkpt lat="45.460920000" lon="12.456254000">
  <ele>0.000000</ele>
</trkpt>
<trkpt lat="45.460536000" lon="12.456135000">
  <ele>0.000000</ele>
</trkpt>
<trkpt lat="45.459890000" lon="12.456033000">
  <ele>0.000000</ele>
</trkpt>
<trkpt lat="45.458367000" lon="12.455788000">
  <ele>0.000000</ele>
</trkpt>
<trkpt lat="45.458084000" lon="12.455755000">
  <ele>0.000000</ele>
</trkpt>
<trkpt lat="45.457692000" lon="12.455744000">
  <ele>0.000000</ele>
</trkpt>
<trkpt lat="45.457571000" lon="12.455786000">
  <ele>0.000000</ele>
</trkpt>
<trkpt lat="45.457249000" lon="12.455898000">
  <ele>0.000000</ele>
</trkpt>
<trkpt lat="45.457175000" lon="12.455926000">
  <ele>0.000000</ele>
</trkpt>
</trkseg>
</trk>
<trk>
  <name>I3-4</name>
<trkseg>
<trkpt lat="45.458023000" lon="12.460891000">
  <ele>0.000000</ele>
</trkpt>
<trkpt lat="45.457982000" lon="12.460895000">
  <ele>0.000000</ele>
</trkpt>
<trkpt lat="45.457955000" lon="12.460886000">
  <ele>0.000000</ele>
</trkpt>
<trkpt lat="45.457919000" lon="12.460858000">
  <ele>0.000000</ele>
</trkpt>
<trkpt lat="45.457901000" lon="12.460830000">
  <ele>0.000000</ele>
</trkpt>
<trkpt lat="45.457878000" lon="12.460753000">
  <ele>0.000000</ele>
</trkpt>
<trkpt lat="45.457880000" lon="12.460695000">
  <ele>0.000000</ele>
</trkpt>
<trkpt lat="45.457885000" lon="12.460669000">
  <ele>0.000000</ele>
</trkpt>
<trkpt lat="45.457917000" lon="12.460604000">
  <ele>0.000000</ele>
</trkpt>
<trkpt lat="45.457961000" lon="12.460570000">
  <ele>0.000000</ele>
</trkpt>
</trkseg>
</trk>
<trk>
  <name>I3-4</name>
<trkseg>
<trkpt lat="45.458079000" lon="12.460843000">
  <ele>0.000000</ele>
</trkpt>
<trkpt lat="45.458055000" lon="12.460871000">
  <ele>0.000000</ele>
</trkpt>
<trkpt lat="45.458023000" lon="12.460891000">
  <ele>0.000000</ele>
</trkpt>
</trkseg>
</trk>
<trk>
  <name>I3-4</name>
<trkseg>
<trkpt lat="45.457961000" lon="12.460570000">
  <ele>0.000000</ele>
</trkpt>
<trkpt lat="45.458001000" lon="12.460564000">
  <ele>0.000000</ele>
</trkpt>
<trkpt lat="45.458037000" lon="12.460575000">
  <ele>0.000000</ele>
</trkpt>
<trkpt lat="45.458071000" lon="12.460605000">
  <ele>0.000000</ele>
</trkpt>
<trkpt lat="45.458096000" lon="12.460649000">
  <ele>0.000000</ele>
</trkpt>
<trkpt lat="45.458109000" lon="12.460704000">
  <ele>0.000000</ele>
</trkpt>
<trkpt lat="45.458108000" lon="12.460764000">
  <ele>0.000000</ele>
</trkpt>
<trkpt lat="45.458093000" lon="12.460818000">
  <ele>0.000000</ele>
</trkpt>
<trkpt lat="45.458079000" lon="12.460843000">
  <ele>0.000000</ele>
</trkpt>
</trkseg>
</trk>
<trk>
  <name>I3-4</name>
<trkseg>
<trkpt lat="45.484776000" lon="12.556278000">
  <ele>0.000000</ele>
</trkpt>
<trkpt lat="45.484791000" lon="12.556040000">
  <ele>0.000000</ele>
</trkpt>
<trkpt lat="45.484859000" lon="12.555585000">
  <ele>0.000000</ele>
</trkpt>
<trkpt lat="45.484975000" lon="12.555193000">
  <ele>0.000000</ele>
</trkpt>
<trkpt lat="45.485122000" lon="12.554748000">
  <ele>0.000000</ele>
</trkpt>
<trkpt lat="45.485276000" lon="12.554523000">
  <ele>0.000000</ele>
</trkpt>
<trkpt lat="45.485430000" lon="12.554346000">
  <ele>0.000000</ele>
</trkpt>
<trkpt lat="45.485855000" lon="12.553885000">
  <ele>0.000000</ele>
</trkpt>
<trkpt lat="45.485949000" lon="12.553514000">
  <ele>0.000000</ele>
</trkpt>
<trkpt lat="45.485837000" lon="12.553176000">
  <ele>0.000000</ele>
</trkpt>
<trkpt lat="45.485060000" lon="12.552253000">
  <ele>0.000000</ele>
</trkpt>
<trkpt lat="45.484753000" lon="12.551884000">
  <ele>0.000000</ele>
</trkpt>
<trkpt lat="45.484476000" lon="12.551551000">
  <ele>0.000000</ele>
</trkpt>
<trkpt lat="45.484269000" lon="12.550908000">
  <ele>0.000000</ele>
</trkpt>
<trkpt lat="45.484209000" lon="12.550815000">
  <ele>0.000000</ele>
</trkpt>
<trkpt lat="45.483911000" lon="12.550877000">
  <ele>0.000000</ele>
</trkpt>
<trkpt lat="45.483667000" lon="12.550894000">
  <ele>0.000000</ele>
</trkpt>
<trkpt lat="45.483857000" lon="12.550304000">
  <ele>0.000000</ele>
</trkpt>
<trkpt lat="45.483833000" lon="12.550047000">
  <ele>0.000000</ele>
</trkpt>
<trkpt lat="45.482637000" lon="12.546262000">
  <ele>0.000000</ele>
</trkpt>
<trkpt lat="45.481133000" lon="12.541756000">
  <ele>0.000000</ele>
</trkpt>
<trkpt lat="45.481013000" lon="12.541412000">
  <ele>0.000000</ele>
</trkpt>
<trkpt lat="45.480290000" lon="12.539181000">
  <ele>0.000000</ele>
</trkpt>
<trkpt lat="45.479297000" lon="12.536305000">
  <ele>0.000000</ele>
</trkpt>
<trkpt lat="45.478992000" lon="12.535349000">
  <ele>0.000000</ele>
</trkpt>
<trkpt lat="45.478133000" lon="12.532586000">
  <ele>0.000000</ele>
</trkpt>
<trkpt lat="45.478055000" lon="12.532348000">
  <ele>0.000000</ele>
</trkpt>
<trkpt lat="45.477817000" lon="12.531630000">
  <ele>0.000000</ele>
</trkpt>
<trkpt lat="45.477167000" lon="12.529668000">
  <ele>0.000000</ele>
</trkpt>
<trkpt lat="45.477030000" lon="12.529109000">
  <ele>0.000000</ele>
</trkpt>
<trkpt lat="45.477002000" lon="12.528595000">
  <ele>0.000000</ele>
</trkpt>
<trkpt lat="45.477039000" lon="12.528297000">
  <ele>0.000000</ele>
</trkpt>
<trkpt lat="45.477670000" lon="12.525593000">
  <ele>0.000000</ele>
</trkpt>
<trkpt lat="45.477604000" lon="12.525044000">
  <ele>0.000000</ele>
</trkpt>
<trkpt lat="45.477388000" lon="12.524563000">
  <ele>0.000000</ele>
</trkpt>
<trkpt lat="45.476130000" lon="12.523267000">
  <ele>0.000000</ele>
</trkpt>
<trkpt lat="45.475883000" lon="12.522838000">
  <ele>0.000000</ele>
</trkpt>
<trkpt lat="45.475432000" lon="12.521774000">
  <ele>0.000000</ele>
</trkpt>
<trkpt lat="45.474944000" lon="12.520632000">
  <ele>0.000000</ele>
</trkpt>
<trkpt lat="45.474583000" lon="12.519705000">
  <ele>0.000000</ele>
</trkpt>
<trkpt lat="45.473108000" lon="12.514075000">
  <ele>0.000000</ele>
</trkpt>
<trkpt lat="45.472175000" lon="12.511114000">
  <ele>0.000000</ele>
</trkpt>
<trkpt lat="45.471881000" lon="12.510281000">
  <ele>0.000000</ele>
</trkpt>
<trkpt lat="45.471857000" lon="12.510192000">
  <ele>0.000000</ele>
</trkpt>
<trkpt lat="45.471814000" lon="12.510032000">
  <ele>0.000000</ele>
</trkpt>
<trkpt lat="45.471682000" lon="12.509586000">
  <ele>0.000000</ele>
</trkpt>
<trkpt lat="45.471592000" lon="12.508985000">
  <ele>0.000000</ele>
</trkpt>
<trkpt lat="45.471604000" lon="12.507783000">
  <ele>0.000000</ele>
</trkpt>
<trkpt lat="45.471676000" lon="12.506513000">
  <ele>0.000000</ele>
</trkpt>
<trkpt lat="45.471742000" lon="12.505852000">
  <ele>0.000000</ele>
</trkpt>
<trkpt lat="45.471881000" lon="12.505088000">
  <ele>0.000000</ele>
</trkpt>
<trkpt lat="45.472332000" lon="12.502943000">
  <ele>0.000000</ele>
</trkpt>
<trkpt lat="45.472386000" lon="12.502093000">
  <ele>0.000000</ele>
</trkpt>
<trkpt lat="45.472266000" lon="12.500883000">
  <ele>0.000000</ele>
</trkpt>
<trkpt lat="45.472019000" lon="12.500222000">
  <ele>0.000000</ele>
</trkpt>
<trkpt lat="45.470960000" lon="12.498222000">
  <ele>0.000000</ele>
</trkpt>
<trkpt lat="45.470261000" lon="12.496909000">
  <ele>0.000000</ele>
</trkpt>
<trkpt lat="45.469991000" lon="12.496205000">
  <ele>0.000000</ele>
</trkpt>
<trkpt lat="45.469810000" lon="12.495475000">
  <ele>0.000000</ele>
</trkpt>
<trkpt lat="45.469521000" lon="12.493227000">
  <ele>0.000000</ele>
</trkpt>
<trkpt lat="45.469328000" lon="12.492549000">
  <ele>0.000000</ele>
</trkpt>
<trkpt lat="45.469232000" lon="12.492291000">
  <ele>0.000000</ele>
</trkpt>
<trkpt lat="45.469154000" lon="12.492111000">
  <ele>0.000000</ele>
</trkpt>
<trkpt lat="45.468943000" lon="12.491639000">
  <ele>0.000000</ele>
</trkpt>
<trkpt lat="45.467998000" lon="12.490291000">
  <ele>0.000000</ele>
</trkpt>
<trkpt lat="45.467721000" lon="12.489862000">
  <ele>0.000000</ele>
</trkpt>
<trkpt lat="45.467565000" lon="12.489647000">
  <ele>0.000000</ele>
</trkpt>
<trkpt lat="45.466704000" lon="12.488326000">
  <ele>0.000000</ele>
</trkpt>
<trkpt lat="45.466355000" lon="12.487527000">
  <ele>0.000000</ele>
</trkpt>
<trkpt lat="45.466259000" lon="12.487279000">
  <ele>0.000000</ele>
</trkpt>
<trkpt lat="45.465777000" lon="12.486231000">
  <ele>0.000000</ele>
</trkpt>
<trkpt lat="45.464856000" lon="12.484695000">
  <ele>0.000000</ele>
</trkpt>
<trkpt lat="45.464736000" lon="12.484472000">
  <ele>0.000000</ele>
</trkpt>
<trkpt lat="45.464034000" lon="12.483371000">
  <ele>0.000000</ele>
</trkpt>
<trkpt lat="45.463453000" lon="12.482154000">
  <ele>0.000000</ele>
</trkpt>
<trkpt lat="45.462587000" lon="12.479142000">
  <ele>0.000000</ele>
</trkpt>
<trkpt lat="45.462340000" lon="12.478120000">
  <ele>0.000000</ele>
</trkpt>
<trkpt lat="45.462192000" lon="12.476827000">
  <ele>0.000000</ele>
</trkpt>
<trkpt lat="45.462177000" lon="12.476696000">
  <ele>0.000000</ele>
</trkpt>
<trkpt lat="45.462087000" lon="12.475374000">
  <ele>0.000000</ele>
</trkpt>
<trkpt lat="45.462021000" lon="12.474018000">
  <ele>0.000000</ele>
</trkpt>
<trkpt lat="45.461997000" lon="12.473048000">
  <ele>0.000000</ele>
</trkpt>
<trkpt lat="45.461882000" lon="12.471666000">
  <ele>0.000000</ele>
</trkpt>
<trkpt lat="45.461744000" lon="12.470584000">
  <ele>0.000000</ele>
</trkpt>
<trkpt lat="45.461413000" lon="12.469512000">
  <ele>0.000000</ele>
</trkpt>
<trkpt lat="45.461106000" lon="12.468567000">
  <ele>0.000000</ele>
</trkpt>
<trkpt lat="45.461027000" lon="12.468370000">
  <ele>0.000000</ele>
</trkpt>
<trkpt lat="45.460652000" lon="12.467420000">
  <ele>0.000000</ele>
</trkpt>
<trkpt lat="45.460106000" lon="12.466040000">
  <ele>0.000000</ele>
</trkpt>
<trkpt lat="45.460016000" lon="12.465812000">
  <ele>0.000000</ele>
</trkpt>
<trkpt lat="45.458878000" lon="12.462972000">
  <ele>0.000000</ele>
</trkpt>
<trkpt lat="45.458486000" lon="12.461719000">
  <ele>0.000000</ele>
</trkpt>
<trkpt lat="45.458222000" lon="12.461037000">
  <ele>0.000000</ele>
</trkpt>
<trkpt lat="45.458079000" lon="12.460843000">
  <ele>0.000000</ele>
</trkpt>
</trkseg>
</trk>
<trk>
  <name>I3-4</name>
<trkseg>
<trkpt lat="45.474755000" lon="12.548795000">
  <ele>0.000000</ele>
</trkpt>
<trkpt lat="45.474654000" lon="12.548838000">
  <ele>0.000000</ele>
</trkpt>
<trkpt lat="45.474567000" lon="12.548827000">
  <ele>0.000000</ele>
</trkpt>
<trkpt lat="45.474496000" lon="12.548795000">
  <ele>0.000000</ele>
</trkpt>
<trkpt lat="45.474447000" lon="12.548731000">
  <ele>0.000000</ele>
</trkpt>
<trkpt lat="45.474402000" lon="12.548618000">
  <ele>0.000000</ele>
</trkpt>
<trkpt lat="45.474391000" lon="12.548473000">
  <ele>0.000000</ele>
</trkpt>
</trkseg>
</trk>
<trk>
  <name>I3-4</name>
<trkseg>
<trkpt lat="45.474391000" lon="12.548473000">
  <ele>0.000000</ele>
</trkpt>
<trkpt lat="45.474439000" lon="12.548323000">
  <ele>0.000000</ele>
</trkpt>
<trkpt lat="45.474564000" lon="12.548200000">
  <ele>0.000000</ele>
</trkpt>
<trkpt lat="45.474714000" lon="12.548221000">
  <ele>0.000000</ele>
</trkpt>
<trkpt lat="45.474831000" lon="12.548387000">
  <ele>0.000000</ele>
</trkpt>
<trkpt lat="45.474849000" lon="12.548570000">
  <ele>0.000000</ele>
</trkpt>
<trkpt lat="45.474797000" lon="12.548699000">
  <ele>0.000000</ele>
</trkpt>
<trkpt lat="45.474755000" lon="12.548795000">
  <ele>0.000000</ele>
</trkpt>
</trkseg>
</trk>
<trk>
  <name>I3-4</name>
<trkseg>
<trkpt lat="45.477416000" lon="12.556198000">
  <ele>0.000000</ele>
</trkpt>
<trkpt lat="45.477229000" lon="12.555619000">
  <ele>0.000000</ele>
</trkpt>
<trkpt lat="45.477089000" lon="12.555207000">
  <ele>0.000000</ele>
</trkpt>
<trkpt lat="45.476750000" lon="12.554283000">
  <ele>0.000000</ele>
</trkpt>
<trkpt lat="45.476072000" lon="12.552388000">
  <ele>0.000000</ele>
</trkpt>
<trkpt lat="45.475387000" lon="12.550619000">
  <ele>0.000000</ele>
</trkpt>
<trkpt lat="45.474823000" lon="12.549010000">
  <ele>0.000000</ele>
</trkpt>
<trkpt lat="45.474755000" lon="12.548795000">
  <ele>0.000000</ele>
</trkpt>
</trkseg>
</trk>
<trk>
  <name>I3-4</name>
<trkseg>
<trkpt lat="45.480025000" lon="12.572476000">
  <ele>0.000000</ele>
</trkpt>
<trkpt lat="45.479763000" lon="12.571928000">
  <ele>0.000000</ele>
</trkpt>
<trkpt lat="45.479485000" lon="12.569753000">
  <ele>0.000000</ele>
</trkpt>
<trkpt lat="45.479506000" lon="12.568054000">
  <ele>0.000000</ele>
</trkpt>
<trkpt lat="45.479580000" lon="12.566155000">
  <ele>0.000000</ele>
</trkpt>
<trkpt lat="45.479366000" lon="12.563589000">
  <ele>0.000000</ele>
</trkpt>
<trkpt lat="45.479279000" lon="12.562065000">
  <ele>0.000000</ele>
</trkpt>
<trkpt lat="45.478823000" lon="12.560634000">
  <ele>0.000000</ele>
</trkpt>
<trkpt lat="45.477929000" lon="12.557809000">
  <ele>0.000000</ele>
</trkpt>
<trkpt lat="45.477888000" lon="12.557678000">
  <ele>0.000000</ele>
</trkpt>
<trkpt lat="45.477416000" lon="12.556198000">
  <ele>0.000000</ele>
</trkpt>
</trkseg>
</trk>
<trk>
  <name>I3-4</name>
<trkseg>
<trkpt lat="45.491395000" lon="12.576056000">
  <ele>0.000000</ele>
</trkpt>
<trkpt lat="45.491094000" lon="12.576614000">
  <ele>0.000000</ele>
</trkpt>
<trkpt lat="45.490327000" lon="12.577418000">
  <ele>0.000000</ele>
</trkpt>
<trkpt lat="45.489876000" lon="12.577821000">
  <ele>0.000000</ele>
</trkpt>
<trkpt lat="45.489609000" lon="12.577933000">
  <ele>0.000000</ele>
</trkpt>
<trkpt lat="45.489435000" lon="12.578114000">
  <ele>0.000000</ele>
</trkpt>
<trkpt lat="45.489404000" lon="12.578328000">
  <ele>0.000000</ele>
</trkpt>
<trkpt lat="45.489058000" lon="12.578906000">
  <ele>0.000000</ele>
</trkpt>
<trkpt lat="45.488753000" lon="12.579586000">
  <ele>0.000000</ele>
</trkpt>
<trkpt lat="45.488402000" lon="12.580267000">
  <ele>0.000000</ele>
</trkpt>
<trkpt lat="45.488221000" lon="12.580363000">
  <ele>0.000000</ele>
</trkpt>
<trkpt lat="45.487905000" lon="12.580540000">
  <ele>0.000000</ele>
</trkpt>
<trkpt lat="45.487564000" lon="12.580715000">
  <ele>0.000000</ele>
</trkpt>
<trkpt lat="45.487351000" lon="12.580721000">
  <ele>0.000000</ele>
</trkpt>
<trkpt lat="45.487194000" lon="12.580750000">
  <ele>0.000000</ele>
</trkpt>
<trkpt lat="45.487010000" lon="12.580632000">
  <ele>0.000000</ele>
</trkpt>
<trkpt lat="45.486893000" lon="12.580422000">
  <ele>0.000000</ele>
</trkpt>
<trkpt lat="45.486341000" lon="12.579537000">
  <ele>0.000000</ele>
</trkpt>
<trkpt lat="45.485280000" lon="12.577794000">
  <ele>0.000000</ele>
</trkpt>
<trkpt lat="45.485096000" lon="12.577461000">
  <ele>0.000000</ele>
</trkpt>
<trkpt lat="45.483967000" lon="12.578298000">
  <ele>0.000000</ele>
</trkpt>
<trkpt lat="45.483693000" lon="12.578518000">
  <ele>0.000000</ele>
</trkpt>
<trkpt lat="45.483531000" lon="12.578609000">
  <ele>0.000000</ele>
</trkpt>
<trkpt lat="45.483509000" lon="12.578749000">
  <ele>0.000000</ele>
</trkpt>
<trkpt lat="45.483478000" lon="12.578845000">
  <ele>0.000000</ele>
</trkpt>
<trkpt lat="45.483384000" lon="12.578974000">
  <ele>0.000000</ele>
</trkpt>
<trkpt lat="45.483299000" lon="12.578998000">
  <ele>0.000000</ele>
</trkpt>
<trkpt lat="45.483219000" lon="12.579000000">
  <ele>0.000000</ele>
</trkpt>
<trkpt lat="45.483181000" lon="12.579006000">
  <ele>0.000000</ele>
</trkpt>
<trkpt lat="45.483112000" lon="12.578883000">
  <ele>0.000000</ele>
</trkpt>
<trkpt lat="45.483076000" lon="12.578818000">
  <ele>0.000000</ele>
</trkpt>
<trkpt lat="45.483031000" lon="12.578604000">
  <ele>0.000000</ele>
</trkpt>
<trkpt lat="45.482602000" lon="12.577767000">
  <ele>0.000000</ele>
</trkpt>
<trkpt lat="45.482482000" lon="12.577783000">
  <ele>0.000000</ele>
</trkpt>
<trkpt lat="45.482445000" lon="12.577731000">
  <ele>0.000000</ele>
</trkpt>
<trkpt lat="45.482414000" lon="12.577686000">
  <ele>0.000000</ele>
</trkpt>
<trkpt lat="45.482444000" lon="12.577468000">
  <ele>0.000000</ele>
</trkpt>
<trkpt lat="45.482361000" lon="12.577257000">
  <ele>0.000000</ele>
</trkpt>
<trkpt lat="45.481267000" lon="12.575326000">
  <ele>0.000000</ele>
</trkpt>
<trkpt lat="45.481184000" lon="12.575262000">
  <ele>0.000000</ele>
</trkpt>
<trkpt lat="45.481105000" lon="12.575283000">
  <ele>0.000000</ele>
</trkpt>
<trkpt lat="45.481066000" lon="12.575221000">
  <ele>0.000000</ele>
</trkpt>
<trkpt lat="45.481045000" lon="12.575187000">
  <ele>0.000000</ele>
</trkpt>
<trkpt lat="45.481079000" lon="12.575016000">
  <ele>0.000000</ele>
</trkpt>
<trkpt lat="45.481030000" lon="12.574843000">
  <ele>0.000000</ele>
</trkpt>
<trkpt lat="45.480514000" lon="12.573550000">
  <ele>0.000000</ele>
</trkpt>
<trkpt lat="45.480022000" lon="12.572612000">
  <ele>0.000000</ele>
</trkpt>
</trkseg>
</trk>
<trk>
  <name>I3-4</name>
<trkseg>
<trkpt lat="45.484778000" lon="12.556411000">
  <ele>0.000000</ele>
</trkpt>
<trkpt lat="45.484800000" lon="12.556681000">
  <ele>0.000000</ele>
</trkpt>
</trkseg>
</trk>
<trk>
  <name>I3-4</name>
<trkseg>
<trkpt lat="45.477416000" lon="12.556198000">
  <ele>0.000000</ele>
</trkpt>
<trkpt lat="45.478682000" lon="12.556106000">
  <ele>0.000000</ele>
</trkpt>
<trkpt lat="45.478834000" lon="12.556088000">
  <ele>0.000000</ele>
</trkpt>
<trkpt lat="45.479850000" lon="12.556094000">
  <ele>0.000000</ele>
</trkpt>
<trkpt lat="45.482671000" lon="12.556272000">
  <ele>0.000000</ele>
</trkpt>
<trkpt lat="45.482730000" lon="12.556278000">
  <ele>0.000000</ele>
</trkpt>
<trkpt lat="45.484080000" lon="12.556343000">
  <ele>0.000000</ele>
</trkpt>
<trkpt lat="45.484312000" lon="12.556572000">
  <ele>0.000000</ele>
</trkpt>
<trkpt lat="45.484800000" lon="12.556681000">
  <ele>0.000000</ele>
</trkpt>
</trkseg>
</trk>
<trk>
  <name>I3-4</name>
<trkseg>
<trkpt lat="45.484800000" lon="12.556681000">
  <ele>0.000000</ele>
</trkpt>
<trkpt lat="45.484824000" lon="12.557079000">
  <ele>0.000000</ele>
</trkpt>
<trkpt lat="45.484753000" lon="12.557575000">
  <ele>0.000000</ele>
</trkpt>
<trkpt lat="45.484617000" lon="12.558055000">
  <ele>0.000000</ele>
</trkpt>
<trkpt lat="45.484355000" lon="12.559126000">
  <ele>0.000000</ele>
</trkpt>
<trkpt lat="45.484400000" lon="12.559501000">
  <ele>0.000000</ele>
</trkpt>
<trkpt lat="45.484487000" lon="12.559800000">
  <ele>0.000000</ele>
</trkpt>
<trkpt lat="45.484954000" lon="12.560528000">
  <ele>0.000000</ele>
</trkpt>
<trkpt lat="45.486318000" lon="12.563250000">
  <ele>0.000000</ele>
</trkpt>
<trkpt lat="45.486400000" lon="12.563529000">
  <ele>0.000000</ele>
</trkpt>
<trkpt lat="45.486596000" lon="12.564436000">
  <ele>0.000000</ele>
</trkpt>
<trkpt lat="45.486655000" lon="12.565056000">
  <ele>0.000000</ele>
</trkpt>
<trkpt lat="45.486677000" lon="12.565699000">
  <ele>0.000000</ele>
</trkpt>
<trkpt lat="45.486768000" lon="12.565987000">
  <ele>0.000000</ele>
</trkpt>
<trkpt lat="45.487539000" lon="12.567585000">
  <ele>0.000000</ele>
</trkpt>
<trkpt lat="45.488311000" lon="12.569232000">
  <ele>0.000000</ele>
</trkpt>
<trkpt lat="45.489181000" lon="12.571083000">
  <ele>0.000000</ele>
</trkpt>
<trkpt lat="45.490164000" lon="12.573158000">
  <ele>0.000000</ele>
</trkpt>
<trkpt lat="45.490837000" lon="12.574658000">
  <ele>0.000000</ele>
</trkpt>
<trkpt lat="45.491395000" lon="12.576056000">
  <ele>0.000000</ele>
</trkpt>
</trkseg>
</trk>
<trk>
  <name>I3-4</name>
<trkseg>
<trkpt lat="45.535692000" lon="12.722137000">
  <ele>0.000000</ele>
</trkpt>
<trkpt lat="45.535486000" lon="12.722185000">
  <ele>0.000000</ele>
</trkpt>
<trkpt lat="45.535180000" lon="12.722197000">
  <ele>0.000000</ele>
</trkpt>
<trkpt lat="45.535121000" lon="12.722217000">
  <ele>0.000000</ele>
</trkpt>
<trkpt lat="45.535181000" lon="12.721451000">
  <ele>0.000000</ele>
</trkpt>
<trkpt lat="45.535181000" lon="12.720928000">
  <ele>0.000000</ele>
</trkpt>
<trkpt lat="45.535061000" lon="12.720336000">
  <ele>0.000000</ele>
</trkpt>
<trkpt lat="45.535025000" lon="12.719597000">
  <ele>0.000000</ele>
</trkpt>
<trkpt lat="45.535091000" lon="12.719031000">
  <ele>0.000000</ele>
</trkpt>
<trkpt lat="45.535301000" lon="12.718499000">
  <ele>0.000000</ele>
</trkpt>
<trkpt lat="45.535452000" lon="12.718095000">
  <ele>0.000000</ele>
</trkpt>
<trkpt lat="45.535512000" lon="12.717641000">
  <ele>0.000000</ele>
</trkpt>
<trkpt lat="45.535662000" lon="12.713641000">
  <ele>0.000000</ele>
</trkpt>
<trkpt lat="45.535578000" lon="12.710748000">
  <ele>0.000000</ele>
</trkpt>
<trkpt lat="45.535903000" lon="12.706920000">
  <ele>0.000000</ele>
</trkpt>
<trkpt lat="45.535897000" lon="12.704345000">
  <ele>0.000000</ele>
</trkpt>
<trkpt lat="45.535939000" lon="12.698552000">
  <ele>0.000000</ele>
</trkpt>
<trkpt lat="45.535945000" lon="12.690526000">
  <ele>0.000000</ele>
</trkpt>
<trkpt lat="45.535921000" lon="12.676073000">
  <ele>0.000000</ele>
</trkpt>
<trkpt lat="45.535897000" lon="12.662168000">
  <ele>0.000000</ele>
</trkpt>
<trkpt lat="45.535915000" lon="12.658302000">
  <ele>0.000000</ele>
</trkpt>
<trkpt lat="45.535948000" lon="12.654443000">
  <ele>0.000000</ele>
</trkpt>
<trkpt lat="45.535993000" lon="12.649508000">
  <ele>0.000000</ele>
</trkpt>
<trkpt lat="45.535921000" lon="12.649148000">
  <ele>0.000000</ele>
</trkpt>
<trkpt lat="45.535722000" lon="12.648650000">
  <ele>0.000000</ele>
</trkpt>
<trkpt lat="45.535668000" lon="12.648212000">
  <ele>0.000000</ele>
</trkpt>
<trkpt lat="45.535664000" lon="12.647499000">
  <ele>0.000000</ele>
</trkpt>
<trkpt lat="45.535734000" lon="12.647002000">
  <ele>0.000000</ele>
</trkpt>
<trkpt lat="45.535244000" lon="12.646719000">
  <ele>0.000000</ele>
</trkpt>
<trkpt lat="45.534960000" lon="12.646438000">
  <ele>0.000000</ele>
</trkpt>
<trkpt lat="45.534689000" lon="12.646031000">
  <ele>0.000000</ele>
</trkpt>
<trkpt lat="45.534523000" lon="12.645700000">
  <ele>0.000000</ele>
</trkpt>
<trkpt lat="45.534401000" lon="12.645457000">
  <ele>0.000000</ele>
</trkpt>
<trkpt lat="45.534082000" lon="12.644874000">
  <ele>0.000000</ele>
</trkpt>
<trkpt lat="45.533902000" lon="12.644590000">
  <ele>0.000000</ele>
</trkpt>
<trkpt lat="45.533713000" lon="12.644332000">
  <ele>0.000000</ele>
</trkpt>
<trkpt lat="45.533633000" lon="12.644235000">
  <ele>0.000000</ele>
</trkpt>
<trkpt lat="45.533341000" lon="12.643881000">
  <ele>0.000000</ele>
</trkpt>
<trkpt lat="45.533167000" lon="12.643688000">
  <ele>0.000000</ele>
</trkpt>
<trkpt lat="45.533417000" lon="12.643723000">
  <ele>0.000000</ele>
</trkpt>
<trkpt lat="45.533668000" lon="12.643714000">
  <ele>0.000000</ele>
</trkpt>
<trkpt lat="45.533939000" lon="12.643683000">
  <ele>0.000000</ele>
</trkpt>
<trkpt lat="45.534326000" lon="12.643409000">
  <ele>0.000000</ele>
</trkpt>
<trkpt lat="45.534647000" lon="12.643180000">
  <ele>0.000000</ele>
</trkpt>
<trkpt lat="45.534704000" lon="12.643124000">
  <ele>0.000000</ele>
</trkpt>
<trkpt lat="45.534860000" lon="12.642912000">
  <ele>0.000000</ele>
</trkpt>
<trkpt lat="45.534937000" lon="12.642815000">
  <ele>0.000000</ele>
</trkpt>
<trkpt lat="45.535159000" lon="12.642472000">
  <ele>0.000000</ele>
</trkpt>
<trkpt lat="45.535396000" lon="12.642113000">
  <ele>0.000000</ele>
</trkpt>
<trkpt lat="45.535637000" lon="12.641530000">
  <ele>0.000000</ele>
</trkpt>
<trkpt lat="45.535772000" lon="12.641135000">
  <ele>0.000000</ele>
</trkpt>
<trkpt lat="45.536115000" lon="12.640035000">
  <ele>0.000000</ele>
</trkpt>
<trkpt lat="45.536617000" lon="12.638649000">
  <ele>0.000000</ele>
</trkpt>
<trkpt lat="45.536697000" lon="12.638259000">
  <ele>0.000000</ele>
</trkpt>
<trkpt lat="45.535981000" lon="12.637981000">
  <ele>0.000000</ele>
</trkpt>
<trkpt lat="45.535521000" lon="12.637709000">
  <ele>0.000000</ele>
</trkpt>
<trkpt lat="45.533549000" lon="12.636394000">
  <ele>0.000000</ele>
</trkpt>
<trkpt lat="45.533480000" lon="12.636348000">
  <ele>0.000000</ele>
</trkpt>
<trkpt lat="45.532476000" lon="12.635595000">
  <ele>0.000000</ele>
</trkpt>
<trkpt lat="45.531590000" lon="12.635052000">
  <ele>0.000000</ele>
</trkpt>
<trkpt lat="45.530757000" lon="12.635105000">
  <ele>0.000000</ele>
</trkpt>
<trkpt lat="45.530420000" lon="12.635277000">
  <ele>0.000000</ele>
</trkpt>
<trkpt lat="45.529807000" lon="12.635912000">
  <ele>0.000000</ele>
</trkpt>
<trkpt lat="45.529103000" lon="12.636384000">
  <ele>0.000000</ele>
</trkpt>
<trkpt lat="45.528508000" lon="12.636667000">
  <ele>0.000000</ele>
</trkpt>
<trkpt lat="45.527684000" lon="12.636813000">
  <ele>0.000000</ele>
</trkpt>
<trkpt lat="45.526836000" lon="12.636891000">
  <ele>0.000000</ele>
</trkpt>
<trkpt lat="45.526007000" lon="12.636822000">
  <ele>0.000000</ele>
</trkpt>
<trkpt lat="45.525303000" lon="12.636547000">
  <ele>0.000000</ele>
</trkpt>
<trkpt lat="45.524864000" lon="12.636273000">
  <ele>0.000000</ele>
</trkpt>
<trkpt lat="45.524473000" lon="12.635801000">
  <ele>0.000000</ele>
</trkpt>
<trkpt lat="45.524191000" lon="12.635286000">
  <ele>0.000000</ele>
</trkpt>
<trkpt lat="45.523986000" lon="12.634693000">
  <ele>0.000000</ele>
</trkpt>
<trkpt lat="45.523655000" lon="12.633912000">
  <ele>0.000000</ele>
</trkpt>
<trkpt lat="45.523355000" lon="12.633474000">
  <ele>0.000000</ele>
</trkpt>
<trkpt lat="45.522777000" lon="12.632719000">
  <ele>0.000000</ele>
</trkpt>
<trkpt lat="45.522248000" lon="12.632350000">
  <ele>0.000000</ele>
</trkpt>
<trkpt lat="45.521761000" lon="12.632161000">
  <ele>0.000000</ele>
</trkpt>
<trkpt lat="45.521340000" lon="12.632101000">
  <ele>0.000000</ele>
</trkpt>
<trkpt lat="45.520673000" lon="12.632007000">
  <ele>0.000000</ele>
</trkpt>
<trkpt lat="45.519963000" lon="12.631646000">
  <ele>0.000000</ele>
</trkpt>
<trkpt lat="45.518514000" lon="12.630702000">
  <ele>0.000000</ele>
</trkpt>
<trkpt lat="45.516541000" lon="12.629277000">
  <ele>0.000000</ele>
</trkpt>
<trkpt lat="45.515074000" lon="12.628187000">
  <ele>0.000000</ele>
</trkpt>
<trkpt lat="45.513414000" lon="12.626840000">
  <ele>0.000000</ele>
</trkpt>
<trkpt lat="45.512229000" lon="12.625612000">
  <ele>0.000000</ele>
</trkpt>
<trkpt lat="45.511242000" lon="12.624368000">
  <ele>0.000000</ele>
</trkpt>
<trkpt lat="45.510526000" lon="12.623235000">
  <ele>0.000000</ele>
</trkpt>
<trkpt lat="45.510093000" lon="12.622462000">
  <ele>0.000000</ele>
</trkpt>
<trkpt lat="45.509360000" lon="12.620978000">
  <ele>0.000000</ele>
</trkpt>
<trkpt lat="45.508800000" lon="12.619733000">
  <ele>0.000000</ele>
</trkpt>
<trkpt lat="45.508319000" lon="12.618119000">
  <ele>0.000000</ele>
</trkpt>
<trkpt lat="45.508078000" lon="12.616643000">
  <ele>0.000000</ele>
</trkpt>
<trkpt lat="45.508000000" lon="12.615424000">
  <ele>0.000000</ele>
</trkpt>
<trkpt lat="45.508114000" lon="12.614309000">
  <ele>0.000000</ele>
</trkpt>
<trkpt lat="45.508277000" lon="12.613708000">
  <ele>0.000000</ele>
</trkpt>
<trkpt lat="45.508614000" lon="12.613176000">
  <ele>0.000000</ele>
</trkpt>
<trkpt lat="45.508876000" lon="12.612969000">
  <ele>0.000000</ele>
</trkpt>
<trkpt lat="45.509071000" lon="12.612815000">
  <ele>0.000000</ele>
</trkpt>
<trkpt lat="45.509438000" lon="12.612764000">
  <ele>0.000000</ele>
</trkpt>
<trkpt lat="45.510226000" lon="12.612901000">
  <ele>0.000000</ele>
</trkpt>
<trkpt lat="45.510827000" lon="12.612867000">
  <ele>0.000000</ele>
</trkpt>
<trkpt lat="45.511308000" lon="12.612575000">
  <ele>0.000000</ele>
</trkpt>
<trkpt lat="45.511747000" lon="12.612137000">
  <ele>0.000000</ele>
</trkpt>
<trkpt lat="45.512199000" lon="12.611450000">
  <ele>0.000000</ele>
</trkpt>
<trkpt lat="45.512409000" lon="12.610789000">
  <ele>0.000000</ele>
</trkpt>
<trkpt lat="45.512469000" lon="12.610000000">
  <ele>0.000000</ele>
</trkpt>
<trkpt lat="45.512499000" lon="12.609013000">
  <ele>0.000000</ele>
</trkpt>
<trkpt lat="45.512608000" lon="12.608180000">
  <ele>0.000000</ele>
</trkpt>
<trkpt lat="45.512800000" lon="12.607545000">
  <ele>0.000000</ele>
</trkpt>
<trkpt lat="45.513408000" lon="12.605837000">
  <ele>0.000000</ele>
</trkpt>
<trkpt lat="45.513558000" lon="12.605245000">
  <ele>0.000000</ele>
</trkpt>
<trkpt lat="45.513636000" lon="12.604601000">
  <ele>0.000000</ele>
</trkpt>
<trkpt lat="45.513666000" lon="12.603983000">
  <ele>0.000000</ele>
</trkpt>
<trkpt lat="45.513654000" lon="12.603125000">
  <ele>0.000000</ele>
</trkpt>
<trkpt lat="45.513516000" lon="12.602464000">
  <ele>0.000000</ele>
</trkpt>
<trkpt lat="45.513335000" lon="12.601889000">
  <ele>0.000000</ele>
</trkpt>
<trkpt lat="45.512704000" lon="12.600387000">
  <ele>0.000000</ele>
</trkpt>
<trkpt lat="45.512487000" lon="12.599872000">
  <ele>0.000000</ele>
</trkpt>
<trkpt lat="45.512084000" lon="12.598395000">
  <ele>0.000000</ele>
</trkpt>
<trkpt lat="45.511645000" lon="12.596739000">
  <ele>0.000000</ele>
</trkpt>
<trkpt lat="45.511338000" lon="12.596018000">
  <ele>0.000000</ele>
</trkpt>
<trkpt lat="45.510677000" lon="12.594894000">
  <ele>0.000000</ele>
</trkpt>
<trkpt lat="45.510376000" lon="12.594464000">
  <ele>0.000000</ele>
</trkpt>
<trkpt lat="45.509594000" lon="12.593520000">
  <ele>0.000000</ele>
</trkpt>
<trkpt lat="45.509167000" lon="12.593168000">
  <ele>0.000000</ele>
</trkpt>
<trkpt lat="45.508355000" lon="12.592774000">
  <ele>0.000000</ele>
</trkpt>
<trkpt lat="45.507495000" lon="12.592439000">
  <ele>0.000000</ele>
</trkpt>
<trkpt lat="45.507242000" lon="12.592181000">
  <ele>0.000000</ele>
</trkpt>
<trkpt lat="45.506502000" lon="12.590679000">
  <ele>0.000000</ele>
</trkpt>
<trkpt lat="45.506160000" lon="12.589821000">
  <ele>0.000000</ele>
</trkpt>
<trkpt lat="45.505522000" lon="12.588413000">
  <ele>0.000000</ele>
</trkpt>
<trkpt lat="45.505041000" lon="12.587770000">
  <ele>0.000000</ele>
</trkpt>
<trkpt lat="45.502292000" lon="12.583152000">
  <ele>0.000000</ele>
</trkpt>
<trkpt lat="45.500415000" lon="12.581169000">
  <ele>0.000000</ele>
</trkpt>
<trkpt lat="45.499879000" lon="12.580689000">
  <ele>0.000000</ele>
</trkpt>
<trkpt lat="45.499242000" lon="12.580234000">
  <ele>0.000000</ele>
</trkpt>
<trkpt lat="45.498367000" lon="12.579204000">
  <ele>0.000000</ele>
</trkpt>
<trkpt lat="45.497768000" lon="12.578818000">
  <ele>0.000000</ele>
</trkpt>
<trkpt lat="45.496985000" lon="12.578182000">
  <ele>0.000000</ele>
</trkpt>
<trkpt lat="45.495957000" lon="12.577504000">
  <ele>0.000000</ele>
</trkpt>
<trkpt lat="45.495259000" lon="12.577127000">
  <ele>0.000000</ele>
</trkpt>
<trkpt lat="45.494609000" lon="12.576861000">
  <ele>0.000000</ele>
</trkpt>
<trkpt lat="45.493707000" lon="12.576646000">
  <ele>0.000000</ele>
</trkpt>
<trkpt lat="45.493454000" lon="12.576629000">
  <ele>0.000000</ele>
</trkpt>
<trkpt lat="45.493129000" lon="12.576560000">
  <ele>0.000000</ele>
</trkpt>
<trkpt lat="45.492924000" lon="12.576431000">
  <ele>0.000000</ele>
</trkpt>
<trkpt lat="45.492672000" lon="12.576097000">
  <ele>0.000000</ele>
</trkpt>
<trkpt lat="45.492587000" lon="12.576183000">
  <ele>0.000000</ele>
</trkpt>
<trkpt lat="45.492467000" lon="12.576371000">
  <ele>0.000000</ele>
</trkpt>
<trkpt lat="45.492587000" lon="12.576637000">
  <ele>0.000000</ele>
</trkpt>
<trkpt lat="45.492515000" lon="12.576783000">
  <ele>0.000000</ele>
</trkpt>
<trkpt lat="45.492329000" lon="12.576886000">
  <ele>0.000000</ele>
</trkpt>
<trkpt lat="45.492118000" lon="12.576878000">
  <ele>0.000000</ele>
</trkpt>
<trkpt lat="45.491944000" lon="12.576552000">
  <ele>0.000000</ele>
</trkpt>
<trkpt lat="45.491811000" lon="12.576612000">
  <ele>0.000000</ele>
</trkpt>
<trkpt lat="45.491726000" lon="12.576528000">
  <ele>0.000000</ele>
</trkpt>
<trkpt lat="45.491395000" lon="12.576056000">
  <ele>0.000000</ele>
</trkpt>
</trkseg>
</trk>
<trk>
  <name>I3-4</name>
<trkseg>
<trkpt lat="45.535958000" lon="12.722118000">
  <ele>0.000000</ele>
</trkpt>
<trkpt lat="45.535944000" lon="12.722182000">
  <ele>0.000000</ele>
</trkpt>
<trkpt lat="45.535915000" lon="12.722235000">
  <ele>0.000000</ele>
</trkpt>
<trkpt lat="45.535878000" lon="12.722269000">
  <ele>0.000000</ele>
</trkpt>
<trkpt lat="45.535832000" lon="12.722285000">
  <ele>0.000000</ele>
</trkpt>
<trkpt lat="45.535786000" lon="12.722278000">
  <ele>0.000000</ele>
</trkpt>
<trkpt lat="45.535743000" lon="12.722247000">
  <ele>0.000000</ele>
</trkpt>
<trkpt lat="45.535710000" lon="12.722198000">
  <ele>0.000000</ele>
</trkpt>
<trkpt lat="45.535692000" lon="12.722137000">
  <ele>0.000000</ele>
</trkpt>
</trkseg>
</trk>
<trk>
  <name>I3-4</name>
<trkseg>
<trkpt lat="45.535692000" lon="12.722137000">
  <ele>0.000000</ele>
</trkpt>
<trkpt lat="45.535692000" lon="12.722045000">
  <ele>0.000000</ele>
</trkpt>
<trkpt lat="45.535712000" lon="12.721984000">
  <ele>0.000000</ele>
</trkpt>
<trkpt lat="45.535760000" lon="12.721922000">
  <ele>0.000000</ele>
</trkpt>
<trkpt lat="45.535805000" lon="12.721901000">
  <ele>0.000000</ele>
</trkpt>
<trkpt lat="45.535852000" lon="12.721904000">
  <ele>0.000000</ele>
</trkpt>
<trkpt lat="45.535890000" lon="12.721924000">
  <ele>0.000000</ele>
</trkpt>
<trkpt lat="45.535926000" lon="12.721967000">
  <ele>0.000000</ele>
</trkpt>
<trkpt lat="45.535956000" lon="12.722051000">
  <ele>0.000000</ele>
</trkpt>
<trkpt lat="45.535958000" lon="12.722118000">
  <ele>0.000000</ele>
</trkpt>
</trkseg>
</trk>
<trk>
  <name>I3-4</name>
<trkseg>
<trkpt lat="45.556418000" lon="12.736610000">
  <ele>0.000000</ele>
</trkpt>
<trkpt lat="45.556209000" lon="12.736271000">
  <ele>0.000000</ele>
</trkpt>
<trkpt lat="45.555716000" lon="12.735781000">
  <ele>0.000000</ele>
</trkpt>
<trkpt lat="45.553630000" lon="12.734202000">
  <ele>0.000000</ele>
</trkpt>
<trkpt lat="45.549135000" lon="12.730820000">
  <ele>0.000000</ele>
</trkpt>
<trkpt lat="45.547615000" lon="12.729747000">
  <ele>0.000000</ele>
</trkpt>
<trkpt lat="45.547351000" lon="12.729541000">
  <ele>0.000000</ele>
</trkpt>
<trkpt lat="45.546718000" lon="12.728717000">
  <ele>0.000000</ele>
</trkpt>
<trkpt lat="45.546087000" lon="12.727825000">
  <ele>0.000000</ele>
</trkpt>
<trkpt lat="45.545954000" lon="12.727357000">
  <ele>0.000000</ele>
</trkpt>
<trkpt lat="45.545587000" lon="12.726301000">
  <ele>0.000000</ele>
</trkpt>
<trkpt lat="45.545291000" lon="12.725603000">
  <ele>0.000000</ele>
</trkpt>
<trkpt lat="45.544669000" lon="12.724799000">
  <ele>0.000000</ele>
</trkpt>
<trkpt lat="45.543772000" lon="12.723739000">
  <ele>0.000000</ele>
</trkpt>
<trkpt lat="45.543268000" lon="12.723211000">
  <ele>0.000000</ele>
</trkpt>
<trkpt lat="45.542573000" lon="12.722555000">
  <ele>0.000000</ele>
</trkpt>
<trkpt lat="45.541902000" lon="12.722111000">
  <ele>0.000000</ele>
</trkpt>
<trkpt lat="45.541262000" lon="12.721757000">
  <ele>0.000000</ele>
</trkpt>
<trkpt lat="45.540859000" lon="12.721601000">
  <ele>0.000000</ele>
</trkpt>
<trkpt lat="45.540477000" lon="12.721509000">
  <ele>0.000000</ele>
</trkpt>
<trkpt lat="45.539683000" lon="12.721530000">
  <ele>0.000000</ele>
</trkpt>
<trkpt lat="45.539141000" lon="12.721452000">
  <ele>0.000000</ele>
</trkpt>
<trkpt lat="45.537980000" lon="12.721240000">
  <ele>0.000000</ele>
</trkpt>
<trkpt lat="45.537772000" lon="12.721273000">
  <ele>0.000000</ele>
</trkpt>
<trkpt lat="45.537005000" lon="12.721653000">
  <ele>0.000000</ele>
</trkpt>
<trkpt lat="45.536575000" lon="12.721900000">
  <ele>0.000000</ele>
</trkpt>
<trkpt lat="45.536396000" lon="12.722010000">
  <ele>0.000000</ele>
</trkpt>
<trkpt lat="45.536139000" lon="12.722116000">
  <ele>0.000000</ele>
</trkpt>
<trkpt lat="45.535958000" lon="12.722118000">
  <ele>0.000000</ele>
</trkpt>
</trkseg>
</trk>
<trk>
  <name>I3-4</name>
<trkseg>
<trkpt lat="45.583416000" lon="12.831515000">
  <ele>0.000000</ele>
</trkpt>
<trkpt lat="45.583433000" lon="12.831411000">
  <ele>0.000000</ele>
</trkpt>
<trkpt lat="45.583466000" lon="12.831266000">
  <ele>0.000000</ele>
</trkpt>
<trkpt lat="45.583112000" lon="12.830112000">
  <ele>0.000000</ele>
</trkpt>
<trkpt lat="45.581981000" lon="12.829595000">
  <ele>0.000000</ele>
</trkpt>
<trkpt lat="45.582035000" lon="12.829488000">
  <ele>0.000000</ele>
</trkpt>
<trkpt lat="45.581485000" lon="12.829143000">
  <ele>0.000000</ele>
</trkpt>
<trkpt lat="45.580989000" lon="12.828416000">
  <ele>0.000000</ele>
</trkpt>
<trkpt lat="45.580860000" lon="12.828100000">
  <ele>0.000000</ele>
</trkpt>
<trkpt lat="45.580514000" lon="12.826819000">
  <ele>0.000000</ele>
</trkpt>
<trkpt lat="45.580886000" lon="12.825273000">
  <ele>0.000000</ele>
</trkpt>
<trkpt lat="45.581350000" lon="12.824178000">
  <ele>0.000000</ele>
</trkpt>
<trkpt lat="45.581166000" lon="12.823286000">
  <ele>0.000000</ele>
</trkpt>
<trkpt lat="45.581119000" lon="12.823087000">
  <ele>0.000000</ele>
</trkpt>
<trkpt lat="45.581045000" lon="12.822982000">
  <ele>0.000000</ele>
</trkpt>
<trkpt lat="45.580910000" lon="12.822912000">
  <ele>0.000000</ele>
</trkpt>
<trkpt lat="45.580954000" lon="12.822746000">
  <ele>0.000000</ele>
</trkpt>
<trkpt lat="45.580962000" lon="12.822701000">
  <ele>0.000000</ele>
</trkpt>
<trkpt lat="45.580688000" lon="12.822515000">
  <ele>0.000000</ele>
</trkpt>
<trkpt lat="45.580991000" lon="12.822207000">
  <ele>0.000000</ele>
</trkpt>
<trkpt lat="45.581010000" lon="12.822135000">
  <ele>0.000000</ele>
</trkpt>
<trkpt lat="45.581010000" lon="12.822059000">
  <ele>0.000000</ele>
</trkpt>
<trkpt lat="45.579558000" lon="12.816758000">
  <ele>0.000000</ele>
</trkpt>
<trkpt lat="45.578818000" lon="12.814097000">
  <ele>0.000000</ele>
</trkpt>
<trkpt lat="45.578552000" lon="12.813496000">
  <ele>0.000000</ele>
</trkpt>
<trkpt lat="45.576005000" lon="12.809893000">
  <ele>0.000000</ele>
</trkpt>
<trkpt lat="45.575808000" lon="12.809737000">
  <ele>0.000000</ele>
</trkpt>
<trkpt lat="45.575455000" lon="12.809287000">
  <ele>0.000000</ele>
</trkpt>
<trkpt lat="45.575100000" lon="12.808776000">
  <ele>0.000000</ele>
</trkpt>
<trkpt lat="45.575003000" lon="12.808537000">
  <ele>0.000000</ele>
</trkpt>
<trkpt lat="45.572987000" lon="12.805688000">
  <ele>0.000000</ele>
</trkpt>
<trkpt lat="45.573024000" lon="12.805630000">
  <ele>0.000000</ele>
</trkpt>
<trkpt lat="45.572721000" lon="12.805220000">
  <ele>0.000000</ele>
</trkpt>
<trkpt lat="45.572196000" lon="12.803443000">
  <ele>0.000000</ele>
</trkpt>
<trkpt lat="45.570824000" lon="12.800056000">
  <ele>0.000000</ele>
</trkpt>
<trkpt lat="45.570739000" lon="12.799873000">
  <ele>0.000000</ele>
</trkpt>
<trkpt lat="45.569328000" lon="12.796611000">
  <ele>0.000000</ele>
</trkpt>
<trkpt lat="45.568951000" lon="12.795740000">
  <ele>0.000000</ele>
</trkpt>
<trkpt lat="45.568095000" lon="12.793763000">
  <ele>0.000000</ele>
</trkpt>
<trkpt lat="45.567560000" lon="12.793268000">
  <ele>0.000000</ele>
</trkpt>
<trkpt lat="45.567385000" lon="12.793107000">
  <ele>0.000000</ele>
</trkpt>
<trkpt lat="45.566309000" lon="12.792124000">
  <ele>0.000000</ele>
</trkpt>
<trkpt lat="45.564864000" lon="12.791285000">
  <ele>0.000000</ele>
</trkpt>
<trkpt lat="45.563447000" lon="12.790451000">
  <ele>0.000000</ele>
</trkpt>
<trkpt lat="45.563515000" lon="12.790285000">
  <ele>0.000000</ele>
</trkpt>
<trkpt lat="45.563328000" lon="12.790178000">
  <ele>0.000000</ele>
</trkpt>
<trkpt lat="45.563223000" lon="12.789991000">
  <ele>0.000000</ele>
</trkpt>
<trkpt lat="45.563058000" lon="12.789624000">
  <ele>0.000000</ele>
</trkpt>
<trkpt lat="45.560178000" lon="12.783602000">
  <ele>0.000000</ele>
</trkpt>
<trkpt lat="45.554592000" lon="12.771836000">
  <ele>0.000000</ele>
</trkpt>
<trkpt lat="45.554468000" lon="12.771861000">
  <ele>0.000000</ele>
</trkpt>
<trkpt lat="45.554383000" lon="12.771685000">
  <ele>0.000000</ele>
</trkpt>
<trkpt lat="45.554657000" lon="12.771408000">
  <ele>0.000000</ele>
</trkpt>
<trkpt lat="45.555425000" lon="12.770637000">
  <ele>0.000000</ele>
</trkpt>
<trkpt lat="45.555476000" lon="12.770209000">
  <ele>0.000000</ele>
</trkpt>
<trkpt lat="45.553945000" lon="12.766956000">
  <ele>0.000000</ele>
</trkpt>
<trkpt lat="45.553764000" lon="12.766547000">
  <ele>0.000000</ele>
</trkpt>
<trkpt lat="45.553178000" lon="12.765379000">
  <ele>0.000000</ele>
</trkpt>
<trkpt lat="45.553012000" lon="12.764932000">
  <ele>0.000000</ele>
</trkpt>
<trkpt lat="45.552840000" lon="12.764477000">
  <ele>0.000000</ele>
</trkpt>
<trkpt lat="45.552318000" lon="12.763402000">
  <ele>0.000000</ele>
</trkpt>
<trkpt lat="45.550503000" lon="12.759476000">
  <ele>0.000000</ele>
</trkpt>
<trkpt lat="45.549938000" lon="12.760038000">
  <ele>0.000000</ele>
</trkpt>
<trkpt lat="45.548992000" lon="12.760956000">
  <ele>0.000000</ele>
</trkpt>
<trkpt lat="45.548132000" lon="12.761694000">
  <ele>0.000000</ele>
</trkpt>
<trkpt lat="45.546365000" lon="12.763557000">
  <ele>0.000000</ele>
</trkpt>
<trkpt lat="45.546059000" lon="12.763799000">
  <ele>0.000000</ele>
</trkpt>
<trkpt lat="45.545355000" lon="12.764355000">
  <ele>0.000000</ele>
</trkpt>
<trkpt lat="45.545275000" lon="12.764089000">
  <ele>0.000000</ele>
</trkpt>
<trkpt lat="45.545056000" lon="12.762990000">
  <ele>0.000000</ele>
</trkpt>
<trkpt lat="45.544873000" lon="12.762142000">
  <ele>0.000000</ele>
</trkpt>
<trkpt lat="45.544507000" lon="12.760345000">
  <ele>0.000000</ele>
</trkpt>
<trkpt lat="45.544308000" lon="12.759669000">
  <ele>0.000000</ele>
</trkpt>
<trkpt lat="45.543737000" lon="12.757687000">
  <ele>0.000000</ele>
</trkpt>
<trkpt lat="45.543761000" lon="12.757668000">
  <ele>0.000000</ele>
</trkpt>
<trkpt lat="45.543270000" lon="12.755806000">
  <ele>0.000000</ele>
</trkpt>
<trkpt lat="45.543252000" lon="12.755717000">
  <ele>0.000000</ele>
</trkpt>
<trkpt lat="45.543041000" lon="12.754648000">
  <ele>0.000000</ele>
</trkpt>
<trkpt lat="45.542861000" lon="12.753549000">
  <ele>0.000000</ele>
</trkpt>
<trkpt lat="45.544218000" lon="12.751867000">
  <ele>0.000000</ele>
</trkpt>
<trkpt lat="45.544454000" lon="12.751575000">
  <ele>0.000000</ele>
</trkpt>
<trkpt lat="45.545474000" lon="12.750311000">
  <ele>0.000000</ele>
</trkpt>
<trkpt lat="45.545739000" lon="12.749982000">
  <ele>0.000000</ele>
</trkpt>
<trkpt lat="45.548073000" lon="12.746757000">
  <ele>0.000000</ele>
</trkpt>
</trkseg>
</trk>
<trk>
  <name>I3-4</name>
<trkseg>
<trkpt lat="45.549162000" lon="12.745311000">
  <ele>0.000000</ele>
</trkpt>
<trkpt lat="45.548839000" lon="12.746355000">
  <ele>0.000000</ele>
</trkpt>
<trkpt lat="45.548809000" lon="12.746430000">
  <ele>0.000000</ele>
</trkpt>
<trkpt lat="45.548692000" lon="12.746588000">
  <ele>0.000000</ele>
</trkpt>
<trkpt lat="45.548578000" lon="12.746676000">
  <ele>0.000000</ele>
</trkpt>
<trkpt lat="45.548426000" lon="12.746660000">
  <ele>0.000000</ele>
</trkpt>
<trkpt lat="45.548261000" lon="12.746687000">
  <ele>0.000000</ele>
</trkpt>
<trkpt lat="45.548073000" lon="12.746757000">
  <ele>0.000000</ele>
</trkpt>
</trkseg>
</trk>
<trk>
  <name>I3-4</name>
<trkseg>
<trkpt lat="45.548073000" lon="12.746757000">
  <ele>0.000000</ele>
</trkpt>
<trkpt lat="45.548447000" lon="12.746261000">
  <ele>0.000000</ele>
</trkpt>
<trkpt lat="45.548635000" lon="12.746005000">
  <ele>0.000000</ele>
</trkpt>
<trkpt lat="45.549162000" lon="12.745311000">
  <ele>0.000000</ele>
</trkpt>
</trkseg>
</trk>
<trk>
  <name>I3-4</name>
<trkseg>
<trkpt lat="45.556418000" lon="12.736610000">
  <ele>0.000000</ele>
</trkpt>
<trkpt lat="45.555728000" lon="12.737372000">
  <ele>0.000000</ele>
</trkpt>
<trkpt lat="45.552362000" lon="12.741066000">
  <ele>0.000000</ele>
</trkpt>
<trkpt lat="45.551555000" lon="12.742136000">
  <ele>0.000000</ele>
</trkpt>
<trkpt lat="45.549162000" lon="12.745311000">
  <ele>0.000000</ele>
</trkpt>
</trkseg>
</trk>
<trk>
  <name>I3-4</name>
<trkseg>
<trkpt lat="45.557218000" lon="12.738202000">
  <ele>0.000000</ele>
</trkpt>
<trkpt lat="45.557958000" lon="12.737532000">
  <ele>0.000000</ele>
</trkpt>
<trkpt lat="45.558150000" lon="12.737060000">
  <ele>0.000000</ele>
</trkpt>
<trkpt lat="45.558126000" lon="12.736588000">
  <ele>0.000000</ele>
</trkpt>
<trkpt lat="45.557520000" lon="12.735343000">
  <ele>0.000000</ele>
</trkpt>
<trkpt lat="45.557279000" lon="12.735612000">
  <ele>0.000000</ele>
</trkpt>
<trkpt lat="45.556881000" lon="12.736099000">
  <ele>0.000000</ele>
</trkpt>
<trkpt lat="45.556418000" lon="12.736610000">
  <ele>0.000000</ele>
</trkpt>
</trkseg>
</trk>
<trk>
  <name>I3-4</name>
<trkseg>
<trkpt lat="45.557218000" lon="12.738202000">
  <ele>0.000000</ele>
</trkpt>
<trkpt lat="45.556617000" lon="12.736931000">
  <ele>0.000000</ele>
</trkpt>
<trkpt lat="45.556418000" lon="12.736610000">
  <ele>0.000000</ele>
</trkpt>
</trkseg>
</trk>
<trk>
  <name>I3-4</name>
<trkseg>
<trkpt lat="45.581247000" lon="12.809286000">
  <ele>0.000000</ele>
</trkpt>
<trkpt lat="45.579059000" lon="12.806177000">
  <ele>0.000000</ele>
</trkpt>
<trkpt lat="45.578254000" lon="12.805046000">
  <ele>0.000000</ele>
</trkpt>
<trkpt lat="45.577974000" lon="12.804703000">
  <ele>0.000000</ele>
</trkpt>
<trkpt lat="45.576826000" lon="12.803474000">
  <ele>0.000000</ele>
</trkpt>
<trkpt lat="45.573658000" lon="12.800219000">
  <ele>0.000000</ele>
</trkpt>
<trkpt lat="45.571929000" lon="12.798056000">
  <ele>0.000000</ele>
</trkpt>
<trkpt lat="45.571710000" lon="12.797782000">
  <ele>0.000000</ele>
</trkpt>
<trkpt lat="45.570594000" lon="12.796154000">
  <ele>0.000000</ele>
</trkpt>
<trkpt lat="45.570022000" lon="12.795421000">
  <ele>0.000000</ele>
</trkpt>
<trkpt lat="45.569969000" lon="12.795168000">
  <ele>0.000000</ele>
</trkpt>
<trkpt lat="45.569986000" lon="12.794889000">
  <ele>0.000000</ele>
</trkpt>
<trkpt lat="45.570417000" lon="12.792553000">
  <ele>0.000000</ele>
</trkpt>
<trkpt lat="45.570990000" lon="12.789408000">
  <ele>0.000000</ele>
</trkpt>
<trkpt lat="45.572023000" lon="12.786288000">
  <ele>0.000000</ele>
</trkpt>
<trkpt lat="45.572076000" lon="12.785909000">
  <ele>0.000000</ele>
</trkpt>
<trkpt lat="45.571999000" lon="12.785403000">
  <ele>0.000000</ele>
</trkpt>
<trkpt lat="45.571444000" lon="12.784020000">
  <ele>0.000000</ele>
</trkpt>
<trkpt lat="45.570742000" lon="12.783092000">
  <ele>0.000000</ele>
</trkpt>
<trkpt lat="45.569266000" lon="12.780436000">
  <ele>0.000000</ele>
</trkpt>
<trkpt lat="45.567956000" lon="12.778024000">
  <ele>0.000000</ele>
</trkpt>
<trkpt lat="45.567600000" lon="12.776549000">
  <ele>0.000000</ele>
</trkpt>
<trkpt lat="45.566869000" lon="12.773521000">
  <ele>0.000000</ele>
</trkpt>
<trkpt lat="45.566651000" lon="12.772560000">
  <ele>0.000000</ele>
</trkpt>
<trkpt lat="45.566627000" lon="12.771860000">
  <ele>0.000000</ele>
</trkpt>
<trkpt lat="45.567497000" lon="12.767222000">
  <ele>0.000000</ele>
</trkpt>
<trkpt lat="45.567692000" lon="12.764519000">
  <ele>0.000000</ele>
</trkpt>
<trkpt lat="45.567632000" lon="12.763027000">
  <ele>0.000000</ele>
</trkpt>
<trkpt lat="45.567550000" lon="12.761793000">
  <ele>0.000000</ele>
</trkpt>
<trkpt lat="45.567482000" lon="12.760978000">
  <ele>0.000000</ele>
</trkpt>
<trkpt lat="45.567242000" lon="12.760184000">
  <ele>0.000000</ele>
</trkpt>
<trkpt lat="45.567080000" lon="12.759780000">
  <ele>0.000000</ele>
</trkpt>
<trkpt lat="45.566909000" lon="12.759425000">
  <ele>0.000000</ele>
</trkpt>
<trkpt lat="45.566142000" lon="12.757862000">
  <ele>0.000000</ele>
</trkpt>
<trkpt lat="45.563637000" lon="12.752604000">
  <ele>0.000000</ele>
</trkpt>
<trkpt lat="45.563988000" lon="12.752321000">
  <ele>0.000000</ele>
</trkpt>
<trkpt lat="45.564095000" lon="12.752170000">
  <ele>0.000000</ele>
</trkpt>
<trkpt lat="45.564027000" lon="12.752115000">
  <ele>0.000000</ele>
</trkpt>
<trkpt lat="45.563582000" lon="12.751471000">
  <ele>0.000000</ele>
</trkpt>
<trkpt lat="45.563443000" lon="12.751184000">
  <ele>0.000000</ele>
</trkpt>
<trkpt lat="45.562837000" lon="12.749943000">
  <ele>0.000000</ele>
</trkpt>
<trkpt lat="45.557218000" lon="12.738202000">
  <ele>0.000000</ele>
</trkpt>
</trkseg>
</trk>
<trk>
  <name>I3-4</name>
<trkseg>
<trkpt lat="45.583433000" lon="12.826315000">
  <ele>0.000000</ele>
</trkpt>
<trkpt lat="45.584049000" lon="12.825974000">
  <ele>0.000000</ele>
</trkpt>
<trkpt lat="45.584527000" lon="12.825628000">
  <ele>0.000000</ele>
</trkpt>
<trkpt lat="45.585037000" lon="12.825030000">
  <ele>0.000000</ele>
</trkpt>
<trkpt lat="45.586748000" lon="12.822527000">
  <ele>0.000000</ele>
</trkpt>
<trkpt lat="45.587256000" lon="12.821718000">
  <ele>0.000000</ele>
</trkpt>
<trkpt lat="45.587450000" lon="12.821210000">
  <ele>0.000000</ele>
</trkpt>
<trkpt lat="45.587841000" lon="12.820856000">
  <ele>0.000000</ele>
</trkpt>
<trkpt lat="45.590536000" lon="12.816886000">
  <ele>0.000000</ele>
</trkpt>
<trkpt lat="45.590592000" lon="12.816766000">
  <ele>0.000000</ele>
</trkpt>
<trkpt lat="45.590014000" lon="12.815736000">
  <ele>0.000000</ele>
</trkpt>
<trkpt lat="45.589531000" lon="12.814905000">
  <ele>0.000000</ele>
</trkpt>
<trkpt lat="45.589029000" lon="12.814033000">
  <ele>0.000000</ele>
</trkpt>
<trkpt lat="45.588552000" lon="12.813278000">
  <ele>0.000000</ele>
</trkpt>
<trkpt lat="45.587765000" lon="12.812316000">
  <ele>0.000000</ele>
</trkpt>
<trkpt lat="45.586954000" lon="12.811746000">
  <ele>0.000000</ele>
</trkpt>
<trkpt lat="45.586576000" lon="12.811557000">
  <ele>0.000000</ele>
</trkpt>
<trkpt lat="45.586199000" lon="12.811417000">
  <ele>0.000000</ele>
</trkpt>
<trkpt lat="45.585575000" lon="12.811284000">
  <ele>0.000000</ele>
</trkpt>
<trkpt lat="45.584961000" lon="12.811233000">
  <ele>0.000000</ele>
</trkpt>
<trkpt lat="45.583733000" lon="12.811130000">
  <ele>0.000000</ele>
</trkpt>
<trkpt lat="45.583432000" lon="12.811099000">
  <ele>0.000000</ele>
</trkpt>
<trkpt lat="45.583140000" lon="12.811022000">
  <ele>0.000000</ele>
</trkpt>
<trkpt lat="45.582586000" lon="12.810728000">
  <ele>0.000000</ele>
</trkpt>
<trkpt lat="45.582285000" lon="12.810518000">
  <ele>0.000000</ele>
</trkpt>
<trkpt lat="45.582021000" lon="12.810282000">
  <ele>0.000000</ele>
</trkpt>
<trkpt lat="45.581566000" lon="12.809738000">
  <ele>0.000000</ele>
</trkpt>
<trkpt lat="45.581504000" lon="12.809672000">
  <ele>0.000000</ele>
</trkpt>
<trkpt lat="45.581343000" lon="12.809408000">
  <ele>0.000000</ele>
</trkpt>
</trkseg>
</trk>
<trk>
  <name>I3-4</name>
<trkseg>
<trkpt lat="45.584617000" lon="12.847516000">
  <ele>0.000000</ele>
</trkpt>
<trkpt lat="45.584515000" lon="12.847246000">
  <ele>0.000000</ele>
</trkpt>
<trkpt lat="45.584220000" lon="12.846330000">
  <ele>0.000000</ele>
</trkpt>
<trkpt lat="45.583921000" lon="12.845509000">
  <ele>0.000000</ele>
</trkpt>
<trkpt lat="45.583801000" lon="12.845205000">
  <ele>0.000000</ele>
</trkpt>
<trkpt lat="45.583757000" lon="12.845087000">
  <ele>0.000000</ele>
</trkpt>
<trkpt lat="45.583757000" lon="12.844555000">
  <ele>0.000000</ele>
</trkpt>
<trkpt lat="45.583904000" lon="12.843399000">
  <ele>0.000000</ele>
</trkpt>
<trkpt lat="45.584236000" lon="12.842123000">
  <ele>0.000000</ele>
</trkpt>
<trkpt lat="45.585168000" lon="12.838546000">
  <ele>0.000000</ele>
</trkpt>
<trkpt lat="45.585201000" lon="12.838380000">
  <ele>0.000000</ele>
</trkpt>
<trkpt lat="45.585237000" lon="12.838200000">
  <ele>0.000000</ele>
</trkpt>
<trkpt lat="45.585279000" lon="12.837988000">
  <ele>0.000000</ele>
</trkpt>
<trkpt lat="45.585201000" lon="12.837952000">
  <ele>0.000000</ele>
</trkpt>
<trkpt lat="45.585293000" lon="12.837598000">
  <ele>0.000000</ele>
</trkpt>
<trkpt lat="45.585228000" lon="12.837133000">
  <ele>0.000000</ele>
</trkpt>
<trkpt lat="45.584702000" lon="12.835557000">
  <ele>0.000000</ele>
</trkpt>
<trkpt lat="45.583575000" lon="12.831790000">
  <ele>0.000000</ele>
</trkpt>
<trkpt lat="45.583416000" lon="12.831515000">
  <ele>0.000000</ele>
</trkpt>
</trkseg>
</trk>
<trk>
  <name>I3-4</name>
<trkseg>
<trkpt lat="45.583554000" lon="12.831423000">
  <ele>0.000000</ele>
</trkpt>
<trkpt lat="45.583350000" lon="12.830685000">
  <ele>0.000000</ele>
</trkpt>
<trkpt lat="45.583192000" lon="12.830068000">
  <ele>0.000000</ele>
</trkpt>
<trkpt lat="45.583019000" lon="12.829692000">
  <ele>0.000000</ele>
</trkpt>
<trkpt lat="45.582795000" lon="12.829452000">
  <ele>0.000000</ele>
</trkpt>
<trkpt lat="45.582013000" lon="12.829113000">
  <ele>0.000000</ele>
</trkpt>
<trkpt lat="45.581668000" lon="12.828931000">
  <ele>0.000000</ele>
</trkpt>
<trkpt lat="45.581487000" lon="12.828770000">
  <ele>0.000000</ele>
</trkpt>
<trkpt lat="45.581203000" lon="12.828379000">
  <ele>0.000000</ele>
</trkpt>
<trkpt lat="45.581074000" lon="12.828031000">
  <ele>0.000000</ele>
</trkpt>
<trkpt lat="45.580886000" lon="12.827406000">
  <ele>0.000000</ele>
</trkpt>
<trkpt lat="45.580886000" lon="12.827212000">
  <ele>0.000000</ele>
</trkpt>
<trkpt lat="45.580930000" lon="12.827104000">
  <ele>0.000000</ele>
</trkpt>
<trkpt lat="45.581045000" lon="12.827007000">
  <ele>0.000000</ele>
</trkpt>
<trkpt lat="45.581162000" lon="12.826966000">
  <ele>0.000000</ele>
</trkpt>
<trkpt lat="45.581255000" lon="12.827080000">
  <ele>0.000000</ele>
</trkpt>
<trkpt lat="45.581301000" lon="12.827183000">
  <ele>0.000000</ele>
</trkpt>
<trkpt lat="45.581447000" lon="12.827263000">
  <ele>0.000000</ele>
</trkpt>
<trkpt lat="45.581561000" lon="12.827278000">
  <ele>0.000000</ele>
</trkpt>
<trkpt lat="45.581726000" lon="12.827192000">
  <ele>0.000000</ele>
</trkpt>
<trkpt lat="45.581894000" lon="12.827002000">
  <ele>0.000000</ele>
</trkpt>
<trkpt lat="45.581891000" lon="12.826708000">
  <ele>0.000000</ele>
</trkpt>
<trkpt lat="45.581962000" lon="12.826405000">
  <ele>0.000000</ele>
</trkpt>
<trkpt lat="45.582028000" lon="12.826265000">
  <ele>0.000000</ele>
</trkpt>
<trkpt lat="45.582165000" lon="12.826083000">
  <ele>0.000000</ele>
</trkpt>
<trkpt lat="45.582439000" lon="12.825918000">
  <ele>0.000000</ele>
</trkpt>
<trkpt lat="45.582684000" lon="12.825981000">
  <ele>0.000000</ele>
</trkpt>
<trkpt lat="45.582863000" lon="12.826090000">
  <ele>0.000000</ele>
</trkpt>
<trkpt lat="45.583001000" lon="12.826226000">
  <ele>0.000000</ele>
</trkpt>
<trkpt lat="45.583064000" lon="12.826355000">
  <ele>0.000000</ele>
</trkpt>
<trkpt lat="45.583433000" lon="12.826315000">
  <ele>0.000000</ele>
</trkpt>
</trkseg>
</trk>
<trk>
  <name>I3-4</name>
<trkseg>
<trkpt lat="45.583554000" lon="12.831423000">
  <ele>0.000000</ele>
</trkpt>
<trkpt lat="45.583626000" lon="12.831373000">
  <ele>0.000000</ele>
</trkpt>
<trkpt lat="45.583172000" lon="12.829801000">
  <ele>0.000000</ele>
</trkpt>
<trkpt lat="45.583023000" lon="12.829561000">
  <ele>0.000000</ele>
</trkpt>
<trkpt lat="45.582885000" lon="12.829423000">
  <ele>0.000000</ele>
</trkpt>
<trkpt lat="45.581970000" lon="12.829007000">
  <ele>0.000000</ele>
</trkpt>
<trkpt lat="45.581795000" lon="12.828928000">
  <ele>0.000000</ele>
</trkpt>
<trkpt lat="45.581718000" lon="12.828860000">
  <ele>0.000000</ele>
</trkpt>
<trkpt lat="45.581648000" lon="12.828781000">
  <ele>0.000000</ele>
</trkpt>
<trkpt lat="45.581563000" lon="12.828619000">
  <ele>0.000000</ele>
</trkpt>
<trkpt lat="45.581519000" lon="12.828516000">
  <ele>0.000000</ele>
</trkpt>
<trkpt lat="45.581453000" lon="12.827901000">
  <ele>0.000000</ele>
</trkpt>
<trkpt lat="45.581452000" lon="12.827699000">
  <ele>0.000000</ele>
</trkpt>
<trkpt lat="45.581521000" lon="12.827558000">
  <ele>0.000000</ele>
</trkpt>
<trkpt lat="45.581594000" lon="12.827435000">
  <ele>0.000000</ele>
</trkpt>
<trkpt lat="45.581756000" lon="12.827333000">
  <ele>0.000000</ele>
</trkpt>
<trkpt lat="45.581991000" lon="12.827330000">
  <ele>0.000000</ele>
</trkpt>
<trkpt lat="45.582126000" lon="12.827562000">
  <ele>0.000000</ele>
</trkpt>
<trkpt lat="45.582222000" lon="12.827652000">
  <ele>0.000000</ele>
</trkpt>
<trkpt lat="45.582434000" lon="12.827753000">
  <ele>0.000000</ele>
</trkpt>
<trkpt lat="45.582667000" lon="12.827740000">
  <ele>0.000000</ele>
</trkpt>
<trkpt lat="45.582945000" lon="12.827540000">
  <ele>0.000000</ele>
</trkpt>
<trkpt lat="45.583086000" lon="12.827294000">
  <ele>0.000000</ele>
</trkpt>
<trkpt lat="45.583122000" lon="12.827151000">
  <ele>0.000000</ele>
</trkpt>
<trkpt lat="45.583147000" lon="12.827048000">
  <ele>0.000000</ele>
</trkpt>
<trkpt lat="45.583162000" lon="12.826714000">
  <ele>0.000000</ele>
</trkpt>
<trkpt lat="45.583433000" lon="12.826315000">
  <ele>0.000000</ele>
</trkpt>
</trkseg>
</trk>
<trk>
  <name>I3-4</name>
<trkseg>
<trkpt lat="45.583416000" lon="12.831515000">
  <ele>0.000000</ele>
</trkpt>
<trkpt lat="45.583554000" lon="12.831423000">
  <ele>0.000000</ele>
</trkpt>
</trkseg>
</trk>
<trk>
  <name>I3-4</name>
<trkseg>
<trkpt lat="45.591316000" lon="12.853878000">
  <ele>0.000000</ele>
</trkpt>
<trkpt lat="45.591156000" lon="12.853769000">
  <ele>0.000000</ele>
</trkpt>
<trkpt lat="45.590340000" lon="12.853443000">
  <ele>0.000000</ele>
</trkpt>
<trkpt lat="45.588408000" lon="12.852490000">
  <ele>0.000000</ele>
</trkpt>
<trkpt lat="45.588319000" lon="12.852454000">
  <ele>0.000000</ele>
</trkpt>
<trkpt lat="45.587450000" lon="12.852073000">
  <ele>0.000000</ele>
</trkpt>
<trkpt lat="45.584731000" lon="12.850947000">
  <ele>0.000000</ele>
</trkpt>
<trkpt lat="45.584642000" lon="12.850900000">
  <ele>0.000000</ele>
</trkpt>
<trkpt lat="45.584668000" lon="12.850770000">
  <ele>0.000000</ele>
</trkpt>
<trkpt lat="45.584899000" lon="12.849727000">
  <ele>0.000000</ele>
</trkpt>
<trkpt lat="45.584959000" lon="12.849457000">
  <ele>0.000000</ele>
</trkpt>
<trkpt lat="45.584995000" lon="12.849152000">
  <ele>0.000000</ele>
</trkpt>
<trkpt lat="45.584995000" lon="12.848843000">
  <ele>0.000000</ele>
</trkpt>
<trkpt lat="45.584977000" lon="12.848670000">
  <ele>0.000000</ele>
</trkpt>
<trkpt lat="45.584928000" lon="12.848396000">
  <ele>0.000000</ele>
</trkpt>
<trkpt lat="45.584860000" lon="12.848174000">
  <ele>0.000000</ele>
</trkpt>
<trkpt lat="45.584756000" lon="12.847933000">
  <ele>0.000000</ele>
</trkpt>
<trkpt lat="45.584658000" lon="12.847777000">
  <ele>0.000000</ele>
</trkpt>
<trkpt lat="45.584546000" lon="12.847627000">
  <ele>0.000000</ele>
</trkpt>
<trkpt lat="45.584617000" lon="12.847516000">
  <ele>0.000000</ele>
</trkpt>
</trkseg>
</trk>
<trk>
  <name>I3-4</name>
<trkseg>
<trkpt lat="45.591316000" lon="12.853878000">
  <ele>0.000000</ele>
</trkpt>
<trkpt lat="45.591327000" lon="12.853840000">
  <ele>0.000000</ele>
</trkpt>
<trkpt lat="45.591332000" lon="12.853803000">
  <ele>0.000000</ele>
</trkpt>
<trkpt lat="45.591329000" lon="12.853764000">
  <ele>0.000000</ele>
</trkpt>
<trkpt lat="45.591317000" lon="12.853735000">
  <ele>0.000000</ele>
</trkpt>
<trkpt lat="45.591309000" lon="12.853699000">
  <ele>0.000000</ele>
</trkpt>
<trkpt lat="45.591293000" lon="12.853669000">
  <ele>0.000000</ele>
</trkpt>
<trkpt lat="45.591239000" lon="12.853627000">
  <ele>0.000000</ele>
</trkpt>
<trkpt lat="45.591212000" lon="12.853604000">
  <ele>0.000000</ele>
</trkpt>
<trkpt lat="45.591163000" lon="12.853477000">
  <ele>0.000000</ele>
</trkpt>
<trkpt lat="45.591152000" lon="12.853429000">
  <ele>0.000000</ele>
</trkpt>
<trkpt lat="45.591144000" lon="12.853210000">
  <ele>0.000000</ele>
</trkpt>
<trkpt lat="45.591128000" lon="12.853167000">
  <ele>0.000000</ele>
</trkpt>
<trkpt lat="45.591085000" lon="12.853209000">
  <ele>0.000000</ele>
</trkpt>
<trkpt lat="45.591048000" lon="12.853266000">
  <ele>0.000000</ele>
</trkpt>
<trkpt lat="45.591025000" lon="12.853325000">
  <ele>0.000000</ele>
</trkpt>
<trkpt lat="45.591012000" lon="12.853380000">
  <ele>0.000000</ele>
</trkpt>
<trkpt lat="45.590871000" lon="12.853478000">
  <ele>0.000000</ele>
</trkpt>
<trkpt lat="45.590756000" lon="12.853482000">
  <ele>0.000000</ele>
</trkpt>
<trkpt lat="45.590366000" lon="12.853300000">
  <ele>0.000000</ele>
</trkpt>
<trkpt lat="45.588456000" lon="12.852430000">
  <ele>0.000000</ele>
</trkpt>
<trkpt lat="45.588435000" lon="12.852419000">
  <ele>0.000000</ele>
</trkpt>
<trkpt lat="45.588346000" lon="12.852375000">
  <ele>0.000000</ele>
</trkpt>
<trkpt lat="45.587293000" lon="12.851912000">
  <ele>0.000000</ele>
</trkpt>
<trkpt lat="45.585816000" lon="12.851254000">
  <ele>0.000000</ele>
</trkpt>
<trkpt lat="45.584761000" lon="12.850813000">
  <ele>0.000000</ele>
</trkpt>
<trkpt lat="45.585001000" lon="12.849768000">
  <ele>0.000000</ele>
</trkpt>
<trkpt lat="45.585058000" lon="12.849517000">
  <ele>0.000000</ele>
</trkpt>
<trkpt lat="45.585110000" lon="12.849180000">
  <ele>0.000000</ele>
</trkpt>
<trkpt lat="45.585107000" lon="12.848829000">
  <ele>0.000000</ele>
</trkpt>
<trkpt lat="45.585083000" lon="12.848630000">
  <ele>0.000000</ele>
</trkpt>
<trkpt lat="45.585030000" lon="12.848339000">
  <ele>0.000000</ele>
</trkpt>
<trkpt lat="45.584960000" lon="12.848100000">
  <ele>0.000000</ele>
</trkpt>
<trkpt lat="45.584862000" lon="12.847868000">
  <ele>0.000000</ele>
</trkpt>
<trkpt lat="45.584741000" lon="12.847658000">
  <ele>0.000000</ele>
</trkpt>
<trkpt lat="45.584617000" lon="12.847516000">
  <ele>0.000000</ele>
</trkpt>
</trkseg>
</trk>
<trk>
  <name>I3-4</name>
<trkseg>
<trkpt lat="45.604739000" lon="12.879413000">
  <ele>0.000000</ele>
</trkpt>
<trkpt lat="45.604772000" lon="12.879267000">
  <ele>0.000000</ele>
</trkpt>
<trkpt lat="45.604861000" lon="12.878936000">
  <ele>0.000000</ele>
</trkpt>
<trkpt lat="45.604881000" lon="12.878860000">
  <ele>0.000000</ele>
</trkpt>
<trkpt lat="45.604937000" lon="12.878901000">
  <ele>0.000000</ele>
</trkpt>
<trkpt lat="45.605060000" lon="12.878546000">
  <ele>0.000000</ele>
</trkpt>
<trkpt lat="45.605538000" lon="12.877849000">
  <ele>0.000000</ele>
</trkpt>
<trkpt lat="45.605486000" lon="12.877806000">
  <ele>0.000000</ele>
</trkpt>
<trkpt lat="45.605375000" lon="12.877836000">
  <ele>0.000000</ele>
</trkpt>
<trkpt lat="45.603886000" lon="12.876789000">
  <ele>0.000000</ele>
</trkpt>
<trkpt lat="45.603931000" lon="12.876731000">
  <ele>0.000000</ele>
</trkpt>
<trkpt lat="45.603893000" lon="12.876664000">
  <ele>0.000000</ele>
</trkpt>
<trkpt lat="45.603851000" lon="12.876611000">
  <ele>0.000000</ele>
</trkpt>
<trkpt lat="45.603784000" lon="12.876668000">
  <ele>0.000000</ele>
</trkpt>
<trkpt lat="45.603438000" lon="12.876076000">
  <ele>0.000000</ele>
</trkpt>
<trkpt lat="45.603257000" lon="12.875716000">
  <ele>0.000000</ele>
</trkpt>
<trkpt lat="45.603143000" lon="12.875488000">
  <ele>0.000000</ele>
</trkpt>
<trkpt lat="45.602995000" lon="12.875166000">
  <ele>0.000000</ele>
</trkpt>
<trkpt lat="45.602645000" lon="12.874503000">
  <ele>0.000000</ele>
</trkpt>
<trkpt lat="45.600904000" lon="12.870685000">
  <ele>0.000000</ele>
</trkpt>
<trkpt lat="45.600073000" lon="12.868816000">
  <ele>0.000000</ele>
</trkpt>
<trkpt lat="45.600098000" lon="12.868700000">
  <ele>0.000000</ele>
</trkpt>
<trkpt lat="45.600077000" lon="12.868665000">
  <ele>0.000000</ele>
</trkpt>
<trkpt lat="45.600045000" lon="12.868630000">
  <ele>0.000000</ele>
</trkpt>
<trkpt lat="45.600015000" lon="12.868598000">
  <ele>0.000000</ele>
</trkpt>
<trkpt lat="45.599895000" lon="12.868573000">
  <ele>0.000000</ele>
</trkpt>
<trkpt lat="45.599862000" lon="12.868574000">
  <ele>0.000000</ele>
</trkpt>
<trkpt lat="45.599797000" lon="12.868144000">
  <ele>0.000000</ele>
</trkpt>
<trkpt lat="45.599405000" lon="12.867503000">
  <ele>0.000000</ele>
</trkpt>
<trkpt lat="45.599201000" lon="12.867337000">
  <ele>0.000000</ele>
</trkpt>
<trkpt lat="45.596093000" lon="12.862994000">
  <ele>0.000000</ele>
</trkpt>
<trkpt lat="45.596163000" lon="12.862931000">
  <ele>0.000000</ele>
</trkpt>
<trkpt lat="45.594478000" lon="12.860571000">
  <ele>0.000000</ele>
</trkpt>
<trkpt lat="45.594132000" lon="12.859924000">
  <ele>0.000000</ele>
</trkpt>
<trkpt lat="45.593730000" lon="12.858982000">
  <ele>0.000000</ele>
</trkpt>
<trkpt lat="45.593674000" lon="12.858756000">
  <ele>0.000000</ele>
</trkpt>
<trkpt lat="45.593157000" lon="12.857535000">
  <ele>0.000000</ele>
</trkpt>
<trkpt lat="45.593060000" lon="12.857366000">
  <ele>0.000000</ele>
</trkpt>
<trkpt lat="45.591744000" lon="12.854178000">
  <ele>0.000000</ele>
</trkpt>
<trkpt lat="45.591305000" lon="12.853927000">
  <ele>0.000000</ele>
</trkpt>
<trkpt lat="45.591316000" lon="12.853878000">
  <ele>0.000000</ele>
</trkpt>
</trkseg>
</trk>
<trk>
  <name>I3-4</name>
<trkseg>
<trkpt lat="45.604739000" lon="12.879413000">
  <ele>0.000000</ele>
</trkpt>
<trkpt lat="45.605294000" lon="12.879660000">
  <ele>0.000000</ele>
</trkpt>
<trkpt lat="45.605720000" lon="12.879830000">
  <ele>0.000000</ele>
</trkpt>
<trkpt lat="45.605841000" lon="12.879870000">
  <ele>0.000000</ele>
</trkpt>
<trkpt lat="45.606354000" lon="12.880014000">
  <ele>0.000000</ele>
</trkpt>
<trkpt lat="45.606584000" lon="12.880085000">
  <ele>0.000000</ele>
</trkpt>
<trkpt lat="45.607701000" lon="12.880310000">
  <ele>0.000000</ele>
</trkpt>
<trkpt lat="45.608528000" lon="12.880476000">
  <ele>0.000000</ele>
</trkpt>
<trkpt lat="45.609670000" lon="12.880732000">
  <ele>0.000000</ele>
</trkpt>
<trkpt lat="45.610987000" lon="12.881049000">
  <ele>0.000000</ele>
</trkpt>
<trkpt lat="45.612383000" lon="12.881358000">
  <ele>0.000000</ele>
</trkpt>
<trkpt lat="45.612591000" lon="12.881427000">
  <ele>0.000000</ele>
</trkpt>
<trkpt lat="45.612782000" lon="12.881541000">
  <ele>0.000000</ele>
</trkpt>
<trkpt lat="45.612960000" lon="12.881682000">
  <ele>0.000000</ele>
</trkpt>
<trkpt lat="45.613263000" lon="12.881961000">
  <ele>0.000000</ele>
</trkpt>
<trkpt lat="45.613387000" lon="12.882109000">
  <ele>0.000000</ele>
</trkpt>
<trkpt lat="45.613496000" lon="12.882287000">
  <ele>0.000000</ele>
</trkpt>
<trkpt lat="45.614706000" lon="12.884613000">
  <ele>0.000000</ele>
</trkpt>
<trkpt lat="45.615020000" lon="12.885219000">
  <ele>0.000000</ele>
</trkpt>
<trkpt lat="45.615347000" lon="12.885746000">
  <ele>0.000000</ele>
</trkpt>
<trkpt lat="45.615542000" lon="12.885987000">
  <ele>0.000000</ele>
</trkpt>
<trkpt lat="45.615779000" lon="12.886173000">
  <ele>0.000000</ele>
</trkpt>
<trkpt lat="45.616008000" lon="12.886263000">
  <ele>0.000000</ele>
</trkpt>
<trkpt lat="45.617230000" lon="12.886478000">
  <ele>0.000000</ele>
</trkpt>
<trkpt lat="45.618925000" lon="12.886697000">
  <ele>0.000000</ele>
</trkpt>
<trkpt lat="45.622507000" lon="12.887152000">
  <ele>0.000000</ele>
</trkpt>
<trkpt lat="45.624587000" lon="12.887478000">
  <ele>0.000000</ele>
</trkpt>
<trkpt lat="45.624818000" lon="12.887524000">
  <ele>0.000000</ele>
</trkpt>
<trkpt lat="45.625092000" lon="12.887613000">
  <ele>0.000000</ele>
</trkpt>
<trkpt lat="45.625371000" lon="12.887730000">
  <ele>0.000000</ele>
</trkpt>
<trkpt lat="45.625526000" lon="12.887805000">
  <ele>0.000000</ele>
</trkpt>
<trkpt lat="45.625836000" lon="12.887993000">
  <ele>0.000000</ele>
</trkpt>
<trkpt lat="45.626772000" lon="12.888706000">
  <ele>0.000000</ele>
</trkpt>
<trkpt lat="45.628606000" lon="12.890249000">
  <ele>0.000000</ele>
</trkpt>
<trkpt lat="45.628369000" lon="12.890649000">
  <ele>0.000000</ele>
</trkpt>
<trkpt lat="45.628141000" lon="12.891001000">
  <ele>0.000000</ele>
</trkpt>
<trkpt lat="45.627717000" lon="12.891784000">
  <ele>0.000000</ele>
</trkpt>
<trkpt lat="45.627149000" lon="12.892778000">
  <ele>0.000000</ele>
</trkpt>
<trkpt lat="45.627036000" lon="12.892968000">
  <ele>0.000000</ele>
</trkpt>
<trkpt lat="45.626974000" lon="12.893060000">
  <ele>0.000000</ele>
</trkpt>
<trkpt lat="45.626935000" lon="12.893103000">
  <ele>0.000000</ele>
</trkpt>
<trkpt lat="45.626852000" lon="12.893156000">
  <ele>0.000000</ele>
</trkpt>
<trkpt lat="45.624644000" lon="12.893894000">
  <ele>0.000000</ele>
</trkpt>
<trkpt lat="45.624562000" lon="12.893942000">
  <ele>0.000000</ele>
</trkpt>
<trkpt lat="45.624502000" lon="12.893994000">
  <ele>0.000000</ele>
</trkpt>
<trkpt lat="45.624410000" lon="12.894106000">
  <ele>0.000000</ele>
</trkpt>
<trkpt lat="45.624312000" lon="12.894264000">
  <ele>0.000000</ele>
</trkpt>
<trkpt lat="45.624179000" lon="12.894486000">
  <ele>0.000000</ele>
</trkpt>
<trkpt lat="45.623402000" lon="12.895817000">
  <ele>0.000000</ele>
</trkpt>
<trkpt lat="45.623259000" lon="12.896059000">
  <ele>0.000000</ele>
</trkpt>
<trkpt lat="45.623230000" lon="12.896097000">
  <ele>0.000000</ele>
</trkpt>
<trkpt lat="45.623203000" lon="12.896124000">
  <ele>0.000000</ele>
</trkpt>
<trkpt lat="45.622958000" lon="12.896340000">
  <ele>0.000000</ele>
</trkpt>
<trkpt lat="45.622915000" lon="12.896388000">
  <ele>0.000000</ele>
</trkpt>
<trkpt lat="45.622057000" lon="12.897878000">
  <ele>0.000000</ele>
</trkpt>
<trkpt lat="45.622006000" lon="12.897991000">
  <ele>0.000000</ele>
</trkpt>
<trkpt lat="45.621987000" lon="12.898039000">
  <ele>0.000000</ele>
</trkpt>
<trkpt lat="45.621981000" lon="12.898073000">
  <ele>0.000000</ele>
</trkpt>
<trkpt lat="45.621960000" lon="12.898274000">
  <ele>0.000000</ele>
</trkpt>
<trkpt lat="45.621940000" lon="12.898411000">
  <ele>0.000000</ele>
</trkpt>
<trkpt lat="45.621918000" lon="12.898528000">
  <ele>0.000000</ele>
</trkpt>
<trkpt lat="45.621878000" lon="12.898701000">
  <ele>0.000000</ele>
</trkpt>
<trkpt lat="45.621834000" lon="12.898867000">
  <ele>0.000000</ele>
</trkpt>
<trkpt lat="45.621496000" lon="12.899857000">
  <ele>0.000000</ele>
</trkpt>
<trkpt lat="45.620963000" lon="12.901390000">
  <ele>0.000000</ele>
</trkpt>
<trkpt lat="45.620715000" lon="12.901876000">
  <ele>0.000000</ele>
</trkpt>
<trkpt lat="45.620556000" lon="12.902058000">
  <ele>0.000000</ele>
</trkpt>
<trkpt lat="45.619784000" lon="12.903453000">
  <ele>0.000000</ele>
</trkpt>
<trkpt lat="45.618213000" lon="12.906275000">
  <ele>0.000000</ele>
</trkpt>
<trkpt lat="45.618166000" lon="12.906479000">
  <ele>0.000000</ele>
</trkpt>
<trkpt lat="45.618137000" lon="12.906496000">
  <ele>0.000000</ele>
</trkpt>
<trkpt lat="45.618104000" lon="12.906533000">
  <ele>0.000000</ele>
</trkpt>
<trkpt lat="45.617930000" lon="12.906872000">
  <ele>0.000000</ele>
</trkpt>
<trkpt lat="45.617857000" lon="12.906957000">
  <ele>0.000000</ele>
</trkpt>
<trkpt lat="45.617567000" lon="12.907468000">
  <ele>0.000000</ele>
</trkpt>
<trkpt lat="45.615420000" lon="12.904986000">
  <ele>0.000000</ele>
</trkpt>
<trkpt lat="45.611833000" lon="12.900777000">
  <ele>0.000000</ele>
</trkpt>
<trkpt lat="45.611481000" lon="12.901615000">
  <ele>0.000000</ele>
</trkpt>
<trkpt lat="45.611436000" lon="12.901689000">
  <ele>0.000000</ele>
</trkpt>
<trkpt lat="45.611399000" lon="12.901731000">
  <ele>0.000000</ele>
</trkpt>
<trkpt lat="45.611358000" lon="12.901751000">
  <ele>0.000000</ele>
</trkpt>
<trkpt lat="45.611309000" lon="12.901757000">
  <ele>0.000000</ele>
</trkpt>
<trkpt lat="45.611254000" lon="12.901740000">
  <ele>0.000000</ele>
</trkpt>
<trkpt lat="45.610760000" lon="12.901013000">
  <ele>0.000000</ele>
</trkpt>
<trkpt lat="45.610347000" lon="12.900370000">
  <ele>0.000000</ele>
</trkpt>
<trkpt lat="45.609501000" lon="12.898876000">
  <ele>0.000000</ele>
</trkpt>
<trkpt lat="45.607555000" lon="12.895473000">
  <ele>0.000000</ele>
</trkpt>
<trkpt lat="45.605658000" lon="12.892130000">
  <ele>0.000000</ele>
</trkpt>
<trkpt lat="45.605385000" lon="12.891670000">
  <ele>0.000000</ele>
</trkpt>
<trkpt lat="45.605153000" lon="12.891353000">
  <ele>0.000000</ele>
</trkpt>
<trkpt lat="45.604897000" lon="12.891091000">
  <ele>0.000000</ele>
</trkpt>
<trkpt lat="45.604616000" lon="12.890823000">
  <ele>0.000000</ele>
</trkpt>
<trkpt lat="45.604253000" lon="12.890573000">
  <ele>0.000000</ele>
</trkpt>
<trkpt lat="45.603935000" lon="12.890351000">
  <ele>0.000000</ele>
</trkpt>
<trkpt lat="45.603570000" lon="12.890141000">
  <ele>0.000000</ele>
</trkpt>
<trkpt lat="45.603393000" lon="12.890080000">
  <ele>0.000000</ele>
</trkpt>
<trkpt lat="45.603187000" lon="12.889997000">
  <ele>0.000000</ele>
</trkpt>
<trkpt lat="45.603037000" lon="12.889950000">
  <ele>0.000000</ele>
</trkpt>
<trkpt lat="45.602925000" lon="12.889921000">
  <ele>0.000000</ele>
</trkpt>
<trkpt lat="45.602818000" lon="12.889889000">
  <ele>0.000000</ele>
</trkpt>
<trkpt lat="45.602701000" lon="12.889828000">
  <ele>0.000000</ele>
</trkpt>
<trkpt lat="45.602147000" lon="12.889321000">
  <ele>0.000000</ele>
</trkpt>
<trkpt lat="45.601770000" lon="12.889039000">
  <ele>0.000000</ele>
</trkpt>
<trkpt lat="45.601617000" lon="12.888902000">
  <ele>0.000000</ele>
</trkpt>
<trkpt lat="45.601546000" lon="12.888891000">
  <ele>0.000000</ele>
</trkpt>
<trkpt lat="45.601509000" lon="12.888849000">
  <ele>0.000000</ele>
</trkpt>
<trkpt lat="45.601413000" lon="12.888874000">
  <ele>0.000000</ele>
</trkpt>
<trkpt lat="45.601337000" lon="12.889020000">
  <ele>0.000000</ele>
</trkpt>
<trkpt lat="45.601218000" lon="12.889343000">
  <ele>0.000000</ele>
</trkpt>
<trkpt lat="45.600870000" lon="12.889999000">
  <ele>0.000000</ele>
</trkpt>
<trkpt lat="45.600599000" lon="12.890396000">
  <ele>0.000000</ele>
</trkpt>
<trkpt lat="45.600479000" lon="12.890567000">
  <ele>0.000000</ele>
</trkpt>
<trkpt lat="45.600267000" lon="12.890915000">
  <ele>0.000000</ele>
</trkpt>
<trkpt lat="45.600152000" lon="12.891195000">
  <ele>0.000000</ele>
</trkpt>
<trkpt lat="45.600087000" lon="12.891450000">
  <ele>0.000000</ele>
</trkpt>
<trkpt lat="45.600039000" lon="12.891725000">
  <ele>0.000000</ele>
</trkpt>
<trkpt lat="45.600009000" lon="12.891788000">
  <ele>0.000000</ele>
</trkpt>
<trkpt lat="45.599967000" lon="12.891832000">
  <ele>0.000000</ele>
</trkpt>
<trkpt lat="45.599909000" lon="12.891860000">
  <ele>0.000000</ele>
</trkpt>
<trkpt lat="45.599855000" lon="12.891872000">
  <ele>0.000000</ele>
</trkpt>
<trkpt lat="45.599807000" lon="12.891857000">
  <ele>0.000000</ele>
</trkpt>
<trkpt lat="45.599760000" lon="12.891816000">
  <ele>0.000000</ele>
</trkpt>
<trkpt lat="45.599327000" lon="12.891142000">
  <ele>0.000000</ele>
</trkpt>
<trkpt lat="45.598809000" lon="12.890209000">
  <ele>0.000000</ele>
</trkpt>
<trkpt lat="45.598530000" lon="12.889573000">
  <ele>0.000000</ele>
</trkpt>
<trkpt lat="45.598358000" lon="12.889094000">
  <ele>0.000000</ele>
</trkpt>
<trkpt lat="45.598294000" lon="12.888891000">
  <ele>0.000000</ele>
</trkpt>
<trkpt lat="45.598230000" lon="12.888654000">
  <ele>0.000000</ele>
</trkpt>
<trkpt lat="45.598104000" lon="12.887537000">
  <ele>0.000000</ele>
</trkpt>
<trkpt lat="45.597922000" lon="12.886284000">
  <ele>0.000000</ele>
</trkpt>
<trkpt lat="45.598172000" lon="12.886318000">
  <ele>0.000000</ele>
</trkpt>
<trkpt lat="45.598460000" lon="12.886504000">
  <ele>0.000000</ele>
</trkpt>
<trkpt lat="45.598930000" lon="12.885945000">
  <ele>0.000000</ele>
</trkpt>
<trkpt lat="45.599167000" lon="12.885865000">
  <ele>0.000000</ele>
</trkpt>
<trkpt lat="45.599453000" lon="12.886164000">
  <ele>0.000000</ele>
</trkpt>
<trkpt lat="45.599479000" lon="12.886214000">
  <ele>0.000000</ele>
</trkpt>
<trkpt lat="45.599531000" lon="12.886348000">
  <ele>0.000000</ele>
</trkpt>
<trkpt lat="45.599678000" lon="12.886626000">
  <ele>0.000000</ele>
</trkpt>
<trkpt lat="45.599748000" lon="12.886798000">
  <ele>0.000000</ele>
</trkpt>
<trkpt lat="45.599834000" lon="12.887027000">
  <ele>0.000000</ele>
</trkpt>
<trkpt lat="45.599979000" lon="12.887378000">
  <ele>0.000000</ele>
</trkpt>
<trkpt lat="45.600075000" lon="12.887387000">
  <ele>0.000000</ele>
</trkpt>
<trkpt lat="45.600218000" lon="12.887400000">
  <ele>0.000000</ele>
</trkpt>
<trkpt lat="45.600521000" lon="12.886982000">
  <ele>0.000000</ele>
</trkpt>
<trkpt lat="45.600544000" lon="12.886854000">
  <ele>0.000000</ele>
</trkpt>
<trkpt lat="45.600604000" lon="12.886168000">
  <ele>0.000000</ele>
</trkpt>
<trkpt lat="45.600686000" lon="12.885777000">
  <ele>0.000000</ele>
</trkpt>
<trkpt lat="45.600825000" lon="12.885161000">
  <ele>0.000000</ele>
</trkpt>
<trkpt lat="45.601001000" lon="12.884471000">
  <ele>0.000000</ele>
</trkpt>
<trkpt lat="45.601092000" lon="12.884184000">
  <ele>0.000000</ele>
</trkpt>
<trkpt lat="45.601186000" lon="12.883967000">
  <ele>0.000000</ele>
</trkpt>
<trkpt lat="45.601259000" lon="12.883839000">
  <ele>0.000000</ele>
</trkpt>
<trkpt lat="45.601680000" lon="12.883237000">
  <ele>0.000000</ele>
</trkpt>
<trkpt lat="45.601837000" lon="12.883014000">
  <ele>0.000000</ele>
</trkpt>
<trkpt lat="45.602092000" lon="12.882641000">
  <ele>0.000000</ele>
</trkpt>
</trkseg>
</trk>
<trk>
  <name>I3-4</name>
<trkseg>
<trkpt lat="45.602139000" lon="12.882701000">
  <ele>0.000000</ele>
</trkpt>
<trkpt lat="45.602092000" lon="12.882641000">
  <ele>0.000000</ele>
</trkpt>
</trkseg>
</trk>
<trk>
  <name>I3-4</name>
<trkseg>
<trkpt lat="45.604739000" lon="12.879413000">
  <ele>0.000000</ele>
</trkpt>
<trkpt lat="45.604724000" lon="12.879457000">
  <ele>0.000000</ele>
</trkpt>
<trkpt lat="45.604751000" lon="12.879528000">
  <ele>0.000000</ele>
</trkpt>
<trkpt lat="45.604732000" lon="12.879594000">
  <ele>0.000000</ele>
</trkpt>
<trkpt lat="45.604628000" lon="12.879776000">
  <ele>0.000000</ele>
</trkpt>
<trkpt lat="45.603966000" lon="12.880527000">
  <ele>0.000000</ele>
</trkpt>
<trkpt lat="45.603888000" lon="12.880446000">
  <ele>0.000000</ele>
</trkpt>
<trkpt lat="45.603860000" lon="12.880418000">
  <ele>0.000000</ele>
</trkpt>
<trkpt lat="45.603371000" lon="12.880934000">
  <ele>0.000000</ele>
</trkpt>
<trkpt lat="45.602769000" lon="12.881666000">
  <ele>0.000000</ele>
</trkpt>
<trkpt lat="45.602406000" lon="12.882173000">
  <ele>0.000000</ele>
</trkpt>
<trkpt lat="45.602076000" lon="12.882629000">
  <ele>0.000000</ele>
</trkpt>
<trkpt lat="45.602092000" lon="12.882641000">
  <ele>0.000000</ele>
</trkpt>
</trkseg>
</trk>
</gpx>
