<?xml version="1.0" encoding="UTF-8"?>
<gpx
  version="1.1"
  creator="GPSBabel - http://www.gpsbabel.org"
  xmlns:xsi="http://www.w3.org/2001/XMLSchema-instance"
  xmlns="http://www.topografix.com/GPX/1/1"
  xsi:schemaLocation="http://www.topografix.com/GPX/1/1 http://www.topografix.com/GPX/1/1/gpx.xsd">
<metadata>
<time>2011-09-15T15:28:01Z</time>
<bounds minlat="45.604881000" minlon="12.799882000" maxlat="45.782293000" maxlon="13.097088000"/>
</metadata>
<trk>
  <name>I3-5</name>
<trkseg>
<trkpt lat="45.606595000" lon="12.875377000">
  <ele>0.000000</ele>
</trkpt>
<trkpt lat="45.606593000" lon="12.875478000">
  <ele>0.000000</ele>
</trkpt>
<trkpt lat="45.606138000" lon="12.876706000">
  <ele>0.000000</ele>
</trkpt>
<trkpt lat="45.605996000" lon="12.877036000">
  <ele>0.000000</ele>
</trkpt>
<trkpt lat="45.605486000" lon="12.877806000">
  <ele>0.000000</ele>
</trkpt>
<trkpt lat="45.605342000" lon="12.878013000">
  <ele>0.000000</ele>
</trkpt>
<trkpt lat="45.605002000" lon="12.878536000">
  <ele>0.000000</ele>
</trkpt>
<trkpt lat="45.604881000" lon="12.878860000">
  <ele>0.000000</ele>
</trkpt>
</trkseg>
</trk>
<trk>
  <name>I3-5</name>
<trkseg>
<trkpt lat="45.606686000" lon="12.874973000">
  <ele>0.000000</ele>
</trkpt>
<trkpt lat="45.606777000" lon="12.874961000">
  <ele>0.000000</ele>
</trkpt>
<trkpt lat="45.606826000" lon="12.874998000">
  <ele>0.000000</ele>
</trkpt>
<trkpt lat="45.606887000" lon="12.875071000">
  <ele>0.000000</ele>
</trkpt>
<trkpt lat="45.606911000" lon="12.875180000">
  <ele>0.000000</ele>
</trkpt>
<trkpt lat="45.606883000" lon="12.875286000">
  <ele>0.000000</ele>
</trkpt>
<trkpt lat="45.606798000" lon="12.875350000">
  <ele>0.000000</ele>
</trkpt>
<trkpt lat="45.606677000" lon="12.875403000">
  <ele>0.000000</ele>
</trkpt>
<trkpt lat="45.606595000" lon="12.875377000">
  <ele>0.000000</ele>
</trkpt>
</trkseg>
</trk>
<trk>
  <name>I3-5</name>
<trkseg>
<trkpt lat="45.606595000" lon="12.875377000">
  <ele>0.000000</ele>
</trkpt>
<trkpt lat="45.606573000" lon="12.875349000">
  <ele>0.000000</ele>
</trkpt>
<trkpt lat="45.606553000" lon="12.875297000">
  <ele>0.000000</ele>
</trkpt>
<trkpt lat="45.606550000" lon="12.875240000">
  <ele>0.000000</ele>
</trkpt>
<trkpt lat="45.606576000" lon="12.875116000">
  <ele>0.000000</ele>
</trkpt>
<trkpt lat="45.606613000" lon="12.875035000">
  <ele>0.000000</ele>
</trkpt>
<trkpt lat="45.606686000" lon="12.874973000">
  <ele>0.000000</ele>
</trkpt>
</trkseg>
</trk>
<trk>
  <name>I3-5</name>
<trkseg>
<trkpt lat="45.704600000" lon="12.867359000">
  <ele>0.000000</ele>
</trkpt>
<trkpt lat="45.704499000" lon="12.867030000">
  <ele>0.000000</ele>
</trkpt>
<trkpt lat="45.704401000" lon="12.866667000">
  <ele>0.000000</ele>
</trkpt>
<trkpt lat="45.703745000" lon="12.864283000">
  <ele>0.000000</ele>
</trkpt>
<trkpt lat="45.702188000" lon="12.858679000">
  <ele>0.000000</ele>
</trkpt>
<trkpt lat="45.701847000" lon="12.857548000">
  <ele>0.000000</ele>
</trkpt>
<trkpt lat="45.701505000" lon="12.856691000">
  <ele>0.000000</ele>
</trkpt>
<trkpt lat="45.701025000" lon="12.855626000">
  <ele>0.000000</ele>
</trkpt>
<trkpt lat="45.698099000" lon="12.850115000">
  <ele>0.000000</ele>
</trkpt>
<trkpt lat="45.696404000" lon="12.846922000">
  <ele>0.000000</ele>
</trkpt>
<trkpt lat="45.695980000" lon="12.846317000">
  <ele>0.000000</ele>
</trkpt>
<trkpt lat="45.695426000" lon="12.845707000">
  <ele>0.000000</ele>
</trkpt>
<trkpt lat="45.694464000" lon="12.845155000">
  <ele>0.000000</ele>
</trkpt>
<trkpt lat="45.693701000" lon="12.844948000">
  <ele>0.000000</ele>
</trkpt>
<trkpt lat="45.692197000" lon="12.844852000">
  <ele>0.000000</ele>
</trkpt>
<trkpt lat="45.690180000" lon="12.844724000">
  <ele>0.000000</ele>
</trkpt>
<trkpt lat="45.689659000" lon="12.844727000">
  <ele>0.000000</ele>
</trkpt>
<trkpt lat="45.687639000" lon="12.844665000">
  <ele>0.000000</ele>
</trkpt>
<trkpt lat="45.687274000" lon="12.844640000">
  <ele>0.000000</ele>
</trkpt>
<trkpt lat="45.686914000" lon="12.845352000">
  <ele>0.000000</ele>
</trkpt>
<trkpt lat="45.686502000" lon="12.846057000">
  <ele>0.000000</ele>
</trkpt>
<trkpt lat="45.686015000" lon="12.846586000">
  <ele>0.000000</ele>
</trkpt>
<trkpt lat="45.685535000" lon="12.846918000">
  <ele>0.000000</ele>
</trkpt>
<trkpt lat="45.682507000" lon="12.848174000">
  <ele>0.000000</ele>
</trkpt>
<trkpt lat="45.676990000" lon="12.850534000">
  <ele>0.000000</ele>
</trkpt>
<trkpt lat="45.673441000" lon="12.852042000">
  <ele>0.000000</ele>
</trkpt>
<trkpt lat="45.673067000" lon="12.852040000">
  <ele>0.000000</ele>
</trkpt>
<trkpt lat="45.672806000" lon="12.851935000">
  <ele>0.000000</ele>
</trkpt>
<trkpt lat="45.672353000" lon="12.851703000">
  <ele>0.000000</ele>
</trkpt>
<trkpt lat="45.672166000" lon="12.851558000">
  <ele>0.000000</ele>
</trkpt>
<trkpt lat="45.671352000" lon="12.850577000">
  <ele>0.000000</ele>
</trkpt>
<trkpt lat="45.667114000" lon="12.845549000">
  <ele>0.000000</ele>
</trkpt>
<trkpt lat="45.663226000" lon="12.840880000">
  <ele>0.000000</ele>
</trkpt>
<trkpt lat="45.656803000" lon="12.833209000">
  <ele>0.000000</ele>
</trkpt>
<trkpt lat="45.654795000" lon="12.830770000">
  <ele>0.000000</ele>
</trkpt>
<trkpt lat="45.649491000" lon="12.824437000">
  <ele>0.000000</ele>
</trkpt>
<trkpt lat="45.647163000" lon="12.821687000">
  <ele>0.000000</ele>
</trkpt>
<trkpt lat="45.646422000" lon="12.820812000">
  <ele>0.000000</ele>
</trkpt>
<trkpt lat="45.646635000" lon="12.819590000">
  <ele>0.000000</ele>
</trkpt>
<trkpt lat="45.646971000" lon="12.818585000">
  <ele>0.000000</ele>
</trkpt>
<trkpt lat="45.647504000" lon="12.817427000">
  <ele>0.000000</ele>
</trkpt>
<trkpt lat="45.648296000" lon="12.816422000">
  <ele>0.000000</ele>
</trkpt>
<trkpt lat="45.648978000" lon="12.815503000">
  <ele>0.000000</ele>
</trkpt>
<trkpt lat="45.649510000" lon="12.814610000">
  <ele>0.000000</ele>
</trkpt>
<trkpt lat="45.649657000" lon="12.814289000">
  <ele>0.000000</ele>
</trkpt>
<trkpt lat="45.650220000" lon="12.813181000">
  <ele>0.000000</ele>
</trkpt>
<trkpt lat="45.650618000" lon="12.812379000">
  <ele>0.000000</ele>
</trkpt>
<trkpt lat="45.651098000" lon="12.811444000">
  <ele>0.000000</ele>
</trkpt>
<trkpt lat="45.651379000" lon="12.810896000">
  <ele>0.000000</ele>
</trkpt>
<trkpt lat="45.652698000" lon="12.808273000">
  <ele>0.000000</ele>
</trkpt>
<trkpt lat="45.656273000" lon="12.801324000">
  <ele>0.000000</ele>
</trkpt>
<trkpt lat="45.656440000" lon="12.801125000">
  <ele>0.000000</ele>
</trkpt>
<trkpt lat="45.656317000" lon="12.800984000">
  <ele>0.000000</ele>
</trkpt>
<trkpt lat="45.655541000" lon="12.800093000">
  <ele>0.000000</ele>
</trkpt>
<trkpt lat="45.655452000" lon="12.800006000">
  <ele>0.000000</ele>
</trkpt>
<trkpt lat="45.655417000" lon="12.799957000">
  <ele>0.000000</ele>
</trkpt>
<trkpt lat="45.655344000" lon="12.799882000">
  <ele>0.000000</ele>
</trkpt>
<trkpt lat="45.654329000" lon="12.802073000">
  <ele>0.000000</ele>
</trkpt>
<trkpt lat="45.653982000" lon="12.802846000">
  <ele>0.000000</ele>
</trkpt>
<trkpt lat="45.653273000" lon="12.804261000">
  <ele>0.000000</ele>
</trkpt>
<trkpt lat="45.652002000" lon="12.806735000">
  <ele>0.000000</ele>
</trkpt>
<trkpt lat="45.650510000" lon="12.809636000">
  <ele>0.000000</ele>
</trkpt>
<trkpt lat="45.648894000" lon="12.812839000">
  <ele>0.000000</ele>
</trkpt>
<trkpt lat="45.648353000" lon="12.813918000">
  <ele>0.000000</ele>
</trkpt>
<trkpt lat="45.648254000" lon="12.814074000">
  <ele>0.000000</ele>
</trkpt>
<trkpt lat="45.648127000" lon="12.814275000">
  <ele>0.000000</ele>
</trkpt>
<trkpt lat="45.647203000" lon="12.815555000">
  <ele>0.000000</ele>
</trkpt>
<trkpt lat="45.646529000" lon="12.816405000">
  <ele>0.000000</ele>
</trkpt>
<trkpt lat="45.646013000" lon="12.817302000">
  <ele>0.000000</ele>
</trkpt>
<trkpt lat="45.645964000" lon="12.817464000">
  <ele>0.000000</ele>
</trkpt>
<trkpt lat="45.645719000" lon="12.818278000">
  <ele>0.000000</ele>
</trkpt>
<trkpt lat="45.645477000" lon="12.819208000">
  <ele>0.000000</ele>
</trkpt>
<trkpt lat="45.645189000" lon="12.820218000">
  <ele>0.000000</ele>
</trkpt>
<trkpt lat="45.645032000" lon="12.821126000">
  <ele>0.000000</ele>
</trkpt>
<trkpt lat="45.644986000" lon="12.821861000">
  <ele>0.000000</ele>
</trkpt>
<trkpt lat="45.644923000" lon="12.822184000">
  <ele>0.000000</ele>
</trkpt>
<trkpt lat="45.644282000" lon="12.823484000">
  <ele>0.000000</ele>
</trkpt>
<trkpt lat="45.643423000" lon="12.824924000">
  <ele>0.000000</ele>
</trkpt>
<trkpt lat="45.642977000" lon="12.825336000">
  <ele>0.000000</ele>
</trkpt>
<trkpt lat="45.642744000" lon="12.825533000">
  <ele>0.000000</ele>
</trkpt>
<trkpt lat="45.641142000" lon="12.826885000">
  <ele>0.000000</ele>
</trkpt>
<trkpt lat="45.640990000" lon="12.827011000">
  <ele>0.000000</ele>
</trkpt>
<trkpt lat="45.638953000" lon="12.828703000">
  <ele>0.000000</ele>
</trkpt>
<trkpt lat="45.636310000" lon="12.830850000">
  <ele>0.000000</ele>
</trkpt>
<trkpt lat="45.635980000" lon="12.831128000">
  <ele>0.000000</ele>
</trkpt>
<trkpt lat="45.633743000" lon="12.833013000">
  <ele>0.000000</ele>
</trkpt>
<trkpt lat="45.631108000" lon="12.835151000">
  <ele>0.000000</ele>
</trkpt>
<trkpt lat="45.630714000" lon="12.835482000">
  <ele>0.000000</ele>
</trkpt>
<trkpt lat="45.627867000" lon="12.837870000">
  <ele>0.000000</ele>
</trkpt>
<trkpt lat="45.625838000" lon="12.839565000">
  <ele>0.000000</ele>
</trkpt>
<trkpt lat="45.625528000" lon="12.839921000">
  <ele>0.000000</ele>
</trkpt>
<trkpt lat="45.625139000" lon="12.840530000">
  <ele>0.000000</ele>
</trkpt>
<trkpt lat="45.624424000" lon="12.842075000">
  <ele>0.000000</ele>
</trkpt>
<trkpt lat="45.623924000" lon="12.843110000">
  <ele>0.000000</ele>
</trkpt>
<trkpt lat="45.623258000" lon="12.844487000">
  <ele>0.000000</ele>
</trkpt>
<trkpt lat="45.622021000" lon="12.847085000">
  <ele>0.000000</ele>
</trkpt>
<trkpt lat="45.621329000" lon="12.848559000">
  <ele>0.000000</ele>
</trkpt>
<trkpt lat="45.621045000" lon="12.849178000">
  <ele>0.000000</ele>
</trkpt>
<trkpt lat="45.620910000" lon="12.849525000">
  <ele>0.000000</ele>
</trkpt>
<trkpt lat="45.620296000" lon="12.851096000">
  <ele>0.000000</ele>
</trkpt>
<trkpt lat="45.619432000" lon="12.853351000">
  <ele>0.000000</ele>
</trkpt>
<trkpt lat="45.618433000" lon="12.855562000">
  <ele>0.000000</ele>
</trkpt>
<trkpt lat="45.617664000" lon="12.857145000">
  <ele>0.000000</ele>
</trkpt>
<trkpt lat="45.617404000" lon="12.857679000">
  <ele>0.000000</ele>
</trkpt>
<trkpt lat="45.616616000" lon="12.859353000">
  <ele>0.000000</ele>
</trkpt>
<trkpt lat="45.616308000" lon="12.859799000">
  <ele>0.000000</ele>
</trkpt>
<trkpt lat="45.615771000" lon="12.860212000">
  <ele>0.000000</ele>
</trkpt>
<trkpt lat="45.615135000" lon="12.860629000">
  <ele>0.000000</ele>
</trkpt>
<trkpt lat="45.614617000" lon="12.860899000">
  <ele>0.000000</ele>
</trkpt>
<trkpt lat="45.613837000" lon="12.861217000">
  <ele>0.000000</ele>
</trkpt>
<trkpt lat="45.613327000" lon="12.861428000">
  <ele>0.000000</ele>
</trkpt>
<trkpt lat="45.612899000" lon="12.861425000">
  <ele>0.000000</ele>
</trkpt>
<trkpt lat="45.612477000" lon="12.861454000">
  <ele>0.000000</ele>
</trkpt>
<trkpt lat="45.611650000" lon="12.861511000">
  <ele>0.000000</ele>
</trkpt>
<trkpt lat="45.610909000" lon="12.861321000">
  <ele>0.000000</ele>
</trkpt>
<trkpt lat="45.609546000" lon="12.861070000">
  <ele>0.000000</ele>
</trkpt>
<trkpt lat="45.609188000" lon="12.861043000">
  <ele>0.000000</ele>
</trkpt>
<trkpt lat="45.608924000" lon="12.861111000">
  <ele>0.000000</ele>
</trkpt>
<trkpt lat="45.608715000" lon="12.861232000">
  <ele>0.000000</ele>
</trkpt>
<trkpt lat="45.608485000" lon="12.861448000">
  <ele>0.000000</ele>
</trkpt>
<trkpt lat="45.608283000" lon="12.861766000">
  <ele>0.000000</ele>
</trkpt>
<trkpt lat="45.608128000" lon="12.862083000">
  <ele>0.000000</ele>
</trkpt>
<trkpt lat="45.607993000" lon="12.862583000">
  <ele>0.000000</ele>
</trkpt>
<trkpt lat="45.607864000" lon="12.863103000">
  <ele>0.000000</ele>
</trkpt>
<trkpt lat="45.607797000" lon="12.863933000">
  <ele>0.000000</ele>
</trkpt>
<trkpt lat="45.607648000" lon="12.865358000">
  <ele>0.000000</ele>
</trkpt>
<trkpt lat="45.607608000" lon="12.865878000">
  <ele>0.000000</ele>
</trkpt>
<trkpt lat="45.607537000" lon="12.867615000">
  <ele>0.000000</ele>
</trkpt>
<trkpt lat="45.607507000" lon="12.868985000">
  <ele>0.000000</ele>
</trkpt>
<trkpt lat="45.607476000" lon="12.869400000">
  <ele>0.000000</ele>
</trkpt>
<trkpt lat="45.607443000" lon="12.869678000">
  <ele>0.000000</ele>
</trkpt>
<trkpt lat="45.607429000" lon="12.869802000">
  <ele>0.000000</ele>
</trkpt>
<trkpt lat="45.607431000" lon="12.869880000">
  <ele>0.000000</ele>
</trkpt>
<trkpt lat="45.607448000" lon="12.869918000">
  <ele>0.000000</ele>
</trkpt>
<trkpt lat="45.607481000" lon="12.869940000">
  <ele>0.000000</ele>
</trkpt>
<trkpt lat="45.607544000" lon="12.869957000">
  <ele>0.000000</ele>
</trkpt>
<trkpt lat="45.607968000" lon="12.870049000">
  <ele>0.000000</ele>
</trkpt>
<trkpt lat="45.608011000" lon="12.870069000">
  <ele>0.000000</ele>
</trkpt>
<trkpt lat="45.608034000" lon="12.870105000">
  <ele>0.000000</ele>
</trkpt>
<trkpt lat="45.608043000" lon="12.870173000">
  <ele>0.000000</ele>
</trkpt>
<trkpt lat="45.608039000" lon="12.870329000">
  <ele>0.000000</ele>
</trkpt>
<trkpt lat="45.607936000" lon="12.871148000">
  <ele>0.000000</ele>
</trkpt>
<trkpt lat="45.607914000" lon="12.871265000">
  <ele>0.000000</ele>
</trkpt>
<trkpt lat="45.607614000" lon="12.871896000">
  <ele>0.000000</ele>
</trkpt>
<trkpt lat="45.607508000" lon="12.872124000">
  <ele>0.000000</ele>
</trkpt>
<trkpt lat="45.607429000" lon="12.872309000">
  <ele>0.000000</ele>
</trkpt>
<trkpt lat="45.607250000" lon="12.872777000">
  <ele>0.000000</ele>
</trkpt>
<trkpt lat="45.607147000" lon="12.873248000">
  <ele>0.000000</ele>
</trkpt>
<trkpt lat="45.607113000" lon="12.873484000">
  <ele>0.000000</ele>
</trkpt>
<trkpt lat="45.607049000" lon="12.873788000">
  <ele>0.000000</ele>
</trkpt>
<trkpt lat="45.606957000" lon="12.874138000">
  <ele>0.000000</ele>
</trkpt>
<trkpt lat="45.606847000" lon="12.874488000">
  <ele>0.000000</ele>
</trkpt>
<trkpt lat="45.606743000" lon="12.874844000">
  <ele>0.000000</ele>
</trkpt>
<trkpt lat="45.606686000" lon="12.874973000">
  <ele>0.000000</ele>
</trkpt>
</trkseg>
</trk>
<trk>
  <name>I3-5</name>
<trkseg>
<trkpt lat="45.654349000" lon="13.060538000">
  <ele>0.000000</ele>
</trkpt>
<trkpt lat="45.653928000" lon="13.060549000">
  <ele>0.000000</ele>
</trkpt>
<trkpt lat="45.653526000" lon="13.060567000">
  <ele>0.000000</ele>
</trkpt>
<trkpt lat="45.653277000" lon="13.060579000">
  <ele>0.000000</ele>
</trkpt>
<trkpt lat="45.652921000" lon="13.060586000">
  <ele>0.000000</ele>
</trkpt>
<trkpt lat="45.652569000" lon="13.060610000">
  <ele>0.000000</ele>
</trkpt>
<trkpt lat="45.652244000" lon="13.060637000">
  <ele>0.000000</ele>
</trkpt>
<trkpt lat="45.652002000" lon="13.060628000">
  <ele>0.000000</ele>
</trkpt>
<trkpt lat="45.651932000" lon="13.060573000">
  <ele>0.000000</ele>
</trkpt>
<trkpt lat="45.651880000" lon="13.060498000">
  <ele>0.000000</ele>
</trkpt>
<trkpt lat="45.651821000" lon="13.060450000">
  <ele>0.000000</ele>
</trkpt>
<trkpt lat="45.651741000" lon="13.060438000">
  <ele>0.000000</ele>
</trkpt>
<trkpt lat="45.651606000" lon="13.060426000">
  <ele>0.000000</ele>
</trkpt>
<trkpt lat="45.651498000" lon="13.060435000">
  <ele>0.000000</ele>
</trkpt>
<trkpt lat="45.651410000" lon="13.060477000">
  <ele>0.000000</ele>
</trkpt>
<trkpt lat="45.651370000" lon="13.060537000">
  <ele>0.000000</ele>
</trkpt>
<trkpt lat="45.651327000" lon="13.060601000">
  <ele>0.000000</ele>
</trkpt>
<trkpt lat="45.651270000" lon="13.060646000">
  <ele>0.000000</ele>
</trkpt>
<trkpt lat="45.651144000" lon="13.060658000">
  <ele>0.000000</ele>
</trkpt>
<trkpt lat="45.650737000" lon="13.060682000">
  <ele>0.000000</ele>
</trkpt>
<trkpt lat="45.650360000" lon="13.060685000">
  <ele>0.000000</ele>
</trkpt>
<trkpt lat="45.650170000" lon="13.060658000">
  <ele>0.000000</ele>
</trkpt>
<trkpt lat="45.649883000" lon="13.060543000">
  <ele>0.000000</ele>
</trkpt>
<trkpt lat="45.649734000" lon="13.060456000">
  <ele>0.000000</ele>
</trkpt>
<trkpt lat="45.649523000" lon="13.060272000">
  <ele>0.000000</ele>
</trkpt>
<trkpt lat="45.649302000" lon="13.060052000">
  <ele>0.000000</ele>
</trkpt>
<trkpt lat="45.649200000" lon="13.059820000">
  <ele>0.000000</ele>
</trkpt>
<trkpt lat="45.649122000" lon="13.059482000">
  <ele>0.000000</ele>
</trkpt>
<trkpt lat="45.649033000" lon="13.059481000">
  <ele>0.000000</ele>
</trkpt>
<trkpt lat="45.649031000" lon="13.059065000">
  <ele>0.000000</ele>
</trkpt>
<trkpt lat="45.648982000" lon="13.057580000">
  <ele>0.000000</ele>
</trkpt>
<trkpt lat="45.648283000" lon="13.057619000">
  <ele>0.000000</ele>
</trkpt>
<trkpt lat="45.647968000" lon="13.057644000">
  <ele>0.000000</ele>
</trkpt>
<trkpt lat="45.647612000" lon="13.057662000">
  <ele>0.000000</ele>
</trkpt>
<trkpt lat="45.646655000" lon="13.057708000">
  <ele>0.000000</ele>
</trkpt>
<trkpt lat="45.646000000" lon="13.057744000">
  <ele>0.000000</ele>
</trkpt>
<trkpt lat="45.644778000" lon="13.057796000">
  <ele>0.000000</ele>
</trkpt>
<trkpt lat="45.643670000" lon="13.057830000">
  <ele>0.000000</ele>
</trkpt>
<trkpt lat="45.642737000" lon="13.057858000">
  <ele>0.000000</ele>
</trkpt>
<trkpt lat="45.642067000" lon="13.057892000">
  <ele>0.000000</ele>
</trkpt>
<trkpt lat="45.641085000" lon="13.057939000">
  <ele>0.000000</ele>
</trkpt>
<trkpt lat="45.640120000" lon="13.057995000">
  <ele>0.000000</ele>
</trkpt>
<trkpt lat="45.639320000" lon="13.058013000">
  <ele>0.000000</ele>
</trkpt>
<trkpt lat="45.638417000" lon="13.058065000">
  <ele>0.000000</ele>
</trkpt>
<trkpt lat="45.638363000" lon="13.058068000">
  <ele>0.000000</ele>
</trkpt>
<trkpt lat="45.638289000" lon="13.058071000">
  <ele>0.000000</ele>
</trkpt>
<trkpt lat="45.637319000" lon="13.058113000">
  <ele>0.000000</ele>
</trkpt>
<trkpt lat="45.636979000" lon="13.058127000">
  <ele>0.000000</ele>
</trkpt>
<trkpt lat="45.636758000" lon="13.058136000">
  <ele>0.000000</ele>
</trkpt>
<trkpt lat="45.636399000" lon="13.058175000">
  <ele>0.000000</ele>
</trkpt>
<trkpt lat="45.636056000" lon="13.058185000">
  <ele>0.000000</ele>
</trkpt>
<trkpt lat="45.635241000" lon="13.058226000">
  <ele>0.000000</ele>
</trkpt>
<trkpt lat="45.633416000" lon="13.058444000">
  <ele>0.000000</ele>
</trkpt>
</trkseg>
</trk>
<trk>
  <name>I3-5</name>
<trkseg>
<trkpt lat="45.636503000" lon="13.097088000">
  <ele>0.000000</ele>
</trkpt>
<trkpt lat="45.636881000" lon="13.096426000">
  <ele>0.000000</ele>
</trkpt>
<trkpt lat="45.637145000" lon="13.096069000">
  <ele>0.000000</ele>
</trkpt>
<trkpt lat="45.637372000" lon="13.095837000">
  <ele>0.000000</ele>
</trkpt>
<trkpt lat="45.637903000" lon="13.095593000">
  <ele>0.000000</ele>
</trkpt>
<trkpt lat="45.641041000" lon="13.094810000">
  <ele>0.000000</ele>
</trkpt>
<trkpt lat="45.644059000" lon="13.094717000">
  <ele>0.000000</ele>
</trkpt>
<trkpt lat="45.644387000" lon="13.094862000">
  <ele>0.000000</ele>
</trkpt>
<trkpt lat="45.644735000" lon="13.095104000">
  <ele>0.000000</ele>
</trkpt>
<trkpt lat="45.644989000" lon="13.095066000">
  <ele>0.000000</ele>
</trkpt>
<trkpt lat="45.645136000" lon="13.094992000">
  <ele>0.000000</ele>
</trkpt>
<trkpt lat="45.645575000" lon="13.094768000">
  <ele>0.000000</ele>
</trkpt>
<trkpt lat="45.645786000" lon="13.094501000">
  <ele>0.000000</ele>
</trkpt>
<trkpt lat="45.645978000" lon="13.094149000">
  <ele>0.000000</ele>
</trkpt>
<trkpt lat="45.646885000" lon="13.092502000">
  <ele>0.000000</ele>
</trkpt>
<trkpt lat="45.647196000" lon="13.091801000">
  <ele>0.000000</ele>
</trkpt>
<trkpt lat="45.647382000" lon="13.091317000">
  <ele>0.000000</ele>
</trkpt>
<trkpt lat="45.648810000" lon="13.089259000">
  <ele>0.000000</ele>
</trkpt>
<trkpt lat="45.648913000" lon="13.089028000">
  <ele>0.000000</ele>
</trkpt>
<trkpt lat="45.649001000" lon="13.088713000">
  <ele>0.000000</ele>
</trkpt>
<trkpt lat="45.649045000" lon="13.088188000">
  <ele>0.000000</ele>
</trkpt>
<trkpt lat="45.648994000" lon="13.085156000">
  <ele>0.000000</ele>
</trkpt>
<trkpt lat="45.648928000" lon="13.084809000">
  <ele>0.000000</ele>
</trkpt>
<trkpt lat="45.648202000" lon="13.081612000">
  <ele>0.000000</ele>
</trkpt>
<trkpt lat="45.648117000" lon="13.081039000">
  <ele>0.000000</ele>
</trkpt>
<trkpt lat="45.648157000" lon="13.080567000">
  <ele>0.000000</ele>
</trkpt>
<trkpt lat="45.648337000" lon="13.079850000">
  <ele>0.000000</ele>
</trkpt>
<trkpt lat="45.648590000" lon="13.079206000">
  <ele>0.000000</ele>
</trkpt>
<trkpt lat="45.649022000" lon="13.078710000">
  <ele>0.000000</ele>
</trkpt>
<trkpt lat="45.649595000" lon="13.078282000">
  <ele>0.000000</ele>
</trkpt>
<trkpt lat="45.650336000" lon="13.078030000">
  <ele>0.000000</ele>
</trkpt>
<trkpt lat="45.651283000" lon="13.077893000">
  <ele>0.000000</ele>
</trkpt>
<trkpt lat="45.652337000" lon="13.077858000">
  <ele>0.000000</ele>
</trkpt>
<trkpt lat="45.652853000" lon="13.077716000">
  <ele>0.000000</ele>
</trkpt>
<trkpt lat="45.653201000" lon="13.077806000">
  <ele>0.000000</ele>
</trkpt>
<trkpt lat="45.653470000" lon="13.077930000">
  <ele>0.000000</ele>
</trkpt>
<trkpt lat="45.654715000" lon="13.079013000">
  <ele>0.000000</ele>
</trkpt>
<trkpt lat="45.654658000" lon="13.074765000">
  <ele>0.000000</ele>
</trkpt>
<trkpt lat="45.654481000" lon="13.066783000">
  <ele>0.000000</ele>
</trkpt>
<trkpt lat="45.654348000" lon="13.060635000">
  <ele>0.000000</ele>
</trkpt>
<trkpt lat="45.654349000" lon="13.060538000">
  <ele>0.000000</ele>
</trkpt>
</trkseg>
</trk>
<trk>
  <name>I3-5</name>
<trkseg>
<trkpt lat="45.704578000" lon="12.951150000">
  <ele>0.000000</ele>
</trkpt>
<trkpt lat="45.706759000" lon="12.952367000">
  <ele>0.000000</ele>
</trkpt>
<trkpt lat="45.706892000" lon="12.952533000">
  <ele>0.000000</ele>
</trkpt>
<trkpt lat="45.707039000" lon="12.952789000">
  <ele>0.000000</ele>
</trkpt>
<trkpt lat="45.707102000" lon="12.952976000">
  <ele>0.000000</ele>
</trkpt>
<trkpt lat="45.707155000" lon="12.953077000">
  <ele>0.000000</ele>
</trkpt>
<trkpt lat="45.707220000" lon="12.953120000">
  <ele>0.000000</ele>
</trkpt>
<trkpt lat="45.707364000" lon="12.953031000">
  <ele>0.000000</ele>
</trkpt>
<trkpt lat="45.707547000" lon="12.952905000">
  <ele>0.000000</ele>
</trkpt>
<trkpt lat="45.709531000" lon="12.951588000">
  <ele>0.000000</ele>
</trkpt>
<trkpt lat="45.709873000" lon="12.951327000">
  <ele>0.000000</ele>
</trkpt>
<trkpt lat="45.711125000" lon="12.950078000">
  <ele>0.000000</ele>
</trkpt>
<trkpt lat="45.711720000" lon="12.949442000">
  <ele>0.000000</ele>
</trkpt>
<trkpt lat="45.711912000" lon="12.949141000">
  <ele>0.000000</ele>
</trkpt>
<trkpt lat="45.712150000" lon="12.948864000">
  <ele>0.000000</ele>
</trkpt>
<trkpt lat="45.712645000" lon="12.948422000">
  <ele>0.000000</ele>
</trkpt>
<trkpt lat="45.712805000" lon="12.948272000">
  <ele>0.000000</ele>
</trkpt>
<trkpt lat="45.712954000" lon="12.948466000">
  <ele>0.000000</ele>
</trkpt>
<trkpt lat="45.713118000" lon="12.948644000">
  <ele>0.000000</ele>
</trkpt>
<trkpt lat="45.713284000" lon="12.948785000">
  <ele>0.000000</ele>
</trkpt>
<trkpt lat="45.713418000" lon="12.948853000">
  <ele>0.000000</ele>
</trkpt>
<trkpt lat="45.713599000" lon="12.948849000">
  <ele>0.000000</ele>
</trkpt>
<trkpt lat="45.713965000" lon="12.948756000">
  <ele>0.000000</ele>
</trkpt>
<trkpt lat="45.714512000" lon="12.948623000">
  <ele>0.000000</ele>
</trkpt>
<trkpt lat="45.714778000" lon="12.948581000">
  <ele>0.000000</ele>
</trkpt>
<trkpt lat="45.715023000" lon="12.948547000">
  <ele>0.000000</ele>
</trkpt>
<trkpt lat="45.715368000" lon="12.948581000">
  <ele>0.000000</ele>
</trkpt>
<trkpt lat="45.715761000" lon="12.948755000">
  <ele>0.000000</ele>
</trkpt>
<trkpt lat="45.716244000" lon="12.949094000">
  <ele>0.000000</ele>
</trkpt>
<trkpt lat="45.716522000" lon="12.949305000">
  <ele>0.000000</ele>
</trkpt>
<trkpt lat="45.716764000" lon="12.949439000">
  <ele>0.000000</ele>
</trkpt>
<trkpt lat="45.717155000" lon="12.949496000">
  <ele>0.000000</ele>
</trkpt>
<trkpt lat="45.717571000" lon="12.949528000">
  <ele>0.000000</ele>
</trkpt>
<trkpt lat="45.718274000" lon="12.949434000">
  <ele>0.000000</ele>
</trkpt>
<trkpt lat="45.718674000" lon="12.949305000">
  <ele>0.000000</ele>
</trkpt>
<trkpt lat="45.719030000" lon="12.949191000">
  <ele>0.000000</ele>
</trkpt>
<trkpt lat="45.719312000" lon="12.949108000">
  <ele>0.000000</ele>
</trkpt>
<trkpt lat="45.719693000" lon="12.949124000">
  <ele>0.000000</ele>
</trkpt>
<trkpt lat="45.720259000" lon="12.949164000">
  <ele>0.000000</ele>
</trkpt>
<trkpt lat="45.720642000" lon="12.949279000">
  <ele>0.000000</ele>
</trkpt>
<trkpt lat="45.721019000" lon="12.949520000">
  <ele>0.000000</ele>
</trkpt>
<trkpt lat="45.721511000" lon="12.950020000">
  <ele>0.000000</ele>
</trkpt>
<trkpt lat="45.722969000" lon="12.951764000">
  <ele>0.000000</ele>
</trkpt>
<trkpt lat="45.723706000" lon="12.952501000">
  <ele>0.000000</ele>
</trkpt>
<trkpt lat="45.724426000" lon="12.953139000">
  <ele>0.000000</ele>
</trkpt>
<trkpt lat="45.724809000" lon="12.953680000">
  <ele>0.000000</ele>
</trkpt>
<trkpt lat="45.725283000" lon="12.954662000">
  <ele>0.000000</ele>
</trkpt>
<trkpt lat="45.725758000" lon="12.955465000">
  <ele>0.000000</ele>
</trkpt>
<trkpt lat="45.726175000" lon="12.955874000">
  <ele>0.000000</ele>
</trkpt>
<trkpt lat="45.726507000" lon="12.956030000">
  <ele>0.000000</ele>
</trkpt>
<trkpt lat="45.726912000" lon="12.956210000">
  <ele>0.000000</ele>
</trkpt>
<trkpt lat="45.727203000" lon="12.956461000">
  <ele>0.000000</ele>
</trkpt>
<trkpt lat="45.727273000" lon="12.956521000">
  <ele>0.000000</ele>
</trkpt>
<trkpt lat="45.727644000" lon="12.956955000">
  <ele>0.000000</ele>
</trkpt>
<trkpt lat="45.727907000" lon="12.957212000">
  <ele>0.000000</ele>
</trkpt>
<trkpt lat="45.727970000" lon="12.957274000">
  <ele>0.000000</ele>
</trkpt>
<trkpt lat="45.728207000" lon="12.957441000">
  <ele>0.000000</ele>
</trkpt>
<trkpt lat="45.728250000" lon="12.957471000">
  <ele>0.000000</ele>
</trkpt>
<trkpt lat="45.728627000" lon="12.957635000">
  <ele>0.000000</ele>
</trkpt>
<trkpt lat="45.729883000" lon="12.957962000">
  <ele>0.000000</ele>
</trkpt>
<trkpt lat="45.730010000" lon="12.957995000">
  <ele>0.000000</ele>
</trkpt>
<trkpt lat="45.730416000" lon="12.958052000">
  <ele>0.000000</ele>
</trkpt>
<trkpt lat="45.730807000" lon="12.958054000">
  <ele>0.000000</ele>
</trkpt>
<trkpt lat="45.731212000" lon="12.957913000">
  <ele>0.000000</ele>
</trkpt>
<trkpt lat="45.731624000" lon="12.957604000">
  <ele>0.000000</ele>
</trkpt>
<trkpt lat="45.731806000" lon="12.957475000">
  <ele>0.000000</ele>
</trkpt>
<trkpt lat="45.733222000" lon="12.956329000">
  <ele>0.000000</ele>
</trkpt>
<trkpt lat="45.733614000" lon="12.957679000">
  <ele>0.000000</ele>
</trkpt>
<trkpt lat="45.733707000" lon="12.957914000">
  <ele>0.000000</ele>
</trkpt>
<trkpt lat="45.734198000" lon="12.959152000">
  <ele>0.000000</ele>
</trkpt>
<trkpt lat="45.734267000" lon="12.959379000">
  <ele>0.000000</ele>
</trkpt>
<trkpt lat="45.734464000" lon="12.960030000">
  <ele>0.000000</ele>
</trkpt>
<trkpt lat="45.734558000" lon="12.960341000">
  <ele>0.000000</ele>
</trkpt>
<trkpt lat="45.734883000" lon="12.961513000">
  <ele>0.000000</ele>
</trkpt>
<trkpt lat="45.735058000" lon="12.962144000">
  <ele>0.000000</ele>
</trkpt>
<trkpt lat="45.735247000" lon="12.962824000">
  <ele>0.000000</ele>
</trkpt>
<trkpt lat="45.735711000" lon="12.964496000">
  <ele>0.000000</ele>
</trkpt>
<trkpt lat="45.736240000" lon="12.966053000">
  <ele>0.000000</ele>
</trkpt>
<trkpt lat="45.736771000" lon="12.967359000">
  <ele>0.000000</ele>
</trkpt>
<trkpt lat="45.737933000" lon="12.969777000">
  <ele>0.000000</ele>
</trkpt>
<trkpt lat="45.738481000" lon="12.970976000">
  <ele>0.000000</ele>
</trkpt>
<trkpt lat="45.739043000" lon="12.971819000">
  <ele>0.000000</ele>
</trkpt>
<trkpt lat="45.739241000" lon="12.972116000">
  <ele>0.000000</ele>
</trkpt>
<trkpt lat="45.742846000" lon="12.977351000">
  <ele>0.000000</ele>
</trkpt>
<trkpt lat="45.735943000" lon="12.984287000">
  <ele>0.000000</ele>
</trkpt>
<trkpt lat="45.735482000" lon="12.983446000">
  <ele>0.000000</ele>
</trkpt>
<trkpt lat="45.734934000" lon="12.982028000">
  <ele>0.000000</ele>
</trkpt>
<trkpt lat="45.734835000" lon="12.981956000">
  <ele>0.000000</ele>
</trkpt>
<trkpt lat="45.734238000" lon="12.982116000">
  <ele>0.000000</ele>
</trkpt>
<trkpt lat="45.732402000" lon="12.982773000">
  <ele>0.000000</ele>
</trkpt>
<trkpt lat="45.731219000" lon="12.980482000">
  <ele>0.000000</ele>
</trkpt>
<trkpt lat="45.729952000" lon="12.977913000">
  <ele>0.000000</ele>
</trkpt>
<trkpt lat="45.727603000" lon="12.979520000">
  <ele>0.000000</ele>
</trkpt>
<trkpt lat="45.724726000" lon="12.981404000">
  <ele>0.000000</ele>
</trkpt>
<trkpt lat="45.724577000" lon="12.981408000">
  <ele>0.000000</ele>
</trkpt>
<trkpt lat="45.722980000" lon="12.980994000">
  <ele>0.000000</ele>
</trkpt>
<trkpt lat="45.722113000" lon="12.982741000">
  <ele>0.000000</ele>
</trkpt>
<trkpt lat="45.720772000" lon="12.985442000">
  <ele>0.000000</ele>
</trkpt>
<trkpt lat="45.719634000" lon="12.987631000">
  <ele>0.000000</ele>
</trkpt>
<trkpt lat="45.719118000" lon="12.988747000">
  <ele>0.000000</ele>
</trkpt>
<trkpt lat="45.719020000" lon="12.988678000">
  <ele>0.000000</ele>
</trkpt>
<trkpt lat="45.717082000" lon="12.986721000">
  <ele>0.000000</ele>
</trkpt>
<trkpt lat="45.715069000" lon="12.984681000">
  <ele>0.000000</ele>
</trkpt>
<trkpt lat="45.711014000" lon="12.980571000">
  <ele>0.000000</ele>
</trkpt>
<trkpt lat="45.707686000" lon="12.977790000">
  <ele>0.000000</ele>
</trkpt>
<trkpt lat="45.707569000" lon="12.977692000">
  <ele>0.000000</ele>
</trkpt>
<trkpt lat="45.705361000" lon="12.975871000">
  <ele>0.000000</ele>
</trkpt>
<trkpt lat="45.705048000" lon="12.975668000">
  <ele>0.000000</ele>
</trkpt>
<trkpt lat="45.704742000" lon="12.975570000">
  <ele>0.000000</ele>
</trkpt>
<trkpt lat="45.704152000" lon="12.975512000">
  <ele>0.000000</ele>
</trkpt>
<trkpt lat="45.701817000" lon="12.975281000">
  <ele>0.000000</ele>
</trkpt>
<trkpt lat="45.700400000" lon="12.975166000">
  <ele>0.000000</ele>
</trkpt>
<trkpt lat="45.699730000" lon="12.975096000">
  <ele>0.000000</ele>
</trkpt>
<trkpt lat="45.699522000" lon="12.975096000">
  <ele>0.000000</ele>
</trkpt>
<trkpt lat="45.699389000" lon="12.975206000">
  <ele>0.000000</ele>
</trkpt>
<trkpt lat="45.699296000" lon="12.975403000">
  <ele>0.000000</ele>
</trkpt>
<trkpt lat="45.698834000" lon="12.977605000">
  <ele>0.000000</ele>
</trkpt>
<trkpt lat="45.698743000" lon="12.977810000">
  <ele>0.000000</ele>
</trkpt>
<trkpt lat="45.698602000" lon="12.977877000">
  <ele>0.000000</ele>
</trkpt>
<trkpt lat="45.698428000" lon="12.977858000">
  <ele>0.000000</ele>
</trkpt>
<trkpt lat="45.697196000" lon="12.977326000">
  <ele>0.000000</ele>
</trkpt>
<trkpt lat="45.695761000" lon="12.976708000">
  <ele>0.000000</ele>
</trkpt>
<trkpt lat="45.694584000" lon="12.976171000">
  <ele>0.000000</ele>
</trkpt>
<trkpt lat="45.694469000" lon="12.976168000">
  <ele>0.000000</ele>
</trkpt>
<trkpt lat="45.694392000" lon="12.976219000">
  <ele>0.000000</ele>
</trkpt>
<trkpt lat="45.694266000" lon="12.976859000">
  <ele>0.000000</ele>
</trkpt>
<trkpt lat="45.693777000" lon="12.979201000">
  <ele>0.000000</ele>
</trkpt>
<trkpt lat="45.693237000" lon="12.981706000">
  <ele>0.000000</ele>
</trkpt>
<trkpt lat="45.693215000" lon="12.982043000">
  <ele>0.000000</ele>
</trkpt>
<trkpt lat="45.693183000" lon="12.982373000">
  <ele>0.000000</ele>
</trkpt>
<trkpt lat="45.693127000" lon="12.982468000">
  <ele>0.000000</ele>
</trkpt>
<trkpt lat="45.693044000" lon="12.982477000">
  <ele>0.000000</ele>
</trkpt>
<trkpt lat="45.692813000" lon="12.982441000">
  <ele>0.000000</ele>
</trkpt>
<trkpt lat="45.692710000" lon="12.982459000">
  <ele>0.000000</ele>
</trkpt>
<trkpt lat="45.692639000" lon="12.982536000">
  <ele>0.000000</ele>
</trkpt>
<trkpt lat="45.692547000" lon="12.982681000">
  <ele>0.000000</ele>
</trkpt>
<trkpt lat="45.691564000" lon="12.984478000">
  <ele>0.000000</ele>
</trkpt>
<trkpt lat="45.691514000" lon="12.984611000">
  <ele>0.000000</ele>
</trkpt>
<trkpt lat="45.691422000" lon="12.984993000">
  <ele>0.000000</ele>
</trkpt>
<trkpt lat="45.691327000" lon="12.985531000">
  <ele>0.000000</ele>
</trkpt>
<trkpt lat="45.691253000" lon="12.985765000">
  <ele>0.000000</ele>
</trkpt>
<trkpt lat="45.691120000" lon="12.985934000">
  <ele>0.000000</ele>
</trkpt>
<trkpt lat="45.690996000" lon="12.986023000">
  <ele>0.000000</ele>
</trkpt>
<trkpt lat="45.690883000" lon="12.986032000">
  <ele>0.000000</ele>
</trkpt>
<trkpt lat="45.690578000" lon="12.985975000">
  <ele>0.000000</ele>
</trkpt>
<trkpt lat="45.690123000" lon="12.985869000">
  <ele>0.000000</ele>
</trkpt>
<trkpt lat="45.689744000" lon="12.985756000">
  <ele>0.000000</ele>
</trkpt>
<trkpt lat="45.689510000" lon="12.985582000">
  <ele>0.000000</ele>
</trkpt>
<trkpt lat="45.689134000" lon="12.985203000">
  <ele>0.000000</ele>
</trkpt>
<trkpt lat="45.688939000" lon="12.985111000">
  <ele>0.000000</ele>
</trkpt>
<trkpt lat="45.688820000" lon="12.985111000">
  <ele>0.000000</ele>
</trkpt>
<trkpt lat="45.688657000" lon="12.985203000">
  <ele>0.000000</ele>
</trkpt>
<trkpt lat="45.688415000" lon="12.985481000">
  <ele>0.000000</ele>
</trkpt>
<trkpt lat="45.687808000" lon="12.986200000">
  <ele>0.000000</ele>
</trkpt>
<trkpt lat="45.687530000" lon="12.986582000">
  <ele>0.000000</ele>
</trkpt>
<trkpt lat="45.687358000" lon="12.986863000">
  <ele>0.000000</ele>
</trkpt>
<trkpt lat="45.687198000" lon="12.987227000">
  <ele>0.000000</ele>
</trkpt>
<trkpt lat="45.687113000" lon="12.987473000">
  <ele>0.000000</ele>
</trkpt>
<trkpt lat="45.687086000" lon="12.987550000">
  <ele>0.000000</ele>
</trkpt>
<trkpt lat="45.686725000" lon="12.988624000">
  <ele>0.000000</ele>
</trkpt>
<trkpt lat="45.685906000" lon="12.991113000">
  <ele>0.000000</ele>
</trkpt>
<trkpt lat="45.685800000" lon="12.991367000">
  <ele>0.000000</ele>
</trkpt>
<trkpt lat="45.685482000" lon="12.991685000">
  <ele>0.000000</ele>
</trkpt>
<trkpt lat="45.684893000" lon="12.992200000">
  <ele>0.000000</ele>
</trkpt>
<trkpt lat="45.684697000" lon="12.992325000">
  <ele>0.000000</ele>
</trkpt>
<trkpt lat="45.684340000" lon="12.992317000">
  <ele>0.000000</ele>
</trkpt>
<trkpt lat="45.683883000" lon="12.992351000">
  <ele>0.000000</ele>
</trkpt>
<trkpt lat="45.683783000" lon="12.992425000">
  <ele>0.000000</ele>
</trkpt>
<trkpt lat="45.683680000" lon="12.992366000">
  <ele>0.000000</ele>
</trkpt>
<trkpt lat="45.683386000" lon="12.992363000">
  <ele>0.000000</ele>
</trkpt>
<trkpt lat="45.681599000" lon="12.992478000">
  <ele>0.000000</ele>
</trkpt>
<trkpt lat="45.681347000" lon="12.992546000">
  <ele>0.000000</ele>
</trkpt>
<trkpt lat="45.681163000" lon="12.992644000">
  <ele>0.000000</ele>
</trkpt>
<trkpt lat="45.680997000" lon="12.992807000">
  <ele>0.000000</ele>
</trkpt>
<trkpt lat="45.680819000" lon="12.993104000">
  <ele>0.000000</ele>
</trkpt>
<trkpt lat="45.680484000" lon="12.993702000">
  <ele>0.000000</ele>
</trkpt>
<trkpt lat="45.679989000" lon="12.994586000">
  <ele>0.000000</ele>
</trkpt>
<trkpt lat="45.679776000" lon="12.994826000">
  <ele>0.000000</ele>
</trkpt>
<trkpt lat="45.679598000" lon="12.994942000">
  <ele>0.000000</ele>
</trkpt>
<trkpt lat="45.679414000" lon="12.995013000">
  <ele>0.000000</ele>
</trkpt>
<trkpt lat="45.679227000" lon="12.995019000">
  <ele>0.000000</ele>
</trkpt>
<trkpt lat="45.678605000" lon="12.994942000">
  <ele>0.000000</ele>
</trkpt>
<trkpt lat="45.674463000" lon="12.994337000">
  <ele>0.000000</ele>
</trkpt>
<trkpt lat="45.673491000" lon="12.994203000">
  <ele>0.000000</ele>
</trkpt>
<trkpt lat="45.671386000" lon="12.993898000">
  <ele>0.000000</ele>
</trkpt>
<trkpt lat="45.669886000" lon="12.993682000">
  <ele>0.000000</ele>
</trkpt>
<trkpt lat="45.667660000" lon="12.993353000">
  <ele>0.000000</ele>
</trkpt>
<trkpt lat="45.665559000" lon="12.993047000">
  <ele>0.000000</ele>
</trkpt>
<trkpt lat="45.664945000" lon="12.992970000">
  <ele>0.000000</ele>
</trkpt>
<trkpt lat="45.664892000" lon="12.993059000">
  <ele>0.000000</ele>
</trkpt>
<trkpt lat="45.664752000" lon="12.994867000">
  <ele>0.000000</ele>
</trkpt>
<trkpt lat="45.664657000" lon="12.996213000">
  <ele>0.000000</ele>
</trkpt>
<trkpt lat="45.664557000" lon="12.997870000">
  <ele>0.000000</ele>
</trkpt>
<trkpt lat="45.664397000" lon="13.000123000">
  <ele>0.000000</ele>
</trkpt>
<trkpt lat="45.664242000" lon="13.002092000">
  <ele>0.000000</ele>
</trkpt>
<trkpt lat="45.664082000" lon="13.002415000">
  <ele>0.000000</ele>
</trkpt>
<trkpt lat="45.663928000" lon="13.002504000">
  <ele>0.000000</ele>
</trkpt>
<trkpt lat="45.663632000" lon="13.002477000">
  <ele>0.000000</ele>
</trkpt>
<trkpt lat="45.661702000" lon="13.002198000">
  <ele>0.000000</ele>
</trkpt>
<trkpt lat="45.659639000" lon="13.001884000">
  <ele>0.000000</ele>
</trkpt>
<trkpt lat="45.657872000" lon="13.001629000">
  <ele>0.000000</ele>
</trkpt>
<trkpt lat="45.656538000" lon="13.001436000">
  <ele>0.000000</ele>
</trkpt>
<trkpt lat="45.655186000" lon="13.001238000">
  <ele>0.000000</ele>
</trkpt>
<trkpt lat="45.654144000" lon="13.001086000">
  <ele>0.000000</ele>
</trkpt>
<trkpt lat="45.653125000" lon="13.000940000">
  <ele>0.000000</ele>
</trkpt>
<trkpt lat="45.652488000" lon="13.000852000">
  <ele>0.000000</ele>
</trkpt>
<trkpt lat="45.651416000" lon="13.000693000">
  <ele>0.000000</ele>
</trkpt>
<trkpt lat="45.650645000" lon="13.000582000">
  <ele>0.000000</ele>
</trkpt>
<trkpt lat="45.650185000" lon="13.000511000">
  <ele>0.000000</ele>
</trkpt>
<trkpt lat="45.648946000" lon="13.000330000">
  <ele>0.000000</ele>
</trkpt>
<trkpt lat="45.648628000" lon="13.000293000">
  <ele>0.000000</ele>
</trkpt>
<trkpt lat="45.648535000" lon="13.001586000">
  <ele>0.000000</ele>
</trkpt>
<trkpt lat="45.648370000" lon="13.003963000">
  <ele>0.000000</ele>
</trkpt>
<trkpt lat="45.648179000" lon="13.006603000">
  <ele>0.000000</ele>
</trkpt>
<trkpt lat="45.648081000" lon="13.008074000">
  <ele>0.000000</ele>
</trkpt>
<trkpt lat="45.647968000" lon="13.009580000">
  <ele>0.000000</ele>
</trkpt>
<trkpt lat="45.647945000" lon="13.009879000">
  <ele>0.000000</ele>
</trkpt>
<trkpt lat="45.647930000" lon="13.010071000">
  <ele>0.000000</ele>
</trkpt>
<trkpt lat="45.647855000" lon="13.011204000">
  <ele>0.000000</ele>
</trkpt>
<trkpt lat="45.647754000" lon="13.012680000">
  <ele>0.000000</ele>
</trkpt>
<trkpt lat="45.647658000" lon="13.014065000">
  <ele>0.000000</ele>
</trkpt>
<trkpt lat="45.647552000" lon="13.015498000">
  <ele>0.000000</ele>
</trkpt>
<trkpt lat="45.647516000" lon="13.015980000">
  <ele>0.000000</ele>
</trkpt>
<trkpt lat="45.647483000" lon="13.016485000">
  <ele>0.000000</ele>
</trkpt>
<trkpt lat="45.647386000" lon="13.017808000">
  <ele>0.000000</ele>
</trkpt>
<trkpt lat="45.647341000" lon="13.018373000">
  <ele>0.000000</ele>
</trkpt>
<trkpt lat="45.647295000" lon="13.019084000">
  <ele>0.000000</ele>
</trkpt>
<trkpt lat="45.647273000" lon="13.019332000">
  <ele>0.000000</ele>
</trkpt>
<trkpt lat="45.647302000" lon="13.019440000">
  <ele>0.000000</ele>
</trkpt>
<trkpt lat="45.647379000" lon="13.019473000">
  <ele>0.000000</ele>
</trkpt>
<trkpt lat="45.647508000" lon="13.019495000">
  <ele>0.000000</ele>
</trkpt>
<trkpt lat="45.647794000" lon="13.019543000">
  <ele>0.000000</ele>
</trkpt>
<trkpt lat="45.648522000" lon="13.019642000">
  <ele>0.000000</ele>
</trkpt>
<trkpt lat="45.649329000" lon="13.019762000">
  <ele>0.000000</ele>
</trkpt>
<trkpt lat="45.650100000" lon="13.019888000">
  <ele>0.000000</ele>
</trkpt>
<trkpt lat="45.650291000" lon="13.019967000">
  <ele>0.000000</ele>
</trkpt>
<trkpt lat="45.650434000" lon="13.020104000">
  <ele>0.000000</ele>
</trkpt>
<trkpt lat="45.651113000" lon="13.020862000">
  <ele>0.000000</ele>
</trkpt>
<trkpt lat="45.651287000" lon="13.021079000">
  <ele>0.000000</ele>
</trkpt>
<trkpt lat="45.651327000" lon="13.021148000">
  <ele>0.000000</ele>
</trkpt>
<trkpt lat="45.651350000" lon="13.021343000">
  <ele>0.000000</ele>
</trkpt>
<trkpt lat="45.651323000" lon="13.021461000">
  <ele>0.000000</ele>
</trkpt>
<trkpt lat="45.650915000" lon="13.022177000">
  <ele>0.000000</ele>
</trkpt>
<trkpt lat="45.650827000" lon="13.022377000">
  <ele>0.000000</ele>
</trkpt>
<trkpt lat="45.650785000" lon="13.022541000">
  <ele>0.000000</ele>
</trkpt>
<trkpt lat="45.650806000" lon="13.022728000">
  <ele>0.000000</ele>
</trkpt>
<trkpt lat="45.650860000" lon="13.022873000">
  <ele>0.000000</ele>
</trkpt>
<trkpt lat="45.651083000" lon="13.023312000">
  <ele>0.000000</ele>
</trkpt>
<trkpt lat="45.651554000" lon="13.024135000">
  <ele>0.000000</ele>
</trkpt>
<trkpt lat="45.652178000" lon="13.025251000">
  <ele>0.000000</ele>
</trkpt>
<trkpt lat="45.652497000" lon="13.025822000">
  <ele>0.000000</ele>
</trkpt>
<trkpt lat="45.652608000" lon="13.026089000">
  <ele>0.000000</ele>
</trkpt>
<trkpt lat="45.652749000" lon="13.026631000">
  <ele>0.000000</ele>
</trkpt>
<trkpt lat="45.652898000" lon="13.027080000">
  <ele>0.000000</ele>
</trkpt>
<trkpt lat="45.653012000" lon="13.027372000">
  <ele>0.000000</ele>
</trkpt>
<trkpt lat="45.653421000" lon="13.028257000">
  <ele>0.000000</ele>
</trkpt>
<trkpt lat="45.653871000" lon="13.029128000">
  <ele>0.000000</ele>
</trkpt>
<trkpt lat="45.654585000" lon="13.030156000">
  <ele>0.000000</ele>
</trkpt>
<trkpt lat="45.654957000" lon="13.030744000">
  <ele>0.000000</ele>
</trkpt>
<trkpt lat="45.655385000" lon="13.031483000">
  <ele>0.000000</ele>
</trkpt>
<trkpt lat="45.655902000" lon="13.032538000">
  <ele>0.000000</ele>
</trkpt>
<trkpt lat="45.656250000" lon="13.033334000">
  <ele>0.000000</ele>
</trkpt>
<trkpt lat="45.657099000" lon="13.035521000">
  <ele>0.000000</ele>
</trkpt>
<trkpt lat="45.658050000" lon="13.038712000">
  <ele>0.000000</ele>
</trkpt>
<trkpt lat="45.658344000" lon="13.039904000">
  <ele>0.000000</ele>
</trkpt>
<trkpt lat="45.658629000" lon="13.042150000">
  <ele>0.000000</ele>
</trkpt>
<trkpt lat="45.659278000" lon="13.050681000">
  <ele>0.000000</ele>
</trkpt>
<trkpt lat="45.659765000" lon="13.057200000">
  <ele>0.000000</ele>
</trkpt>
<trkpt lat="45.659799000" lon="13.057480000">
  <ele>0.000000</ele>
</trkpt>
<trkpt lat="45.659865000" lon="13.057757000">
  <ele>0.000000</ele>
</trkpt>
<trkpt lat="45.659945000" lon="13.057972000">
  <ele>0.000000</ele>
</trkpt>
<trkpt lat="45.660042000" lon="13.058096000">
  <ele>0.000000</ele>
</trkpt>
<trkpt lat="45.660135000" lon="13.058166000">
  <ele>0.000000</ele>
</trkpt>
<trkpt lat="45.660203000" lon="13.058263000">
  <ele>0.000000</ele>
</trkpt>
<trkpt lat="45.660217000" lon="13.058439000">
  <ele>0.000000</ele>
</trkpt>
<trkpt lat="45.660234000" lon="13.058589000">
  <ele>0.000000</ele>
</trkpt>
<trkpt lat="45.660262000" lon="13.058688000">
  <ele>0.000000</ele>
</trkpt>
<trkpt lat="45.660294000" lon="13.058737000">
  <ele>0.000000</ele>
</trkpt>
<trkpt lat="45.660370000" lon="13.058782000">
  <ele>0.000000</ele>
</trkpt>
<trkpt lat="45.660332000" lon="13.058852000">
  <ele>0.000000</ele>
</trkpt>
<trkpt lat="45.660300000" lon="13.058933000">
  <ele>0.000000</ele>
</trkpt>
<trkpt lat="45.660268000" lon="13.058996000">
  <ele>0.000000</ele>
</trkpt>
<trkpt lat="45.660195000" lon="13.059020000">
  <ele>0.000000</ele>
</trkpt>
<trkpt lat="45.660060000" lon="13.059075000">
  <ele>0.000000</ele>
</trkpt>
<trkpt lat="45.659858000" lon="13.059148000">
  <ele>0.000000</ele>
</trkpt>
<trkpt lat="45.659544000" lon="13.059268000">
  <ele>0.000000</ele>
</trkpt>
<trkpt lat="45.659153000" lon="13.059434000">
  <ele>0.000000</ele>
</trkpt>
<trkpt lat="45.658825000" lon="13.059554000">
  <ele>0.000000</ele>
</trkpt>
<trkpt lat="45.658559000" lon="13.059681000">
  <ele>0.000000</ele>
</trkpt>
<trkpt lat="45.658197000" lon="13.059853000">
  <ele>0.000000</ele>
</trkpt>
<trkpt lat="45.657849000" lon="13.060007000">
  <ele>0.000000</ele>
</trkpt>
<trkpt lat="45.657389000" lon="13.060166000">
  <ele>0.000000</ele>
</trkpt>
<trkpt lat="45.657052000" lon="13.060275000">
  <ele>0.000000</ele>
</trkpt>
<trkpt lat="45.656614000" lon="13.060377000">
  <ele>0.000000</ele>
</trkpt>
<trkpt lat="45.656277000" lon="13.060441000">
  <ele>0.000000</ele>
</trkpt>
<trkpt lat="45.655910000" lon="13.060465000">
  <ele>0.000000</ele>
</trkpt>
<trkpt lat="45.655431000" lon="13.060495000">
  <ele>0.000000</ele>
</trkpt>
<trkpt lat="45.654852000" lon="13.060519000">
  <ele>0.000000</ele>
</trkpt>
<trkpt lat="45.654349000" lon="13.060538000">
  <ele>0.000000</ele>
</trkpt>
</trkseg>
</trk>
<trk>
  <name>I3-5</name>
<trkseg>
<trkpt lat="45.624653000" lon="12.958764000">
  <ele>0.000000</ele>
</trkpt>
<trkpt lat="45.624698000" lon="12.958730000">
  <ele>0.000000</ele>
</trkpt>
<trkpt lat="45.632770000" lon="12.952763000">
  <ele>0.000000</ele>
</trkpt>
<trkpt lat="45.633033000" lon="12.952569000">
  <ele>0.000000</ele>
</trkpt>
<trkpt lat="45.636283000" lon="12.950166000">
  <ele>0.000000</ele>
</trkpt>
<trkpt lat="45.638541000" lon="12.948490000">
  <ele>0.000000</ele>
</trkpt>
<trkpt lat="45.639269000" lon="12.947949000">
  <ele>0.000000</ele>
</trkpt>
<trkpt lat="45.640124000" lon="12.947314000">
  <ele>0.000000</ele>
</trkpt>
<trkpt lat="45.640574000" lon="12.947130000">
  <ele>0.000000</ele>
</trkpt>
<trkpt lat="45.641039000" lon="12.947073000">
  <ele>0.000000</ele>
</trkpt>
<trkpt lat="45.642763000" lon="12.947138000">
  <ele>0.000000</ele>
</trkpt>
<trkpt lat="45.644447000" lon="12.947151000">
  <ele>0.000000</ele>
</trkpt>
<trkpt lat="45.644996000" lon="12.947163000">
  <ele>0.000000</ele>
</trkpt>
<trkpt lat="45.649510000" lon="12.947170000">
  <ele>0.000000</ele>
</trkpt>
<trkpt lat="45.649624000" lon="12.947171000">
  <ele>0.000000</ele>
</trkpt>
<trkpt lat="45.659143000" lon="12.947280000">
  <ele>0.000000</ele>
</trkpt>
<trkpt lat="45.659252000" lon="12.947281000">
  <ele>0.000000</ele>
</trkpt>
<trkpt lat="45.663756000" lon="12.947333000">
  <ele>0.000000</ele>
</trkpt>
<trkpt lat="45.671535000" lon="12.947397000">
  <ele>0.000000</ele>
</trkpt>
<trkpt lat="45.671754000" lon="12.947399000">
  <ele>0.000000</ele>
</trkpt>
<trkpt lat="45.684657000" lon="12.947504000">
  <ele>0.000000</ele>
</trkpt>
<trkpt lat="45.685238000" lon="12.947509000">
  <ele>0.000000</ele>
</trkpt>
<trkpt lat="45.685501000" lon="12.947583000">
  <ele>0.000000</ele>
</trkpt>
<trkpt lat="45.685752000" lon="12.947867000">
  <ele>0.000000</ele>
</trkpt>
<trkpt lat="45.685964000" lon="12.948024000">
  <ele>0.000000</ele>
</trkpt>
<trkpt lat="45.686246000" lon="12.948051000">
  <ele>0.000000</ele>
</trkpt>
<trkpt lat="45.697266000" lon="12.947773000">
  <ele>0.000000</ele>
</trkpt>
<trkpt lat="45.697521000" lon="12.947766000">
  <ele>0.000000</ele>
</trkpt>
<trkpt lat="45.701223000" lon="12.949319000">
  <ele>0.000000</ele>
</trkpt>
<trkpt lat="45.703482000" lon="12.950537000">
  <ele>0.000000</ele>
</trkpt>
<trkpt lat="45.704578000" lon="12.951150000">
  <ele>0.000000</ele>
</trkpt>
</trkseg>
</trk>
<trk>
  <name>I3-5</name>
<trkseg>
<trkpt lat="45.704600000" lon="12.867359000">
  <ele>0.000000</ele>
</trkpt>
<trkpt lat="45.704231000" lon="12.867629000">
  <ele>0.000000</ele>
</trkpt>
<trkpt lat="45.704119000" lon="12.867801000">
  <ele>0.000000</ele>
</trkpt>
<trkpt lat="45.704051000" lon="12.868069000">
  <ele>0.000000</ele>
</trkpt>
<trkpt lat="45.703834000" lon="12.869260000">
  <ele>0.000000</ele>
</trkpt>
<trkpt lat="45.703759000" lon="12.869571000">
  <ele>0.000000</ele>
</trkpt>
<trkpt lat="45.703617000" lon="12.869915000">
  <ele>0.000000</ele>
</trkpt>
<trkpt lat="45.703279000" lon="12.870526000">
  <ele>0.000000</ele>
</trkpt>
<trkpt lat="45.702980000" lon="12.871009000">
  <ele>0.000000</ele>
</trkpt>
<trkpt lat="45.702629000" lon="12.871558000">
  <ele>0.000000</ele>
</trkpt>
<trkpt lat="45.702344000" lon="12.871933000">
  <ele>0.000000</ele>
</trkpt>
<trkpt lat="45.702081000" lon="12.872157000">
  <ele>0.000000</ele>
</trkpt>
<trkpt lat="45.701528000" lon="12.872502000">
  <ele>0.000000</ele>
</trkpt>
<trkpt lat="45.700783000" lon="12.872768000">
  <ele>0.000000</ele>
</trkpt>
<trkpt lat="45.701003000" lon="12.874015000">
  <ele>0.000000</ele>
</trkpt>
<trkpt lat="45.701610000" lon="12.875785000">
  <ele>0.000000</ele>
</trkpt>
<trkpt lat="45.702950000" lon="12.879463000">
  <ele>0.000000</ele>
</trkpt>
<trkpt lat="45.703332000" lon="12.880536000">
  <ele>0.000000</ele>
</trkpt>
<trkpt lat="45.703452000" lon="12.881051000">
  <ele>0.000000</ele>
</trkpt>
<trkpt lat="45.703759000" lon="12.882008000">
  <ele>0.000000</ele>
</trkpt>
<trkpt lat="45.703527000" lon="12.882628000">
  <ele>0.000000</ele>
</trkpt>
<trkpt lat="45.701278000" lon="12.888638000">
  <ele>0.000000</ele>
</trkpt>
<trkpt lat="45.700710000" lon="12.890215000">
  <ele>0.000000</ele>
</trkpt>
<trkpt lat="45.698266000" lon="12.898830000">
  <ele>0.000000</ele>
</trkpt>
<trkpt lat="45.698153000" lon="12.899312000">
  <ele>0.000000</ele>
</trkpt>
<trkpt lat="45.698260000" lon="12.902822000">
  <ele>0.000000</ele>
</trkpt>
<trkpt lat="45.698243000" lon="12.903099000">
  <ele>0.000000</ele>
</trkpt>
<trkpt lat="45.697988000" lon="12.905021000">
  <ele>0.000000</ele>
</trkpt>
<trkpt lat="45.697965000" lon="12.905600000">
  <ele>0.000000</ele>
</trkpt>
<trkpt lat="45.698041000" lon="12.906190000">
  <ele>0.000000</ele>
</trkpt>
<trkpt lat="45.698670000" lon="12.909624000">
  <ele>0.000000</ele>
</trkpt>
<trkpt lat="45.699239000" lon="12.911383000">
  <ele>0.000000</ele>
</trkpt>
<trkpt lat="45.699576000" lon="12.912102000">
  <ele>0.000000</ele>
</trkpt>
<trkpt lat="45.699849000" lon="12.912679000">
  <ele>0.000000</ele>
</trkpt>
<trkpt lat="45.699966000" lon="12.913072000">
  <ele>0.000000</ele>
</trkpt>
<trkpt lat="45.700152000" lon="12.913530000">
  <ele>0.000000</ele>
</trkpt>
<trkpt lat="45.700259000" lon="12.913903000">
  <ele>0.000000</ele>
</trkpt>
<trkpt lat="45.700287000" lon="12.914430000">
  <ele>0.000000</ele>
</trkpt>
<trkpt lat="45.700345000" lon="12.916297000">
  <ele>0.000000</ele>
</trkpt>
<trkpt lat="45.700458000" lon="12.917348000">
  <ele>0.000000</ele>
</trkpt>
<trkpt lat="45.700603000" lon="12.918110000">
  <ele>0.000000</ele>
</trkpt>
<trkpt lat="45.699201000" lon="12.919805000">
  <ele>0.000000</ele>
</trkpt>
<trkpt lat="45.699019000" lon="12.920087000">
  <ele>0.000000</ele>
</trkpt>
<trkpt lat="45.698794000" lon="12.920312000">
  <ele>0.000000</ele>
</trkpt>
<trkpt lat="45.698558000" lon="12.920418000">
  <ele>0.000000</ele>
</trkpt>
<trkpt lat="45.698370000" lon="12.920528000">
  <ele>0.000000</ele>
</trkpt>
<trkpt lat="45.698167000" lon="12.920720000">
  <ele>0.000000</ele>
</trkpt>
<trkpt lat="45.697927000" lon="12.921071000">
  <ele>0.000000</ele>
</trkpt>
<trkpt lat="45.697164000" lon="12.921831000">
  <ele>0.000000</ele>
</trkpt>
<trkpt lat="45.697220000" lon="12.922048000">
  <ele>0.000000</ele>
</trkpt>
<trkpt lat="45.700515000" lon="12.929759000">
  <ele>0.000000</ele>
</trkpt>
<trkpt lat="45.701414000" lon="12.931948000">
  <ele>0.000000</ele>
</trkpt>
<trkpt lat="45.702658000" lon="12.934866000">
  <ele>0.000000</ele>
</trkpt>
<trkpt lat="45.702945000" lon="12.935536000">
  <ele>0.000000</ele>
</trkpt>
<trkpt lat="45.703782000" lon="12.937484000">
  <ele>0.000000</ele>
</trkpt>
<trkpt lat="45.704953000" lon="12.940258000">
  <ele>0.000000</ele>
</trkpt>
<trkpt lat="45.704924000" lon="12.941769000">
  <ele>0.000000</ele>
</trkpt>
<trkpt lat="45.704875000" lon="12.942968000">
  <ele>0.000000</ele>
</trkpt>
<trkpt lat="45.704834000" lon="12.944366000">
  <ele>0.000000</ele>
</trkpt>
<trkpt lat="45.704781000" lon="12.944570000">
  <ele>0.000000</ele>
</trkpt>
<trkpt lat="45.704714000" lon="12.944763000">
  <ele>0.000000</ele>
</trkpt>
<trkpt lat="45.704662000" lon="12.945009000">
  <ele>0.000000</ele>
</trkpt>
<trkpt lat="45.704659000" lon="12.945274000">
  <ele>0.000000</ele>
</trkpt>
<trkpt lat="45.704662000" lon="12.946887000">
  <ele>0.000000</ele>
</trkpt>
<trkpt lat="45.704662000" lon="12.947756000">
  <ele>0.000000</ele>
</trkpt>
<trkpt lat="45.704692000" lon="12.948153000">
  <ele>0.000000</ele>
</trkpt>
<trkpt lat="45.704706000" lon="12.948647000">
  <ele>0.000000</ele>
</trkpt>
<trkpt lat="45.704684000" lon="12.949569000">
  <ele>0.000000</ele>
</trkpt>
<trkpt lat="45.704677000" lon="12.949759000">
  <ele>0.000000</ele>
</trkpt>
<trkpt lat="45.704654000" lon="12.950363000">
  <ele>0.000000</ele>
</trkpt>
<trkpt lat="45.704636000" lon="12.950549000">
  <ele>0.000000</ele>
</trkpt>
<trkpt lat="45.704578000" lon="12.951150000">
  <ele>0.000000</ele>
</trkpt>
</trkseg>
</trk>
<trk>
  <name>I3-5</name>
<trkseg>
<trkpt lat="45.763340000" lon="12.843758000">
  <ele>0.000000</ele>
</trkpt>
<trkpt lat="45.763348000" lon="12.844041000">
  <ele>0.000000</ele>
</trkpt>
<trkpt lat="45.763316000" lon="12.844637000">
  <ele>0.000000</ele>
</trkpt>
<trkpt lat="45.763309000" lon="12.845238000">
  <ele>0.000000</ele>
</trkpt>
<trkpt lat="45.763227000" lon="12.845635000">
  <ele>0.000000</ele>
</trkpt>
<trkpt lat="45.763137000" lon="12.846064000">
  <ele>0.000000</ele>
</trkpt>
<trkpt lat="45.763137000" lon="12.846568000">
  <ele>0.000000</ele>
</trkpt>
<trkpt lat="45.763159000" lon="12.846890000">
  <ele>0.000000</ele>
</trkpt>
<trkpt lat="45.763212000" lon="12.847073000">
  <ele>0.000000</ele>
</trkpt>
<trkpt lat="45.763279000" lon="12.847277000">
  <ele>0.000000</ele>
</trkpt>
<trkpt lat="45.763249000" lon="12.847513000">
  <ele>0.000000</ele>
</trkpt>
<trkpt lat="45.763167000" lon="12.847706000">
  <ele>0.000000</ele>
</trkpt>
<trkpt lat="45.762980000" lon="12.847920000">
  <ele>0.000000</ele>
</trkpt>
<trkpt lat="45.762658000" lon="12.848210000">
  <ele>0.000000</ele>
</trkpt>
<trkpt lat="45.762381000" lon="12.848478000">
  <ele>0.000000</ele>
</trkpt>
<trkpt lat="45.762235000" lon="12.848603000">
  <ele>0.000000</ele>
</trkpt>
<trkpt lat="45.762029000" lon="12.848779000">
  <ele>0.000000</ele>
</trkpt>
<trkpt lat="45.761617000" lon="12.849025000">
  <ele>0.000000</ele>
</trkpt>
<trkpt lat="45.761123000" lon="12.849165000">
  <ele>0.000000</ele>
</trkpt>
<trkpt lat="45.761034000" lon="12.849133000">
  <ele>0.000000</ele>
</trkpt>
<trkpt lat="45.760966000" lon="12.848972000">
  <ele>0.000000</ele>
</trkpt>
<trkpt lat="45.760278000" lon="12.849068000">
  <ele>0.000000</ele>
</trkpt>
<trkpt lat="45.759926000" lon="12.849090000">
  <ele>0.000000</ele>
</trkpt>
<trkpt lat="45.759664000" lon="12.849036000">
  <ele>0.000000</ele>
</trkpt>
<trkpt lat="45.759170000" lon="12.848897000">
  <ele>0.000000</ele>
</trkpt>
<trkpt lat="45.758676000" lon="12.848789000">
  <ele>0.000000</ele>
</trkpt>
<trkpt lat="45.758384000" lon="12.848746000">
  <ele>0.000000</ele>
</trkpt>
<trkpt lat="45.757269000" lon="12.847877000">
  <ele>0.000000</ele>
</trkpt>
<trkpt lat="45.757016000" lon="12.847654000">
  <ele>0.000000</ele>
</trkpt>
<trkpt lat="45.756685000" lon="12.847362000">
  <ele>0.000000</ele>
</trkpt>
<trkpt lat="45.756314000" lon="12.846624000">
  <ele>0.000000</ele>
</trkpt>
<trkpt lat="45.756289000" lon="12.846095000">
  <ele>0.000000</ele>
</trkpt>
<trkpt lat="45.756326000" lon="12.845775000">
  <ele>0.000000</ele>
</trkpt>
<trkpt lat="45.756546000" lon="12.844790000">
  <ele>0.000000</ele>
</trkpt>
<trkpt lat="45.756513000" lon="12.844730000">
  <ele>0.000000</ele>
</trkpt>
<trkpt lat="45.756486000" lon="12.844631000">
  <ele>0.000000</ele>
</trkpt>
<trkpt lat="45.756481000" lon="12.844608000">
  <ele>0.000000</ele>
</trkpt>
<trkpt lat="45.756448000" lon="12.844583000">
  <ele>0.000000</ele>
</trkpt>
<trkpt lat="45.756399000" lon="12.844539000">
  <ele>0.000000</ele>
</trkpt>
<trkpt lat="45.756329000" lon="12.844460000">
  <ele>0.000000</ele>
</trkpt>
<trkpt lat="45.756263000" lon="12.844402000">
  <ele>0.000000</ele>
</trkpt>
<trkpt lat="45.756167000" lon="12.844345000">
  <ele>0.000000</ele>
</trkpt>
<trkpt lat="45.756057000" lon="12.844296000">
  <ele>0.000000</ele>
</trkpt>
<trkpt lat="45.755886000" lon="12.844239000">
  <ele>0.000000</ele>
</trkpt>
<trkpt lat="45.755730000" lon="12.844192000">
  <ele>0.000000</ele>
</trkpt>
<trkpt lat="45.755618000" lon="12.844189000">
  <ele>0.000000</ele>
</trkpt>
<trkpt lat="45.755495000" lon="12.844206000">
  <ele>0.000000</ele>
</trkpt>
<trkpt lat="45.755383000" lon="12.844249000">
  <ele>0.000000</ele>
</trkpt>
<trkpt lat="45.755234000" lon="12.844342000">
  <ele>0.000000</ele>
</trkpt>
<trkpt lat="45.755066000" lon="12.844475000">
  <ele>0.000000</ele>
</trkpt>
<trkpt lat="45.754912000" lon="12.844655000">
  <ele>0.000000</ele>
</trkpt>
<trkpt lat="45.754804000" lon="12.844827000">
  <ele>0.000000</ele>
</trkpt>
<trkpt lat="45.754686000" lon="12.845020000">
  <ele>0.000000</ele>
</trkpt>
<trkpt lat="45.754584000" lon="12.845217000">
  <ele>0.000000</ele>
</trkpt>
<trkpt lat="45.754513000" lon="12.845366000">
  <ele>0.000000</ele>
</trkpt>
<trkpt lat="45.754437000" lon="12.845568000">
  <ele>0.000000</ele>
</trkpt>
<trkpt lat="45.754370000" lon="12.845744000">
  <ele>0.000000</ele>
</trkpt>
<trkpt lat="45.754319000" lon="12.845942000">
  <ele>0.000000</ele>
</trkpt>
<trkpt lat="45.754286000" lon="12.846068000">
  <ele>0.000000</ele>
</trkpt>
<trkpt lat="45.754267000" lon="12.846151000">
  <ele>0.000000</ele>
</trkpt>
<trkpt lat="45.754248000" lon="12.846211000">
  <ele>0.000000</ele>
</trkpt>
<trkpt lat="45.754115000" lon="12.846124000">
  <ele>0.000000</ele>
</trkpt>
<trkpt lat="45.753915000" lon="12.846016000">
  <ele>0.000000</ele>
</trkpt>
<trkpt lat="45.753691000" lon="12.845924000">
  <ele>0.000000</ele>
</trkpt>
<trkpt lat="45.753449000" lon="12.845845000">
  <ele>0.000000</ele>
</trkpt>
<trkpt lat="45.753275000" lon="12.845817000">
  <ele>0.000000</ele>
</trkpt>
<trkpt lat="45.752305000" lon="12.845661000">
  <ele>0.000000</ele>
</trkpt>
<trkpt lat="45.750533000" lon="12.845418000">
  <ele>0.000000</ele>
</trkpt>
<trkpt lat="45.750442000" lon="12.845410000">
  <ele>0.000000</ele>
</trkpt>
<trkpt lat="45.750241000" lon="12.845391000">
  <ele>0.000000</ele>
</trkpt>
<trkpt lat="45.749957000" lon="12.845397000">
  <ele>0.000000</ele>
</trkpt>
<trkpt lat="45.748785000" lon="12.845507000">
  <ele>0.000000</ele>
</trkpt>
<trkpt lat="45.748508000" lon="12.845479000">
  <ele>0.000000</ele>
</trkpt>
<trkpt lat="45.748240000" lon="12.845384000">
  <ele>0.000000</ele>
</trkpt>
<trkpt lat="45.748006000" lon="12.845301000">
  <ele>0.000000</ele>
</trkpt>
<trkpt lat="45.747761000" lon="12.845279000">
  <ele>0.000000</ele>
</trkpt>
<trkpt lat="45.747481000" lon="12.845305000">
  <ele>0.000000</ele>
</trkpt>
<trkpt lat="45.746937000" lon="12.845495000">
  <ele>0.000000</ele>
</trkpt>
<trkpt lat="45.746390000" lon="12.845669000">
  <ele>0.000000</ele>
</trkpt>
<trkpt lat="45.745851000" lon="12.845768000">
  <ele>0.000000</ele>
</trkpt>
<trkpt lat="45.745326000" lon="12.845871000">
  <ele>0.000000</ele>
</trkpt>
<trkpt lat="45.744813000" lon="12.845956000">
  <ele>0.000000</ele>
</trkpt>
<trkpt lat="45.744633000" lon="12.845962000">
  <ele>0.000000</ele>
</trkpt>
<trkpt lat="45.743930000" lon="12.845986000">
  <ele>0.000000</ele>
</trkpt>
<trkpt lat="45.743680000" lon="12.846049000">
  <ele>0.000000</ele>
</trkpt>
<trkpt lat="45.743450000" lon="12.846199000">
  <ele>0.000000</ele>
</trkpt>
<trkpt lat="45.742177000" lon="12.847611000">
  <ele>0.000000</ele>
</trkpt>
<trkpt lat="45.741961000" lon="12.847837000">
  <ele>0.000000</ele>
</trkpt>
<trkpt lat="45.741739000" lon="12.848042000">
  <ele>0.000000</ele>
</trkpt>
<trkpt lat="45.741488000" lon="12.848202000">
  <ele>0.000000</ele>
</trkpt>
<trkpt lat="45.741216000" lon="12.848329000">
  <ele>0.000000</ele>
</trkpt>
<trkpt lat="45.740931000" lon="12.848429000">
  <ele>0.000000</ele>
</trkpt>
<trkpt lat="45.740641000" lon="12.848509000">
  <ele>0.000000</ele>
</trkpt>
<trkpt lat="45.740346000" lon="12.848547000">
  <ele>0.000000</ele>
</trkpt>
<trkpt lat="45.740046000" lon="12.848529000">
  <ele>0.000000</ele>
</trkpt>
<trkpt lat="45.738549000" lon="12.848239000">
  <ele>0.000000</ele>
</trkpt>
<trkpt lat="45.738260000" lon="12.848175000">
  <ele>0.000000</ele>
</trkpt>
<trkpt lat="45.737993000" lon="12.848061000">
  <ele>0.000000</ele>
</trkpt>
<trkpt lat="45.737242000" lon="12.847511000">
  <ele>0.000000</ele>
</trkpt>
<trkpt lat="45.736971000" lon="12.847361000">
  <ele>0.000000</ele>
</trkpt>
<trkpt lat="45.736683000" lon="12.847299000">
  <ele>0.000000</ele>
</trkpt>
<trkpt lat="45.735814000" lon="12.847233000">
  <ele>0.000000</ele>
</trkpt>
<trkpt lat="45.735526000" lon="12.847209000">
  <ele>0.000000</ele>
</trkpt>
<trkpt lat="45.735394000" lon="12.847222000">
  <ele>0.000000</ele>
</trkpt>
<trkpt lat="45.735238000" lon="12.847236000">
  <ele>0.000000</ele>
</trkpt>
<trkpt lat="45.734959000" lon="12.847292000">
  <ele>0.000000</ele>
</trkpt>
<trkpt lat="45.734690000" lon="12.847382000">
  <ele>0.000000</ele>
</trkpt>
<trkpt lat="45.734421000" lon="12.847438000">
  <ele>0.000000</ele>
</trkpt>
<trkpt lat="45.734157000" lon="12.847450000">
  <ele>0.000000</ele>
</trkpt>
<trkpt lat="45.733895000" lon="12.847453000">
  <ele>0.000000</ele>
</trkpt>
<trkpt lat="45.733638000" lon="12.847511000">
  <ele>0.000000</ele>
</trkpt>
<trkpt lat="45.733403000" lon="12.847650000">
  <ele>0.000000</ele>
</trkpt>
<trkpt lat="45.732023000" lon="12.848633000">
  <ele>0.000000</ele>
</trkpt>
<trkpt lat="45.731885000" lon="12.848769000">
  <ele>0.000000</ele>
</trkpt>
<trkpt lat="45.731795000" lon="12.849032000">
  <ele>0.000000</ele>
</trkpt>
<trkpt lat="45.731777000" lon="12.849377000">
  <ele>0.000000</ele>
</trkpt>
<trkpt lat="45.731738000" lon="12.849687000">
  <ele>0.000000</ele>
</trkpt>
<trkpt lat="45.731628000" lon="12.849950000">
  <ele>0.000000</ele>
</trkpt>
<trkpt lat="45.731446000" lon="12.850177000">
  <ele>0.000000</ele>
</trkpt>
<trkpt lat="45.730409000" lon="12.851078000">
  <ele>0.000000</ele>
</trkpt>
<trkpt lat="45.730157000" lon="12.851317000">
  <ele>0.000000</ele>
</trkpt>
<trkpt lat="45.729934000" lon="12.851567000">
  <ele>0.000000</ele>
</trkpt>
<trkpt lat="45.729734000" lon="12.851824000">
  <ele>0.000000</ele>
</trkpt>
<trkpt lat="45.729552000" lon="12.852115000">
  <ele>0.000000</ele>
</trkpt>
<trkpt lat="45.728638000" lon="12.853770000">
  <ele>0.000000</ele>
</trkpt>
<trkpt lat="45.728479000" lon="12.854113000">
  <ele>0.000000</ele>
</trkpt>
<trkpt lat="45.728344000" lon="12.854530000">
  <ele>0.000000</ele>
</trkpt>
<trkpt lat="45.728257000" lon="12.854979000">
  <ele>0.000000</ele>
</trkpt>
<trkpt lat="45.727954000" lon="12.856732000">
  <ele>0.000000</ele>
</trkpt>
<trkpt lat="45.727837000" lon="12.857099000">
  <ele>0.000000</ele>
</trkpt>
<trkpt lat="45.727670000" lon="12.857425000">
  <ele>0.000000</ele>
</trkpt>
<trkpt lat="45.727449000" lon="12.857721000">
  <ele>0.000000</ele>
</trkpt>
<trkpt lat="45.727209000" lon="12.857934000">
  <ele>0.000000</ele>
</trkpt>
<trkpt lat="45.725646000" lon="12.858894000">
  <ele>0.000000</ele>
</trkpt>
<trkpt lat="45.725324000" lon="12.859074000">
  <ele>0.000000</ele>
</trkpt>
<trkpt lat="45.724999000" lon="12.859228000">
  <ele>0.000000</ele>
</trkpt>
<trkpt lat="45.724676000" lon="12.859345000">
  <ele>0.000000</ele>
</trkpt>
<trkpt lat="45.724346000" lon="12.859438000">
  <ele>0.000000</ele>
</trkpt>
<trkpt lat="45.724204000" lon="12.859471000">
  <ele>0.000000</ele>
</trkpt>
<trkpt lat="45.723991000" lon="12.859520000">
  <ele>0.000000</ele>
</trkpt>
<trkpt lat="45.723245000" lon="12.859597000">
  <ele>0.000000</ele>
</trkpt>
<trkpt lat="45.722868000" lon="12.859662000">
  <ele>0.000000</ele>
</trkpt>
<trkpt lat="45.722497000" lon="12.859781000">
  <ele>0.000000</ele>
</trkpt>
<trkpt lat="45.705252000" lon="12.867026000">
  <ele>0.000000</ele>
</trkpt>
<trkpt lat="45.704600000" lon="12.867359000">
  <ele>0.000000</ele>
</trkpt>
</trkseg>
</trk>
<trk>
  <name>I3-5</name>
<trkseg>
<trkpt lat="45.763340000" lon="12.843758000">
  <ele>0.000000</ele>
</trkpt>
<trkpt lat="45.763328000" lon="12.843562000">
  <ele>0.000000</ele>
</trkpt>
</trkseg>
</trk>
<trk>
  <name>I3-5</name>
<trkseg>
<trkpt lat="45.780071000" lon="12.836095000">
  <ele>0.000000</ele>
</trkpt>
<trkpt lat="45.780030000" lon="12.836224000">
  <ele>0.000000</ele>
</trkpt>
<trkpt lat="45.779813000" lon="12.836444000">
  <ele>0.000000</ele>
</trkpt>
<trkpt lat="45.779384000" lon="12.836603000">
  <ele>0.000000</ele>
</trkpt>
<trkpt lat="45.778857000" lon="12.836682000">
  <ele>0.000000</ele>
</trkpt>
<trkpt lat="45.778543000" lon="12.836660000">
  <ele>0.000000</ele>
</trkpt>
<trkpt lat="45.778241000" lon="12.836693000">
  <ele>0.000000</ele>
</trkpt>
<trkpt lat="45.778023000" lon="12.836697000">
  <ele>0.000000</ele>
</trkpt>
<trkpt lat="45.777674000" lon="12.836718000">
  <ele>0.000000</ele>
</trkpt>
<trkpt lat="45.777319000" lon="12.836832000">
  <ele>0.000000</ele>
</trkpt>
<trkpt lat="45.777023000" lon="12.836733000">
  <ele>0.000000</ele>
</trkpt>
<trkpt lat="45.776819000" lon="12.836613000">
  <ele>0.000000</ele>
</trkpt>
<trkpt lat="45.776648000" lon="12.836400000">
  <ele>0.000000</ele>
</trkpt>
<trkpt lat="45.776486000" lon="12.836228000">
  <ele>0.000000</ele>
</trkpt>
<trkpt lat="45.776309000" lon="12.836072000">
  <ele>0.000000</ele>
</trkpt>
<trkpt lat="45.776309000" lon="12.835915000">
  <ele>0.000000</ele>
</trkpt>
<trkpt lat="45.775804000" lon="12.835561000">
  <ele>0.000000</ele>
</trkpt>
<trkpt lat="45.775439000" lon="12.835384000">
  <ele>0.000000</ele>
</trkpt>
<trkpt lat="45.775111000" lon="12.835259000">
  <ele>0.000000</ele>
</trkpt>
<trkpt lat="45.774637000" lon="12.835468000">
  <ele>0.000000</ele>
</trkpt>
<trkpt lat="45.774373000" lon="12.835676000">
  <ele>0.000000</ele>
</trkpt>
<trkpt lat="45.774340000" lon="12.835702000">
  <ele>0.000000</ele>
</trkpt>
<trkpt lat="45.773924000" lon="12.836046000">
  <ele>0.000000</ele>
</trkpt>
<trkpt lat="45.773627000" lon="12.836410000">
  <ele>0.000000</ele>
</trkpt>
<trkpt lat="45.773387000" lon="12.836806000">
  <ele>0.000000</ele>
</trkpt>
<trkpt lat="45.773147000" lon="12.837353000">
  <ele>0.000000</ele>
</trkpt>
<trkpt lat="45.773023000" lon="12.837577000">
  <ele>0.000000</ele>
</trkpt>
<trkpt lat="45.772918000" lon="12.837767000">
  <ele>0.000000</ele>
</trkpt>
<trkpt lat="45.772772000" lon="12.838040000">
  <ele>0.000000</ele>
</trkpt>
<trkpt lat="45.772556000" lon="12.838289000">
  <ele>0.000000</ele>
</trkpt>
<trkpt lat="45.772574000" lon="12.838360000">
  <ele>0.000000</ele>
</trkpt>
<trkpt lat="45.772538000" lon="12.838420000">
  <ele>0.000000</ele>
</trkpt>
<trkpt lat="45.772625000" lon="12.838551000">
  <ele>0.000000</ele>
</trkpt>
<trkpt lat="45.772816000" lon="12.838938000">
  <ele>0.000000</ele>
</trkpt>
<trkpt lat="45.772885000" lon="12.839080000">
  <ele>0.000000</ele>
</trkpt>
<trkpt lat="45.772994000" lon="12.839305000">
  <ele>0.000000</ele>
</trkpt>
<trkpt lat="45.773054000" lon="12.839431000">
  <ele>0.000000</ele>
</trkpt>
<trkpt lat="45.773203000" lon="12.839770000">
  <ele>0.000000</ele>
</trkpt>
<trkpt lat="45.773286000" lon="12.839961000">
  <ele>0.000000</ele>
</trkpt>
<trkpt lat="45.773220000" lon="12.840078000">
  <ele>0.000000</ele>
</trkpt>
<trkpt lat="45.772899000" lon="12.840144000">
  <ele>0.000000</ele>
</trkpt>
<trkpt lat="45.772418000" lon="12.840168000">
  <ele>0.000000</ele>
</trkpt>
<trkpt lat="45.772028000" lon="12.840275000">
  <ele>0.000000</ele>
</trkpt>
<trkpt lat="45.771803000" lon="12.840339000">
  <ele>0.000000</ele>
</trkpt>
<trkpt lat="45.771634000" lon="12.840393000">
  <ele>0.000000</ele>
</trkpt>
<trkpt lat="45.771625000" lon="12.840000000">
  <ele>0.000000</ele>
</trkpt>
<trkpt lat="45.771572000" lon="12.839875000">
  <ele>0.000000</ele>
</trkpt>
<trkpt lat="45.771243000" lon="12.839626000">
  <ele>0.000000</ele>
</trkpt>
<trkpt lat="45.770479000" lon="12.839048000">
  <ele>0.000000</ele>
</trkpt>
<trkpt lat="45.770008000" lon="12.838651000">
  <ele>0.000000</ele>
</trkpt>
<trkpt lat="45.769536000" lon="12.838308000">
  <ele>0.000000</ele>
</trkpt>
<trkpt lat="45.768983000" lon="12.838147000">
  <ele>0.000000</ele>
</trkpt>
<trkpt lat="45.768466000" lon="12.838115000">
  <ele>0.000000</ele>
</trkpt>
<trkpt lat="45.768114000" lon="12.838169000">
  <ele>0.000000</ele>
</trkpt>
<trkpt lat="45.767972000" lon="12.838469000">
  <ele>0.000000</ele>
</trkpt>
<trkpt lat="45.767860000" lon="12.838834000">
  <ele>0.000000</ele>
</trkpt>
<trkpt lat="45.767695000" lon="12.839317000">
  <ele>0.000000</ele>
</trkpt>
<trkpt lat="45.767460000" lon="12.839524000">
  <ele>0.000000</ele>
</trkpt>
<trkpt lat="45.767059000" lon="12.839617000">
  <ele>0.000000</ele>
</trkpt>
<trkpt lat="45.766704000" lon="12.839771000">
  <ele>0.000000</ele>
</trkpt>
<trkpt lat="45.766124000" lon="12.839928000">
  <ele>0.000000</ele>
</trkpt>
<trkpt lat="45.765356000" lon="12.840168000">
  <ele>0.000000</ele>
</trkpt>
<trkpt lat="45.765136000" lon="12.840432000">
  <ele>0.000000</ele>
</trkpt>
<trkpt lat="45.764956000" lon="12.840818000">
  <ele>0.000000</ele>
</trkpt>
<trkpt lat="45.764746000" lon="12.841280000">
  <ele>0.000000</ele>
</trkpt>
<trkpt lat="45.764320000" lon="12.841666000">
  <ele>0.000000</ele>
</trkpt>
<trkpt lat="45.764117000" lon="12.841901000">
  <ele>0.000000</ele>
</trkpt>
<trkpt lat="45.763931000" lon="12.842621000">
  <ele>0.000000</ele>
</trkpt>
<trkpt lat="45.763796000" lon="12.843468000">
  <ele>0.000000</ele>
</trkpt>
<trkpt lat="45.763773000" lon="12.843747000">
  <ele>0.000000</ele>
</trkpt>
<trkpt lat="45.763470000" lon="12.843762000">
  <ele>0.000000</ele>
</trkpt>
<trkpt lat="45.763340000" lon="12.843758000">
  <ele>0.000000</ele>
</trkpt>
</trkseg>
</trk>
<trk>
  <name>I3-5</name>
<trkseg>
<trkpt lat="45.781960000" lon="12.834433000">
  <ele>0.000000</ele>
</trkpt>
<trkpt lat="45.782227000" lon="12.834690000">
  <ele>0.000000</ele>
</trkpt>
<trkpt lat="45.782293000" lon="12.834837000">
  <ele>0.000000</ele>
</trkpt>
<trkpt lat="45.782281000" lon="12.835112000">
  <ele>0.000000</ele>
</trkpt>
<trkpt lat="45.781968000" lon="12.836032000">
  <ele>0.000000</ele>
</trkpt>
<trkpt lat="45.781920000" lon="12.836158000">
  <ele>0.000000</ele>
</trkpt>
<trkpt lat="45.781846000" lon="12.836140000">
  <ele>0.000000</ele>
</trkpt>
<trkpt lat="45.780745000" lon="12.836016000">
  <ele>0.000000</ele>
</trkpt>
<trkpt lat="45.780594000" lon="12.836007000">
  <ele>0.000000</ele>
</trkpt>
<trkpt lat="45.780389000" lon="12.835946000">
  <ele>0.000000</ele>
</trkpt>
<trkpt lat="45.780258000" lon="12.836107000">
  <ele>0.000000</ele>
</trkpt>
<trkpt lat="45.780071000" lon="12.836095000">
  <ele>0.000000</ele>
</trkpt>
</trkseg>
</trk>
<trk>
  <name>I3-5</name>
<trkseg>
<trkpt lat="45.781960000" lon="12.834433000">
  <ele>0.000000</ele>
</trkpt>
<trkpt lat="45.781447000" lon="12.834932000">
  <ele>0.000000</ele>
</trkpt>
<trkpt lat="45.780977000" lon="12.835379000">
  <ele>0.000000</ele>
</trkpt>
<trkpt lat="45.780856000" lon="12.835462000">
  <ele>0.000000</ele>
</trkpt>
<trkpt lat="45.780739000" lon="12.835470000">
  <ele>0.000000</ele>
</trkpt>
<trkpt lat="45.780554000" lon="12.835470000">
  <ele>0.000000</ele>
</trkpt>
<trkpt lat="45.780420000" lon="12.835421000">
  <ele>0.000000</ele>
</trkpt>
<trkpt lat="45.780332000" lon="12.835306000">
  <ele>0.000000</ele>
</trkpt>
<trkpt lat="45.780187000" lon="12.835303000">
  <ele>0.000000</ele>
</trkpt>
<trkpt lat="45.780093000" lon="12.835398000">
  <ele>0.000000</ele>
</trkpt>
<trkpt lat="45.780004000" lon="12.835426000">
  <ele>0.000000</ele>
</trkpt>
<trkpt lat="45.779887000" lon="12.835528000">
  <ele>0.000000</ele>
</trkpt>
<trkpt lat="45.779846000" lon="12.835647000">
  <ele>0.000000</ele>
</trkpt>
<trkpt lat="45.779856000" lon="12.835766000">
  <ele>0.000000</ele>
</trkpt>
<trkpt lat="45.779926000" lon="12.835935000">
  <ele>0.000000</ele>
</trkpt>
<trkpt lat="45.780071000" lon="12.836095000">
  <ele>0.000000</ele>
</trkpt>
</trkseg>
</trk>
<trk>
  <name>I3-5</name>
<trkseg>
<trkpt lat="45.780916000" lon="12.831852000">
  <ele>0.000000</ele>
</trkpt>
<trkpt lat="45.781015000" lon="12.832073000">
  <ele>0.000000</ele>
</trkpt>
<trkpt lat="45.781960000" lon="12.834433000">
  <ele>0.000000</ele>
</trkpt>
</trkseg>
</trk>
</gpx>
